GFORTRAN module version '10' created from C_Interfaces_Fortran.F90
MD5:8033941b91d23fa59a97ef0e082cd951 -- If you edit this, you'll get what you deserve.

(() () () () () () () () () () () () () () () () () () () () () () ()
() () () ())

()

()

()

()

()

(2 'compare_pointers' 'c_interfaces' 'compare_pointers' 1 ((PROCEDURE
UNKNOWN-INTENT MODULE-PROC BODY UNKNOWN 0 0 EXTERNAL FUNCTION IS_BIND_C
IS_C_INTEROP) (LOGICAL 1 0 1 0 LOGICAL ()) 3 0 (4 5) () 6 () () () 0 0)
7 'get_environment_variable' 'c_interfaces' '' 1 ((PROCEDURE
UNKNOWN-INTENT MODULE-PROC DECL UNKNOWN 0 0 SUBROUTINE ALWAYS_EXPLICIT)
(UNKNOWN 0 0 0 0 UNKNOWN ()) 8 0 (9 10 11 12) () 0 () () () 0 0)
13 'memcpy' 'c_interfaces' '' 1 ((PROCEDURE UNKNOWN-INTENT MODULE-PROC
BODY UNKNOWN 0 0 EXTERNAL SUBROUTINE) (UNKNOWN 0 0 0 0 UNKNOWN ()) 14 0
(15 16 17) () 0 () () () 0 0)
4 'ptr1' '' '' 3 ((VARIABLE IN UNKNOWN-PROC UNKNOWN UNKNOWN 0 0 VALUE
DUMMY) (DERIVED 18 0 0 0 DERIVED ()) 0 0 () () 0 () () () 0 0)
5 'ptr2' '' '' 3 ((VARIABLE IN UNKNOWN-PROC UNKNOWN UNKNOWN 0 0 VALUE
DUMMY) (DERIVED 18 0 0 0 DERIVED ()) 0 0 () () 0 () () () 0 0)
6 'cmp' '' '' 3 ((VARIABLE UNKNOWN-INTENT UNKNOWN-PROC UNKNOWN UNKNOWN 0
0 RESULT) (LOGICAL 1 0 1 0 LOGICAL ()) 0 0 () () 0 () () () 0 0)
9 'name' '' '' 8 ((VARIABLE IN UNKNOWN-PROC UNKNOWN UNKNOWN 0 0 DUMMY) (
CHARACTER 1 0 0 0 CHARACTER (())) 0 0 () () 0 () () () 0 0)
10 'val' '' '' 8 ((VARIABLE OUT UNKNOWN-PROC UNKNOWN UNKNOWN 0 0 DUMMY)
(CHARACTER 1 0 0 0 CHARACTER (())) 0 0 () () 0 () () () 0 0)
11 'stat' '' '' 8 ((VARIABLE OUT UNKNOWN-PROC UNKNOWN UNKNOWN 0 0
OPTIONAL DUMMY) (INTEGER 4 0 0 0 INTEGER ()) 0 0 () () 0 () () () 0 0)
12 'default' '' '' 8 ((VARIABLE IN UNKNOWN-PROC UNKNOWN UNKNOWN 0 0
OPTIONAL DUMMY) (CHARACTER 1 0 0 0 CHARACTER (())) 0 0 () () 0 () () ()
0 0)
15 'dest' '' '' 14 ((VARIABLE OUT UNKNOWN-PROC UNKNOWN UNKNOWN 0 0
DIMENSION DUMMY) (REAL 8 0 0 0 REAL ()) 0 0 () (1 0 ASSUMED_SIZE (
CONSTANT (INTEGER 4 0 0 0 INTEGER ()) 0 '1') ()) 0 () () () 0 0)
16 'src' '' '' 14 ((VARIABLE IN UNKNOWN-PROC UNKNOWN UNKNOWN 0 0
DIMENSION DUMMY) (INTEGER 4 0 0 0 INTEGER ()) 0 0 () (1 0 ASSUMED_SIZE (
CONSTANT (INTEGER 4 0 0 0 INTEGER ()) 0 '1') ()) 0 () () () 0 0)
17 'bytes' '' '' 14 ((VARIABLE IN UNKNOWN-PROC UNKNOWN UNKNOWN 0 0 DUMMY)
(INTEGER 4 0 0 0 INTEGER ()) 0 0 () () 0 () () () 0 0)
18 'C_ptr' '__iso_c_binding' '' 3 ((DERIVED UNKNOWN-INTENT UNKNOWN-PROC
UNKNOWN UNKNOWN 0 0 IS_BIND_C IS_C_INTEROP IS_ISO_C) (DERIVED 18 0 1 1
UNKNOWN ()) 0 0 () () 0 ((19 '__c_ptr_c_address' (INTEGER 8 0 1 0
INTEGER ()) () (UNKNOWN-FL UNKNOWN-INTENT UNKNOWN-PROC UNKNOWN UNKNOWN 0
0) UNKNOWN-ACCESS ())) UNKNOWN-ACCESS () () 2 42 0)
)

('compare_pointers' 0 2 'get_environment_variable' 0 7 'memcpy' 0 13)
