GFORTRAN module version '10' created from Diagnostic_Fields_New.F90
MD5:ed92358e2cee8889354784eb5762a725 -- If you edit this, you'll get what you deserve.

(() () () () () () () () () () () () () () () () () () () () () () ()
() () () ())

()

(('calculate_diagnostic_variable' 'diagnostic_fields_new' 2 3 4 5 6 7 8
9 10))

(('mpi_fortran_argv_null' 11 0 0 '') ('petscfortran2' 12 0 0 '') (
'petscfortran4' 13 0 0 '') ('petscfortran5' 14 0 0 '') (
'mpi_fortran_in_place' 15 0 0 '') ('mpi_fortran_status_ignore' 16 0 0 '')
('mpi_fortran_statuses_ignore' 17 0 0 '') ('petscfortran9' 18 0 0 '') (
'petscfortran6' 19 0 0 '') ('petscfortran7' 20 0 0 '') ('petscfortran8'
21 0 0 '') ('mpi_fortran_argvs_null' 22 0 0 '') ('mpi_fortran_bottom' 23
0 0 '') ('mpi_fortran_errcodes_ignore' 24 0 0 '') ('petscfortran1' 25 0
0 '') ('petscfortran10' 26 0 0 ''))

()

()

(27 'calculate_diagnostic_variables' 'diagnostic_fields_new' '' 1 ((
PROCEDURE UNKNOWN-INTENT MODULE-PROC DECL UNKNOWN 0 0 SUBROUTINE
ALWAYS_EXPLICIT) (UNKNOWN 0 0 0 0 UNKNOWN ()) 28 0 (29 30) () 0 () () ()
0 0)
31 'check_diagnostic_dependencies' 'diagnostic_fields_new' '' 1 ((
PROCEDURE UNKNOWN-INTENT MODULE-PROC DECL UNKNOWN 0 0 SUBROUTINE
RECURSIVE ALWAYS_EXPLICIT) (UNKNOWN 0 0 0 0 UNKNOWN ()) 32 0 (33 34 35
36) () 0 () () () 0 0)
37 'diagnostic_fields_new_check_options' 'diagnostic_fields_new' '' 1 (
(PROCEDURE UNKNOWN-INTENT MODULE-PROC DECL UNKNOWN 0 0 SUBROUTINE) (
UNKNOWN 0 0 0 0 UNKNOWN ()) 0 0 () () 0 () () () 0 0)
2 'calculate_diagnostic_variable_tensor_multiple_indexed'
'diagnostic_fields_new' '' 1 ((PROCEDURE UNKNOWN-INTENT MODULE-PROC DECL
UNKNOWN 0 0 SUBROUTINE ALWAYS_EXPLICIT) (UNKNOWN 0 0 0 0 UNKNOWN ()) 38
0 (39 40 41 42 43) () 0 () () () 0 0)
3 'calculate_diagnostic_variable_tensor_multiple_non_indexed'
'diagnostic_fields_new' '' 1 ((PROCEDURE UNKNOWN-INTENT MODULE-PROC DECL
UNKNOWN 0 0 SUBROUTINE ALWAYS_EXPLICIT) (UNKNOWN 0 0 0 0 UNKNOWN ()) 44
0 (45 46 47 48) () 0 () () () 0 0)
4 'calculate_diagnostic_variable_tensor_single' 'diagnostic_fields_new' ''
1 ((PROCEDURE UNKNOWN-INTENT MODULE-PROC DECL UNKNOWN 0 0 SUBROUTINE
ALWAYS_EXPLICIT) (UNKNOWN 0 0 0 0 UNKNOWN ()) 49 0 (50 51 52 53) () 0 ()
() () 0 0)
5 'calculate_diagnostic_variable_vector_multiple_indexed'
'diagnostic_fields_new' '' 1 ((PROCEDURE UNKNOWN-INTENT MODULE-PROC DECL
UNKNOWN 0 0 SUBROUTINE ALWAYS_EXPLICIT) (UNKNOWN 0 0 0 0 UNKNOWN ()) 54
0 (55 56 57 58 59) () 0 () () () 0 0)
6 'calculate_diagnostic_variable_vector_multiple_non_indexed'
'diagnostic_fields_new' '' 1 ((PROCEDURE UNKNOWN-INTENT MODULE-PROC DECL
UNKNOWN 0 0 SUBROUTINE ALWAYS_EXPLICIT) (UNKNOWN 0 0 0 0 UNKNOWN ()) 60
0 (61 62 63 64) () 0 () () () 0 0)
7 'calculate_diagnostic_variable_vector_single' 'diagnostic_fields_new' ''
1 ((PROCEDURE UNKNOWN-INTENT MODULE-PROC DECL UNKNOWN 0 0 SUBROUTINE
ALWAYS_EXPLICIT) (UNKNOWN 0 0 0 0 UNKNOWN ()) 65 0 (66 67 68 69) () 0 ()
() () 0 0)
8 'calculate_diagnostic_variable_scalar_multiple_indexed'
'diagnostic_fields_new' '' 1 ((PROCEDURE UNKNOWN-INTENT MODULE-PROC DECL
UNKNOWN 0 0 SUBROUTINE ALWAYS_EXPLICIT) (UNKNOWN 0 0 0 0 UNKNOWN ()) 70
0 (71 72 73 74 75) () 0 () () () 0 0)
9 'calculate_diagnostic_variable_scalar_multiple_non_indexed'
'diagnostic_fields_new' '' 1 ((PROCEDURE UNKNOWN-INTENT MODULE-PROC DECL
UNKNOWN 0 0 SUBROUTINE ALWAYS_EXPLICIT) (UNKNOWN 0 0 0 0 UNKNOWN ()) 76
0 (77 78 79 80) () 0 () () () 0 0)
10 'calculate_diagnostic_variable_scalar_single' 'diagnostic_fields_new'
'' 1 ((PROCEDURE UNKNOWN-INTENT MODULE-PROC DECL UNKNOWN 0 0 SUBROUTINE
ALWAYS_EXPLICIT) (UNKNOWN 0 0 0 0 UNKNOWN ()) 81 0 (82 83 84 85) () 0 ()
() () 0 0)
11 'mpi_argv_null' 'mpi_interfaces' '' 1 ((VARIABLE UNKNOWN-INTENT
UNKNOWN-PROC UNKNOWN UNKNOWN 0 0 DIMENSION IN_COMMON) (CHARACTER 1 0 0 0
CHARACTER ((CONSTANT (INTEGER 4 0 0 0 INTEGER ()) 0 '1'))) 0 0 () (1 0
EXPLICIT (CONSTANT (INTEGER 4 0 0 0 INTEGER ()) 0 '1') (CONSTANT (
INTEGER 4 0 0 0 INTEGER ()) 0 '1')) 0 () () () 0 0)
12 'petsc_null_integer' 'petscsysdef' '' 1 ((VARIABLE UNKNOWN-INTENT
UNKNOWN-PROC UNKNOWN UNKNOWN 0 0 IN_COMMON) (INTEGER 4 0 0 0 INTEGER ())
0 0 () () 0 () () () 0 0)
13 'petsc_null_scalar' 'petscsysdef' '' 1 ((VARIABLE UNKNOWN-INTENT
UNKNOWN-PROC UNKNOWN UNKNOWN 0 0 IN_COMMON) (REAL 8 0 0 0 REAL ()) 0 0 ()
() 0 () () () 0 0)
14 'petsc_null_double' 'petscsysdef' '' 1 ((VARIABLE UNKNOWN-INTENT
UNKNOWN-PROC UNKNOWN UNKNOWN 0 0 IN_COMMON) (REAL 8 0 0 0 REAL ()) 0 0 ()
() 0 () () () 0 0)
15 'mpi_in_place' 'mpi_interfaces' '' 1 ((VARIABLE UNKNOWN-INTENT
UNKNOWN-PROC UNKNOWN UNKNOWN 0 0 IN_COMMON) (INTEGER 4 0 0 0 INTEGER ())
0 0 () () 0 () () () 0 0)
16 'mpi_status_ignore' 'mpi_interfaces' '' 1 ((VARIABLE UNKNOWN-INTENT
UNKNOWN-PROC UNKNOWN UNKNOWN 0 0 DIMENSION IN_COMMON) (INTEGER 4 0 0 0
INTEGER ()) 0 0 () (1 0 EXPLICIT (CONSTANT (INTEGER 4 0 0 0 INTEGER ())
0 '1') (CONSTANT (INTEGER 4 0 0 0 INTEGER ()) 0 '6')) 0 () () () 0 0)
17 'mpi_statuses_ignore' 'mpi_interfaces' '' 1 ((VARIABLE UNKNOWN-INTENT
UNKNOWN-PROC UNKNOWN UNKNOWN 0 0 IN_COMMON) (REAL 8 0 0 0 REAL ()) 0 0 ()
() 0 () () () 0 0)
18 'petsc_comm_world' 'petscsysdef' '' 1 ((VARIABLE UNKNOWN-INTENT
UNKNOWN-PROC UNKNOWN UNKNOWN 0 0 IN_COMMON) (INTEGER 4 0 0 0 INTEGER ())
0 0 () () 0 () () () 0 0)
19 'petsc_null_real' 'petscsysdef' '' 1 ((VARIABLE UNKNOWN-INTENT
UNKNOWN-PROC UNKNOWN UNKNOWN 0 0 IN_COMMON) (REAL 8 0 0 0 REAL ()) 0 0 ()
() 0 () () () 0 0)
20 'petsc_null_bool' 'petscsysdef' '' 1 ((VARIABLE UNKNOWN-INTENT
UNKNOWN-PROC UNKNOWN UNKNOWN 0 0 IN_COMMON) (LOGICAL 4 0 0 0 LOGICAL ())
0 0 () () 0 () () () 0 0)
21 'petsc_null_object' 'petscsysdef' '' 1 ((VARIABLE UNKNOWN-INTENT
UNKNOWN-PROC UNKNOWN UNKNOWN 0 0 IN_COMMON) (INTEGER 8 0 0 0 INTEGER ())
0 0 () () 0 () () () 0 0)
22 'mpi_argvs_null' 'mpi_interfaces' '' 1 ((VARIABLE UNKNOWN-INTENT
UNKNOWN-PROC UNKNOWN UNKNOWN 0 0 IN_COMMON) (REAL 8 0 0 0 REAL ()) 0 0 ()
() 0 () () () 0 0)
23 'mpi_bottom' 'mpi_interfaces' '' 1 ((VARIABLE UNKNOWN-INTENT
UNKNOWN-PROC UNKNOWN UNKNOWN 0 0 IN_COMMON) (INTEGER 4 0 0 0 INTEGER ())
0 0 () () 0 () () () 0 0)
24 'mpi_errcodes_ignore' 'mpi_interfaces' '' 1 ((VARIABLE UNKNOWN-INTENT
UNKNOWN-PROC UNKNOWN UNKNOWN 0 0 DIMENSION IN_COMMON) (INTEGER 4 0 0 0
INTEGER ()) 0 0 () (1 0 EXPLICIT (CONSTANT (INTEGER 4 0 0 0 INTEGER ())
0 '1') (CONSTANT (INTEGER 4 0 0 0 INTEGER ()) 0 '1')) 0 () () () 0 0)
25 'petsc_null_character' 'petscsysdef' '' 1 ((VARIABLE UNKNOWN-INTENT
UNKNOWN-PROC UNKNOWN IMPLICIT-SAVE 0 0 IN_COMMON) (CHARACTER 1 0 0 0
CHARACTER ((CONSTANT (INTEGER 4 0 0 0 INTEGER ()) 0 '80'))) 0 0 () () 0
() () () 0 0)
26 'petsc_comm_self' 'petscsysdef' '' 1 ((VARIABLE UNKNOWN-INTENT
UNKNOWN-PROC UNKNOWN UNKNOWN 0 0 IN_COMMON) (INTEGER 4 0 0 0 INTEGER ())
0 0 () () 0 () () () 0 0)
29 'states' '' '' 28 ((VARIABLE INOUT UNKNOWN-PROC UNKNOWN UNKNOWN 0 0
DIMENSION DUMMY) (DERIVED 86 0 0 0 DERIVED ()) 0 0 () (1 0 ASSUMED_SHAPE
(CONSTANT (INTEGER 4 0 0 0 INTEGER ()) 0 '1') ()) 0 () () () 0 0)
30 'exclude_nonrecalculated' '' '' 28 ((VARIABLE IN UNKNOWN-PROC UNKNOWN
UNKNOWN 0 0 OPTIONAL DUMMY) (LOGICAL 4 0 0 0 LOGICAL ()) 0 0 () () 0 ()
() () 0 0)
33 'states' '' '' 32 ((VARIABLE IN UNKNOWN-PROC UNKNOWN UNKNOWN 0 0
DIMENSION TARGET DUMMY) (DERIVED 86 0 0 0 DERIVED ()) 0 0 () (1 0
ASSUMED_SHAPE (CONSTANT (INTEGER 4 0 0 0 INTEGER ()) 0 '1') ()) 0 () ()
() 0 0)
34 'check_states' '' '' 32 ((VARIABLE IN UNKNOWN-PROC UNKNOWN UNKNOWN 0
0 DIMENSION OPTIONAL TARGET DUMMY) (DERIVED 86 0 0 0 DERIVED ()) 0 0 ()
(1 0 EXPLICIT (CONSTANT (INTEGER 4 0 0 0 INTEGER ()) 0 '1') (FUNCTION (
INTEGER 4 0 0 0 INTEGER ()) 0 87 (('' (VARIABLE (DERIVED 86 0 0 0
DERIVED ()) 1 33 ((ARRAY (FULL 1 2))))) ('' ()) ('' ())) '' 0 'size')) 0
() () () 0 0)
35 'parent_states' '' '' 32 ((VARIABLE INOUT UNKNOWN-PROC UNKNOWN
UNKNOWN 0 0 DIMENSION OPTIONAL TARGET DUMMY) (DERIVED 86 0 0 0 DERIVED ())
0 0 () (1 0 EXPLICIT (CONSTANT (INTEGER 4 0 0 0 INTEGER ()) 0 '1') (
FUNCTION (INTEGER 4 0 0 0 INTEGER ()) 0 87 (('' (VARIABLE (DERIVED 86 0
0 0 DERIVED ()) 1 33 ((ARRAY (FULL 1 2))))) ('' ()) ('' ())) '' 0 'size'))
0 () () () 0 0)
36 'dep_states_mask' '' '' 32 ((VARIABLE INOUT UNKNOWN-PROC UNKNOWN
UNKNOWN 0 0 DIMENSION OPTIONAL TARGET DUMMY) (DERIVED 86 0 0 0 DERIVED ())
0 0 () (1 0 EXPLICIT (CONSTANT (INTEGER 4 0 0 0 INTEGER ()) 0 '1') (
FUNCTION (INTEGER 4 0 0 0 INTEGER ()) 0 87 (('' (VARIABLE (DERIVED 86 0
0 0 DERIVED ()) 1 33 ((ARRAY (FULL 1 2))))) ('' ()) ('' ())) '' 0 'size'))
0 () () () 0 0)
39 'states' '' '' 38 ((VARIABLE INOUT UNKNOWN-PROC UNKNOWN UNKNOWN 0 0
DIMENSION TARGET DUMMY) (DERIVED 86 0 0 0 DERIVED ()) 0 0 () (1 0
ASSUMED_SHAPE (CONSTANT (INTEGER 4 0 0 0 INTEGER ()) 0 '1') ()) 0 () ()
() 0 0)
40 'state_index' '' '' 38 ((VARIABLE IN UNKNOWN-PROC UNKNOWN UNKNOWN 0 0
DUMMY) (INTEGER 4 0 0 0 INTEGER ()) 0 0 () () 0 () () () 0 0)
41 't_field' '' '' 38 ((VARIABLE INOUT UNKNOWN-PROC UNKNOWN UNKNOWN 0 0
DUMMY) (DERIVED 88 0 0 0 DERIVED ()) 0 0 () () 0 () () () 0 0)
42 'algorithm' '' '' 38 ((VARIABLE IN UNKNOWN-PROC UNKNOWN UNKNOWN 0 0
OPTIONAL DUMMY) (CHARACTER 1 0 0 0 CHARACTER (())) 0 0 () () 0 () () ()
0 0)
43 'stat' '' '' 38 ((VARIABLE OUT UNKNOWN-PROC UNKNOWN UNKNOWN 0 0
OPTIONAL DUMMY) (INTEGER 4 0 0 0 INTEGER ()) 0 0 () () 0 () () () 0 0)
45 'states' '' '' 44 ((VARIABLE INOUT UNKNOWN-PROC UNKNOWN UNKNOWN 0 0
DIMENSION TARGET DUMMY) (DERIVED 86 0 0 0 DERIVED ()) 0 0 () (1 0
ASSUMED_SHAPE (CONSTANT (INTEGER 4 0 0 0 INTEGER ()) 0 '1') ()) 0 () ()
() 0 0)
46 't_field' '' '' 44 ((VARIABLE INOUT UNKNOWN-PROC UNKNOWN UNKNOWN 0 0
DUMMY) (DERIVED 88 0 0 0 DERIVED ()) 0 0 () () 0 () () () 0 0)
47 'algorithm' '' '' 44 ((VARIABLE IN UNKNOWN-PROC UNKNOWN UNKNOWN 0 0
OPTIONAL DUMMY) (CHARACTER 1 0 0 0 CHARACTER (())) 0 0 () () 0 () () ()
0 0)
48 'stat' '' '' 44 ((VARIABLE OUT UNKNOWN-PROC UNKNOWN UNKNOWN 0 0
OPTIONAL DUMMY) (INTEGER 4 0 0 0 INTEGER ()) 0 0 () () 0 () () () 0 0)
50 'state' '' '' 49 ((VARIABLE INOUT UNKNOWN-PROC UNKNOWN UNKNOWN 0 0
DUMMY) (DERIVED 86 0 0 0 DERIVED ()) 0 0 () () 0 () () () 0 0)
51 't_field' '' '' 49 ((VARIABLE INOUT UNKNOWN-PROC UNKNOWN UNKNOWN 0 0
DUMMY) (DERIVED 88 0 0 0 DERIVED ()) 0 0 () () 0 () () () 0 0)
52 'algorithm' '' '' 49 ((VARIABLE IN UNKNOWN-PROC UNKNOWN UNKNOWN 0 0
OPTIONAL DUMMY) (CHARACTER 1 0 0 0 CHARACTER (())) 0 0 () () 0 () () ()
0 0)
53 'stat' '' '' 49 ((VARIABLE OUT UNKNOWN-PROC UNKNOWN UNKNOWN 0 0
OPTIONAL DUMMY) (INTEGER 4 0 0 0 INTEGER ()) 0 0 () () 0 () () () 0 0)
55 'states' '' '' 54 ((VARIABLE INOUT UNKNOWN-PROC UNKNOWN UNKNOWN 0 0
DIMENSION TARGET DUMMY) (DERIVED 86 0 0 0 DERIVED ()) 0 0 () (1 0
ASSUMED_SHAPE (CONSTANT (INTEGER 4 0 0 0 INTEGER ()) 0 '1') ()) 0 () ()
() 0 0)
56 'state_index' '' '' 54 ((VARIABLE IN UNKNOWN-PROC UNKNOWN UNKNOWN 0 0
DUMMY) (INTEGER 4 0 0 0 INTEGER ()) 0 0 () () 0 () () () 0 0)
57 'v_field' '' '' 54 ((VARIABLE INOUT UNKNOWN-PROC UNKNOWN UNKNOWN 0 0
DUMMY) (DERIVED 89 0 0 0 DERIVED ()) 0 0 () () 0 () () () 0 0)
58 'algorithm' '' '' 54 ((VARIABLE IN UNKNOWN-PROC UNKNOWN UNKNOWN 0 0
OPTIONAL DUMMY) (CHARACTER 1 0 0 0 CHARACTER (())) 0 0 () () 0 () () ()
0 0)
59 'stat' '' '' 54 ((VARIABLE OUT UNKNOWN-PROC UNKNOWN UNKNOWN 0 0
OPTIONAL DUMMY) (INTEGER 4 0 0 0 INTEGER ()) 0 0 () () 0 () () () 0 0)
61 'states' '' '' 60 ((VARIABLE INOUT UNKNOWN-PROC UNKNOWN UNKNOWN 0 0
DIMENSION TARGET DUMMY) (DERIVED 86 0 0 0 DERIVED ()) 0 0 () (1 0
ASSUMED_SHAPE (CONSTANT (INTEGER 4 0 0 0 INTEGER ()) 0 '1') ()) 0 () ()
() 0 0)
62 'v_field' '' '' 60 ((VARIABLE INOUT UNKNOWN-PROC UNKNOWN UNKNOWN 0 0
DUMMY) (DERIVED 89 0 0 0 DERIVED ()) 0 0 () () 0 () () () 0 0)
63 'algorithm' '' '' 60 ((VARIABLE IN UNKNOWN-PROC UNKNOWN UNKNOWN 0 0
OPTIONAL DUMMY) (CHARACTER 1 0 0 0 CHARACTER (())) 0 0 () () 0 () () ()
0 0)
64 'stat' '' '' 60 ((VARIABLE OUT UNKNOWN-PROC UNKNOWN UNKNOWN 0 0
OPTIONAL DUMMY) (INTEGER 4 0 0 0 INTEGER ()) 0 0 () () 0 () () () 0 0)
66 'state' '' '' 65 ((VARIABLE INOUT UNKNOWN-PROC UNKNOWN UNKNOWN 0 0
DUMMY) (DERIVED 86 0 0 0 DERIVED ()) 0 0 () () 0 () () () 0 0)
67 'v_field' '' '' 65 ((VARIABLE INOUT UNKNOWN-PROC UNKNOWN UNKNOWN 0 0
DUMMY) (DERIVED 89 0 0 0 DERIVED ()) 0 0 () () 0 () () () 0 0)
68 'algorithm' '' '' 65 ((VARIABLE IN UNKNOWN-PROC UNKNOWN UNKNOWN 0 0
OPTIONAL DUMMY) (CHARACTER 1 0 0 0 CHARACTER (())) 0 0 () () 0 () () ()
0 0)
69 'stat' '' '' 65 ((VARIABLE OUT UNKNOWN-PROC UNKNOWN UNKNOWN 0 0
OPTIONAL DUMMY) (INTEGER 4 0 0 0 INTEGER ()) 0 0 () () 0 () () () 0 0)
71 'states' '' '' 70 ((VARIABLE INOUT UNKNOWN-PROC UNKNOWN UNKNOWN 0 0
DIMENSION TARGET DUMMY) (DERIVED 86 0 0 0 DERIVED ()) 0 0 () (1 0
ASSUMED_SHAPE (CONSTANT (INTEGER 4 0 0 0 INTEGER ()) 0 '1') ()) 0 () ()
() 0 0)
72 'state_index' '' '' 70 ((VARIABLE IN UNKNOWN-PROC UNKNOWN UNKNOWN 0 0
DUMMY) (INTEGER 4 0 0 0 INTEGER ()) 0 0 () () 0 () () () 0 0)
73 's_field' '' '' 70 ((VARIABLE INOUT UNKNOWN-PROC UNKNOWN UNKNOWN 0 0
DUMMY) (DERIVED 90 0 0 0 DERIVED ()) 0 0 () () 0 () () () 0 0)
74 'algorithm' '' '' 70 ((VARIABLE IN UNKNOWN-PROC UNKNOWN UNKNOWN 0 0
OPTIONAL DUMMY) (CHARACTER 1 0 0 0 CHARACTER (())) 0 0 () () 0 () () ()
0 0)
75 'stat' '' '' 70 ((VARIABLE OUT UNKNOWN-PROC UNKNOWN UNKNOWN 0 0
OPTIONAL DUMMY) (INTEGER 4 0 0 0 INTEGER ()) 0 0 () () 0 () () () 0 0)
77 'states' '' '' 76 ((VARIABLE INOUT UNKNOWN-PROC UNKNOWN UNKNOWN 0 0
DIMENSION TARGET DUMMY) (DERIVED 86 0 0 0 DERIVED ()) 0 0 () (1 0
ASSUMED_SHAPE (CONSTANT (INTEGER 4 0 0 0 INTEGER ()) 0 '1') ()) 0 () ()
() 0 0)
78 's_field' '' '' 76 ((VARIABLE INOUT UNKNOWN-PROC UNKNOWN UNKNOWN 0 0
DUMMY) (DERIVED 90 0 0 0 DERIVED ()) 0 0 () () 0 () () () 0 0)
79 'algorithm' '' '' 76 ((VARIABLE IN UNKNOWN-PROC UNKNOWN UNKNOWN 0 0
OPTIONAL DUMMY) (CHARACTER 1 0 0 0 CHARACTER (())) 0 0 () () 0 () () ()
0 0)
80 'stat' '' '' 76 ((VARIABLE OUT UNKNOWN-PROC UNKNOWN UNKNOWN 0 0
OPTIONAL DUMMY) (INTEGER 4 0 0 0 INTEGER ()) 0 0 () () 0 () () () 0 0)
82 'state' '' '' 81 ((VARIABLE INOUT UNKNOWN-PROC UNKNOWN UNKNOWN 0 0
DUMMY) (DERIVED 86 0 0 0 DERIVED ()) 0 0 () () 0 () () () 0 0)
83 's_field' '' '' 81 ((VARIABLE INOUT UNKNOWN-PROC UNKNOWN UNKNOWN 0 0
DUMMY) (DERIVED 90 0 0 0 DERIVED ()) 0 0 () () 0 () () () 0 0)
84 'algorithm' '' '' 81 ((VARIABLE IN UNKNOWN-PROC UNKNOWN UNKNOWN 0 0
OPTIONAL DUMMY) (CHARACTER 1 0 0 0 CHARACTER (())) 0 0 () () 0 () () ()
0 0)
85 'stat' '' '' 81 ((VARIABLE OUT UNKNOWN-PROC UNKNOWN UNKNOWN 0 0
OPTIONAL DUMMY) (INTEGER 4 0 0 0 INTEGER ()) 0 0 () () 0 () () () 0 0)
86 'State_type' 'state_module' '' 1 ((DERIVED UNKNOWN-INTENT
UNKNOWN-PROC UNKNOWN UNKNOWN 0 0 POINTER_COMP PRIVATE_COMP) (UNKNOWN 0 0
0 0 UNKNOWN ()) 0 0 () () 0 ((91 'name' (CHARACTER 1 0 0 0 CHARACTER ((
CONSTANT (INTEGER 4 0 0 0 INTEGER ()) 0 '101'))) () (UNKNOWN-FL
UNKNOWN-INTENT UNKNOWN-PROC UNKNOWN UNKNOWN 0 0) UNKNOWN-ACCESS (
CONSTANT (CHARACTER 1 0 0 0 CHARACTER (())) 0 101
'                                                                                                     '))
(92 'option_path' (CHARACTER 1 0 0 0 CHARACTER ((CONSTANT (INTEGER 4 0 0
0 INTEGER ()) 0 '8192'))) () (UNKNOWN-FL UNKNOWN-INTENT UNKNOWN-PROC
UNKNOWN UNKNOWN 0 0) UNKNOWN-ACCESS ()) (93 'vector_names' (CHARACTER 1
0 0 0 CHARACTER ((CONSTANT (INTEGER 4 0 0 0 INTEGER ()) 0 '101'))) (1 0
DEFERRED () ()) (UNKNOWN-FL UNKNOWN-INTENT UNKNOWN-PROC UNKNOWN UNKNOWN
0 0 DIMENSION POINTER) UNKNOWN-ACCESS (NULL (UNKNOWN 0 0 0 0 UNKNOWN ())
0)) (94 'scalar_names' (CHARACTER 1 0 0 0 CHARACTER ((CONSTANT (INTEGER
4 0 0 0 INTEGER ()) 0 '101'))) (1 0 DEFERRED () ()) (UNKNOWN-FL
UNKNOWN-INTENT UNKNOWN-PROC UNKNOWN UNKNOWN 0 0 DIMENSION POINTER)
UNKNOWN-ACCESS (NULL (UNKNOWN 0 0 0 0 UNKNOWN ()) 0)) (95 'mesh_names' (
CHARACTER 1 0 0 0 CHARACTER ((CONSTANT (INTEGER 4 0 0 0 INTEGER ()) 0
'101'))) (1 0 DEFERRED () ()) (UNKNOWN-FL UNKNOWN-INTENT UNKNOWN-PROC
UNKNOWN UNKNOWN 0 0 DIMENSION POINTER) UNKNOWN-ACCESS (NULL (UNKNOWN 0 0
0 0 UNKNOWN ()) 0)) (96 'halo_names' (CHARACTER 1 0 0 0 CHARACTER ((
CONSTANT (INTEGER 4 0 0 0 INTEGER ()) 0 '101'))) (1 0 DEFERRED () ()) (
UNKNOWN-FL UNKNOWN-INTENT UNKNOWN-PROC UNKNOWN UNKNOWN 0 0 DIMENSION
POINTER) UNKNOWN-ACCESS (NULL (UNKNOWN 0 0 0 0 UNKNOWN ()) 0)) (97
'tensor_names' (CHARACTER 1 0 0 0 CHARACTER ((CONSTANT (INTEGER 4 0 0 0
INTEGER ()) 0 '101'))) (1 0 DEFERRED () ()) (UNKNOWN-FL UNKNOWN-INTENT
UNKNOWN-PROC UNKNOWN UNKNOWN 0 0 DIMENSION POINTER) UNKNOWN-ACCESS (
NULL (UNKNOWN 0 0 0 0 UNKNOWN ()) 0)) (98 'csr_sparsity_names' (
CHARACTER 1 0 0 0 CHARACTER ((CONSTANT (INTEGER 4 0 0 0 INTEGER ()) 0
'101'))) (1 0 DEFERRED () ()) (UNKNOWN-FL UNKNOWN-INTENT UNKNOWN-PROC
UNKNOWN UNKNOWN 0 0 DIMENSION POINTER) UNKNOWN-ACCESS (NULL (UNKNOWN 0 0
0 0 UNKNOWN ()) 0)) (99 'csr_matrix_names' (CHARACTER 1 0 0 0 CHARACTER
((CONSTANT (INTEGER 4 0 0 0 INTEGER ()) 0 '101'))) (1 0 DEFERRED () ())
(UNKNOWN-FL UNKNOWN-INTENT UNKNOWN-PROC UNKNOWN UNKNOWN 0 0 DIMENSION
POINTER) UNKNOWN-ACCESS (NULL (UNKNOWN 0 0 0 0 UNKNOWN ()) 0)) (100
'block_csr_matrix_names' (CHARACTER 1 0 0 0 CHARACTER ((CONSTANT (
INTEGER 4 0 0 0 INTEGER ()) 0 '101'))) (1 0 DEFERRED () ()) (UNKNOWN-FL
UNKNOWN-INTENT UNKNOWN-PROC UNKNOWN UNKNOWN 0 0 DIMENSION POINTER)
UNKNOWN-ACCESS (NULL (UNKNOWN 0 0 0 0 UNKNOWN ()) 0)) (101
'petsc_csr_matrix_names' (CHARACTER 1 0 0 0 CHARACTER ((CONSTANT (
INTEGER 4 0 0 0 INTEGER ()) 0 '101'))) (1 0 DEFERRED () ()) (UNKNOWN-FL
UNKNOWN-INTENT UNKNOWN-PROC UNKNOWN UNKNOWN 0 0 DIMENSION POINTER)
UNKNOWN-ACCESS (NULL (UNKNOWN 0 0 0 0 UNKNOWN ()) 0)) (102 'vector_fields'
(DERIVED 103 0 0 0 DERIVED ()) (1 0 DEFERRED () ()) (UNKNOWN-FL
UNKNOWN-INTENT UNKNOWN-PROC UNKNOWN UNKNOWN 0 0 DIMENSION POINTER)
UNKNOWN-ACCESS (NULL (UNKNOWN 0 0 0 0 UNKNOWN ()) 0)) (104 'tensor_fields'
(DERIVED 105 0 0 0 DERIVED ()) (1 0 DEFERRED () ()) (UNKNOWN-FL
UNKNOWN-INTENT UNKNOWN-PROC UNKNOWN UNKNOWN 0 0 DIMENSION POINTER)
UNKNOWN-ACCESS (NULL (UNKNOWN 0 0 0 0 UNKNOWN ()) 0)) (106 'scalar_fields'
(DERIVED 107 0 0 0 DERIVED ()) (1 0 DEFERRED () ()) (UNKNOWN-FL
UNKNOWN-INTENT UNKNOWN-PROC UNKNOWN UNKNOWN 0 0 DIMENSION POINTER)
UNKNOWN-ACCESS (NULL (UNKNOWN 0 0 0 0 UNKNOWN ()) 0)) (108 'meshes' (
DERIVED 109 0 0 0 DERIVED ()) (1 0 DEFERRED () ()) (UNKNOWN-FL
UNKNOWN-INTENT UNKNOWN-PROC UNKNOWN UNKNOWN 0 0 DIMENSION POINTER)
UNKNOWN-ACCESS (NULL (UNKNOWN 0 0 0 0 UNKNOWN ()) 0)) (110 'halos' (
DERIVED 111 0 0 0 DERIVED ()) (1 0 DEFERRED () ()) (UNKNOWN-FL
UNKNOWN-INTENT UNKNOWN-PROC UNKNOWN UNKNOWN 0 0 DIMENSION POINTER)
UNKNOWN-ACCESS (NULL (UNKNOWN 0 0 0 0 UNKNOWN ()) 0)) (112
'csr_sparsities' (DERIVED 113 0 0 0 DERIVED ()) (1 0 DEFERRED () ()) (
UNKNOWN-FL UNKNOWN-INTENT UNKNOWN-PROC UNKNOWN UNKNOWN 0 0 DIMENSION
POINTER) UNKNOWN-ACCESS (NULL (UNKNOWN 0 0 0 0 UNKNOWN ()) 0)) (114
'csr_matrices' (DERIVED 115 0 0 0 DERIVED ()) (1 0 DEFERRED () ()) (
UNKNOWN-FL UNKNOWN-INTENT UNKNOWN-PROC UNKNOWN UNKNOWN 0 0 DIMENSION
POINTER) UNKNOWN-ACCESS (NULL (UNKNOWN 0 0 0 0 UNKNOWN ()) 0)) (116
'block_csr_matrices' (DERIVED 117 0 0 0 DERIVED ()) (1 0 DEFERRED () ())
(UNKNOWN-FL UNKNOWN-INTENT UNKNOWN-PROC UNKNOWN UNKNOWN 0 0 DIMENSION
POINTER) UNKNOWN-ACCESS (NULL (UNKNOWN 0 0 0 0 UNKNOWN ()) 0)) (118
'petsc_csr_matrices' (DERIVED 119 0 0 0 DERIVED ()) (1 0 DEFERRED () ())
(UNKNOWN-FL UNKNOWN-INTENT UNKNOWN-PROC UNKNOWN UNKNOWN 0 0 DIMENSION
POINTER) UNKNOWN-ACCESS (NULL (UNKNOWN 0 0 0 0 UNKNOWN ()) 0)) (120
'scalar_field_dict' (DERIVED 121 0 0 0 DERIVED ()) () (UNKNOWN-FL
UNKNOWN-INTENT UNKNOWN-PROC UNKNOWN UNKNOWN 0 0 POINTER) UNKNOWN-ACCESS
(NULL (UNKNOWN 0 0 0 0 UNKNOWN ()) 0))) PUBLIC (() () () ()) () 0 0
7575341)
87 'size' '(intrinsic)' '' 1 ((PROCEDURE UNKNOWN-INTENT UNKNOWN-PROC
UNKNOWN UNKNOWN 0 0 GENERIC) (UNKNOWN 0 0 0 0 UNKNOWN ()) 0 0 () () 0 ()
() () 0 0)
88 'Tensor_field' 'fields_data_types' '' 1 ((DERIVED UNKNOWN-INTENT
UNKNOWN-PROC UNKNOWN UNKNOWN 0 0 POINTER_COMP) (UNKNOWN 0 0 0 0 UNKNOWN
()) 0 0 () () 0 ((122 'val' (REAL 8 0 0 0 REAL ()) (3 0 DEFERRED () () ()
() () ()) (UNKNOWN-FL UNKNOWN-INTENT UNKNOWN-PROC UNKNOWN UNKNOWN 0 0
DIMENSION POINTER) UNKNOWN-ACCESS ()) (123 'wrapped' (LOGICAL 4 0 0 0
LOGICAL ()) () (UNKNOWN-FL UNKNOWN-INTENT UNKNOWN-PROC UNKNOWN UNKNOWN 0
0) UNKNOWN-ACCESS (CONSTANT (LOGICAL 4 0 0 0 LOGICAL ()) 0 1)) (124
'field_type' (INTEGER 4 0 0 0 INTEGER ()) () (UNKNOWN-FL UNKNOWN-INTENT
UNKNOWN-PROC UNKNOWN UNKNOWN 0 0) UNKNOWN-ACCESS (CONSTANT (INTEGER 4 0
0 0 INTEGER ()) 0 '0')) (125 'name' (CHARACTER 1 0 0 0 CHARACTER ((
CONSTANT (INTEGER 4 0 0 0 INTEGER ()) 0 '101'))) () (UNKNOWN-FL
UNKNOWN-INTENT UNKNOWN-PROC UNKNOWN UNKNOWN 0 0) UNKNOWN-ACCESS ()) (
126 'dim' (INTEGER 4 0 0 0 INTEGER ()) (1 0 EXPLICIT (CONSTANT (INTEGER
4 0 0 0 INTEGER ()) 0 '1') (CONSTANT (INTEGER 4 0 0 0 INTEGER ()) 0 '2'))
(UNKNOWN-FL UNKNOWN-INTENT UNKNOWN-PROC UNKNOWN UNKNOWN 0 0 DIMENSION)
UNKNOWN-ACCESS ()) (127 'option_path' (CHARACTER 1 0 0 0 CHARACTER ((
CONSTANT (INTEGER 4 0 0 0 INTEGER ()) 0 '8192'))) () (UNKNOWN-FL
UNKNOWN-INTENT UNKNOWN-PROC UNKNOWN UNKNOWN 0 0) UNKNOWN-ACCESS ()) (
128 'mesh' (DERIVED 129 0 0 0 DERIVED ()) () (UNKNOWN-FL UNKNOWN-INTENT
UNKNOWN-PROC UNKNOWN UNKNOWN 0 0) UNKNOWN-ACCESS (STRUCTURE (DERIVED 129
0 0 0 DERIVED ()) 0 ((() ()) ((CONSTANT (LOGICAL 4 0 0 0 LOGICAL ()) 0 1)
()) ((STRUCTURE (DERIVED 130 0 0 0 DERIVED ()) 0 ((() ()) (() ()) (() ())
(() ()) ((NULL (UNKNOWN 0 0 0 0 UNKNOWN ()) 0) ()) ((NULL (UNKNOWN 0 0 0
0 UNKNOWN ()) 0) ()) ((NULL (UNKNOWN 0 0 0 0 UNKNOWN ()) 0) ()) ((NULL (
UNKNOWN 0 0 0 0 UNKNOWN ()) 0) ()) ((NULL (UNKNOWN 0 0 0 0 UNKNOWN ()) 0)
()) ((NULL (UNKNOWN 0 0 0 0 UNKNOWN ()) 0) ()) ((NULL (UNKNOWN 0 0 0 0
UNKNOWN ()) 0) ()) ((STRUCTURE (DERIVED 131 0 0 0 DERIVED ()) 0 ((() ())
(() ()) (() ()) (() ()) ((NULL (UNKNOWN 0 0 0 0 UNKNOWN ()) 0) ()) ((
NULL (UNKNOWN 0 0 0 0 UNKNOWN ()) 0) ()) (() ()) ((NULL (UNKNOWN 0 0 0 0
UNKNOWN ()) 0) ()) (() ())) ()) ()) ((NULL (UNKNOWN 0 0 0 0 UNKNOWN ())
0) ()) ((NULL (UNKNOWN 0 0 0 0 UNKNOWN ()) 0) ()) ((NULL (UNKNOWN 0 0 0
0 UNKNOWN ()) 0) ()) ((NULL (UNKNOWN 0 0 0 0 UNKNOWN ()) 0) ()) (() ()))
()) ()) (() ()) (() ()) (() ()) (() ()) ((CONSTANT (INTEGER 4 0 0 0
INTEGER ()) 0 '0') ()) ((NULL (UNKNOWN 0 0 0 0 UNKNOWN ()) 0) ()) ((
NULL (UNKNOWN 0 0 0 0 UNKNOWN ()) 0) ()) ((NULL (UNKNOWN 0 0 0 0 UNKNOWN
()) 0) ()) ((NULL (UNKNOWN 0 0 0 0 UNKNOWN ()) 0) ()) ((NULL (UNKNOWN 0
0 0 0 UNKNOWN ()) 0) ()) ((NULL (UNKNOWN 0 0 0 0 UNKNOWN ()) 0) ()) ((
NULL (UNKNOWN 0 0 0 0 UNKNOWN ()) 0) ()) ((NULL (UNKNOWN 0 0 0 0 UNKNOWN
()) 0) ()) ((NULL (UNKNOWN 0 0 0 0 UNKNOWN ()) 0) ()) ((NULL (UNKNOWN 0
0 0 0 UNKNOWN ()) 0) ()) ((CONSTANT (LOGICAL 4 0 0 0 LOGICAL ()) 0 0) ()))
())) (132 'refcount' (DERIVED 133 0 0 0 DERIVED ()) () (UNKNOWN-FL
UNKNOWN-INTENT UNKNOWN-PROC UNKNOWN UNKNOWN 0 0 POINTER) UNKNOWN-ACCESS
(NULL (UNKNOWN 0 0 0 0 UNKNOWN ()) 0)) (134 'aliased' (LOGICAL 4 0 0 0
LOGICAL ()) () (UNKNOWN-FL UNKNOWN-INTENT UNKNOWN-PROC UNKNOWN UNKNOWN 0
0) UNKNOWN-ACCESS (CONSTANT (LOGICAL 4 0 0 0 LOGICAL ()) 0 0))) PUBLIC (
() () () ()) () 0 0 25110185)
89 'Vector_field' 'fields_data_types' '' 1 ((DERIVED UNKNOWN-INTENT
UNKNOWN-PROC UNKNOWN UNKNOWN 0 0 POINTER_COMP) (UNKNOWN 0 0 0 0 UNKNOWN
()) 0 0 () () 0 ((135 'val' (REAL 8 0 0 0 REAL ()) (2 0 DEFERRED () () ()
()) (UNKNOWN-FL UNKNOWN-INTENT UNKNOWN-PROC UNKNOWN UNKNOWN 0 0
DIMENSION POINTER) UNKNOWN-ACCESS ()) (136 'wrapped' (LOGICAL 4 0 0 0
LOGICAL ()) () (UNKNOWN-FL UNKNOWN-INTENT UNKNOWN-PROC UNKNOWN UNKNOWN 0
0) UNKNOWN-ACCESS (CONSTANT (LOGICAL 4 0 0 0 LOGICAL ()) 0 1)) (137
'field_type' (INTEGER 4 0 0 0 INTEGER ()) () (UNKNOWN-FL UNKNOWN-INTENT
UNKNOWN-PROC UNKNOWN UNKNOWN 0 0) UNKNOWN-ACCESS (CONSTANT (INTEGER 4 0
0 0 INTEGER ()) 0 '0')) (138 'bc' (DERIVED 139 0 0 0 DERIVED ()) () (
UNKNOWN-FL UNKNOWN-INTENT UNKNOWN-PROC UNKNOWN UNKNOWN 0 0 POINTER)
UNKNOWN-ACCESS (NULL (UNKNOWN 0 0 0 0 UNKNOWN ()) 0)) (140 'name' (
CHARACTER 1 0 0 0 CHARACTER ((CONSTANT (INTEGER 4 0 0 0 INTEGER ()) 0
'101'))) () (UNKNOWN-FL UNKNOWN-INTENT UNKNOWN-PROC UNKNOWN UNKNOWN 0 0)
UNKNOWN-ACCESS ()) (141 'dim' (INTEGER 4 0 0 0 INTEGER ()) () (
UNKNOWN-FL UNKNOWN-INTENT UNKNOWN-PROC UNKNOWN UNKNOWN 0 0)
UNKNOWN-ACCESS ()) (142 'option_path' (CHARACTER 1 0 0 0 CHARACTER ((
CONSTANT (INTEGER 4 0 0 0 INTEGER ()) 0 '8192'))) () (UNKNOWN-FL
UNKNOWN-INTENT UNKNOWN-PROC UNKNOWN UNKNOWN 0 0) UNKNOWN-ACCESS ()) (
143 'mesh' (DERIVED 129 0 0 0 DERIVED ()) () (UNKNOWN-FL UNKNOWN-INTENT
UNKNOWN-PROC UNKNOWN UNKNOWN 0 0) UNKNOWN-ACCESS (STRUCTURE (DERIVED 129
0 0 0 DERIVED ()) 0 ((() ()) ((CONSTANT (LOGICAL 4 0 0 0 LOGICAL ()) 0 1)
()) ((STRUCTURE (DERIVED 130 0 0 0 DERIVED ()) 0 ((() ()) (() ()) (() ())
(() ()) ((NULL (UNKNOWN 0 0 0 0 UNKNOWN ()) 0) ()) ((NULL (UNKNOWN 0 0 0
0 UNKNOWN ()) 0) ()) ((NULL (UNKNOWN 0 0 0 0 UNKNOWN ()) 0) ()) ((NULL (
UNKNOWN 0 0 0 0 UNKNOWN ()) 0) ()) ((NULL (UNKNOWN 0 0 0 0 UNKNOWN ()) 0)
()) ((NULL (UNKNOWN 0 0 0 0 UNKNOWN ()) 0) ()) ((NULL (UNKNOWN 0 0 0 0
UNKNOWN ()) 0) ()) ((STRUCTURE (DERIVED 131 0 0 0 DERIVED ()) 0 ((() ())
(() ()) (() ()) (() ()) ((NULL (UNKNOWN 0 0 0 0 UNKNOWN ()) 0) ()) ((
NULL (UNKNOWN 0 0 0 0 UNKNOWN ()) 0) ()) (() ()) ((NULL (UNKNOWN 0 0 0 0
UNKNOWN ()) 0) ()) (() ())) ()) ()) ((NULL (UNKNOWN 0 0 0 0 UNKNOWN ())
0) ()) ((NULL (UNKNOWN 0 0 0 0 UNKNOWN ()) 0) ()) ((NULL (UNKNOWN 0 0 0
0 UNKNOWN ()) 0) ()) ((NULL (UNKNOWN 0 0 0 0 UNKNOWN ()) 0) ()) (() ()))
()) ()) (() ()) (() ()) (() ()) (() ()) ((CONSTANT (INTEGER 4 0 0 0
INTEGER ()) 0 '0') ()) ((NULL (UNKNOWN 0 0 0 0 UNKNOWN ()) 0) ()) ((
NULL (UNKNOWN 0 0 0 0 UNKNOWN ()) 0) ()) ((NULL (UNKNOWN 0 0 0 0 UNKNOWN
()) 0) ()) ((NULL (UNKNOWN 0 0 0 0 UNKNOWN ()) 0) ()) ((NULL (UNKNOWN 0
0 0 0 UNKNOWN ()) 0) ()) ((NULL (UNKNOWN 0 0 0 0 UNKNOWN ()) 0) ()) ((
NULL (UNKNOWN 0 0 0 0 UNKNOWN ()) 0) ()) ((NULL (UNKNOWN 0 0 0 0 UNKNOWN
()) 0) ()) ((NULL (UNKNOWN 0 0 0 0 UNKNOWN ()) 0) ()) ((NULL (UNKNOWN 0
0 0 0 UNKNOWN ()) 0) ()) ((CONSTANT (LOGICAL 4 0 0 0 LOGICAL ()) 0 0) ()))
())) (144 'refcount' (DERIVED 133 0 0 0 DERIVED ()) () (UNKNOWN-FL
UNKNOWN-INTENT UNKNOWN-PROC UNKNOWN UNKNOWN 0 0 POINTER) UNKNOWN-ACCESS
(NULL (UNKNOWN 0 0 0 0 UNKNOWN ()) 0)) (145 'aliased' (LOGICAL 4 0 0 0
LOGICAL ()) () (UNKNOWN-FL UNKNOWN-INTENT UNKNOWN-PROC UNKNOWN UNKNOWN 0
0) UNKNOWN-ACCESS (CONSTANT (LOGICAL 4 0 0 0 LOGICAL ()) 0 0)) (146
'picker' (DERIVED 147 0 0 0 DERIVED ()) () (UNKNOWN-FL UNKNOWN-INTENT
UNKNOWN-PROC UNKNOWN UNKNOWN 0 0 POINTER) UNKNOWN-ACCESS (NULL (UNKNOWN
0 0 0 0 UNKNOWN ()) 0))) PUBLIC (() () () ()) () 0 0 43598963)
90 'Scalar_field' 'fields_data_types' '' 1 ((DERIVED UNKNOWN-INTENT
UNKNOWN-PROC UNKNOWN UNKNOWN 0 0 POINTER_COMP) (UNKNOWN 0 0 0 0 UNKNOWN
()) 0 0 () () 0 ((148 'val' (REAL 8 0 0 0 REAL ()) (1 0 DEFERRED () ())
(UNKNOWN-FL UNKNOWN-INTENT UNKNOWN-PROC UNKNOWN UNKNOWN 0 0 DIMENSION
POINTER) UNKNOWN-ACCESS ()) (149 'val_stride' (INTEGER 4 0 0 0 INTEGER ())
() (UNKNOWN-FL UNKNOWN-INTENT UNKNOWN-PROC UNKNOWN UNKNOWN 0 0)
UNKNOWN-ACCESS (CONSTANT (INTEGER 4 0 0 0 INTEGER ()) 0 '1')) (150
'wrapped' (LOGICAL 4 0 0 0 LOGICAL ()) () (UNKNOWN-FL UNKNOWN-INTENT
UNKNOWN-PROC UNKNOWN UNKNOWN 0 0) UNKNOWN-ACCESS (CONSTANT (LOGICAL 4 0
0 0 LOGICAL ()) 0 1)) (151 'field_type' (INTEGER 4 0 0 0 INTEGER ()) ()
(UNKNOWN-FL UNKNOWN-INTENT UNKNOWN-PROC UNKNOWN UNKNOWN 0 0)
UNKNOWN-ACCESS (CONSTANT (INTEGER 4 0 0 0 INTEGER ()) 0 '0')) (152 'bc'
(DERIVED 153 0 0 0 DERIVED ()) () (UNKNOWN-FL UNKNOWN-INTENT
UNKNOWN-PROC UNKNOWN UNKNOWN 0 0 POINTER) UNKNOWN-ACCESS (NULL (UNKNOWN
0 0 0 0 UNKNOWN ()) 0)) (154 'name' (CHARACTER 1 0 0 0 CHARACTER ((
CONSTANT (INTEGER 4 0 0 0 INTEGER ()) 0 '101'))) () (UNKNOWN-FL
UNKNOWN-INTENT UNKNOWN-PROC UNKNOWN UNKNOWN 0 0) UNKNOWN-ACCESS ()) (
155 'option_path' (CHARACTER 1 0 0 0 CHARACTER ((CONSTANT (INTEGER 4 0 0
0 INTEGER ()) 0 '8192'))) () (UNKNOWN-FL UNKNOWN-INTENT UNKNOWN-PROC
UNKNOWN UNKNOWN 0 0) UNKNOWN-ACCESS ()) (156 'mesh' (DERIVED 129 0 0 0
DERIVED ()) () (UNKNOWN-FL UNKNOWN-INTENT UNKNOWN-PROC UNKNOWN UNKNOWN 0
0) UNKNOWN-ACCESS (STRUCTURE (DERIVED 129 0 0 0 DERIVED ()) 0 ((() ()) (
(CONSTANT (LOGICAL 4 0 0 0 LOGICAL ()) 0 1) ()) ((STRUCTURE (DERIVED 130
0 0 0 DERIVED ()) 0 ((() ()) (() ()) (() ()) (() ()) ((NULL (UNKNOWN 0 0
0 0 UNKNOWN ()) 0) ()) ((NULL (UNKNOWN 0 0 0 0 UNKNOWN ()) 0) ()) ((
NULL (UNKNOWN 0 0 0 0 UNKNOWN ()) 0) ()) ((NULL (UNKNOWN 0 0 0 0 UNKNOWN
()) 0) ()) ((NULL (UNKNOWN 0 0 0 0 UNKNOWN ()) 0) ()) ((NULL (UNKNOWN 0
0 0 0 UNKNOWN ()) 0) ()) ((NULL (UNKNOWN 0 0 0 0 UNKNOWN ()) 0) ()) ((
STRUCTURE (DERIVED 131 0 0 0 DERIVED ()) 0 ((() ()) (() ()) (() ()) (()
()) ((NULL (UNKNOWN 0 0 0 0 UNKNOWN ()) 0) ()) ((NULL (UNKNOWN 0 0 0 0
UNKNOWN ()) 0) ()) (() ()) ((NULL (UNKNOWN 0 0 0 0 UNKNOWN ()) 0) ()) (
() ())) ()) ()) ((NULL (UNKNOWN 0 0 0 0 UNKNOWN ()) 0) ()) ((NULL (
UNKNOWN 0 0 0 0 UNKNOWN ()) 0) ()) ((NULL (UNKNOWN 0 0 0 0 UNKNOWN ()) 0)
()) ((NULL (UNKNOWN 0 0 0 0 UNKNOWN ()) 0) ()) (() ())) ()) ()) (() ())
(() ()) (() ()) (() ()) ((CONSTANT (INTEGER 4 0 0 0 INTEGER ()) 0 '0') ())
((NULL (UNKNOWN 0 0 0 0 UNKNOWN ()) 0) ()) ((NULL (UNKNOWN 0 0 0 0
UNKNOWN ()) 0) ()) ((NULL (UNKNOWN 0 0 0 0 UNKNOWN ()) 0) ()) ((NULL (
UNKNOWN 0 0 0 0 UNKNOWN ()) 0) ()) ((NULL (UNKNOWN 0 0 0 0 UNKNOWN ()) 0)
()) ((NULL (UNKNOWN 0 0 0 0 UNKNOWN ()) 0) ()) ((NULL (UNKNOWN 0 0 0 0
UNKNOWN ()) 0) ()) ((NULL (UNKNOWN 0 0 0 0 UNKNOWN ()) 0) ()) ((NULL (
UNKNOWN 0 0 0 0 UNKNOWN ()) 0) ()) ((NULL (UNKNOWN 0 0 0 0 UNKNOWN ()) 0)
()) ((CONSTANT (LOGICAL 4 0 0 0 LOGICAL ()) 0 0) ())) ())) (157 'refcount'
(DERIVED 133 0 0 0 DERIVED ()) () (UNKNOWN-FL UNKNOWN-INTENT
UNKNOWN-PROC UNKNOWN UNKNOWN 0 0 POINTER) UNKNOWN-ACCESS (NULL (UNKNOWN
0 0 0 0 UNKNOWN ()) 0)) (158 'aliased' (LOGICAL 4 0 0 0 LOGICAL ()) () (
UNKNOWN-FL UNKNOWN-INTENT UNKNOWN-PROC UNKNOWN UNKNOWN 0 0)
UNKNOWN-ACCESS (CONSTANT (LOGICAL 4 0 0 0 LOGICAL ()) 0 0)) (159
'py_locweight' (REAL 8 0 0 0 REAL ()) (2 0 DEFERRED () () () ()) (
UNKNOWN-FL UNKNOWN-INTENT UNKNOWN-PROC UNKNOWN UNKNOWN 0 0 DIMENSION
POINTER) UNKNOWN-ACCESS (NULL (UNKNOWN 0 0 0 0 UNKNOWN ()) 0)) (160
'py_func' (CHARACTER 1 0 0 0 CHARACTER ((CONSTANT (INTEGER 4 0 0 0
INTEGER ()) 0 '8192'))) () (UNKNOWN-FL UNKNOWN-INTENT UNKNOWN-PROC
UNKNOWN UNKNOWN 0 0) UNKNOWN-ACCESS ()) (161 'py_positions' (DERIVED 89
0 0 0 DERIVED ()) () (UNKNOWN-FL UNKNOWN-INTENT UNKNOWN-PROC UNKNOWN
UNKNOWN 0 0 POINTER) UNKNOWN-ACCESS ()) (162 'py_positions_same_mesh' (
LOGICAL 4 0 0 0 LOGICAL ()) () (UNKNOWN-FL UNKNOWN-INTENT UNKNOWN-PROC
UNKNOWN UNKNOWN 0 0) UNKNOWN-ACCESS ()) (163 'py_dim' (INTEGER 4 0 0 0
INTEGER ()) () (UNKNOWN-FL UNKNOWN-INTENT UNKNOWN-PROC UNKNOWN UNKNOWN 0
0) UNKNOWN-ACCESS ()) (164 'py_positions_shape' (DERIVED 130 0 0 0
DERIVED ()) () (UNKNOWN-FL UNKNOWN-INTENT UNKNOWN-PROC UNKNOWN UNKNOWN 0
0 POINTER) UNKNOWN-ACCESS (NULL (UNKNOWN 0 0 0 0 UNKNOWN ()) 0)) (165
'is_embedded' (LOGICAL 4 0 0 0 LOGICAL ()) () (UNKNOWN-FL UNKNOWN-INTENT
UNKNOWN-PROC UNKNOWN UNKNOWN 0 0) UNKNOWN-ACCESS (CONSTANT (LOGICAL 4 0
0 0 LOGICAL ()) 0 0))) PUBLIC (() () () ()) () 0 0 64912956)
103 'Vector_field_pointer' 'fields_data_types' '' 1 ((DERIVED
UNKNOWN-INTENT UNKNOWN-PROC UNKNOWN UNKNOWN 0 0 POINTER_COMP) (UNKNOWN 0
0 0 0 UNKNOWN ()) 0 0 () () 0 ((166 'ptr' (DERIVED 89 0 0 0 DERIVED ())
() (UNKNOWN-FL UNKNOWN-INTENT UNKNOWN-PROC UNKNOWN UNKNOWN 0 0 POINTER)
UNKNOWN-ACCESS (NULL (UNKNOWN 0 0 0 0 UNKNOWN ()) 0))) PUBLIC (() () ()
()) () 0 0 74448721)
105 'Tensor_field_pointer' 'fields_data_types' '' 1 ((DERIVED
UNKNOWN-INTENT UNKNOWN-PROC UNKNOWN UNKNOWN 0 0 POINTER_COMP) (UNKNOWN 0
0 0 0 UNKNOWN ()) 0 0 () () 0 ((167 'ptr' (DERIVED 88 0 0 0 DERIVED ())
() (UNKNOWN-FL UNKNOWN-INTENT UNKNOWN-PROC UNKNOWN UNKNOWN 0 0 POINTER)
UNKNOWN-ACCESS (NULL (UNKNOWN 0 0 0 0 UNKNOWN ()) 0))) PUBLIC (() () ()
()) () 0 0 16722823)
107 'Scalar_field_pointer' 'fields_data_types' '' 1 ((DERIVED
UNKNOWN-INTENT UNKNOWN-PROC UNKNOWN UNKNOWN 0 0 POINTER_COMP) (UNKNOWN 0
0 0 0 UNKNOWN ()) 0 0 () () 0 ((168 'ptr' (DERIVED 90 0 0 0 DERIVED ())
() (UNKNOWN-FL UNKNOWN-INTENT UNKNOWN-PROC UNKNOWN UNKNOWN 0 0 POINTER)
UNKNOWN-ACCESS (NULL (UNKNOWN 0 0 0 0 UNKNOWN ()) 0))) PUBLIC (() () ()
()) () 0 0 54828570)
109 'Mesh_pointer' 'fields_data_types' '' 1 ((DERIVED UNKNOWN-INTENT
UNKNOWN-PROC UNKNOWN UNKNOWN 0 0 POINTER_COMP) (UNKNOWN 0 0 0 0 UNKNOWN
()) 0 0 () () 0 ((169 'ptr' (DERIVED 129 0 0 0 DERIVED ()) () (
UNKNOWN-FL UNKNOWN-INTENT UNKNOWN-PROC UNKNOWN UNKNOWN 0 0 POINTER)
UNKNOWN-ACCESS (NULL (UNKNOWN 0 0 0 0 UNKNOWN ()) 0))) PUBLIC (() () ()
()) () 0 0 65432384)
111 'Halo_pointer' 'halo_data_types' '' 1 ((DERIVED UNKNOWN-INTENT
UNKNOWN-PROC UNKNOWN UNKNOWN 0 0 POINTER_COMP) (UNKNOWN 0 0 0 0 UNKNOWN
()) 0 0 () () 0 ((170 'ptr' (DERIVED 171 0 0 0 DERIVED ()) () (
UNKNOWN-FL UNKNOWN-INTENT UNKNOWN-PROC UNKNOWN UNKNOWN 0 0 POINTER)
UNKNOWN-ACCESS (NULL (UNKNOWN 0 0 0 0 UNKNOWN ()) 0))) PUBLIC (() () ()
()) () 0 0 72023282)
113 'Csr_sparsity_pointer' 'sparse_tools' '' 1 ((DERIVED UNKNOWN-INTENT
UNKNOWN-PROC UNKNOWN UNKNOWN 0 0 POINTER_COMP) (UNKNOWN 0 0 0 0 UNKNOWN
()) 0 0 () () 0 ((172 'ptr' (DERIVED 173 0 0 0 DERIVED ()) () (
UNKNOWN-FL UNKNOWN-INTENT UNKNOWN-PROC UNKNOWN UNKNOWN 0 0 POINTER)
UNKNOWN-ACCESS (NULL (UNKNOWN 0 0 0 0 UNKNOWN ()) 0))) PUBLIC (() () ()
()) () 0 0 9687815)
115 'Csr_matrix_pointer' 'sparse_tools' '' 1 ((DERIVED UNKNOWN-INTENT
UNKNOWN-PROC UNKNOWN UNKNOWN 0 0 POINTER_COMP) (UNKNOWN 0 0 0 0 UNKNOWN
()) 0 0 () () 0 ((174 'ptr' (DERIVED 175 0 0 0 DERIVED ()) () (
UNKNOWN-FL UNKNOWN-INTENT UNKNOWN-PROC UNKNOWN UNKNOWN 0 0 POINTER)
UNKNOWN-ACCESS (NULL (UNKNOWN 0 0 0 0 UNKNOWN ()) 0))) PUBLIC (() () ()
()) () 0 0 82770239)
117 'Block_csr_matrix_pointer' 'sparse_tools' '' 1 ((DERIVED
UNKNOWN-INTENT UNKNOWN-PROC UNKNOWN UNKNOWN 0 0 POINTER_COMP) (UNKNOWN 0
0 0 0 UNKNOWN ()) 0 0 () () 0 ((176 'ptr' (DERIVED 177 0 0 0 DERIVED ())
() (UNKNOWN-FL UNKNOWN-INTENT UNKNOWN-PROC UNKNOWN UNKNOWN 0 0 POINTER)
UNKNOWN-ACCESS (NULL (UNKNOWN 0 0 0 0 UNKNOWN ()) 0))) PUBLIC (() () ()
()) () 0 0 83606449)
119 'Petsc_csr_matrix_pointer' 'sparse_tools_petsc' '' 1 ((DERIVED
UNKNOWN-INTENT UNKNOWN-PROC UNKNOWN UNKNOWN 0 0 POINTER_COMP) (UNKNOWN 0
0 0 0 UNKNOWN ()) 0 0 () () 0 ((178 'ptr' (DERIVED 179 0 0 0 DERIVED ())
() (UNKNOWN-FL UNKNOWN-INTENT UNKNOWN-PROC UNKNOWN UNKNOWN 0 0 POINTER)
UNKNOWN-ACCESS (NULL (UNKNOWN 0 0 0 0 UNKNOWN ()) 0))) PUBLIC (() () ()
()) () 0 0 85445535)
121 'Dict_struct' 'scalar_field_dictionary' '' 1 ((DERIVED
UNKNOWN-INTENT UNKNOWN-PROC UNKNOWN UNKNOWN 0 0 POINTER_COMP
PRIVATE_COMP) (UNKNOWN 0 0 0 0 UNKNOWN ()) 0 0 () () 0 ((180 'table' (
DERIVED 181 0 0 0 DERIVED ()) (1 0 DEFERRED () ()) (UNKNOWN-FL
UNKNOWN-INTENT UNKNOWN-PROC UNKNOWN UNKNOWN 0 0 DIMENSION POINTER)
UNKNOWN-ACCESS ())) PRIVATE (() () () ()) () 0 0 40394189)
129 'Mesh_type' 'fields_data_types' '' 1 ((DERIVED UNKNOWN-INTENT
UNKNOWN-PROC UNKNOWN UNKNOWN 0 0 POINTER_COMP) (UNKNOWN 0 0 0 0 UNKNOWN
()) 0 0 () () 0 ((182 'ndglno' (INTEGER 4 0 0 0 INTEGER ()) (1 0
DEFERRED () ()) (UNKNOWN-FL UNKNOWN-INTENT UNKNOWN-PROC UNKNOWN UNKNOWN
0 0 DIMENSION POINTER) UNKNOWN-ACCESS ()) (183 'wrapped' (LOGICAL 4 0 0
0 LOGICAL ()) () (UNKNOWN-FL UNKNOWN-INTENT UNKNOWN-PROC UNKNOWN UNKNOWN
0 0) UNKNOWN-ACCESS (CONSTANT (LOGICAL 4 0 0 0 LOGICAL ()) 0 1)) (184
'shape' (DERIVED 130 0 0 0 DERIVED ()) () (UNKNOWN-FL UNKNOWN-INTENT
UNKNOWN-PROC UNKNOWN UNKNOWN 0 0) UNKNOWN-ACCESS (STRUCTURE (DERIVED 130
0 0 0 DERIVED ()) 0 ((() ()) (() ()) (() ()) (() ()) ((NULL (UNKNOWN 0 0
0 0 UNKNOWN ()) 0) ()) ((NULL (UNKNOWN 0 0 0 0 UNKNOWN ()) 0) ()) ((
NULL (UNKNOWN 0 0 0 0 UNKNOWN ()) 0) ()) ((NULL (UNKNOWN 0 0 0 0 UNKNOWN
()) 0) ()) ((NULL (UNKNOWN 0 0 0 0 UNKNOWN ()) 0) ()) ((NULL (UNKNOWN 0
0 0 0 UNKNOWN ()) 0) ()) ((NULL (UNKNOWN 0 0 0 0 UNKNOWN ()) 0) ()) ((
STRUCTURE (DERIVED 131 0 0 0 DERIVED ()) 0 ((() ()) (() ()) (() ()) (()
()) ((NULL (UNKNOWN 0 0 0 0 UNKNOWN ()) 0) ()) ((NULL (UNKNOWN 0 0 0 0
UNKNOWN ()) 0) ()) (() ()) ((NULL (UNKNOWN 0 0 0 0 UNKNOWN ()) 0) ()) (
() ())) ()) ()) ((NULL (UNKNOWN 0 0 0 0 UNKNOWN ()) 0) ()) ((NULL (
UNKNOWN 0 0 0 0 UNKNOWN ()) 0) ()) ((NULL (UNKNOWN 0 0 0 0 UNKNOWN ()) 0)
()) ((NULL (UNKNOWN 0 0 0 0 UNKNOWN ()) 0) ()) (() ())) ())) (185
'elements' (INTEGER 4 0 0 0 INTEGER ()) () (UNKNOWN-FL UNKNOWN-INTENT
UNKNOWN-PROC UNKNOWN UNKNOWN 0 0) UNKNOWN-ACCESS ()) (186 'nodes' (
INTEGER 4 0 0 0 INTEGER ()) () (UNKNOWN-FL UNKNOWN-INTENT UNKNOWN-PROC
UNKNOWN UNKNOWN 0 0) UNKNOWN-ACCESS ()) (187 'name' (CHARACTER 1 0 0 0
CHARACTER ((CONSTANT (INTEGER 4 0 0 0 INTEGER ()) 0 '101'))) () (
UNKNOWN-FL UNKNOWN-INTENT UNKNOWN-PROC UNKNOWN UNKNOWN 0 0)
UNKNOWN-ACCESS ()) (188 'option_path' (CHARACTER 1 0 0 0 CHARACTER ((
CONSTANT (INTEGER 4 0 0 0 INTEGER ()) 0 '8192'))) () (UNKNOWN-FL
UNKNOWN-INTENT UNKNOWN-PROC UNKNOWN UNKNOWN 0 0) UNKNOWN-ACCESS ()) (
189 'continuity' (INTEGER 4 0 0 0 INTEGER ()) () (UNKNOWN-FL
UNKNOWN-INTENT UNKNOWN-PROC UNKNOWN UNKNOWN 0 0) UNKNOWN-ACCESS (
CONSTANT (INTEGER 4 0 0 0 INTEGER ()) 0 '0')) (190 'refcount' (DERIVED
133 0 0 0 DERIVED ()) () (UNKNOWN-FL UNKNOWN-INTENT UNKNOWN-PROC UNKNOWN
UNKNOWN 0 0 POINTER) UNKNOWN-ACCESS (NULL (UNKNOWN 0 0 0 0 UNKNOWN ()) 0))
(191 'faces' (DERIVED 192 0 0 0 DERIVED ()) () (UNKNOWN-FL
UNKNOWN-INTENT UNKNOWN-PROC UNKNOWN UNKNOWN 0 0 POINTER) UNKNOWN-ACCESS
(NULL (UNKNOWN 0 0 0 0 UNKNOWN ()) 0)) (193 'subdomain_mesh' (DERIVED
194 0 0 0 DERIVED ()) () (UNKNOWN-FL UNKNOWN-INTENT UNKNOWN-PROC UNKNOWN
UNKNOWN 0 0 POINTER) UNKNOWN-ACCESS (NULL (UNKNOWN 0 0 0 0 UNKNOWN ()) 0))
(195 'adj_lists' (DERIVED 196 0 0 0 DERIVED ()) () (UNKNOWN-FL
UNKNOWN-INTENT UNKNOWN-PROC UNKNOWN UNKNOWN 0 0 POINTER) UNKNOWN-ACCESS
(NULL (UNKNOWN 0 0 0 0 UNKNOWN ()) 0)) (197 'columns' (INTEGER 4 0 0 0
INTEGER ()) (1 0 DEFERRED () ()) (UNKNOWN-FL UNKNOWN-INTENT UNKNOWN-PROC
UNKNOWN UNKNOWN 0 0 DIMENSION POINTER) UNKNOWN-ACCESS (NULL (UNKNOWN 0 0
0 0 UNKNOWN ()) 0)) (198 'element_columns' (INTEGER 4 0 0 0 INTEGER ())
(1 0 DEFERRED () ()) (UNKNOWN-FL UNKNOWN-INTENT UNKNOWN-PROC UNKNOWN
UNKNOWN 0 0 DIMENSION POINTER) UNKNOWN-ACCESS (NULL (UNKNOWN 0 0 0 0
UNKNOWN ()) 0)) (199 'region_ids' (INTEGER 4 0 0 0 INTEGER ()) (1 0
DEFERRED () ()) (UNKNOWN-FL UNKNOWN-INTENT UNKNOWN-PROC UNKNOWN UNKNOWN
0 0 DIMENSION POINTER) UNKNOWN-ACCESS (NULL (UNKNOWN 0 0 0 0 UNKNOWN ())
0)) (200 'halos' (DERIVED 171 0 0 0 DERIVED ()) (1 0 DEFERRED () ()) (
UNKNOWN-FL UNKNOWN-INTENT UNKNOWN-PROC UNKNOWN UNKNOWN 0 0 DIMENSION
POINTER) UNKNOWN-ACCESS (NULL (UNKNOWN 0 0 0 0 UNKNOWN ()) 0)) (201
'element_halos' (DERIVED 171 0 0 0 DERIVED ()) (1 0 DEFERRED () ()) (
UNKNOWN-FL UNKNOWN-INTENT UNKNOWN-PROC UNKNOWN UNKNOWN 0 0 DIMENSION
POINTER) UNKNOWN-ACCESS (NULL (UNKNOWN 0 0 0 0 UNKNOWN ()) 0)) (202
'colourings' (DERIVED 203 0 0 0 DERIVED ()) (1 0 DEFERRED () ()) (
UNKNOWN-FL UNKNOWN-INTENT UNKNOWN-PROC UNKNOWN UNKNOWN 0 0 DIMENSION
POINTER) UNKNOWN-ACCESS (NULL (UNKNOWN 0 0 0 0 UNKNOWN ()) 0)) (204
'periodic' (LOGICAL 4 0 0 0 LOGICAL ()) () (UNKNOWN-FL UNKNOWN-INTENT
UNKNOWN-PROC UNKNOWN UNKNOWN 0 0) UNKNOWN-ACCESS (CONSTANT (LOGICAL 4 0
0 0 LOGICAL ()) 0 0))) PUBLIC (() () () ()) () 0 0 2572791)
130 'Element_type' 'elements' '' 1 ((DERIVED UNKNOWN-INTENT UNKNOWN-PROC
UNKNOWN UNKNOWN 0 0 POINTER_COMP) (UNKNOWN 0 0 0 0 UNKNOWN ()) 0 0 () ()
0 ((205 'dim' (INTEGER 4 0 0 0 INTEGER ()) () (UNKNOWN-FL UNKNOWN-INTENT
UNKNOWN-PROC UNKNOWN UNKNOWN 0 0) UNKNOWN-ACCESS ()) (206 'loc' (
INTEGER 4 0 0 0 INTEGER ()) () (UNKNOWN-FL UNKNOWN-INTENT UNKNOWN-PROC
UNKNOWN UNKNOWN 0 0) UNKNOWN-ACCESS ()) (207 'ngi' (INTEGER 4 0 0 0
INTEGER ()) () (UNKNOWN-FL UNKNOWN-INTENT UNKNOWN-PROC UNKNOWN UNKNOWN 0
0) UNKNOWN-ACCESS ()) (208 'degree' (INTEGER 4 0 0 0 INTEGER ()) () (
UNKNOWN-FL UNKNOWN-INTENT UNKNOWN-PROC UNKNOWN UNKNOWN 0 0)
UNKNOWN-ACCESS ()) (209 'n' (REAL 8 0 0 0 REAL ()) (2 0 DEFERRED () () ()
()) (UNKNOWN-FL UNKNOWN-INTENT UNKNOWN-PROC UNKNOWN UNKNOWN 0 0
DIMENSION POINTER) UNKNOWN-ACCESS (NULL (UNKNOWN 0 0 0 0 UNKNOWN ()) 0))
(210 'dn' (REAL 8 0 0 0 REAL ()) (3 0 DEFERRED () () () () () ()) (
UNKNOWN-FL UNKNOWN-INTENT UNKNOWN-PROC UNKNOWN UNKNOWN 0 0 DIMENSION
POINTER) UNKNOWN-ACCESS (NULL (UNKNOWN 0 0 0 0 UNKNOWN ()) 0)) (211 'n_s'
(REAL 8 0 0 0 REAL ()) (3 0 DEFERRED () () () () () ()) (UNKNOWN-FL
UNKNOWN-INTENT UNKNOWN-PROC UNKNOWN UNKNOWN 0 0 DIMENSION POINTER)
UNKNOWN-ACCESS (NULL (UNKNOWN 0 0 0 0 UNKNOWN ()) 0)) (212 'dn_s' (REAL
8 0 0 0 REAL ()) (4 0 DEFERRED () () () () () () () ()) (UNKNOWN-FL
UNKNOWN-INTENT UNKNOWN-PROC UNKNOWN UNKNOWN 0 0 DIMENSION POINTER)
UNKNOWN-ACCESS (NULL (UNKNOWN 0 0 0 0 UNKNOWN ()) 0)) (213 'spoly' (
DERIVED 214 0 0 0 DERIVED ()) (2 0 DEFERRED () () () ()) (UNKNOWN-FL
UNKNOWN-INTENT UNKNOWN-PROC UNKNOWN UNKNOWN 0 0 DIMENSION POINTER)
UNKNOWN-ACCESS (NULL (UNKNOWN 0 0 0 0 UNKNOWN ()) 0)) (215 'dspoly' (
DERIVED 214 0 0 0 DERIVED ()) (2 0 DEFERRED () () () ()) (UNKNOWN-FL
UNKNOWN-INTENT UNKNOWN-PROC UNKNOWN UNKNOWN 0 0 DIMENSION POINTER)
UNKNOWN-ACCESS (NULL (UNKNOWN 0 0 0 0 UNKNOWN ()) 0)) (216 'numbering' (
DERIVED 217 0 0 0 DERIVED ()) () (UNKNOWN-FL UNKNOWN-INTENT UNKNOWN-PROC
UNKNOWN UNKNOWN 0 0 POINTER) UNKNOWN-ACCESS (NULL (UNKNOWN 0 0 0 0
UNKNOWN ()) 0)) (218 'quadrature' (DERIVED 131 0 0 0 DERIVED ()) () (
UNKNOWN-FL UNKNOWN-INTENT UNKNOWN-PROC UNKNOWN UNKNOWN 0 0)
UNKNOWN-ACCESS (STRUCTURE (DERIVED 131 0 0 0 DERIVED ()) 0 ((() ()) (()
()) (() ()) (() ()) ((NULL (UNKNOWN 0 0 0 0 UNKNOWN ()) 0) ()) ((NULL (
UNKNOWN 0 0 0 0 UNKNOWN ()) 0) ()) (() ()) ((NULL (UNKNOWN 0 0 0 0
UNKNOWN ()) 0) ()) (() ())) ())) (219 'surface_quadrature' (DERIVED 131
0 0 0 DERIVED ()) () (UNKNOWN-FL UNKNOWN-INTENT UNKNOWN-PROC UNKNOWN
UNKNOWN 0 0 POINTER) UNKNOWN-ACCESS (NULL (UNKNOWN 0 0 0 0 UNKNOWN ()) 0))
(220 'superconvergence' (DERIVED 221 0 0 0 DERIVED ()) () (UNKNOWN-FL
UNKNOWN-INTENT UNKNOWN-PROC UNKNOWN UNKNOWN 0 0 POINTER) UNKNOWN-ACCESS
(NULL (UNKNOWN 0 0 0 0 UNKNOWN ()) 0)) (222 'constraints' (DERIVED 223 0
0 0 DERIVED ()) () (UNKNOWN-FL UNKNOWN-INTENT UNKNOWN-PROC UNKNOWN
UNKNOWN 0 0 POINTER) UNKNOWN-ACCESS (NULL (UNKNOWN 0 0 0 0 UNKNOWN ()) 0))
(224 'refcount' (DERIVED 133 0 0 0 DERIVED ()) () (UNKNOWN-FL
UNKNOWN-INTENT UNKNOWN-PROC UNKNOWN UNKNOWN 0 0 POINTER) UNKNOWN-ACCESS
(NULL (UNKNOWN 0 0 0 0 UNKNOWN ()) 0)) (225 'name' (CHARACTER 1 0 0 0
CHARACTER ((CONSTANT (INTEGER 4 0 0 0 INTEGER ()) 0 '0'))) () (
UNKNOWN-FL UNKNOWN-INTENT UNKNOWN-PROC UNKNOWN UNKNOWN 0 0)
UNKNOWN-ACCESS ())) PUBLIC (() () () ()) () 0 0 79461029)
131 'Quadrature_type' 'quadrature' '' 1 ((DERIVED UNKNOWN-INTENT
UNKNOWN-PROC UNKNOWN UNKNOWN 0 0 POINTER_COMP) (UNKNOWN 0 0 0 0 UNKNOWN
()) 0 0 () () 0 ((226 'dim' (INTEGER 4 0 0 0 INTEGER ()) () (UNKNOWN-FL
UNKNOWN-INTENT UNKNOWN-PROC UNKNOWN UNKNOWN 0 0) UNKNOWN-ACCESS ()) (
227 'degree' (INTEGER 4 0 0 0 INTEGER ()) () (UNKNOWN-FL UNKNOWN-INTENT
UNKNOWN-PROC UNKNOWN UNKNOWN 0 0) UNKNOWN-ACCESS ()) (228 'vertices' (
INTEGER 4 0 0 0 INTEGER ()) () (UNKNOWN-FL UNKNOWN-INTENT UNKNOWN-PROC
UNKNOWN UNKNOWN 0 0) UNKNOWN-ACCESS ()) (229 'ngi' (INTEGER 4 0 0 0
INTEGER ()) () (UNKNOWN-FL UNKNOWN-INTENT UNKNOWN-PROC UNKNOWN UNKNOWN 0
0) UNKNOWN-ACCESS ()) (230 'weight' (REAL 8 0 0 0 REAL ()) (1 0 DEFERRED
() ()) (UNKNOWN-FL UNKNOWN-INTENT UNKNOWN-PROC UNKNOWN UNKNOWN 0 0
DIMENSION POINTER) UNKNOWN-ACCESS (NULL (UNKNOWN 0 0 0 0 UNKNOWN ()) 0))
(231 'l' (REAL 8 0 0 0 REAL ()) (2 0 DEFERRED () () () ()) (UNKNOWN-FL
UNKNOWN-INTENT UNKNOWN-PROC UNKNOWN UNKNOWN 0 0 DIMENSION POINTER)
UNKNOWN-ACCESS (NULL (UNKNOWN 0 0 0 0 UNKNOWN ()) 0)) (232 'name' (
CHARACTER 1 0 0 0 CHARACTER ((CONSTANT (INTEGER 4 0 0 0 INTEGER ()) 0 '0')))
() (UNKNOWN-FL UNKNOWN-INTENT UNKNOWN-PROC UNKNOWN UNKNOWN 0 0)
UNKNOWN-ACCESS ()) (233 'refcount' (DERIVED 133 0 0 0 DERIVED ()) () (
UNKNOWN-FL UNKNOWN-INTENT UNKNOWN-PROC UNKNOWN UNKNOWN 0 0 POINTER)
UNKNOWN-ACCESS (NULL (UNKNOWN 0 0 0 0 UNKNOWN ()) 0)) (234 'family' (
INTEGER 4 0 0 0 INTEGER ()) () (UNKNOWN-FL UNKNOWN-INTENT UNKNOWN-PROC
UNKNOWN UNKNOWN 0 0) UNKNOWN-ACCESS ())) PUBLIC (() () () ()) () 0 0
59837722)
133 'Refcount_type' 'reference_counting' '' 1 ((DERIVED UNKNOWN-INTENT
UNKNOWN-PROC UNKNOWN UNKNOWN 0 0 POINTER_COMP) (UNKNOWN 0 0 0 0 UNKNOWN
()) 0 0 () () 0 ((235 'prev' (DERIVED 133 0 0 0 DERIVED ()) () (
UNKNOWN-FL UNKNOWN-INTENT UNKNOWN-PROC UNKNOWN UNKNOWN 0 0 POINTER)
UNKNOWN-ACCESS (NULL (UNKNOWN 0 0 0 0 UNKNOWN ()) 0)) (236 'next' (
DERIVED 133 0 0 0 DERIVED ()) () (UNKNOWN-FL UNKNOWN-INTENT UNKNOWN-PROC
UNKNOWN UNKNOWN 0 0 POINTER) UNKNOWN-ACCESS (NULL (UNKNOWN 0 0 0 0
UNKNOWN ()) 0)) (237 'count' (INTEGER 4 0 0 0 INTEGER ()) () (
UNKNOWN-FL UNKNOWN-INTENT UNKNOWN-PROC UNKNOWN UNKNOWN 0 0)
UNKNOWN-ACCESS (CONSTANT (INTEGER 4 0 0 0 INTEGER ()) 0 '0')) (238 'id'
(INTEGER 4 0 0 0 INTEGER ()) () (UNKNOWN-FL UNKNOWN-INTENT UNKNOWN-PROC
UNKNOWN UNKNOWN 0 0) UNKNOWN-ACCESS ()) (239 'name' (CHARACTER 1 0 0 0
CHARACTER ((CONSTANT (INTEGER 4 0 0 0 INTEGER ()) 0 '101'))) () (
UNKNOWN-FL UNKNOWN-INTENT UNKNOWN-PROC UNKNOWN UNKNOWN 0 0)
UNKNOWN-ACCESS ()) (240 'type' (CHARACTER 1 0 0 0 CHARACTER ((CONSTANT (
INTEGER 4 0 0 0 INTEGER ()) 0 '101'))) () (UNKNOWN-FL UNKNOWN-INTENT
UNKNOWN-PROC UNKNOWN UNKNOWN 0 0) UNKNOWN-ACCESS ()) (241 'tagged' (
LOGICAL 4 0 0 0 LOGICAL ()) () (UNKNOWN-FL UNKNOWN-INTENT UNKNOWN-PROC
UNKNOWN UNKNOWN 0 0) UNKNOWN-ACCESS (CONSTANT (LOGICAL 4 0 0 0 LOGICAL ())
0 0))) PUBLIC (() () () ()) () 0 0 25948645)
139 'Vector_boundary_conditions_ptr' 'fields_data_types' '' 1 ((DERIVED
UNKNOWN-INTENT UNKNOWN-PROC UNKNOWN UNKNOWN 0 0 POINTER_COMP) (UNKNOWN 0
0 0 0 UNKNOWN ()) 0 0 () () 0 ((242 'boundary_condition' (DERIVED 243 0
0 0 DERIVED ()) (1 0 DEFERRED () ()) (UNKNOWN-FL UNKNOWN-INTENT
UNKNOWN-PROC UNKNOWN UNKNOWN 0 0 DIMENSION POINTER) UNKNOWN-ACCESS (
NULL (UNKNOWN 0 0 0 0 UNKNOWN ()) 0))) PUBLIC (() () () ()) () 0 0
84476181)
147 'Picker_ptr' 'picker_data_types' '' 1 ((DERIVED UNKNOWN-INTENT
UNKNOWN-PROC UNKNOWN UNKNOWN 0 0 POINTER_COMP) (UNKNOWN 0 0 0 0 UNKNOWN
()) 0 0 () () 0 ((244 'ptr' (DERIVED 245 0 0 0 DERIVED ()) () (
UNKNOWN-FL UNKNOWN-INTENT UNKNOWN-PROC UNKNOWN UNKNOWN 0 0 POINTER)
UNKNOWN-ACCESS (NULL (UNKNOWN 0 0 0 0 UNKNOWN ()) 0))) PUBLIC (() () ()
()) () 0 0 71120007)
153 'Scalar_boundary_conditions_ptr' 'fields_data_types' '' 1 ((DERIVED
UNKNOWN-INTENT UNKNOWN-PROC UNKNOWN UNKNOWN 0 0 POINTER_COMP) (UNKNOWN 0
0 0 0 UNKNOWN ()) 0 0 () () 0 ((246 'boundary_condition' (DERIVED 247 0
0 0 DERIVED ()) (1 0 DEFERRED () ()) (UNKNOWN-FL UNKNOWN-INTENT
UNKNOWN-PROC UNKNOWN UNKNOWN 0 0 DIMENSION POINTER) UNKNOWN-ACCESS (
NULL (UNKNOWN 0 0 0 0 UNKNOWN ()) 0))) PUBLIC (() () () ()) () 0 0
47502942)
171 'Halo_type' 'halo_data_types' '' 1 ((DERIVED UNKNOWN-INTENT
UNKNOWN-PROC UNKNOWN UNKNOWN 0 0 POINTER_COMP) (UNKNOWN 0 0 0 0 UNKNOWN
()) 0 0 () () 0 ((248 'name' (CHARACTER 1 0 0 0 CHARACTER ((CONSTANT (
INTEGER 4 0 0 0 INTEGER ()) 0 '101'))) () (UNKNOWN-FL UNKNOWN-INTENT
UNKNOWN-PROC UNKNOWN UNKNOWN 0 0) UNKNOWN-ACCESS ()) (249 'refcount' (
DERIVED 133 0 0 0 DERIVED ()) () (UNKNOWN-FL UNKNOWN-INTENT UNKNOWN-PROC
UNKNOWN UNKNOWN 0 0 POINTER) UNKNOWN-ACCESS (NULL (UNKNOWN 0 0 0 0
UNKNOWN ()) 0)) (250 'data_type' (INTEGER 4 0 0 0 INTEGER ()) () (
UNKNOWN-FL UNKNOWN-INTENT UNKNOWN-PROC UNKNOWN UNKNOWN 0 0)
UNKNOWN-ACCESS (CONSTANT (INTEGER 4 0 0 0 INTEGER ()) 0 '0')) (251
'ordering_scheme' (INTEGER 4 0 0 0 INTEGER ()) () (UNKNOWN-FL
UNKNOWN-INTENT UNKNOWN-PROC UNKNOWN UNKNOWN 0 0) UNKNOWN-ACCESS (
CONSTANT (INTEGER 4 0 0 0 INTEGER ()) 0 '0')) (252 'communicator' (
INTEGER 4 0 0 0 INTEGER ()) () (UNKNOWN-FL UNKNOWN-INTENT UNKNOWN-PROC
UNKNOWN UNKNOWN 0 0) UNKNOWN-ACCESS ()) (253 'nprocs' (INTEGER 4 0 0 0
INTEGER ()) () (UNKNOWN-FL UNKNOWN-INTENT UNKNOWN-PROC UNKNOWN UNKNOWN 0
0) UNKNOWN-ACCESS (CONSTANT (INTEGER 4 0 0 0 INTEGER ()) 0 '0')) (254
'sends' (DERIVED 255 0 0 0 DERIVED ()) (1 0 DEFERRED () ()) (UNKNOWN-FL
UNKNOWN-INTENT UNKNOWN-PROC UNKNOWN UNKNOWN 0 0 DIMENSION POINTER)
UNKNOWN-ACCESS (NULL (UNKNOWN 0 0 0 0 UNKNOWN ()) 0)) (256 'receives' (
DERIVED 255 0 0 0 DERIVED ()) (1 0 DEFERRED () ()) (UNKNOWN-FL
UNKNOWN-INTENT UNKNOWN-PROC UNKNOWN UNKNOWN 0 0 DIMENSION POINTER)
UNKNOWN-ACCESS (NULL (UNKNOWN 0 0 0 0 UNKNOWN ()) 0)) (257 'nowned_nodes'
(INTEGER 4 0 0 0 INTEGER ()) () (UNKNOWN-FL UNKNOWN-INTENT UNKNOWN-PROC
UNKNOWN UNKNOWN 0 0) UNKNOWN-ACCESS (CONSTANT (INTEGER 4 0 0 0 INTEGER ())
0 '-1')) (258 'owners' (INTEGER 4 0 0 0 INTEGER ()) (1 0 DEFERRED () ())
(UNKNOWN-FL UNKNOWN-INTENT UNKNOWN-PROC UNKNOWN UNKNOWN 0 0 DIMENSION
POINTER) UNKNOWN-ACCESS (NULL (UNKNOWN 0 0 0 0 UNKNOWN ()) 0)) (259
'unn_count' (INTEGER 4 0 0 0 INTEGER ()) () (UNKNOWN-FL UNKNOWN-INTENT
UNKNOWN-PROC UNKNOWN UNKNOWN 0 0) UNKNOWN-ACCESS (CONSTANT (INTEGER 4 0
0 0 INTEGER ()) 0 '-1')) (260 'owned_nodes_unn_base' (INTEGER 4 0 0 0
INTEGER ()) (1 0 DEFERRED () ()) (UNKNOWN-FL UNKNOWN-INTENT UNKNOWN-PROC
UNKNOWN UNKNOWN 0 0 DIMENSION POINTER) UNKNOWN-ACCESS (NULL (UNKNOWN 0 0
0 0 UNKNOWN ()) 0)) (261 'my_owned_nodes_unn_base' (INTEGER 4 0 0 0
INTEGER ()) () (UNKNOWN-FL UNKNOWN-INTENT UNKNOWN-PROC UNKNOWN UNKNOWN 0
0) UNKNOWN-ACCESS (CONSTANT (INTEGER 4 0 0 0 INTEGER ()) 0 '-1')) (262
'receives_gnn_to_unn' (INTEGER 4 0 0 0 INTEGER ()) (1 0 DEFERRED () ())
(UNKNOWN-FL UNKNOWN-INTENT UNKNOWN-PROC UNKNOWN UNKNOWN 0 0 DIMENSION
POINTER) UNKNOWN-ACCESS (NULL (UNKNOWN 0 0 0 0 UNKNOWN ()) 0)) (263
'gnn_to_unn' (INTEGER 4 0 0 0 INTEGER ()) (1 0 DEFERRED () ()) (
UNKNOWN-FL UNKNOWN-INTENT UNKNOWN-PROC UNKNOWN UNKNOWN 0 0 DIMENSION
POINTER) UNKNOWN-ACCESS (NULL (UNKNOWN 0 0 0 0 UNKNOWN ()) 0))) PUBLIC (
() () () ()) () 0 0 63994053)
173 'Csr_sparsity' 'sparse_tools' '' 1 ((DERIVED UNKNOWN-INTENT
UNKNOWN-PROC UNKNOWN UNKNOWN 0 0 POINTER_COMP) (UNKNOWN 0 0 0 0 UNKNOWN
()) 0 0 () () 0 ((264 'findrm' (INTEGER 4 0 0 0 INTEGER ()) (1 0
DEFERRED () ()) (UNKNOWN-FL UNKNOWN-INTENT UNKNOWN-PROC UNKNOWN UNKNOWN
0 0 DIMENSION POINTER) UNKNOWN-ACCESS (NULL (UNKNOWN 0 0 0 0 UNKNOWN ())
0)) (265 'centrm' (INTEGER 4 0 0 0 INTEGER ()) (1 0 DEFERRED () ()) (
UNKNOWN-FL UNKNOWN-INTENT UNKNOWN-PROC UNKNOWN UNKNOWN 0 0 DIMENSION
POINTER) UNKNOWN-ACCESS (NULL (UNKNOWN 0 0 0 0 UNKNOWN ()) 0)) (266 'colm'
(INTEGER 4 0 0 0 INTEGER ()) (1 0 DEFERRED () ()) (UNKNOWN-FL
UNKNOWN-INTENT UNKNOWN-PROC UNKNOWN UNKNOWN 0 0 DIMENSION POINTER)
UNKNOWN-ACCESS (NULL (UNKNOWN 0 0 0 0 UNKNOWN ()) 0)) (267 'columns' (
INTEGER 4 0 0 0 INTEGER ()) () (UNKNOWN-FL UNKNOWN-INTENT UNKNOWN-PROC
UNKNOWN UNKNOWN 0 0) UNKNOWN-ACCESS ()) (268 'row_halo' (DERIVED 171 0 0
0 DERIVED ()) () (UNKNOWN-FL UNKNOWN-INTENT UNKNOWN-PROC UNKNOWN UNKNOWN
0 0 POINTER) UNKNOWN-ACCESS (NULL (UNKNOWN 0 0 0 0 UNKNOWN ()) 0)) (269
'column_halo' (DERIVED 171 0 0 0 DERIVED ()) () (UNKNOWN-FL
UNKNOWN-INTENT UNKNOWN-PROC UNKNOWN UNKNOWN 0 0 POINTER) UNKNOWN-ACCESS
(NULL (UNKNOWN 0 0 0 0 UNKNOWN ()) 0)) (270 'refcount' (DERIVED 133 0 0
0 DERIVED ()) () (UNKNOWN-FL UNKNOWN-INTENT UNKNOWN-PROC UNKNOWN UNKNOWN
0 0 POINTER) UNKNOWN-ACCESS (NULL (UNKNOWN 0 0 0 0 UNKNOWN ()) 0)) (271
'name' (CHARACTER 1 0 0 0 CHARACTER ((CONSTANT (INTEGER 4 0 0 0 INTEGER
()) 0 '101'))) () (UNKNOWN-FL UNKNOWN-INTENT UNKNOWN-PROC UNKNOWN
UNKNOWN 0 0) UNKNOWN-ACCESS (CONSTANT (CHARACTER 1 0 0 0 CHARACTER (()))
0 101
'                                                                                                     '))
(272 'wrapped' (LOGICAL 4 0 0 0 LOGICAL ()) () (UNKNOWN-FL
UNKNOWN-INTENT UNKNOWN-PROC UNKNOWN UNKNOWN 0 0) UNKNOWN-ACCESS (
CONSTANT (LOGICAL 4 0 0 0 LOGICAL ()) 0 0)) (273 'sorted_rows' (LOGICAL
4 0 0 0 LOGICAL ()) () (UNKNOWN-FL UNKNOWN-INTENT UNKNOWN-PROC UNKNOWN
UNKNOWN 0 0) UNKNOWN-ACCESS (CONSTANT (LOGICAL 4 0 0 0 LOGICAL ()) 0 0)))
PUBLIC (() () () ()) () 0 0 78882345)
175 'Csr_matrix' 'sparse_tools' '' 1 ((DERIVED UNKNOWN-INTENT
UNKNOWN-PROC UNKNOWN UNKNOWN 0 0 POINTER_COMP) (UNKNOWN 0 0 0 0 UNKNOWN
()) 0 0 () () 0 ((274 'sparsity' (DERIVED 173 0 0 0 DERIVED ()) () (
UNKNOWN-FL UNKNOWN-INTENT UNKNOWN-PROC UNKNOWN UNKNOWN 0 0)
UNKNOWN-ACCESS (STRUCTURE (DERIVED 173 0 0 0 DERIVED ()) 0 (((NULL (
UNKNOWN 0 0 0 0 UNKNOWN ()) 0) ()) ((NULL (UNKNOWN 0 0 0 0 UNKNOWN ()) 0)
()) ((NULL (UNKNOWN 0 0 0 0 UNKNOWN ()) 0) ()) (() ()) ((NULL (UNKNOWN 0
0 0 0 UNKNOWN ()) 0) ()) ((NULL (UNKNOWN 0 0 0 0 UNKNOWN ()) 0) ()) ((
NULL (UNKNOWN 0 0 0 0 UNKNOWN ()) 0) ()) ((CONSTANT (CHARACTER 1 0 0 0
CHARACTER (())) 0 101
'                                                                                                     ')
()) ((CONSTANT (LOGICAL 4 0 0 0 LOGICAL ()) 0 0) ()) ((CONSTANT (
LOGICAL 4 0 0 0 LOGICAL ()) 0 0) ())) ())) (275 'val' (REAL 8 0 0 0 REAL
()) (1 0 DEFERRED () ()) (UNKNOWN-FL UNKNOWN-INTENT UNKNOWN-PROC UNKNOWN
UNKNOWN 0 0 DIMENSION POINTER) UNKNOWN-ACCESS (NULL (UNKNOWN 0 0 0 0
UNKNOWN ()) 0)) (276 'ival' (INTEGER 4 0 0 0 INTEGER ()) (1 0 DEFERRED ()
()) (UNKNOWN-FL UNKNOWN-INTENT UNKNOWN-PROC UNKNOWN UNKNOWN 0 0
DIMENSION POINTER) UNKNOWN-ACCESS (NULL (UNKNOWN 0 0 0 0 UNKNOWN ()) 0))
(277 'clone' (LOGICAL 4 0 0 0 LOGICAL ()) () (UNKNOWN-FL UNKNOWN-INTENT
UNKNOWN-PROC UNKNOWN UNKNOWN 0 0) UNKNOWN-ACCESS (CONSTANT (LOGICAL 4 0
0 0 LOGICAL ()) 0 0)) (278 'external_val' (LOGICAL 4 0 0 0 LOGICAL ()) ()
(UNKNOWN-FL UNKNOWN-INTENT UNKNOWN-PROC UNKNOWN UNKNOWN 0 0)
UNKNOWN-ACCESS (CONSTANT (LOGICAL 4 0 0 0 LOGICAL ()) 0 0)) (279
'inactive' (DERIVED 280 0 0 0 DERIVED ()) () (UNKNOWN-FL UNKNOWN-INTENT
UNKNOWN-PROC UNKNOWN UNKNOWN 0 0 POINTER) UNKNOWN-ACCESS ()) (281 'ksp'
(INTEGER 8 0 0 0 INTEGER ()) () (UNKNOWN-FL UNKNOWN-INTENT UNKNOWN-PROC
UNKNOWN UNKNOWN 0 0 POINTER) UNKNOWN-ACCESS (NULL (UNKNOWN 0 0 0 0
UNKNOWN ()) 0)) (282 'refcount' (DERIVED 133 0 0 0 DERIVED ()) () (
UNKNOWN-FL UNKNOWN-INTENT UNKNOWN-PROC UNKNOWN UNKNOWN 0 0 POINTER)
UNKNOWN-ACCESS (NULL (UNKNOWN 0 0 0 0 UNKNOWN ()) 0)) (283 'name' (
CHARACTER 1 0 0 0 CHARACTER ((CONSTANT (INTEGER 4 0 0 0 INTEGER ()) 0
'101'))) () (UNKNOWN-FL UNKNOWN-INTENT UNKNOWN-PROC UNKNOWN UNKNOWN 0 0)
UNKNOWN-ACCESS (CONSTANT (CHARACTER 1 0 0 0 CHARACTER (())) 0 101
'                                                                                                     ')))
PUBLIC (() () () ()) () 0 0 66371681)
177 'Block_csr_matrix' 'sparse_tools' '' 1 ((DERIVED UNKNOWN-INTENT
UNKNOWN-PROC UNKNOWN UNKNOWN 0 0 POINTER_COMP) (UNKNOWN 0 0 0 0 UNKNOWN
()) 0 0 () () 0 ((284 'sparsity' (DERIVED 173 0 0 0 DERIVED ()) () (
UNKNOWN-FL UNKNOWN-INTENT UNKNOWN-PROC UNKNOWN UNKNOWN 0 0)
UNKNOWN-ACCESS (STRUCTURE (DERIVED 173 0 0 0 DERIVED ()) 0 (((NULL (
UNKNOWN 0 0 0 0 UNKNOWN ()) 0) ()) ((NULL (UNKNOWN 0 0 0 0 UNKNOWN ()) 0)
()) ((NULL (UNKNOWN 0 0 0 0 UNKNOWN ()) 0) ()) (() ()) ((NULL (UNKNOWN 0
0 0 0 UNKNOWN ()) 0) ()) ((NULL (UNKNOWN 0 0 0 0 UNKNOWN ()) 0) ()) ((
NULL (UNKNOWN 0 0 0 0 UNKNOWN ()) 0) ()) ((CONSTANT (CHARACTER 1 0 0 0
CHARACTER (())) 0 101
'                                                                                                     ')
()) ((CONSTANT (LOGICAL 4 0 0 0 LOGICAL ()) 0 0) ()) ((CONSTANT (
LOGICAL 4 0 0 0 LOGICAL ()) 0 0) ())) ())) (285 'val' (DERIVED 286 0 0 0
DERIVED ()) (2 0 DEFERRED () () () ()) (UNKNOWN-FL UNKNOWN-INTENT
UNKNOWN-PROC UNKNOWN UNKNOWN 0 0 DIMENSION POINTER) UNKNOWN-ACCESS (
NULL (UNKNOWN 0 0 0 0 UNKNOWN ()) 0)) (287 'contiguous_val' (REAL 8 0 0
0 REAL ()) (1 0 DEFERRED () ()) (UNKNOWN-FL UNKNOWN-INTENT UNKNOWN-PROC
UNKNOWN UNKNOWN 0 0 DIMENSION POINTER) UNKNOWN-ACCESS (NULL (UNKNOWN 0 0
0 0 UNKNOWN ()) 0)) (288 'ival' (DERIVED 255 0 0 0 DERIVED ()) (2 0
DEFERRED () () () ()) (UNKNOWN-FL UNKNOWN-INTENT UNKNOWN-PROC UNKNOWN
UNKNOWN 0 0 DIMENSION POINTER) UNKNOWN-ACCESS (NULL (UNKNOWN 0 0 0 0
UNKNOWN ()) 0)) (289 'blocks' (INTEGER 4 0 0 0 INTEGER ()) (1 0 EXPLICIT
(CONSTANT (INTEGER 4 0 0 0 INTEGER ()) 0 '1') (CONSTANT (INTEGER 4 0 0 0
INTEGER ()) 0 '2')) (UNKNOWN-FL UNKNOWN-INTENT UNKNOWN-PROC UNKNOWN
UNKNOWN 0 0 DIMENSION) UNKNOWN-ACCESS (ARRAY (INTEGER 4 0 0 0 INTEGER ())
1 (((CONSTANT (INTEGER 4 0 0 0 INTEGER ()) 0 '0') ()) ((CONSTANT (
INTEGER 4 0 0 0 INTEGER ()) 0 '0') ())) ('2'))) (290 'clone' (LOGICAL 4
0 0 0 LOGICAL ()) () (UNKNOWN-FL UNKNOWN-INTENT UNKNOWN-PROC UNKNOWN
UNKNOWN 0 0) UNKNOWN-ACCESS (CONSTANT (LOGICAL 4 0 0 0 LOGICAL ()) 0 0))
(291 'external_val' (LOGICAL 4 0 0 0 LOGICAL ()) () (UNKNOWN-FL
UNKNOWN-INTENT UNKNOWN-PROC UNKNOWN UNKNOWN 0 0) UNKNOWN-ACCESS (
CONSTANT (LOGICAL 4 0 0 0 LOGICAL ()) 0 0)) (292 'columns' (INTEGER 4 0
0 0 INTEGER ()) () (UNKNOWN-FL UNKNOWN-INTENT UNKNOWN-PROC UNKNOWN
UNKNOWN 0 0) UNKNOWN-ACCESS ()) (293 'refcount' (DERIVED 133 0 0 0
DERIVED ()) () (UNKNOWN-FL UNKNOWN-INTENT UNKNOWN-PROC UNKNOWN UNKNOWN 0
0 POINTER) UNKNOWN-ACCESS (NULL (UNKNOWN 0 0 0 0 UNKNOWN ()) 0)) (294
'name' (CHARACTER 1 0 0 0 CHARACTER ((CONSTANT (INTEGER 4 0 0 0 INTEGER
()) 0 '101'))) () (UNKNOWN-FL UNKNOWN-INTENT UNKNOWN-PROC UNKNOWN
UNKNOWN 0 0) UNKNOWN-ACCESS (CONSTANT (CHARACTER 1 0 0 0 CHARACTER (()))
0 101
'                                                                                                     '))
(295 'diagonal' (LOGICAL 4 0 0 0 LOGICAL ()) () (UNKNOWN-FL
UNKNOWN-INTENT UNKNOWN-PROC UNKNOWN UNKNOWN 0 0) UNKNOWN-ACCESS (
CONSTANT (LOGICAL 4 0 0 0 LOGICAL ()) 0 0)) (296 'equal_diagonal_blocks'
(LOGICAL 4 0 0 0 LOGICAL ()) () (UNKNOWN-FL UNKNOWN-INTENT UNKNOWN-PROC
UNKNOWN UNKNOWN 0 0) UNKNOWN-ACCESS (CONSTANT (LOGICAL 4 0 0 0 LOGICAL ())
0 0)) (297 'ksp' (INTEGER 8 0 0 0 INTEGER ()) () (UNKNOWN-FL
UNKNOWN-INTENT UNKNOWN-PROC UNKNOWN UNKNOWN 0 0 POINTER) UNKNOWN-ACCESS
(NULL (UNKNOWN 0 0 0 0 UNKNOWN ()) 0))) PUBLIC (() () () ()) () 0 0
61921235)
179 'Petsc_csr_matrix' 'sparse_tools_petsc' '' 1 ((DERIVED
UNKNOWN-INTENT UNKNOWN-PROC UNKNOWN UNKNOWN 0 0 POINTER_COMP) (UNKNOWN 0
0 0 0 UNKNOWN ()) 0 0 () () 0 ((298 'm' (INTEGER 8 0 0 0 INTEGER ()) ()
(UNKNOWN-FL UNKNOWN-INTENT UNKNOWN-PROC UNKNOWN UNKNOWN 0 0)
UNKNOWN-ACCESS ()) (299 'row_numbering' (DERIVED 300 0 0 0 DERIVED ()) ()
(UNKNOWN-FL UNKNOWN-INTENT UNKNOWN-PROC UNKNOWN UNKNOWN 0 0)
UNKNOWN-ACCESS (STRUCTURE (DERIVED 300 0 0 0 DERIVED ()) 0 (((NULL (
UNKNOWN 0 0 0 0 UNKNOWN ()) 0) ()) (() ()) (() ()) (() ()) (() ()) ((
NULL (UNKNOWN 0 0 0 0 UNKNOWN ()) 0) ()) ((NULL (UNKNOWN 0 0 0 0 UNKNOWN
()) 0) ()) ((NULL (UNKNOWN 0 0 0 0 UNKNOWN ()) 0) ()) ((CONSTANT (
CHARACTER 1 0 0 0 CHARACTER (())) 0 101
'                                                                                                     ')
())) ())) (301 'column_numbering' (DERIVED 300 0 0 0 DERIVED ()) () (
UNKNOWN-FL UNKNOWN-INTENT UNKNOWN-PROC UNKNOWN UNKNOWN 0 0)
UNKNOWN-ACCESS (STRUCTURE (DERIVED 300 0 0 0 DERIVED ()) 0 (((NULL (
UNKNOWN 0 0 0 0 UNKNOWN ()) 0) ()) (() ()) (() ()) (() ()) (() ()) ((
NULL (UNKNOWN 0 0 0 0 UNKNOWN ()) 0) ()) ((NULL (UNKNOWN 0 0 0 0 UNKNOWN
()) 0) ()) ((NULL (UNKNOWN 0 0 0 0 UNKNOWN ()) 0) ()) ((CONSTANT (
CHARACTER 1 0 0 0 CHARACTER (())) 0 101
'                                                                                                     ')
())) ())) (302 'row_halo' (DERIVED 171 0 0 0 DERIVED ()) () (UNKNOWN-FL
UNKNOWN-INTENT UNKNOWN-PROC UNKNOWN UNKNOWN 0 0 POINTER) UNKNOWN-ACCESS
(NULL (UNKNOWN 0 0 0 0 UNKNOWN ()) 0)) (303 'column_halo' (DERIVED 171 0
0 0 DERIVED ()) () (UNKNOWN-FL UNKNOWN-INTENT UNKNOWN-PROC UNKNOWN
UNKNOWN 0 0 POINTER) UNKNOWN-ACCESS (NULL (UNKNOWN 0 0 0 0 UNKNOWN ()) 0))
(304 'refcount' (DERIVED 133 0 0 0 DERIVED ()) () (UNKNOWN-FL
UNKNOWN-INTENT UNKNOWN-PROC UNKNOWN UNKNOWN 0 0 POINTER) UNKNOWN-ACCESS
(NULL (UNKNOWN 0 0 0 0 UNKNOWN ()) 0)) (305 'name' (CHARACTER 1 0 0 0
CHARACTER ((CONSTANT (INTEGER 4 0 0 0 INTEGER ()) 0 '101'))) () (
UNKNOWN-FL UNKNOWN-INTENT UNKNOWN-PROC UNKNOWN UNKNOWN 0 0)
UNKNOWN-ACCESS (CONSTANT (CHARACTER 1 0 0 0 CHARACTER (())) 0 101
'                                                                                                     '))
(306 'is_assembled' (LOGICAL 4 0 0 0 LOGICAL ()) () (UNKNOWN-FL
UNKNOWN-INTENT UNKNOWN-PROC UNKNOWN UNKNOWN 0 0) UNKNOWN-ACCESS (
CONSTANT (LOGICAL 4 0 0 0 LOGICAL ()) 0 0))) PUBLIC (() () () ()) () 0 0
75554753)
181 'Hash_list' 'scalar_field_dictionary' '' 1 ((DERIVED UNKNOWN-INTENT
UNKNOWN-PROC UNKNOWN UNKNOWN 0 0 POINTER_COMP) (UNKNOWN 0 0 0 0 UNKNOWN
()) 0 0 () () 0 ((307 'list' (DERIVED 308 0 0 0 DERIVED ()) () (
UNKNOWN-FL UNKNOWN-INTENT UNKNOWN-PROC UNKNOWN UNKNOWN 0 0 POINTER)
UNKNOWN-ACCESS ())) PUBLIC (() () () ()) () 0 0 75083678)
192 'Mesh_faces' 'fields_data_types' '' 1 ((DERIVED UNKNOWN-INTENT
UNKNOWN-PROC UNKNOWN UNKNOWN 0 0 POINTER_COMP) (UNKNOWN 0 0 0 0 UNKNOWN
()) 0 0 () () 0 ((309 'shape' (DERIVED 130 0 0 0 DERIVED ()) () (
UNKNOWN-FL UNKNOWN-INTENT UNKNOWN-PROC UNKNOWN UNKNOWN 0 0 POINTER)
UNKNOWN-ACCESS ()) (310 'face_list' (DERIVED 175 0 0 0 DERIVED ()) () (
UNKNOWN-FL UNKNOWN-INTENT UNKNOWN-PROC UNKNOWN UNKNOWN 0 0)
UNKNOWN-ACCESS (STRUCTURE (DERIVED 175 0 0 0 DERIVED ()) 0 (((STRUCTURE
(DERIVED 173 0 0 0 DERIVED ()) 0 (((NULL (UNKNOWN 0 0 0 0 UNKNOWN ()) 0)
()) ((NULL (UNKNOWN 0 0 0 0 UNKNOWN ()) 0) ()) ((NULL (UNKNOWN 0 0 0 0
UNKNOWN ()) 0) ()) (() ()) ((NULL (UNKNOWN 0 0 0 0 UNKNOWN ()) 0) ()) (
(NULL (UNKNOWN 0 0 0 0 UNKNOWN ()) 0) ()) ((NULL (UNKNOWN 0 0 0 0
UNKNOWN ()) 0) ()) ((CONSTANT (CHARACTER 1 0 0 0 CHARACTER (())) 0 101
'                                                                                                     ')
()) ((CONSTANT (LOGICAL 4 0 0 0 LOGICAL ()) 0 0) ()) ((CONSTANT (
LOGICAL 4 0 0 0 LOGICAL ()) 0 0) ())) ()) ()) ((NULL (UNKNOWN 0 0 0 0
UNKNOWN ()) 0) ()) ((NULL (UNKNOWN 0 0 0 0 UNKNOWN ()) 0) ()) ((
CONSTANT (LOGICAL 4 0 0 0 LOGICAL ()) 0 0) ()) ((CONSTANT (LOGICAL 4 0 0
0 LOGICAL ()) 0 0) ()) (() ()) ((NULL (UNKNOWN 0 0 0 0 UNKNOWN ()) 0) ())
((NULL (UNKNOWN 0 0 0 0 UNKNOWN ()) 0) ()) ((CONSTANT (CHARACTER 1 0 0 0
CHARACTER (())) 0 101
'                                                                                                     ')
())) ())) (311 'face_lno' (INTEGER 4 0 0 0 INTEGER ()) (1 0 DEFERRED ()
()) (UNKNOWN-FL UNKNOWN-INTENT UNKNOWN-PROC UNKNOWN UNKNOWN 0 0
DIMENSION POINTER) UNKNOWN-ACCESS ()) (312 'surface_mesh' (DERIVED 129 0
0 0 DERIVED ()) () (UNKNOWN-FL UNKNOWN-INTENT UNKNOWN-PROC UNKNOWN
UNKNOWN 0 0) UNKNOWN-ACCESS (STRUCTURE (DERIVED 129 0 0 0 DERIVED ()) 0
((() ()) ((CONSTANT (LOGICAL 4 0 0 0 LOGICAL ()) 0 1) ()) ((STRUCTURE (
DERIVED 130 0 0 0 DERIVED ()) 0 ((() ()) (() ()) (() ()) (() ()) ((NULL
(UNKNOWN 0 0 0 0 UNKNOWN ()) 0) ()) ((NULL (UNKNOWN 0 0 0 0 UNKNOWN ())
0) ()) ((NULL (UNKNOWN 0 0 0 0 UNKNOWN ()) 0) ()) ((NULL (UNKNOWN 0 0 0
0 UNKNOWN ()) 0) ()) ((NULL (UNKNOWN 0 0 0 0 UNKNOWN ()) 0) ()) ((NULL (
UNKNOWN 0 0 0 0 UNKNOWN ()) 0) ()) ((NULL (UNKNOWN 0 0 0 0 UNKNOWN ()) 0)
()) ((STRUCTURE (DERIVED 131 0 0 0 DERIVED ()) 0 ((() ()) (() ()) (() ())
(() ()) ((NULL (UNKNOWN 0 0 0 0 UNKNOWN ()) 0) ()) ((NULL (UNKNOWN 0 0 0
0 UNKNOWN ()) 0) ()) (() ()) ((NULL (UNKNOWN 0 0 0 0 UNKNOWN ()) 0) ())
(() ())) ()) ()) ((NULL (UNKNOWN 0 0 0 0 UNKNOWN ()) 0) ()) ((NULL (
UNKNOWN 0 0 0 0 UNKNOWN ()) 0) ()) ((NULL (UNKNOWN 0 0 0 0 UNKNOWN ()) 0)
()) ((NULL (UNKNOWN 0 0 0 0 UNKNOWN ()) 0) ()) (() ())) ()) ()) (() ())
(() ()) (() ()) (() ()) ((CONSTANT (INTEGER 4 0 0 0 INTEGER ()) 0 '0') ())
((NULL (UNKNOWN 0 0 0 0 UNKNOWN ()) 0) ()) ((NULL (UNKNOWN 0 0 0 0
UNKNOWN ()) 0) ()) ((NULL (UNKNOWN 0 0 0 0 UNKNOWN ()) 0) ()) ((NULL (
UNKNOWN 0 0 0 0 UNKNOWN ()) 0) ()) ((NULL (UNKNOWN 0 0 0 0 UNKNOWN ()) 0)
()) ((NULL (UNKNOWN 0 0 0 0 UNKNOWN ()) 0) ()) ((NULL (UNKNOWN 0 0 0 0
UNKNOWN ()) 0) ()) ((NULL (UNKNOWN 0 0 0 0 UNKNOWN ()) 0) ()) ((NULL (
UNKNOWN 0 0 0 0 UNKNOWN ()) 0) ()) ((NULL (UNKNOWN 0 0 0 0 UNKNOWN ()) 0)
()) ((CONSTANT (LOGICAL 4 0 0 0 LOGICAL ()) 0 0) ())) ())) (313
'surface_node_list' (INTEGER 4 0 0 0 INTEGER ()) (1 0 DEFERRED () ()) (
UNKNOWN-FL UNKNOWN-INTENT UNKNOWN-PROC UNKNOWN UNKNOWN 0 0 DIMENSION
POINTER) UNKNOWN-ACCESS ()) (314 'face_element_list' (INTEGER 4 0 0 0
INTEGER ()) (1 0 DEFERRED () ()) (UNKNOWN-FL UNKNOWN-INTENT UNKNOWN-PROC
UNKNOWN UNKNOWN 0 0 DIMENSION POINTER) UNKNOWN-ACCESS ()) (315
'boundary_ids' (INTEGER 4 0 0 0 INTEGER ()) (1 0 DEFERRED () ()) (
UNKNOWN-FL UNKNOWN-INTENT UNKNOWN-PROC UNKNOWN UNKNOWN 0 0 DIMENSION
POINTER) UNKNOWN-ACCESS ()) (316 'coplanar_ids' (INTEGER 4 0 0 0 INTEGER
()) (1 0 DEFERRED () ()) (UNKNOWN-FL UNKNOWN-INTENT UNKNOWN-PROC UNKNOWN
UNKNOWN 0 0 DIMENSION POINTER) UNKNOWN-ACCESS (NULL (UNKNOWN 0 0 0 0
UNKNOWN ()) 0)) (317 'dg_surface_mesh' (DERIVED 129 0 0 0 DERIVED ()) ()
(UNKNOWN-FL UNKNOWN-INTENT UNKNOWN-PROC UNKNOWN UNKNOWN 0 0 POINTER)
UNKNOWN-ACCESS (NULL (UNKNOWN 0 0 0 0 UNKNOWN ()) 0)) (318
'has_discontinuous_internal_boundaries' (LOGICAL 4 0 0 0 LOGICAL ()) ()
(UNKNOWN-FL UNKNOWN-INTENT UNKNOWN-PROC UNKNOWN UNKNOWN 0 0)
UNKNOWN-ACCESS (CONSTANT (LOGICAL 4 0 0 0 LOGICAL ()) 0 0)) (319
'unique_surface_element_count' (INTEGER 4 0 0 0 INTEGER ()) () (
UNKNOWN-FL UNKNOWN-INTENT UNKNOWN-PROC UNKNOWN UNKNOWN 0 0)
UNKNOWN-ACCESS ())) PUBLIC (() () () ()) () 0 0 11936185)
194 'Mesh_subdomain_mesh' 'fields_data_types' '' 1 ((DERIVED
UNKNOWN-INTENT UNKNOWN-PROC UNKNOWN UNKNOWN 0 0 POINTER_COMP) (UNKNOWN 0
0 0 0 UNKNOWN ()) 0 0 () () 0 ((320 'element_list' (INTEGER 4 0 0 0
INTEGER ()) (1 0 DEFERRED () ()) (UNKNOWN-FL UNKNOWN-INTENT UNKNOWN-PROC
UNKNOWN UNKNOWN 0 0 DIMENSION POINTER) UNKNOWN-ACCESS ()) (321 'node_list'
(INTEGER 4 0 0 0 INTEGER ()) (1 0 DEFERRED () ()) (UNKNOWN-FL
UNKNOWN-INTENT UNKNOWN-PROC UNKNOWN UNKNOWN 0 0 DIMENSION POINTER)
UNKNOWN-ACCESS ())) PUBLIC (() () () ()) () 0 0 85302181)
196 'Adjacency_cache' 'fields_data_types' '' 1 ((DERIVED UNKNOWN-INTENT
UNKNOWN-PROC UNKNOWN UNKNOWN 0 0 POINTER_COMP) (UNKNOWN 0 0 0 0 UNKNOWN
()) 0 0 () () 0 ((322 'nnlist' (DERIVED 173 0 0 0 DERIVED ()) () (
UNKNOWN-FL UNKNOWN-INTENT UNKNOWN-PROC UNKNOWN UNKNOWN 0 0 POINTER)
UNKNOWN-ACCESS (NULL (UNKNOWN 0 0 0 0 UNKNOWN ()) 0)) (323 'nelist' (
DERIVED 173 0 0 0 DERIVED ()) () (UNKNOWN-FL UNKNOWN-INTENT UNKNOWN-PROC
UNKNOWN UNKNOWN 0 0 POINTER) UNKNOWN-ACCESS (NULL (UNKNOWN 0 0 0 0
UNKNOWN ()) 0)) (324 'eelist' (DERIVED 173 0 0 0 DERIVED ()) () (
UNKNOWN-FL UNKNOWN-INTENT UNKNOWN-PROC UNKNOWN UNKNOWN 0 0 POINTER)
UNKNOWN-ACCESS (NULL (UNKNOWN 0 0 0 0 UNKNOWN ()) 0))) PUBLIC (() () ()
()) () 0 0 37419158)
203 'Integer_set_vector' 'integer_set_module' '' 1 ((DERIVED
UNKNOWN-INTENT UNKNOWN-PROC UNKNOWN UNKNOWN 0 0 POINTER_COMP) (UNKNOWN 0
0 0 0 UNKNOWN ()) 0 0 () () 0 ((325 'sets' (DERIVED 326 0 0 0 DERIVED ())
(1 0 DEFERRED () ()) (UNKNOWN-FL UNKNOWN-INTENT UNKNOWN-PROC UNKNOWN
UNKNOWN 0 0 DIMENSION POINTER) UNKNOWN-ACCESS ())) PUBLIC (() () () ())
() 0 0 40688950)
214 'Polynomial' 'polynomials' '' 1 ((DERIVED UNKNOWN-INTENT
UNKNOWN-PROC UNKNOWN UNKNOWN 0 0 POINTER_COMP) (UNKNOWN 0 0 0 0 UNKNOWN
()) 0 0 () () 0 ((327 'coefs' (REAL 8 0 0 0 REAL ()) (1 0 DEFERRED () ())
(UNKNOWN-FL UNKNOWN-INTENT UNKNOWN-PROC UNKNOWN UNKNOWN 0 0 DIMENSION
POINTER) UNKNOWN-ACCESS (NULL (UNKNOWN 0 0 0 0 UNKNOWN ()) 0)) (328
'degree' (INTEGER 4 0 0 0 INTEGER ()) () (UNKNOWN-FL UNKNOWN-INTENT
UNKNOWN-PROC UNKNOWN UNKNOWN 0 0) UNKNOWN-ACCESS (CONSTANT (INTEGER 4 0
0 0 INTEGER ()) 0 '-1'))) PUBLIC (() () () ()) () 0 0 87989236)
217 'Ele_numbering_type' 'element_numbering' '' 1 ((DERIVED
UNKNOWN-INTENT UNKNOWN-PROC UNKNOWN UNKNOWN 0 0 POINTER_COMP) (UNKNOWN 0
0 0 0 UNKNOWN ()) 0 0 () () 0 ((329 'faces' (INTEGER 4 0 0 0 INTEGER ())
() (UNKNOWN-FL UNKNOWN-INTENT UNKNOWN-PROC UNKNOWN UNKNOWN 0 0)
UNKNOWN-ACCESS ()) (330 'vertices' (INTEGER 4 0 0 0 INTEGER ()) () (
UNKNOWN-FL UNKNOWN-INTENT UNKNOWN-PROC UNKNOWN UNKNOWN 0 0)
UNKNOWN-ACCESS ()) (331 'edges' (INTEGER 4 0 0 0 INTEGER ()) () (
UNKNOWN-FL UNKNOWN-INTENT UNKNOWN-PROC UNKNOWN UNKNOWN 0 0)
UNKNOWN-ACCESS ()) (332 'boundaries' (INTEGER 4 0 0 0 INTEGER ()) () (
UNKNOWN-FL UNKNOWN-INTENT UNKNOWN-PROC UNKNOWN UNKNOWN 0 0)
UNKNOWN-ACCESS ()) (333 'degree' (INTEGER 4 0 0 0 INTEGER ()) () (
UNKNOWN-FL UNKNOWN-INTENT UNKNOWN-PROC UNKNOWN UNKNOWN 0 0)
UNKNOWN-ACCESS ()) (334 'dimension' (INTEGER 4 0 0 0 INTEGER ()) () (
UNKNOWN-FL UNKNOWN-INTENT UNKNOWN-PROC UNKNOWN UNKNOWN 0 0)
UNKNOWN-ACCESS ()) (335 'nodes' (INTEGER 4 0 0 0 INTEGER ()) () (
UNKNOWN-FL UNKNOWN-INTENT UNKNOWN-PROC UNKNOWN UNKNOWN 0 0)
UNKNOWN-ACCESS ()) (336 'type' (INTEGER 4 0 0 0 INTEGER ()) () (
UNKNOWN-FL UNKNOWN-INTENT UNKNOWN-PROC UNKNOWN UNKNOWN 0 0)
UNKNOWN-ACCESS (CONSTANT (INTEGER 4 0 0 0 INTEGER ()) 0 '1')) (337
'family' (INTEGER 4 0 0 0 INTEGER ()) () (UNKNOWN-FL UNKNOWN-INTENT
UNKNOWN-PROC UNKNOWN UNKNOWN 0 0) UNKNOWN-ACCESS ()) (338 'count2number'
(INTEGER 4 0 0 0 INTEGER ()) (3 0 DEFERRED () () () () () ()) (
UNKNOWN-FL UNKNOWN-INTENT UNKNOWN-PROC UNKNOWN UNKNOWN 0 0 DIMENSION
POINTER) UNKNOWN-ACCESS ()) (339 'number2count' (INTEGER 4 0 0 0 INTEGER
()) (2 0 DEFERRED () () () ()) (UNKNOWN-FL UNKNOWN-INTENT UNKNOWN-PROC
UNKNOWN UNKNOWN 0 0 DIMENSION POINTER) UNKNOWN-ACCESS ()) (340
'boundary_coord' (INTEGER 4 0 0 0 INTEGER ()) (1 0 DEFERRED () ()) (
UNKNOWN-FL UNKNOWN-INTENT UNKNOWN-PROC UNKNOWN UNKNOWN 0 0 DIMENSION
POINTER) UNKNOWN-ACCESS ()) (341 'boundary_val' (INTEGER 4 0 0 0 INTEGER
()) (1 0 DEFERRED () ()) (UNKNOWN-FL UNKNOWN-INTENT UNKNOWN-PROC UNKNOWN
UNKNOWN 0 0 DIMENSION POINTER) UNKNOWN-ACCESS ())) PUBLIC (() () () ())
() 0 0 96431082)
221 'Superconvergence_type' 'elements' '' 1 ((DERIVED UNKNOWN-INTENT
UNKNOWN-PROC UNKNOWN UNKNOWN 0 0 POINTER_COMP) (UNKNOWN 0 0 0 0 UNKNOWN
()) 0 0 () () 0 ((342 'nsp' (INTEGER 4 0 0 0 INTEGER ()) () (UNKNOWN-FL
UNKNOWN-INTENT UNKNOWN-PROC UNKNOWN UNKNOWN 0 0) UNKNOWN-ACCESS ()) (
343 'l' (REAL 8 0 0 0 REAL ()) (2 0 DEFERRED () () () ()) (UNKNOWN-FL
UNKNOWN-INTENT UNKNOWN-PROC UNKNOWN UNKNOWN 0 0 DIMENSION POINTER)
UNKNOWN-ACCESS ()) (344 'n' (REAL 8 0 0 0 REAL ()) (2 0 DEFERRED () () ()
()) (UNKNOWN-FL UNKNOWN-INTENT UNKNOWN-PROC UNKNOWN UNKNOWN 0 0
DIMENSION POINTER) UNKNOWN-ACCESS ()) (345 'dn' (REAL 8 0 0 0 REAL ()) (
3 0 DEFERRED () () () () () ()) (UNKNOWN-FL UNKNOWN-INTENT UNKNOWN-PROC
UNKNOWN UNKNOWN 0 0 DIMENSION POINTER) UNKNOWN-ACCESS ())) PUBLIC (() ()
() ()) () 0 0 18282395)
223 'Constraints_type' 'elements' '' 1 ((DERIVED UNKNOWN-INTENT
UNKNOWN-PROC UNKNOWN UNKNOWN 0 0 POINTER_COMP) (UNKNOWN 0 0 0 0 UNKNOWN
()) 0 0 () () 0 ((346 'type' (INTEGER 4 0 0 0 INTEGER ()) () (
UNKNOWN-FL UNKNOWN-INTENT UNKNOWN-PROC UNKNOWN UNKNOWN 0 0)
UNKNOWN-ACCESS ()) (347 'dim' (INTEGER 4 0 0 0 INTEGER ()) () (
UNKNOWN-FL UNKNOWN-INTENT UNKNOWN-PROC UNKNOWN UNKNOWN 0 0)
UNKNOWN-ACCESS ()) (348 'degree' (INTEGER 4 0 0 0 INTEGER ()) () (
UNKNOWN-FL UNKNOWN-INTENT UNKNOWN-PROC UNKNOWN UNKNOWN 0 0)
UNKNOWN-ACCESS ()) (349 'loc' (INTEGER 4 0 0 0 INTEGER ()) () (
UNKNOWN-FL UNKNOWN-INTENT UNKNOWN-PROC UNKNOWN UNKNOWN 0 0)
UNKNOWN-ACCESS ()) (350 'n_constraints' (INTEGER 4 0 0 0 INTEGER ()) ()
(UNKNOWN-FL UNKNOWN-INTENT UNKNOWN-PROC UNKNOWN UNKNOWN 0 0)
UNKNOWN-ACCESS ()) (351 'orthogonal' (REAL 8 0 0 0 REAL ()) (3 0
DEFERRED () () () () () ()) (UNKNOWN-FL UNKNOWN-INTENT UNKNOWN-PROC
UNKNOWN UNKNOWN 0 0 DIMENSION POINTER) UNKNOWN-ACCESS (NULL (UNKNOWN 0 0
0 0 UNKNOWN ()) 0))) PUBLIC (() () () ()) () 0 0 57548971)
243 'Vector_boundary_condition' 'fields_data_types' '' 1 ((DERIVED
UNKNOWN-INTENT UNKNOWN-PROC UNKNOWN UNKNOWN 0 0 POINTER_COMP) (UNKNOWN 0
0 0 0 UNKNOWN ()) 0 0 () () 0 ((352 'name' (CHARACTER 1 0 0 0 CHARACTER
((CONSTANT (INTEGER 4 0 0 0 INTEGER ()) 0 '101'))) () (UNKNOWN-FL
UNKNOWN-INTENT UNKNOWN-PROC UNKNOWN UNKNOWN 0 0) UNKNOWN-ACCESS ()) (
353 'type' (CHARACTER 1 0 0 0 CHARACTER ((CONSTANT (INTEGER 4 0 0 0
INTEGER ()) 0 '101'))) () (UNKNOWN-FL UNKNOWN-INTENT UNKNOWN-PROC
UNKNOWN UNKNOWN 0 0) UNKNOWN-ACCESS (CONSTANT (CHARACTER 1 0 0 0
CHARACTER (())) 0 101
'                                                                                                     '))
(354 'applies' (LOGICAL 4 0 0 0 LOGICAL ()) (1 0 EXPLICIT (CONSTANT (
INTEGER 4 0 0 0 INTEGER ()) 0 '1') (CONSTANT (INTEGER 4 0 0 0 INTEGER ())
0 '3')) (UNKNOWN-FL UNKNOWN-INTENT UNKNOWN-PROC UNKNOWN UNKNOWN 0 0
DIMENSION) UNKNOWN-ACCESS ()) (355 'surface_element_list' (INTEGER 4 0 0
0 INTEGER ()) (1 0 DEFERRED () ()) (UNKNOWN-FL UNKNOWN-INTENT
UNKNOWN-PROC UNKNOWN UNKNOWN 0 0 DIMENSION POINTER) UNKNOWN-ACCESS (
NULL (UNKNOWN 0 0 0 0 UNKNOWN ()) 0)) (356 'surface_node_list' (INTEGER
4 0 0 0 INTEGER ()) (1 0 DEFERRED () ()) (UNKNOWN-FL UNKNOWN-INTENT
UNKNOWN-PROC UNKNOWN UNKNOWN 0 0 DIMENSION POINTER) UNKNOWN-ACCESS (
NULL (UNKNOWN 0 0 0 0 UNKNOWN ()) 0)) (357 'surface_mesh' (DERIVED 129 0
0 0 DERIVED ()) () (UNKNOWN-FL UNKNOWN-INTENT UNKNOWN-PROC UNKNOWN
UNKNOWN 0 0 POINTER) UNKNOWN-ACCESS ()) (358 'surface_fields' (DERIVED
89 0 0 0 DERIVED ()) (1 0 DEFERRED () ()) (UNKNOWN-FL UNKNOWN-INTENT
UNKNOWN-PROC UNKNOWN UNKNOWN 0 0 DIMENSION POINTER) UNKNOWN-ACCESS (
NULL (UNKNOWN 0 0 0 0 UNKNOWN ()) 0)) (359 'scalar_surface_fields' (
DERIVED 90 0 0 0 DERIVED ()) (1 0 DEFERRED () ()) (UNKNOWN-FL
UNKNOWN-INTENT UNKNOWN-PROC UNKNOWN UNKNOWN 0 0 DIMENSION POINTER)
UNKNOWN-ACCESS (NULL (UNKNOWN 0 0 0 0 UNKNOWN ()) 0)) (360 'option_path'
(CHARACTER 1 0 0 0 CHARACTER ((CONSTANT (INTEGER 4 0 0 0 INTEGER ()) 0
'8192'))) () (UNKNOWN-FL UNKNOWN-INTENT UNKNOWN-PROC UNKNOWN UNKNOWN 0 0)
UNKNOWN-ACCESS ())) PUBLIC (() () () ()) () 0 0 42205165)
245 'Picker_type' 'picker_data_types' '' 1 ((DERIVED UNKNOWN-INTENT
UNKNOWN-PROC UNKNOWN UNKNOWN 0 0 POINTER_COMP) (UNKNOWN 0 0 0 0 UNKNOWN
()) 0 0 () () 0 ((361 'name' (CHARACTER 1 0 0 0 CHARACTER ((CONSTANT (
INTEGER 4 0 0 0 INTEGER ()) 0 '101'))) () (UNKNOWN-FL UNKNOWN-INTENT
UNKNOWN-PROC UNKNOWN UNKNOWN 0 0) UNKNOWN-ACCESS ()) (362 'refcount' (
DERIVED 133 0 0 0 DERIVED ()) () (UNKNOWN-FL UNKNOWN-INTENT UNKNOWN-PROC
UNKNOWN UNKNOWN 0 0 POINTER) UNKNOWN-ACCESS (NULL (UNKNOWN 0 0 0 0
UNKNOWN ()) 0)) (363 'picker_id' (INTEGER 4 0 0 0 INTEGER ()) () (
UNKNOWN-FL UNKNOWN-INTENT UNKNOWN-PROC UNKNOWN UNKNOWN 0 0)
UNKNOWN-ACCESS (CONSTANT (INTEGER 4 0 0 0 INTEGER ()) 0 '0')) (364
'last_mesh_movement' (INTEGER 4 0 0 0 INTEGER ()) () (UNKNOWN-FL
UNKNOWN-INTENT UNKNOWN-PROC UNKNOWN UNKNOWN 0 0) UNKNOWN-ACCESS (
CONSTANT (INTEGER 4 0 0 0 INTEGER ()) 0 '0'))) PUBLIC (() () () ()) () 0
0 8821665)
247 'Scalar_boundary_condition' 'fields_data_types' '' 1 ((DERIVED
UNKNOWN-INTENT UNKNOWN-PROC UNKNOWN UNKNOWN 0 0 POINTER_COMP) (UNKNOWN 0
0 0 0 UNKNOWN ()) 0 0 () () 0 ((365 'name' (CHARACTER 1 0 0 0 CHARACTER
((CONSTANT (INTEGER 4 0 0 0 INTEGER ()) 0 '101'))) () (UNKNOWN-FL
UNKNOWN-INTENT UNKNOWN-PROC UNKNOWN UNKNOWN 0 0) UNKNOWN-ACCESS ()) (
366 'type' (CHARACTER 1 0 0 0 CHARACTER ((CONSTANT (INTEGER 4 0 0 0
INTEGER ()) 0 '101'))) () (UNKNOWN-FL UNKNOWN-INTENT UNKNOWN-PROC
UNKNOWN UNKNOWN 0 0) UNKNOWN-ACCESS (CONSTANT (CHARACTER 1 0 0 0
CHARACTER (())) 0 101
'                                                                                                     '))
(367 'surface_element_list' (INTEGER 4 0 0 0 INTEGER ()) (1 0 DEFERRED ()
()) (UNKNOWN-FL UNKNOWN-INTENT UNKNOWN-PROC UNKNOWN UNKNOWN 0 0
DIMENSION POINTER) UNKNOWN-ACCESS (NULL (UNKNOWN 0 0 0 0 UNKNOWN ()) 0))
(368 'surface_node_list' (INTEGER 4 0 0 0 INTEGER ()) (1 0 DEFERRED () ())
(UNKNOWN-FL UNKNOWN-INTENT UNKNOWN-PROC UNKNOWN UNKNOWN 0 0 DIMENSION
POINTER) UNKNOWN-ACCESS (NULL (UNKNOWN 0 0 0 0 UNKNOWN ()) 0)) (369
'surface_mesh' (DERIVED 129 0 0 0 DERIVED ()) () (UNKNOWN-FL
UNKNOWN-INTENT UNKNOWN-PROC UNKNOWN UNKNOWN 0 0 POINTER) UNKNOWN-ACCESS
()) (370 'surface_fields' (DERIVED 90 0 0 0 DERIVED ()) (1 0 DEFERRED ()
()) (UNKNOWN-FL UNKNOWN-INTENT UNKNOWN-PROC UNKNOWN UNKNOWN 0 0
DIMENSION POINTER) UNKNOWN-ACCESS (NULL (UNKNOWN 0 0 0 0 UNKNOWN ()) 0))
(371 'option_path' (CHARACTER 1 0 0 0 CHARACTER ((CONSTANT (INTEGER 4 0
0 0 INTEGER ()) 0 '8192'))) () (UNKNOWN-FL UNKNOWN-INTENT UNKNOWN-PROC
UNKNOWN UNKNOWN 0 0) UNKNOWN-ACCESS ())) PUBLIC (() () () ()) () 0 0
50740068)
255 'Integer_vector' 'futils' '' 1 ((DERIVED UNKNOWN-INTENT UNKNOWN-PROC
UNKNOWN UNKNOWN 0 0 POINTER_COMP) (UNKNOWN 0 0 0 0 UNKNOWN ()) 0 0 () ()
0 ((372 'ptr' (INTEGER 4 0 0 0 INTEGER ()) (1 0 DEFERRED () ()) (
UNKNOWN-FL UNKNOWN-INTENT UNKNOWN-PROC UNKNOWN UNKNOWN 0 0 DIMENSION
POINTER) UNKNOWN-ACCESS ())) PUBLIC (() () () ()) () 0 0 9661976)
280 'Logical_array_ptr' 'sparse_tools' '' 1 ((DERIVED UNKNOWN-INTENT
UNKNOWN-PROC UNKNOWN UNKNOWN 0 0 POINTER_COMP) (UNKNOWN 0 0 0 0 UNKNOWN
()) 0 0 () () 0 ((373 'ptr' (LOGICAL 4 0 0 0 LOGICAL ()) (1 0 DEFERRED ()
()) (UNKNOWN-FL UNKNOWN-INTENT UNKNOWN-PROC UNKNOWN UNKNOWN 0 0
DIMENSION POINTER) UNKNOWN-ACCESS (NULL (UNKNOWN 0 0 0 0 UNKNOWN ()) 0)))
PUBLIC (() () () ()) () 0 0 30974511)
286 'Real_vector' 'futils' '' 1 ((DERIVED UNKNOWN-INTENT UNKNOWN-PROC
UNKNOWN UNKNOWN 0 0 POINTER_COMP) (UNKNOWN 0 0 0 0 UNKNOWN ()) 0 0 () ()
0 ((374 'ptr' (REAL 8 0 0 0 REAL ()) (1 0 DEFERRED () ()) (UNKNOWN-FL
UNKNOWN-INTENT UNKNOWN-PROC UNKNOWN UNKNOWN 0 0 DIMENSION POINTER)
UNKNOWN-ACCESS ())) PUBLIC (() () () ()) () 0 0 72870256)
300 'Petsc_numbering_type' 'petsc_tools' '' 1 ((DERIVED UNKNOWN-INTENT
UNKNOWN-PROC UNKNOWN UNKNOWN 0 0 POINTER_COMP) (UNKNOWN 0 0 0 0 UNKNOWN
()) 0 0 () () 0 ((375 'halo' (DERIVED 171 0 0 0 DERIVED ()) () (
UNKNOWN-FL UNKNOWN-INTENT UNKNOWN-PROC UNKNOWN UNKNOWN 0 0 POINTER)
UNKNOWN-ACCESS (NULL (UNKNOWN 0 0 0 0 UNKNOWN ()) 0)) (376 'nprivatenodes'
(INTEGER 4 0 0 0 INTEGER ()) () (UNKNOWN-FL UNKNOWN-INTENT UNKNOWN-PROC
UNKNOWN UNKNOWN 0 0) UNKNOWN-ACCESS ()) (377 'universal_length' (
INTEGER 4 0 0 0 INTEGER ()) () (UNKNOWN-FL UNKNOWN-INTENT UNKNOWN-PROC
UNKNOWN UNKNOWN 0 0) UNKNOWN-ACCESS ()) (378 'offset' (INTEGER 4 0 0 0
INTEGER ()) () (UNKNOWN-FL UNKNOWN-INTENT UNKNOWN-PROC UNKNOWN UNKNOWN 0
0) UNKNOWN-ACCESS ()) (379 'gnn2unn' (INTEGER 4 0 0 0 INTEGER ()) (2 0
DEFERRED () () () ()) (UNKNOWN-FL UNKNOWN-INTENT UNKNOWN-PROC UNKNOWN
UNKNOWN 0 0 DIMENSION POINTER) UNKNOWN-ACCESS ()) (380 'ghost_nodes' (
INTEGER 4 0 0 0 INTEGER ()) (1 0 DEFERRED () ()) (UNKNOWN-FL
UNKNOWN-INTENT UNKNOWN-PROC UNKNOWN UNKNOWN 0 0 DIMENSION POINTER)
UNKNOWN-ACCESS (NULL (UNKNOWN 0 0 0 0 UNKNOWN ()) 0)) (381 'ghost2unn' (
INTEGER 4 0 0 0 INTEGER ()) (2 0 DEFERRED () () () ()) (UNKNOWN-FL
UNKNOWN-INTENT UNKNOWN-PROC UNKNOWN UNKNOWN 0 0 DIMENSION POINTER)
UNKNOWN-ACCESS (NULL (UNKNOWN 0 0 0 0 UNKNOWN ()) 0)) (382 'refcount' (
DERIVED 133 0 0 0 DERIVED ()) () (UNKNOWN-FL UNKNOWN-INTENT UNKNOWN-PROC
UNKNOWN UNKNOWN 0 0 POINTER) UNKNOWN-ACCESS (NULL (UNKNOWN 0 0 0 0
UNKNOWN ()) 0)) (383 'name' (CHARACTER 1 0 0 0 CHARACTER ((CONSTANT (
INTEGER 4 0 0 0 INTEGER ()) 0 '101'))) () (UNKNOWN-FL UNKNOWN-INTENT
UNKNOWN-PROC UNKNOWN UNKNOWN 0 0) UNKNOWN-ACCESS (CONSTANT (CHARACTER 1
0 0 0 CHARACTER (())) 0 101
'                                                                                                     ')))
PUBLIC (() () () ()) () 0 0 16529124)
308 'Linked_list' 'scalar_field_dictionary' '' 1 ((DERIVED
UNKNOWN-INTENT UNKNOWN-PROC UNKNOWN UNKNOWN 0 0 POINTER_COMP) (UNKNOWN 0
0 0 0 UNKNOWN ()) 0 0 () () 0 ((384 'next' (DERIVED 308 0 0 0 DERIVED ())
() (UNKNOWN-FL UNKNOWN-INTENT UNKNOWN-PROC UNKNOWN UNKNOWN 0 0 POINTER)
UNKNOWN-ACCESS ()) (385 'data' (DERIVED 386 0 0 0 DERIVED ()) () (
UNKNOWN-FL UNKNOWN-INTENT UNKNOWN-PROC UNKNOWN UNKNOWN 0 0)
UNKNOWN-ACCESS (STRUCTURE (DERIVED 386 0 0 0 DERIVED ()) 0 ((() ()) ((
STRUCTURE (DERIVED 107 0 0 0 DERIVED ()) 0 (((NULL (UNKNOWN 0 0 0 0
UNKNOWN ()) 0) ())) ()) ())) ()))) PUBLIC (() () () ()) () 0 0 27933139)
326 'Integer_set' 'integer_set_module' '' 1 ((DERIVED UNKNOWN-INTENT
UNKNOWN-PROC UNKNOWN UNKNOWN 0 0) (UNKNOWN 0 0 0 0 UNKNOWN ()) 0 0 () ()
0 ((387 'address' (DERIVED 388 0 0 0 DERIVED ()) () (UNKNOWN-FL
UNKNOWN-INTENT UNKNOWN-PROC UNKNOWN UNKNOWN 0 0) UNKNOWN-ACCESS ()))
PUBLIC (() () () ()) () 0 0 67217964)
386 'List_data' 'scalar_field_dictionary' '' 1 ((DERIVED UNKNOWN-INTENT
UNKNOWN-PROC UNKNOWN UNKNOWN 0 0 POINTER_COMP) (UNKNOWN 0 0 0 0 UNKNOWN
()) 0 0 () () 0 ((389 'key' (CHARACTER 1 0 0 0 CHARACTER ((CONSTANT (
INTEGER 4 0 0 0 INTEGER ()) 0 '101'))) () (UNKNOWN-FL UNKNOWN-INTENT
UNKNOWN-PROC UNKNOWN UNKNOWN 0 0) UNKNOWN-ACCESS ()) (390 'value' (
DERIVED 107 0 0 0 DERIVED ()) () (UNKNOWN-FL UNKNOWN-INTENT UNKNOWN-PROC
UNKNOWN UNKNOWN 0 0) UNKNOWN-ACCESS (STRUCTURE (DERIVED 107 0 0 0
DERIVED ()) 0 (((NULL (UNKNOWN 0 0 0 0 UNKNOWN ()) 0) ())) ()))) PUBLIC
(() () () ()) () 0 0 22193082)
388 'C_ptr' '__iso_c_binding' '' 1 ((DERIVED UNKNOWN-INTENT UNKNOWN-PROC
UNKNOWN UNKNOWN 0 0 IS_BIND_C IS_C_INTEROP IS_ISO_C) (DERIVED 388 0 1 1
UNKNOWN ()) 0 0 () () 0 ((391 '__c_ptr_c_address' (INTEGER 8 0 1 0
INTEGER ()) () (UNKNOWN-FL UNKNOWN-INTENT UNKNOWN-PROC UNKNOWN UNKNOWN 0
0) UNKNOWN-ACCESS ())) UNKNOWN-ACCESS () () 2 42 0)
)

('calculate_diagnostic_variables' 0 27 'check_diagnostic_dependencies' 0
31 'diagnostic_fields_new_check_options' 0 37)
