GFORTRAN module version '10' created from Halos_Repair.F90
MD5:43f329ccb4f549104baa183e19326712 -- If you edit this, you'll get what you deserve.

(() () () () () () () () () () () () () () () () () () () () () () ()
() () () ())

()

(('reorder_halo' 'halos_repair' 2 3))

(('mpi_fortran_argv_null' 4 0 0 '') ('mpi_fortran_in_place' 5 0 0 '') (
'mpi_fortran_status_ignore' 6 0 0 '') ('mpi_fortran_statuses_ignore' 7 0
0 '') ('petscfortran6' 8 0 0 '') ('petscfortran7' 9 0 0 '') (
'petscfortran8' 10 0 0 '') ('petscfortran9' 11 0 0 '') (
'mpi_fortran_argvs_null' 12 0 0 '') ('mpi_fortran_bottom' 13 0 0 '') (
'mpi_fortran_errcodes_ignore' 14 0 0 '') ('petscfortran1' 15 0 0 '') (
'petscfortran10' 16 0 0 '') ('petscfortran2' 17 0 0 '') ('petscfortran4'
18 0 0 '') ('petscfortran5' 19 0 0 ''))

()

()

(20 'reorder_element_halo' 'halos_repair' '' 1 ((PROCEDURE
UNKNOWN-INTENT MODULE-PROC DECL UNKNOWN 0 0 SUBROUTINE) (UNKNOWN 0 0 0 0
UNKNOWN ()) 21 0 (22 23 24) () 0 () () () 0 0)
25 'reorder_halo_from_element_halo' 'halos_repair' '' 1 ((PROCEDURE
UNKNOWN-INTENT MODULE-PROC DECL UNKNOWN 0 0 SUBROUTINE) (UNKNOWN 0 0 0 0
UNKNOWN ()) 26 0 (27 28 29) () 0 () () () 0 0)
30 'reorder_halo_receives' 'halos_repair' '' 1 ((PROCEDURE
UNKNOWN-INTENT MODULE-PROC DECL UNKNOWN 0 0 SUBROUTINE) (UNKNOWN 0 0 0 0
UNKNOWN ()) 31 0 (32 33) () 0 () () () 0 0)
34 'reorder_l1_from_l2_halo' 'halos_repair' '' 1 ((PROCEDURE
UNKNOWN-INTENT MODULE-PROC DECL UNKNOWN 0 0 SUBROUTINE ALWAYS_EXPLICIT)
(UNKNOWN 0 0 0 0 UNKNOWN ()) 35 0 (36 37 38) () 0 () () () 0 0)
2 'reorder_halo_halo' 'halos_repair' '' 1 ((PROCEDURE UNKNOWN-INTENT
MODULE-PROC DECL UNKNOWN 0 0 SUBROUTINE) (UNKNOWN 0 0 0 0 UNKNOWN ()) 39
0 (40 41) () 0 () () () 0 0)
3 'reorder_halo_vector' 'halos_repair' '' 1 ((PROCEDURE UNKNOWN-INTENT
MODULE-PROC DECL UNKNOWN 0 0 SUBROUTINE) (UNKNOWN 0 0 0 0 UNKNOWN ()) 42
0 (43 44) () 0 () () () 0 0)
4 'mpi_argv_null' 'mpi_interfaces' '' 1 ((VARIABLE UNKNOWN-INTENT
UNKNOWN-PROC UNKNOWN UNKNOWN 0 0 DIMENSION IN_COMMON) (CHARACTER 1 0 0 0
CHARACTER ((CONSTANT (INTEGER 4 0 0 0 INTEGER ()) 0 '1'))) 0 0 () (1 0
EXPLICIT (CONSTANT (INTEGER 4 0 0 0 INTEGER ()) 0 '1') (CONSTANT (
INTEGER 4 0 0 0 INTEGER ()) 0 '1')) 0 () () () 0 0)
5 'mpi_in_place' 'mpi_interfaces' '' 1 ((VARIABLE UNKNOWN-INTENT
UNKNOWN-PROC UNKNOWN UNKNOWN 0 0 IN_COMMON) (INTEGER 4 0 0 0 INTEGER ())
0 0 () () 0 () () () 0 0)
6 'mpi_status_ignore' 'mpi_interfaces' '' 1 ((VARIABLE UNKNOWN-INTENT
UNKNOWN-PROC UNKNOWN UNKNOWN 0 0 DIMENSION IN_COMMON) (INTEGER 4 0 0 0
INTEGER ()) 0 0 () (1 0 EXPLICIT (CONSTANT (INTEGER 4 0 0 0 INTEGER ())
0 '1') (CONSTANT (INTEGER 4 0 0 0 INTEGER ()) 0 '6')) 0 () () () 0 0)
7 'mpi_statuses_ignore' 'mpi_interfaces' '' 1 ((VARIABLE UNKNOWN-INTENT
UNKNOWN-PROC UNKNOWN UNKNOWN 0 0 IN_COMMON) (REAL 8 0 0 0 REAL ()) 0 0 ()
() 0 () () () 0 0)
8 'petsc_null_real' 'petscsysdef' '' 1 ((VARIABLE UNKNOWN-INTENT
UNKNOWN-PROC UNKNOWN UNKNOWN 0 0 IN_COMMON) (REAL 8 0 0 0 REAL ()) 0 0 ()
() 0 () () () 0 0)
9 'petsc_null_bool' 'petscsysdef' '' 1 ((VARIABLE UNKNOWN-INTENT
UNKNOWN-PROC UNKNOWN UNKNOWN 0 0 IN_COMMON) (LOGICAL 4 0 0 0 LOGICAL ())
0 0 () () 0 () () () 0 0)
10 'petsc_null_object' 'petscsysdef' '' 1 ((VARIABLE UNKNOWN-INTENT
UNKNOWN-PROC UNKNOWN UNKNOWN 0 0 IN_COMMON) (INTEGER 8 0 0 0 INTEGER ())
0 0 () () 0 () () () 0 0)
11 'petsc_comm_world' 'petscsysdef' '' 1 ((VARIABLE UNKNOWN-INTENT
UNKNOWN-PROC UNKNOWN UNKNOWN 0 0 IN_COMMON) (INTEGER 4 0 0 0 INTEGER ())
0 0 () () 0 () () () 0 0)
12 'mpi_argvs_null' 'mpi_interfaces' '' 1 ((VARIABLE UNKNOWN-INTENT
UNKNOWN-PROC UNKNOWN UNKNOWN 0 0 IN_COMMON) (REAL 8 0 0 0 REAL ()) 0 0 ()
() 0 () () () 0 0)
13 'mpi_bottom' 'mpi_interfaces' '' 1 ((VARIABLE UNKNOWN-INTENT
UNKNOWN-PROC UNKNOWN UNKNOWN 0 0 IN_COMMON) (INTEGER 4 0 0 0 INTEGER ())
0 0 () () 0 () () () 0 0)
14 'mpi_errcodes_ignore' 'mpi_interfaces' '' 1 ((VARIABLE UNKNOWN-INTENT
UNKNOWN-PROC UNKNOWN UNKNOWN 0 0 DIMENSION IN_COMMON) (INTEGER 4 0 0 0
INTEGER ()) 0 0 () (1 0 EXPLICIT (CONSTANT (INTEGER 4 0 0 0 INTEGER ())
0 '1') (CONSTANT (INTEGER 4 0 0 0 INTEGER ()) 0 '1')) 0 () () () 0 0)
15 'petsc_null_character' 'petscsysdef' '' 1 ((VARIABLE UNKNOWN-INTENT
UNKNOWN-PROC UNKNOWN IMPLICIT-SAVE 0 0 IN_COMMON) (CHARACTER 1 0 0 0
CHARACTER ((CONSTANT (INTEGER 4 0 0 0 INTEGER ()) 0 '80'))) 0 0 () () 0
() () () 0 0)
16 'petsc_comm_self' 'petscsysdef' '' 1 ((VARIABLE UNKNOWN-INTENT
UNKNOWN-PROC UNKNOWN UNKNOWN 0 0 IN_COMMON) (INTEGER 4 0 0 0 INTEGER ())
0 0 () () 0 () () () 0 0)
17 'petsc_null_integer' 'petscsysdef' '' 1 ((VARIABLE UNKNOWN-INTENT
UNKNOWN-PROC UNKNOWN UNKNOWN 0 0 IN_COMMON) (INTEGER 4 0 0 0 INTEGER ())
0 0 () () 0 () () () 0 0)
18 'petsc_null_scalar' 'petscsysdef' '' 1 ((VARIABLE UNKNOWN-INTENT
UNKNOWN-PROC UNKNOWN UNKNOWN 0 0 IN_COMMON) (REAL 8 0 0 0 REAL ()) 0 0 ()
() 0 () () () 0 0)
19 'petsc_null_double' 'petscsysdef' '' 1 ((VARIABLE UNKNOWN-INTENT
UNKNOWN-PROC UNKNOWN UNKNOWN 0 0 IN_COMMON) (REAL 8 0 0 0 REAL ()) 0 0 ()
() 0 () () () 0 0)
22 'element_halo' '' '' 21 ((VARIABLE INOUT UNKNOWN-PROC UNKNOWN UNKNOWN
0 0 DUMMY) (DERIVED 45 0 0 0 DERIVED ()) 0 0 () () 0 () () () 0 0)
23 'node_halo' '' '' 21 ((VARIABLE IN UNKNOWN-PROC UNKNOWN UNKNOWN 0 0
DUMMY) (DERIVED 45 0 0 0 DERIVED ()) 0 0 () () 0 () () () 0 0)
24 'mesh' '' '' 21 ((VARIABLE IN UNKNOWN-PROC UNKNOWN UNKNOWN 0 0 DUMMY)
(DERIVED 46 0 0 0 DERIVED ()) 0 0 () () 0 () () () 0 0)
27 'node_halo' '' '' 26 ((VARIABLE INOUT UNKNOWN-PROC UNKNOWN UNKNOWN 0
0 DUMMY) (DERIVED 45 0 0 0 DERIVED ()) 0 0 () () 0 () () () 0 0)
28 'element_halo' '' '' 26 ((VARIABLE IN UNKNOWN-PROC UNKNOWN UNKNOWN 0
0 DUMMY) (DERIVED 45 0 0 0 DERIVED ()) 0 0 () () 0 () () () 0 0)
29 'mesh' '' '' 26 ((VARIABLE IN UNKNOWN-PROC UNKNOWN UNKNOWN 0 0 DUMMY)
(DERIVED 46 0 0 0 DERIVED ()) 0 0 () () 0 () () () 0 0)
32 'halo' '' '' 31 ((VARIABLE INOUT UNKNOWN-PROC UNKNOWN UNKNOWN 0 0
DUMMY) (DERIVED 45 0 0 0 DERIVED ()) 0 0 () () 0 () () () 0 0)
33 'repair_field' '' '' 31 ((VARIABLE IN UNKNOWN-PROC UNKNOWN UNKNOWN 0
0 DUMMY) (DERIVED 47 0 0 0 DERIVED ()) 0 0 () () 0 () () () 0 0)
36 'l1_halo' '' '' 35 ((VARIABLE INOUT UNKNOWN-PROC UNKNOWN UNKNOWN 0 0
DUMMY) (DERIVED 45 0 0 0 DERIVED ()) 0 0 () () 0 () () () 0 0)
37 'l2_halo' '' '' 35 ((VARIABLE IN UNKNOWN-PROC UNKNOWN UNKNOWN 0 0
DUMMY) (DERIVED 45 0 0 0 DERIVED ()) 0 0 () () 0 () () () 0 0)
38 'sorted_l1_halo' '' '' 35 ((VARIABLE IN UNKNOWN-PROC UNKNOWN UNKNOWN
0 0 OPTIONAL DUMMY) (LOGICAL 4 0 0 0 LOGICAL ()) 0 0 () () 0 () () () 0
0)
40 'halo' '' '' 39 ((VARIABLE INOUT UNKNOWN-PROC UNKNOWN UNKNOWN 0 0
DUMMY) (DERIVED 45 0 0 0 DERIVED ()) 0 0 () () 0 () () () 0 0)
41 'repair_halo' '' '' 39 ((VARIABLE IN UNKNOWN-PROC UNKNOWN UNKNOWN 0 0
DUMMY) (DERIVED 45 0 0 0 DERIVED ()) 0 0 () () 0 () () () 0 0)
43 'halo' '' '' 42 ((VARIABLE INOUT UNKNOWN-PROC UNKNOWN UNKNOWN 0 0
DUMMY) (DERIVED 45 0 0 0 DERIVED ()) 0 0 () () 0 () () () 0 0)
44 'repair_field' '' '' 42 ((VARIABLE IN UNKNOWN-PROC UNKNOWN UNKNOWN 0
0 DUMMY) (DERIVED 47 0 0 0 DERIVED ()) 0 0 () () 0 () () () 0 0)
45 'Halo_type' 'halo_data_types' '' 1 ((DERIVED UNKNOWN-INTENT
UNKNOWN-PROC UNKNOWN UNKNOWN 0 0 POINTER_COMP) (UNKNOWN 0 0 0 0 UNKNOWN
()) 0 0 () () 0 ((48 'name' (CHARACTER 1 0 0 0 CHARACTER ((CONSTANT (
INTEGER 4 0 0 0 INTEGER ()) 0 '101'))) () (UNKNOWN-FL UNKNOWN-INTENT
UNKNOWN-PROC UNKNOWN UNKNOWN 0 0) UNKNOWN-ACCESS ()) (49 'refcount' (
DERIVED 50 0 0 0 DERIVED ()) () (UNKNOWN-FL UNKNOWN-INTENT UNKNOWN-PROC
UNKNOWN UNKNOWN 0 0 POINTER) UNKNOWN-ACCESS (NULL (UNKNOWN 0 0 0 0
UNKNOWN ()) 0)) (51 'data_type' (INTEGER 4 0 0 0 INTEGER ()) () (
UNKNOWN-FL UNKNOWN-INTENT UNKNOWN-PROC UNKNOWN UNKNOWN 0 0)
UNKNOWN-ACCESS (CONSTANT (INTEGER 4 0 0 0 INTEGER ()) 0 '0')) (52
'ordering_scheme' (INTEGER 4 0 0 0 INTEGER ()) () (UNKNOWN-FL
UNKNOWN-INTENT UNKNOWN-PROC UNKNOWN UNKNOWN 0 0) UNKNOWN-ACCESS (
CONSTANT (INTEGER 4 0 0 0 INTEGER ()) 0 '0')) (53 'communicator' (
INTEGER 4 0 0 0 INTEGER ()) () (UNKNOWN-FL UNKNOWN-INTENT UNKNOWN-PROC
UNKNOWN UNKNOWN 0 0) UNKNOWN-ACCESS ()) (54 'nprocs' (INTEGER 4 0 0 0
INTEGER ()) () (UNKNOWN-FL UNKNOWN-INTENT UNKNOWN-PROC UNKNOWN UNKNOWN 0
0) UNKNOWN-ACCESS (CONSTANT (INTEGER 4 0 0 0 INTEGER ()) 0 '0')) (55
'sends' (DERIVED 56 0 0 0 DERIVED ()) (1 0 DEFERRED () ()) (UNKNOWN-FL
UNKNOWN-INTENT UNKNOWN-PROC UNKNOWN UNKNOWN 0 0 DIMENSION POINTER)
UNKNOWN-ACCESS (NULL (UNKNOWN 0 0 0 0 UNKNOWN ()) 0)) (57 'receives' (
DERIVED 56 0 0 0 DERIVED ()) (1 0 DEFERRED () ()) (UNKNOWN-FL
UNKNOWN-INTENT UNKNOWN-PROC UNKNOWN UNKNOWN 0 0 DIMENSION POINTER)
UNKNOWN-ACCESS (NULL (UNKNOWN 0 0 0 0 UNKNOWN ()) 0)) (58 'nowned_nodes'
(INTEGER 4 0 0 0 INTEGER ()) () (UNKNOWN-FL UNKNOWN-INTENT UNKNOWN-PROC
UNKNOWN UNKNOWN 0 0) UNKNOWN-ACCESS (CONSTANT (INTEGER 4 0 0 0 INTEGER ())
0 '-1')) (59 'owners' (INTEGER 4 0 0 0 INTEGER ()) (1 0 DEFERRED () ())
(UNKNOWN-FL UNKNOWN-INTENT UNKNOWN-PROC UNKNOWN UNKNOWN 0 0 DIMENSION
POINTER) UNKNOWN-ACCESS (NULL (UNKNOWN 0 0 0 0 UNKNOWN ()) 0)) (60
'unn_count' (INTEGER 4 0 0 0 INTEGER ()) () (UNKNOWN-FL UNKNOWN-INTENT
UNKNOWN-PROC UNKNOWN UNKNOWN 0 0) UNKNOWN-ACCESS (CONSTANT (INTEGER 4 0
0 0 INTEGER ()) 0 '-1')) (61 'owned_nodes_unn_base' (INTEGER 4 0 0 0
INTEGER ()) (1 0 DEFERRED () ()) (UNKNOWN-FL UNKNOWN-INTENT UNKNOWN-PROC
UNKNOWN UNKNOWN 0 0 DIMENSION POINTER) UNKNOWN-ACCESS (NULL (UNKNOWN 0 0
0 0 UNKNOWN ()) 0)) (62 'my_owned_nodes_unn_base' (INTEGER 4 0 0 0
INTEGER ()) () (UNKNOWN-FL UNKNOWN-INTENT UNKNOWN-PROC UNKNOWN UNKNOWN 0
0) UNKNOWN-ACCESS (CONSTANT (INTEGER 4 0 0 0 INTEGER ()) 0 '-1')) (63
'receives_gnn_to_unn' (INTEGER 4 0 0 0 INTEGER ()) (1 0 DEFERRED () ())
(UNKNOWN-FL UNKNOWN-INTENT UNKNOWN-PROC UNKNOWN UNKNOWN 0 0 DIMENSION
POINTER) UNKNOWN-ACCESS (NULL (UNKNOWN 0 0 0 0 UNKNOWN ()) 0)) (64
'gnn_to_unn' (INTEGER 4 0 0 0 INTEGER ()) (1 0 DEFERRED () ()) (
UNKNOWN-FL UNKNOWN-INTENT UNKNOWN-PROC UNKNOWN UNKNOWN 0 0 DIMENSION
POINTER) UNKNOWN-ACCESS (NULL (UNKNOWN 0 0 0 0 UNKNOWN ()) 0))) PUBLIC (
() () () ()) () 0 0 63994053)
46 'Mesh_type' 'fields_data_types' '' 1 ((DERIVED UNKNOWN-INTENT
UNKNOWN-PROC UNKNOWN UNKNOWN 0 0 POINTER_COMP) (UNKNOWN 0 0 0 0 UNKNOWN
()) 0 0 () () 0 ((65 'ndglno' (INTEGER 4 0 0 0 INTEGER ()) (1 0 DEFERRED
() ()) (UNKNOWN-FL UNKNOWN-INTENT UNKNOWN-PROC UNKNOWN UNKNOWN 0 0
DIMENSION POINTER) UNKNOWN-ACCESS ()) (66 'wrapped' (LOGICAL 4 0 0 0
LOGICAL ()) () (UNKNOWN-FL UNKNOWN-INTENT UNKNOWN-PROC UNKNOWN UNKNOWN 0
0) UNKNOWN-ACCESS (CONSTANT (LOGICAL 4 0 0 0 LOGICAL ()) 0 1)) (67 'shape'
(DERIVED 68 0 0 0 DERIVED ()) () (UNKNOWN-FL UNKNOWN-INTENT UNKNOWN-PROC
UNKNOWN UNKNOWN 0 0) UNKNOWN-ACCESS (STRUCTURE (DERIVED 68 0 0 0 DERIVED
()) 0 ((() ()) (() ()) (() ()) (() ()) ((NULL (UNKNOWN 0 0 0 0 UNKNOWN ())
0) ()) ((NULL (UNKNOWN 0 0 0 0 UNKNOWN ()) 0) ()) ((NULL (UNKNOWN 0 0 0
0 UNKNOWN ()) 0) ()) ((NULL (UNKNOWN 0 0 0 0 UNKNOWN ()) 0) ()) ((NULL (
UNKNOWN 0 0 0 0 UNKNOWN ()) 0) ()) ((NULL (UNKNOWN 0 0 0 0 UNKNOWN ()) 0)
()) ((NULL (UNKNOWN 0 0 0 0 UNKNOWN ()) 0) ()) ((STRUCTURE (DERIVED 69 0
0 0 DERIVED ()) 0 ((() ()) (() ()) (() ()) (() ()) ((NULL (UNKNOWN 0 0 0
0 UNKNOWN ()) 0) ()) ((NULL (UNKNOWN 0 0 0 0 UNKNOWN ()) 0) ()) (() ())
((NULL (UNKNOWN 0 0 0 0 UNKNOWN ()) 0) ()) (() ())) ()) ()) ((NULL (
UNKNOWN 0 0 0 0 UNKNOWN ()) 0) ()) ((NULL (UNKNOWN 0 0 0 0 UNKNOWN ()) 0)
()) ((NULL (UNKNOWN 0 0 0 0 UNKNOWN ()) 0) ()) ((NULL (UNKNOWN 0 0 0 0
UNKNOWN ()) 0) ()) (() ())) ())) (70 'elements' (INTEGER 4 0 0 0 INTEGER
()) () (UNKNOWN-FL UNKNOWN-INTENT UNKNOWN-PROC UNKNOWN UNKNOWN 0 0)
UNKNOWN-ACCESS ()) (71 'nodes' (INTEGER 4 0 0 0 INTEGER ()) () (
UNKNOWN-FL UNKNOWN-INTENT UNKNOWN-PROC UNKNOWN UNKNOWN 0 0)
UNKNOWN-ACCESS ()) (72 'name' (CHARACTER 1 0 0 0 CHARACTER ((CONSTANT (
INTEGER 4 0 0 0 INTEGER ()) 0 '101'))) () (UNKNOWN-FL UNKNOWN-INTENT
UNKNOWN-PROC UNKNOWN UNKNOWN 0 0) UNKNOWN-ACCESS ()) (73 'option_path' (
CHARACTER 1 0 0 0 CHARACTER ((CONSTANT (INTEGER 4 0 0 0 INTEGER ()) 0
'8192'))) () (UNKNOWN-FL UNKNOWN-INTENT UNKNOWN-PROC UNKNOWN UNKNOWN 0 0)
UNKNOWN-ACCESS ()) (74 'continuity' (INTEGER 4 0 0 0 INTEGER ()) () (
UNKNOWN-FL UNKNOWN-INTENT UNKNOWN-PROC UNKNOWN UNKNOWN 0 0)
UNKNOWN-ACCESS (CONSTANT (INTEGER 4 0 0 0 INTEGER ()) 0 '0')) (75
'refcount' (DERIVED 50 0 0 0 DERIVED ()) () (UNKNOWN-FL UNKNOWN-INTENT
UNKNOWN-PROC UNKNOWN UNKNOWN 0 0 POINTER) UNKNOWN-ACCESS (NULL (UNKNOWN
0 0 0 0 UNKNOWN ()) 0)) (76 'faces' (DERIVED 77 0 0 0 DERIVED ()) () (
UNKNOWN-FL UNKNOWN-INTENT UNKNOWN-PROC UNKNOWN UNKNOWN 0 0 POINTER)
UNKNOWN-ACCESS (NULL (UNKNOWN 0 0 0 0 UNKNOWN ()) 0)) (78 'subdomain_mesh'
(DERIVED 79 0 0 0 DERIVED ()) () (UNKNOWN-FL UNKNOWN-INTENT UNKNOWN-PROC
UNKNOWN UNKNOWN 0 0 POINTER) UNKNOWN-ACCESS (NULL (UNKNOWN 0 0 0 0
UNKNOWN ()) 0)) (80 'adj_lists' (DERIVED 81 0 0 0 DERIVED ()) () (
UNKNOWN-FL UNKNOWN-INTENT UNKNOWN-PROC UNKNOWN UNKNOWN 0 0 POINTER)
UNKNOWN-ACCESS (NULL (UNKNOWN 0 0 0 0 UNKNOWN ()) 0)) (82 'columns' (
INTEGER 4 0 0 0 INTEGER ()) (1 0 DEFERRED () ()) (UNKNOWN-FL
UNKNOWN-INTENT UNKNOWN-PROC UNKNOWN UNKNOWN 0 0 DIMENSION POINTER)
UNKNOWN-ACCESS (NULL (UNKNOWN 0 0 0 0 UNKNOWN ()) 0)) (83
'element_columns' (INTEGER 4 0 0 0 INTEGER ()) (1 0 DEFERRED () ()) (
UNKNOWN-FL UNKNOWN-INTENT UNKNOWN-PROC UNKNOWN UNKNOWN 0 0 DIMENSION
POINTER) UNKNOWN-ACCESS (NULL (UNKNOWN 0 0 0 0 UNKNOWN ()) 0)) (84
'region_ids' (INTEGER 4 0 0 0 INTEGER ()) (1 0 DEFERRED () ()) (
UNKNOWN-FL UNKNOWN-INTENT UNKNOWN-PROC UNKNOWN UNKNOWN 0 0 DIMENSION
POINTER) UNKNOWN-ACCESS (NULL (UNKNOWN 0 0 0 0 UNKNOWN ()) 0)) (85 'halos'
(DERIVED 45 0 0 0 DERIVED ()) (1 0 DEFERRED () ()) (UNKNOWN-FL
UNKNOWN-INTENT UNKNOWN-PROC UNKNOWN UNKNOWN 0 0 DIMENSION POINTER)
UNKNOWN-ACCESS (NULL (UNKNOWN 0 0 0 0 UNKNOWN ()) 0)) (86 'element_halos'
(DERIVED 45 0 0 0 DERIVED ()) (1 0 DEFERRED () ()) (UNKNOWN-FL
UNKNOWN-INTENT UNKNOWN-PROC UNKNOWN UNKNOWN 0 0 DIMENSION POINTER)
UNKNOWN-ACCESS (NULL (UNKNOWN 0 0 0 0 UNKNOWN ()) 0)) (87 'colourings' (
DERIVED 88 0 0 0 DERIVED ()) (1 0 DEFERRED () ()) (UNKNOWN-FL
UNKNOWN-INTENT UNKNOWN-PROC UNKNOWN UNKNOWN 0 0 DIMENSION POINTER)
UNKNOWN-ACCESS (NULL (UNKNOWN 0 0 0 0 UNKNOWN ()) 0)) (89 'periodic' (
LOGICAL 4 0 0 0 LOGICAL ()) () (UNKNOWN-FL UNKNOWN-INTENT UNKNOWN-PROC
UNKNOWN UNKNOWN 0 0) UNKNOWN-ACCESS (CONSTANT (LOGICAL 4 0 0 0 LOGICAL ())
0 0))) PUBLIC (() () () ()) () 0 0 2572791)
47 'Vector_field' 'fields_data_types' '' 1 ((DERIVED UNKNOWN-INTENT
UNKNOWN-PROC UNKNOWN UNKNOWN 0 0 POINTER_COMP) (UNKNOWN 0 0 0 0 UNKNOWN
()) 0 0 () () 0 ((90 'val' (REAL 8 0 0 0 REAL ()) (2 0 DEFERRED () () ()
()) (UNKNOWN-FL UNKNOWN-INTENT UNKNOWN-PROC UNKNOWN UNKNOWN 0 0
DIMENSION POINTER) UNKNOWN-ACCESS ()) (91 'wrapped' (LOGICAL 4 0 0 0
LOGICAL ()) () (UNKNOWN-FL UNKNOWN-INTENT UNKNOWN-PROC UNKNOWN UNKNOWN 0
0) UNKNOWN-ACCESS (CONSTANT (LOGICAL 4 0 0 0 LOGICAL ()) 0 1)) (92
'field_type' (INTEGER 4 0 0 0 INTEGER ()) () (UNKNOWN-FL UNKNOWN-INTENT
UNKNOWN-PROC UNKNOWN UNKNOWN 0 0) UNKNOWN-ACCESS (CONSTANT (INTEGER 4 0
0 0 INTEGER ()) 0 '0')) (93 'bc' (DERIVED 94 0 0 0 DERIVED ()) () (
UNKNOWN-FL UNKNOWN-INTENT UNKNOWN-PROC UNKNOWN UNKNOWN 0 0 POINTER)
UNKNOWN-ACCESS (NULL (UNKNOWN 0 0 0 0 UNKNOWN ()) 0)) (95 'name' (
CHARACTER 1 0 0 0 CHARACTER ((CONSTANT (INTEGER 4 0 0 0 INTEGER ()) 0
'101'))) () (UNKNOWN-FL UNKNOWN-INTENT UNKNOWN-PROC UNKNOWN UNKNOWN 0 0)
UNKNOWN-ACCESS ()) (96 'dim' (INTEGER 4 0 0 0 INTEGER ()) () (
UNKNOWN-FL UNKNOWN-INTENT UNKNOWN-PROC UNKNOWN UNKNOWN 0 0)
UNKNOWN-ACCESS ()) (97 'option_path' (CHARACTER 1 0 0 0 CHARACTER ((
CONSTANT (INTEGER 4 0 0 0 INTEGER ()) 0 '8192'))) () (UNKNOWN-FL
UNKNOWN-INTENT UNKNOWN-PROC UNKNOWN UNKNOWN 0 0) UNKNOWN-ACCESS ()) (98
'mesh' (DERIVED 46 0 0 0 DERIVED ()) () (UNKNOWN-FL UNKNOWN-INTENT
UNKNOWN-PROC UNKNOWN UNKNOWN 0 0) UNKNOWN-ACCESS (STRUCTURE (DERIVED 46
0 0 0 DERIVED ()) 0 ((() ()) ((CONSTANT (LOGICAL 4 0 0 0 LOGICAL ()) 0 1)
()) ((STRUCTURE (DERIVED 68 0 0 0 DERIVED ()) 0 ((() ()) (() ()) (() ())
(() ()) ((NULL (UNKNOWN 0 0 0 0 UNKNOWN ()) 0) ()) ((NULL (UNKNOWN 0 0 0
0 UNKNOWN ()) 0) ()) ((NULL (UNKNOWN 0 0 0 0 UNKNOWN ()) 0) ()) ((NULL (
UNKNOWN 0 0 0 0 UNKNOWN ()) 0) ()) ((NULL (UNKNOWN 0 0 0 0 UNKNOWN ()) 0)
()) ((NULL (UNKNOWN 0 0 0 0 UNKNOWN ()) 0) ()) ((NULL (UNKNOWN 0 0 0 0
UNKNOWN ()) 0) ()) ((STRUCTURE (DERIVED 69 0 0 0 DERIVED ()) 0 ((() ())
(() ()) (() ()) (() ()) ((NULL (UNKNOWN 0 0 0 0 UNKNOWN ()) 0) ()) ((
NULL (UNKNOWN 0 0 0 0 UNKNOWN ()) 0) ()) (() ()) ((NULL (UNKNOWN 0 0 0 0
UNKNOWN ()) 0) ()) (() ())) ()) ()) ((NULL (UNKNOWN 0 0 0 0 UNKNOWN ())
0) ()) ((NULL (UNKNOWN 0 0 0 0 UNKNOWN ()) 0) ()) ((NULL (UNKNOWN 0 0 0
0 UNKNOWN ()) 0) ()) ((NULL (UNKNOWN 0 0 0 0 UNKNOWN ()) 0) ()) (() ()))
()) ()) (() ()) (() ()) (() ()) (() ()) ((CONSTANT (INTEGER 4 0 0 0
INTEGER ()) 0 '0') ()) ((NULL (UNKNOWN 0 0 0 0 UNKNOWN ()) 0) ()) ((
NULL (UNKNOWN 0 0 0 0 UNKNOWN ()) 0) ()) ((NULL (UNKNOWN 0 0 0 0 UNKNOWN
()) 0) ()) ((NULL (UNKNOWN 0 0 0 0 UNKNOWN ()) 0) ()) ((NULL (UNKNOWN 0
0 0 0 UNKNOWN ()) 0) ()) ((NULL (UNKNOWN 0 0 0 0 UNKNOWN ()) 0) ()) ((
NULL (UNKNOWN 0 0 0 0 UNKNOWN ()) 0) ()) ((NULL (UNKNOWN 0 0 0 0 UNKNOWN
()) 0) ()) ((NULL (UNKNOWN 0 0 0 0 UNKNOWN ()) 0) ()) ((NULL (UNKNOWN 0
0 0 0 UNKNOWN ()) 0) ()) ((CONSTANT (LOGICAL 4 0 0 0 LOGICAL ()) 0 0) ()))
())) (99 'refcount' (DERIVED 50 0 0 0 DERIVED ()) () (UNKNOWN-FL
UNKNOWN-INTENT UNKNOWN-PROC UNKNOWN UNKNOWN 0 0 POINTER) UNKNOWN-ACCESS
(NULL (UNKNOWN 0 0 0 0 UNKNOWN ()) 0)) (100 'aliased' (LOGICAL 4 0 0 0
LOGICAL ()) () (UNKNOWN-FL UNKNOWN-INTENT UNKNOWN-PROC UNKNOWN UNKNOWN 0
0) UNKNOWN-ACCESS (CONSTANT (LOGICAL 4 0 0 0 LOGICAL ()) 0 0)) (101
'picker' (DERIVED 102 0 0 0 DERIVED ()) () (UNKNOWN-FL UNKNOWN-INTENT
UNKNOWN-PROC UNKNOWN UNKNOWN 0 0 POINTER) UNKNOWN-ACCESS (NULL (UNKNOWN
0 0 0 0 UNKNOWN ()) 0))) PUBLIC (() () () ()) () 0 0 43598963)
50 'Refcount_type' 'reference_counting' '' 1 ((DERIVED UNKNOWN-INTENT
UNKNOWN-PROC UNKNOWN UNKNOWN 0 0 POINTER_COMP) (UNKNOWN 0 0 0 0 UNKNOWN
()) 0 0 () () 0 ((103 'prev' (DERIVED 50 0 0 0 DERIVED ()) () (
UNKNOWN-FL UNKNOWN-INTENT UNKNOWN-PROC UNKNOWN UNKNOWN 0 0 POINTER)
UNKNOWN-ACCESS (NULL (UNKNOWN 0 0 0 0 UNKNOWN ()) 0)) (104 'next' (
DERIVED 50 0 0 0 DERIVED ()) () (UNKNOWN-FL UNKNOWN-INTENT UNKNOWN-PROC
UNKNOWN UNKNOWN 0 0 POINTER) UNKNOWN-ACCESS (NULL (UNKNOWN 0 0 0 0
UNKNOWN ()) 0)) (105 'count' (INTEGER 4 0 0 0 INTEGER ()) () (
UNKNOWN-FL UNKNOWN-INTENT UNKNOWN-PROC UNKNOWN UNKNOWN 0 0)
UNKNOWN-ACCESS (CONSTANT (INTEGER 4 0 0 0 INTEGER ()) 0 '0')) (106 'id'
(INTEGER 4 0 0 0 INTEGER ()) () (UNKNOWN-FL UNKNOWN-INTENT UNKNOWN-PROC
UNKNOWN UNKNOWN 0 0) UNKNOWN-ACCESS ()) (107 'name' (CHARACTER 1 0 0 0
CHARACTER ((CONSTANT (INTEGER 4 0 0 0 INTEGER ()) 0 '101'))) () (
UNKNOWN-FL UNKNOWN-INTENT UNKNOWN-PROC UNKNOWN UNKNOWN 0 0)
UNKNOWN-ACCESS ()) (108 'type' (CHARACTER 1 0 0 0 CHARACTER ((CONSTANT (
INTEGER 4 0 0 0 INTEGER ()) 0 '101'))) () (UNKNOWN-FL UNKNOWN-INTENT
UNKNOWN-PROC UNKNOWN UNKNOWN 0 0) UNKNOWN-ACCESS ()) (109 'tagged' (
LOGICAL 4 0 0 0 LOGICAL ()) () (UNKNOWN-FL UNKNOWN-INTENT UNKNOWN-PROC
UNKNOWN UNKNOWN 0 0) UNKNOWN-ACCESS (CONSTANT (LOGICAL 4 0 0 0 LOGICAL ())
0 0))) PUBLIC (() () () ()) () 0 0 25948645)
56 'Integer_vector' 'futils' '' 1 ((DERIVED UNKNOWN-INTENT UNKNOWN-PROC
UNKNOWN UNKNOWN 0 0 POINTER_COMP) (UNKNOWN 0 0 0 0 UNKNOWN ()) 0 0 () ()
0 ((110 'ptr' (INTEGER 4 0 0 0 INTEGER ()) (1 0 DEFERRED () ()) (
UNKNOWN-FL UNKNOWN-INTENT UNKNOWN-PROC UNKNOWN UNKNOWN 0 0 DIMENSION
POINTER) UNKNOWN-ACCESS ())) PUBLIC (() () () ()) () 0 0 9661976)
68 'Element_type' 'elements' '' 1 ((DERIVED UNKNOWN-INTENT UNKNOWN-PROC
UNKNOWN UNKNOWN 0 0 POINTER_COMP) (UNKNOWN 0 0 0 0 UNKNOWN ()) 0 0 () ()
0 ((111 'dim' (INTEGER 4 0 0 0 INTEGER ()) () (UNKNOWN-FL UNKNOWN-INTENT
UNKNOWN-PROC UNKNOWN UNKNOWN 0 0) UNKNOWN-ACCESS ()) (112 'loc' (
INTEGER 4 0 0 0 INTEGER ()) () (UNKNOWN-FL UNKNOWN-INTENT UNKNOWN-PROC
UNKNOWN UNKNOWN 0 0) UNKNOWN-ACCESS ()) (113 'ngi' (INTEGER 4 0 0 0
INTEGER ()) () (UNKNOWN-FL UNKNOWN-INTENT UNKNOWN-PROC UNKNOWN UNKNOWN 0
0) UNKNOWN-ACCESS ()) (114 'degree' (INTEGER 4 0 0 0 INTEGER ()) () (
UNKNOWN-FL UNKNOWN-INTENT UNKNOWN-PROC UNKNOWN UNKNOWN 0 0)
UNKNOWN-ACCESS ()) (115 'n' (REAL 8 0 0 0 REAL ()) (2 0 DEFERRED () () ()
()) (UNKNOWN-FL UNKNOWN-INTENT UNKNOWN-PROC UNKNOWN UNKNOWN 0 0
DIMENSION POINTER) UNKNOWN-ACCESS (NULL (UNKNOWN 0 0 0 0 UNKNOWN ()) 0))
(116 'dn' (REAL 8 0 0 0 REAL ()) (3 0 DEFERRED () () () () () ()) (
UNKNOWN-FL UNKNOWN-INTENT UNKNOWN-PROC UNKNOWN UNKNOWN 0 0 DIMENSION
POINTER) UNKNOWN-ACCESS (NULL (UNKNOWN 0 0 0 0 UNKNOWN ()) 0)) (117 'n_s'
(REAL 8 0 0 0 REAL ()) (3 0 DEFERRED () () () () () ()) (UNKNOWN-FL
UNKNOWN-INTENT UNKNOWN-PROC UNKNOWN UNKNOWN 0 0 DIMENSION POINTER)
UNKNOWN-ACCESS (NULL (UNKNOWN 0 0 0 0 UNKNOWN ()) 0)) (118 'dn_s' (REAL
8 0 0 0 REAL ()) (4 0 DEFERRED () () () () () () () ()) (UNKNOWN-FL
UNKNOWN-INTENT UNKNOWN-PROC UNKNOWN UNKNOWN 0 0 DIMENSION POINTER)
UNKNOWN-ACCESS (NULL (UNKNOWN 0 0 0 0 UNKNOWN ()) 0)) (119 'spoly' (
DERIVED 120 0 0 0 DERIVED ()) (2 0 DEFERRED () () () ()) (UNKNOWN-FL
UNKNOWN-INTENT UNKNOWN-PROC UNKNOWN UNKNOWN 0 0 DIMENSION POINTER)
UNKNOWN-ACCESS (NULL (UNKNOWN 0 0 0 0 UNKNOWN ()) 0)) (121 'dspoly' (
DERIVED 120 0 0 0 DERIVED ()) (2 0 DEFERRED () () () ()) (UNKNOWN-FL
UNKNOWN-INTENT UNKNOWN-PROC UNKNOWN UNKNOWN 0 0 DIMENSION POINTER)
UNKNOWN-ACCESS (NULL (UNKNOWN 0 0 0 0 UNKNOWN ()) 0)) (122 'numbering' (
DERIVED 123 0 0 0 DERIVED ()) () (UNKNOWN-FL UNKNOWN-INTENT UNKNOWN-PROC
UNKNOWN UNKNOWN 0 0 POINTER) UNKNOWN-ACCESS (NULL (UNKNOWN 0 0 0 0
UNKNOWN ()) 0)) (124 'quadrature' (DERIVED 69 0 0 0 DERIVED ()) () (
UNKNOWN-FL UNKNOWN-INTENT UNKNOWN-PROC UNKNOWN UNKNOWN 0 0)
UNKNOWN-ACCESS (STRUCTURE (DERIVED 69 0 0 0 DERIVED ()) 0 ((() ()) (() ())
(() ()) (() ()) ((NULL (UNKNOWN 0 0 0 0 UNKNOWN ()) 0) ()) ((NULL (
UNKNOWN 0 0 0 0 UNKNOWN ()) 0) ()) (() ()) ((NULL (UNKNOWN 0 0 0 0
UNKNOWN ()) 0) ()) (() ())) ())) (125 'surface_quadrature' (DERIVED 69 0
0 0 DERIVED ()) () (UNKNOWN-FL UNKNOWN-INTENT UNKNOWN-PROC UNKNOWN
UNKNOWN 0 0 POINTER) UNKNOWN-ACCESS (NULL (UNKNOWN 0 0 0 0 UNKNOWN ()) 0))
(126 'superconvergence' (DERIVED 127 0 0 0 DERIVED ()) () (UNKNOWN-FL
UNKNOWN-INTENT UNKNOWN-PROC UNKNOWN UNKNOWN 0 0 POINTER) UNKNOWN-ACCESS
(NULL (UNKNOWN 0 0 0 0 UNKNOWN ()) 0)) (128 'constraints' (DERIVED 129 0
0 0 DERIVED ()) () (UNKNOWN-FL UNKNOWN-INTENT UNKNOWN-PROC UNKNOWN
UNKNOWN 0 0 POINTER) UNKNOWN-ACCESS (NULL (UNKNOWN 0 0 0 0 UNKNOWN ()) 0))
(130 'refcount' (DERIVED 50 0 0 0 DERIVED ()) () (UNKNOWN-FL
UNKNOWN-INTENT UNKNOWN-PROC UNKNOWN UNKNOWN 0 0 POINTER) UNKNOWN-ACCESS
(NULL (UNKNOWN 0 0 0 0 UNKNOWN ()) 0)) (131 'name' (CHARACTER 1 0 0 0
CHARACTER ((CONSTANT (INTEGER 4 0 0 0 INTEGER ()) 0 '0'))) () (
UNKNOWN-FL UNKNOWN-INTENT UNKNOWN-PROC UNKNOWN UNKNOWN 0 0)
UNKNOWN-ACCESS ())) PUBLIC (() () () ()) () 0 0 79461029)
69 'Quadrature_type' 'quadrature' '' 1 ((DERIVED UNKNOWN-INTENT
UNKNOWN-PROC UNKNOWN UNKNOWN 0 0 POINTER_COMP) (UNKNOWN 0 0 0 0 UNKNOWN
()) 0 0 () () 0 ((132 'dim' (INTEGER 4 0 0 0 INTEGER ()) () (UNKNOWN-FL
UNKNOWN-INTENT UNKNOWN-PROC UNKNOWN UNKNOWN 0 0) UNKNOWN-ACCESS ()) (
133 'degree' (INTEGER 4 0 0 0 INTEGER ()) () (UNKNOWN-FL UNKNOWN-INTENT
UNKNOWN-PROC UNKNOWN UNKNOWN 0 0) UNKNOWN-ACCESS ()) (134 'vertices' (
INTEGER 4 0 0 0 INTEGER ()) () (UNKNOWN-FL UNKNOWN-INTENT UNKNOWN-PROC
UNKNOWN UNKNOWN 0 0) UNKNOWN-ACCESS ()) (135 'ngi' (INTEGER 4 0 0 0
INTEGER ()) () (UNKNOWN-FL UNKNOWN-INTENT UNKNOWN-PROC UNKNOWN UNKNOWN 0
0) UNKNOWN-ACCESS ()) (136 'weight' (REAL 8 0 0 0 REAL ()) (1 0 DEFERRED
() ()) (UNKNOWN-FL UNKNOWN-INTENT UNKNOWN-PROC UNKNOWN UNKNOWN 0 0
DIMENSION POINTER) UNKNOWN-ACCESS (NULL (UNKNOWN 0 0 0 0 UNKNOWN ()) 0))
(137 'l' (REAL 8 0 0 0 REAL ()) (2 0 DEFERRED () () () ()) (UNKNOWN-FL
UNKNOWN-INTENT UNKNOWN-PROC UNKNOWN UNKNOWN 0 0 DIMENSION POINTER)
UNKNOWN-ACCESS (NULL (UNKNOWN 0 0 0 0 UNKNOWN ()) 0)) (138 'name' (
CHARACTER 1 0 0 0 CHARACTER ((CONSTANT (INTEGER 4 0 0 0 INTEGER ()) 0 '0')))
() (UNKNOWN-FL UNKNOWN-INTENT UNKNOWN-PROC UNKNOWN UNKNOWN 0 0)
UNKNOWN-ACCESS ()) (139 'refcount' (DERIVED 50 0 0 0 DERIVED ()) () (
UNKNOWN-FL UNKNOWN-INTENT UNKNOWN-PROC UNKNOWN UNKNOWN 0 0 POINTER)
UNKNOWN-ACCESS (NULL (UNKNOWN 0 0 0 0 UNKNOWN ()) 0)) (140 'family' (
INTEGER 4 0 0 0 INTEGER ()) () (UNKNOWN-FL UNKNOWN-INTENT UNKNOWN-PROC
UNKNOWN UNKNOWN 0 0) UNKNOWN-ACCESS ())) PUBLIC (() () () ()) () 0 0
59837722)
77 'Mesh_faces' 'fields_data_types' '' 1 ((DERIVED UNKNOWN-INTENT
UNKNOWN-PROC UNKNOWN UNKNOWN 0 0 POINTER_COMP) (UNKNOWN 0 0 0 0 UNKNOWN
()) 0 0 () () 0 ((141 'shape' (DERIVED 68 0 0 0 DERIVED ()) () (
UNKNOWN-FL UNKNOWN-INTENT UNKNOWN-PROC UNKNOWN UNKNOWN 0 0 POINTER)
UNKNOWN-ACCESS ()) (142 'face_list' (DERIVED 143 0 0 0 DERIVED ()) () (
UNKNOWN-FL UNKNOWN-INTENT UNKNOWN-PROC UNKNOWN UNKNOWN 0 0)
UNKNOWN-ACCESS (STRUCTURE (DERIVED 143 0 0 0 DERIVED ()) 0 (((STRUCTURE
(DERIVED 144 0 0 0 DERIVED ()) 0 (((NULL (UNKNOWN 0 0 0 0 UNKNOWN ()) 0)
()) ((NULL (UNKNOWN 0 0 0 0 UNKNOWN ()) 0) ()) ((NULL (UNKNOWN 0 0 0 0
UNKNOWN ()) 0) ()) (() ()) ((NULL (UNKNOWN 0 0 0 0 UNKNOWN ()) 0) ()) (
(NULL (UNKNOWN 0 0 0 0 UNKNOWN ()) 0) ()) ((NULL (UNKNOWN 0 0 0 0
UNKNOWN ()) 0) ()) ((CONSTANT (CHARACTER 1 0 0 0 CHARACTER (())) 0 101
'                                                                                                     ')
()) ((CONSTANT (LOGICAL 4 0 0 0 LOGICAL ()) 0 0) ()) ((CONSTANT (
LOGICAL 4 0 0 0 LOGICAL ()) 0 0) ())) ()) ()) ((NULL (UNKNOWN 0 0 0 0
UNKNOWN ()) 0) ()) ((NULL (UNKNOWN 0 0 0 0 UNKNOWN ()) 0) ()) ((
CONSTANT (LOGICAL 4 0 0 0 LOGICAL ()) 0 0) ()) ((CONSTANT (LOGICAL 4 0 0
0 LOGICAL ()) 0 0) ()) (() ()) ((NULL (UNKNOWN 0 0 0 0 UNKNOWN ()) 0) ())
((NULL (UNKNOWN 0 0 0 0 UNKNOWN ()) 0) ()) ((CONSTANT (CHARACTER 1 0 0 0
CHARACTER (())) 0 101
'                                                                                                     ')
())) ())) (145 'face_lno' (INTEGER 4 0 0 0 INTEGER ()) (1 0 DEFERRED ()
()) (UNKNOWN-FL UNKNOWN-INTENT UNKNOWN-PROC UNKNOWN UNKNOWN 0 0
DIMENSION POINTER) UNKNOWN-ACCESS ()) (146 'surface_mesh' (DERIVED 46 0
0 0 DERIVED ()) () (UNKNOWN-FL UNKNOWN-INTENT UNKNOWN-PROC UNKNOWN
UNKNOWN 0 0) UNKNOWN-ACCESS (STRUCTURE (DERIVED 46 0 0 0 DERIVED ()) 0 (
(() ()) ((CONSTANT (LOGICAL 4 0 0 0 LOGICAL ()) 0 1) ()) ((STRUCTURE (
DERIVED 68 0 0 0 DERIVED ()) 0 ((() ()) (() ()) (() ()) (() ()) ((NULL (
UNKNOWN 0 0 0 0 UNKNOWN ()) 0) ()) ((NULL (UNKNOWN 0 0 0 0 UNKNOWN ()) 0)
()) ((NULL (UNKNOWN 0 0 0 0 UNKNOWN ()) 0) ()) ((NULL (UNKNOWN 0 0 0 0
UNKNOWN ()) 0) ()) ((NULL (UNKNOWN 0 0 0 0 UNKNOWN ()) 0) ()) ((NULL (
UNKNOWN 0 0 0 0 UNKNOWN ()) 0) ()) ((NULL (UNKNOWN 0 0 0 0 UNKNOWN ()) 0)
()) ((STRUCTURE (DERIVED 69 0 0 0 DERIVED ()) 0 ((() ()) (() ()) (() ())
(() ()) ((NULL (UNKNOWN 0 0 0 0 UNKNOWN ()) 0) ()) ((NULL (UNKNOWN 0 0 0
0 UNKNOWN ()) 0) ()) (() ()) ((NULL (UNKNOWN 0 0 0 0 UNKNOWN ()) 0) ())
(() ())) ()) ()) ((NULL (UNKNOWN 0 0 0 0 UNKNOWN ()) 0) ()) ((NULL (
UNKNOWN 0 0 0 0 UNKNOWN ()) 0) ()) ((NULL (UNKNOWN 0 0 0 0 UNKNOWN ()) 0)
()) ((NULL (UNKNOWN 0 0 0 0 UNKNOWN ()) 0) ()) (() ())) ()) ()) (() ())
(() ()) (() ()) (() ()) ((CONSTANT (INTEGER 4 0 0 0 INTEGER ()) 0 '0') ())
((NULL (UNKNOWN 0 0 0 0 UNKNOWN ()) 0) ()) ((NULL (UNKNOWN 0 0 0 0
UNKNOWN ()) 0) ()) ((NULL (UNKNOWN 0 0 0 0 UNKNOWN ()) 0) ()) ((NULL (
UNKNOWN 0 0 0 0 UNKNOWN ()) 0) ()) ((NULL (UNKNOWN 0 0 0 0 UNKNOWN ()) 0)
()) ((NULL (UNKNOWN 0 0 0 0 UNKNOWN ()) 0) ()) ((NULL (UNKNOWN 0 0 0 0
UNKNOWN ()) 0) ()) ((NULL (UNKNOWN 0 0 0 0 UNKNOWN ()) 0) ()) ((NULL (
UNKNOWN 0 0 0 0 UNKNOWN ()) 0) ()) ((NULL (UNKNOWN 0 0 0 0 UNKNOWN ()) 0)
()) ((CONSTANT (LOGICAL 4 0 0 0 LOGICAL ()) 0 0) ())) ())) (147
'surface_node_list' (INTEGER 4 0 0 0 INTEGER ()) (1 0 DEFERRED () ()) (
UNKNOWN-FL UNKNOWN-INTENT UNKNOWN-PROC UNKNOWN UNKNOWN 0 0 DIMENSION
POINTER) UNKNOWN-ACCESS ()) (148 'face_element_list' (INTEGER 4 0 0 0
INTEGER ()) (1 0 DEFERRED () ()) (UNKNOWN-FL UNKNOWN-INTENT UNKNOWN-PROC
UNKNOWN UNKNOWN 0 0 DIMENSION POINTER) UNKNOWN-ACCESS ()) (149
'boundary_ids' (INTEGER 4 0 0 0 INTEGER ()) (1 0 DEFERRED () ()) (
UNKNOWN-FL UNKNOWN-INTENT UNKNOWN-PROC UNKNOWN UNKNOWN 0 0 DIMENSION
POINTER) UNKNOWN-ACCESS ()) (150 'coplanar_ids' (INTEGER 4 0 0 0 INTEGER
()) (1 0 DEFERRED () ()) (UNKNOWN-FL UNKNOWN-INTENT UNKNOWN-PROC UNKNOWN
UNKNOWN 0 0 DIMENSION POINTER) UNKNOWN-ACCESS (NULL (UNKNOWN 0 0 0 0
UNKNOWN ()) 0)) (151 'dg_surface_mesh' (DERIVED 46 0 0 0 DERIVED ()) ()
(UNKNOWN-FL UNKNOWN-INTENT UNKNOWN-PROC UNKNOWN UNKNOWN 0 0 POINTER)
UNKNOWN-ACCESS (NULL (UNKNOWN 0 0 0 0 UNKNOWN ()) 0)) (152
'has_discontinuous_internal_boundaries' (LOGICAL 4 0 0 0 LOGICAL ()) ()
(UNKNOWN-FL UNKNOWN-INTENT UNKNOWN-PROC UNKNOWN UNKNOWN 0 0)
UNKNOWN-ACCESS (CONSTANT (LOGICAL 4 0 0 0 LOGICAL ()) 0 0)) (153
'unique_surface_element_count' (INTEGER 4 0 0 0 INTEGER ()) () (
UNKNOWN-FL UNKNOWN-INTENT UNKNOWN-PROC UNKNOWN UNKNOWN 0 0)
UNKNOWN-ACCESS ())) PUBLIC (() () () ()) () 0 0 11936185)
79 'Mesh_subdomain_mesh' 'fields_data_types' '' 1 ((DERIVED
UNKNOWN-INTENT UNKNOWN-PROC UNKNOWN UNKNOWN 0 0 POINTER_COMP) (UNKNOWN 0
0 0 0 UNKNOWN ()) 0 0 () () 0 ((154 'element_list' (INTEGER 4 0 0 0
INTEGER ()) (1 0 DEFERRED () ()) (UNKNOWN-FL UNKNOWN-INTENT UNKNOWN-PROC
UNKNOWN UNKNOWN 0 0 DIMENSION POINTER) UNKNOWN-ACCESS ()) (155 'node_list'
(INTEGER 4 0 0 0 INTEGER ()) (1 0 DEFERRED () ()) (UNKNOWN-FL
UNKNOWN-INTENT UNKNOWN-PROC UNKNOWN UNKNOWN 0 0 DIMENSION POINTER)
UNKNOWN-ACCESS ())) PUBLIC (() () () ()) () 0 0 85302181)
81 'Adjacency_cache' 'fields_data_types' '' 1 ((DERIVED UNKNOWN-INTENT
UNKNOWN-PROC UNKNOWN UNKNOWN 0 0 POINTER_COMP) (UNKNOWN 0 0 0 0 UNKNOWN
()) 0 0 () () 0 ((156 'nnlist' (DERIVED 144 0 0 0 DERIVED ()) () (
UNKNOWN-FL UNKNOWN-INTENT UNKNOWN-PROC UNKNOWN UNKNOWN 0 0 POINTER)
UNKNOWN-ACCESS (NULL (UNKNOWN 0 0 0 0 UNKNOWN ()) 0)) (157 'nelist' (
DERIVED 144 0 0 0 DERIVED ()) () (UNKNOWN-FL UNKNOWN-INTENT UNKNOWN-PROC
UNKNOWN UNKNOWN 0 0 POINTER) UNKNOWN-ACCESS (NULL (UNKNOWN 0 0 0 0
UNKNOWN ()) 0)) (158 'eelist' (DERIVED 144 0 0 0 DERIVED ()) () (
UNKNOWN-FL UNKNOWN-INTENT UNKNOWN-PROC UNKNOWN UNKNOWN 0 0 POINTER)
UNKNOWN-ACCESS (NULL (UNKNOWN 0 0 0 0 UNKNOWN ()) 0))) PUBLIC (() () ()
()) () 0 0 37419158)
88 'Integer_set_vector' 'integer_set_module' '' 1 ((DERIVED
UNKNOWN-INTENT UNKNOWN-PROC UNKNOWN UNKNOWN 0 0 POINTER_COMP) (UNKNOWN 0
0 0 0 UNKNOWN ()) 0 0 () () 0 ((159 'sets' (DERIVED 160 0 0 0 DERIVED ())
(1 0 DEFERRED () ()) (UNKNOWN-FL UNKNOWN-INTENT UNKNOWN-PROC UNKNOWN
UNKNOWN 0 0 DIMENSION POINTER) UNKNOWN-ACCESS ())) PUBLIC (() () () ())
() 0 0 40688950)
94 'Vector_boundary_conditions_ptr' 'fields_data_types' '' 1 ((DERIVED
UNKNOWN-INTENT UNKNOWN-PROC UNKNOWN UNKNOWN 0 0 POINTER_COMP) (UNKNOWN 0
0 0 0 UNKNOWN ()) 0 0 () () 0 ((161 'boundary_condition' (DERIVED 162 0
0 0 DERIVED ()) (1 0 DEFERRED () ()) (UNKNOWN-FL UNKNOWN-INTENT
UNKNOWN-PROC UNKNOWN UNKNOWN 0 0 DIMENSION POINTER) UNKNOWN-ACCESS (
NULL (UNKNOWN 0 0 0 0 UNKNOWN ()) 0))) PUBLIC (() () () ()) () 0 0
84476181)
102 'Picker_ptr' 'picker_data_types' '' 1 ((DERIVED UNKNOWN-INTENT
UNKNOWN-PROC UNKNOWN UNKNOWN 0 0 POINTER_COMP) (UNKNOWN 0 0 0 0 UNKNOWN
()) 0 0 () () 0 ((163 'ptr' (DERIVED 164 0 0 0 DERIVED ()) () (
UNKNOWN-FL UNKNOWN-INTENT UNKNOWN-PROC UNKNOWN UNKNOWN 0 0 POINTER)
UNKNOWN-ACCESS (NULL (UNKNOWN 0 0 0 0 UNKNOWN ()) 0))) PUBLIC (() () ()
()) () 0 0 71120007)
120 'Polynomial' 'polynomials' '' 1 ((DERIVED UNKNOWN-INTENT
UNKNOWN-PROC UNKNOWN UNKNOWN 0 0 POINTER_COMP) (UNKNOWN 0 0 0 0 UNKNOWN
()) 0 0 () () 0 ((165 'coefs' (REAL 8 0 0 0 REAL ()) (1 0 DEFERRED () ())
(UNKNOWN-FL UNKNOWN-INTENT UNKNOWN-PROC UNKNOWN UNKNOWN 0 0 DIMENSION
POINTER) UNKNOWN-ACCESS (NULL (UNKNOWN 0 0 0 0 UNKNOWN ()) 0)) (166
'degree' (INTEGER 4 0 0 0 INTEGER ()) () (UNKNOWN-FL UNKNOWN-INTENT
UNKNOWN-PROC UNKNOWN UNKNOWN 0 0) UNKNOWN-ACCESS (CONSTANT (INTEGER 4 0
0 0 INTEGER ()) 0 '-1'))) PUBLIC (() () () ()) () 0 0 87989236)
123 'Ele_numbering_type' 'element_numbering' '' 1 ((DERIVED
UNKNOWN-INTENT UNKNOWN-PROC UNKNOWN UNKNOWN 0 0 POINTER_COMP) (UNKNOWN 0
0 0 0 UNKNOWN ()) 0 0 () () 0 ((167 'faces' (INTEGER 4 0 0 0 INTEGER ())
() (UNKNOWN-FL UNKNOWN-INTENT UNKNOWN-PROC UNKNOWN UNKNOWN 0 0)
UNKNOWN-ACCESS ()) (168 'vertices' (INTEGER 4 0 0 0 INTEGER ()) () (
UNKNOWN-FL UNKNOWN-INTENT UNKNOWN-PROC UNKNOWN UNKNOWN 0 0)
UNKNOWN-ACCESS ()) (169 'edges' (INTEGER 4 0 0 0 INTEGER ()) () (
UNKNOWN-FL UNKNOWN-INTENT UNKNOWN-PROC UNKNOWN UNKNOWN 0 0)
UNKNOWN-ACCESS ()) (170 'boundaries' (INTEGER 4 0 0 0 INTEGER ()) () (
UNKNOWN-FL UNKNOWN-INTENT UNKNOWN-PROC UNKNOWN UNKNOWN 0 0)
UNKNOWN-ACCESS ()) (171 'degree' (INTEGER 4 0 0 0 INTEGER ()) () (
UNKNOWN-FL UNKNOWN-INTENT UNKNOWN-PROC UNKNOWN UNKNOWN 0 0)
UNKNOWN-ACCESS ()) (172 'dimension' (INTEGER 4 0 0 0 INTEGER ()) () (
UNKNOWN-FL UNKNOWN-INTENT UNKNOWN-PROC UNKNOWN UNKNOWN 0 0)
UNKNOWN-ACCESS ()) (173 'nodes' (INTEGER 4 0 0 0 INTEGER ()) () (
UNKNOWN-FL UNKNOWN-INTENT UNKNOWN-PROC UNKNOWN UNKNOWN 0 0)
UNKNOWN-ACCESS ()) (174 'type' (INTEGER 4 0 0 0 INTEGER ()) () (
UNKNOWN-FL UNKNOWN-INTENT UNKNOWN-PROC UNKNOWN UNKNOWN 0 0)
UNKNOWN-ACCESS (CONSTANT (INTEGER 4 0 0 0 INTEGER ()) 0 '1')) (175
'family' (INTEGER 4 0 0 0 INTEGER ()) () (UNKNOWN-FL UNKNOWN-INTENT
UNKNOWN-PROC UNKNOWN UNKNOWN 0 0) UNKNOWN-ACCESS ()) (176 'count2number'
(INTEGER 4 0 0 0 INTEGER ()) (3 0 DEFERRED () () () () () ()) (
UNKNOWN-FL UNKNOWN-INTENT UNKNOWN-PROC UNKNOWN UNKNOWN 0 0 DIMENSION
POINTER) UNKNOWN-ACCESS ()) (177 'number2count' (INTEGER 4 0 0 0 INTEGER
()) (2 0 DEFERRED () () () ()) (UNKNOWN-FL UNKNOWN-INTENT UNKNOWN-PROC
UNKNOWN UNKNOWN 0 0 DIMENSION POINTER) UNKNOWN-ACCESS ()) (178
'boundary_coord' (INTEGER 4 0 0 0 INTEGER ()) (1 0 DEFERRED () ()) (
UNKNOWN-FL UNKNOWN-INTENT UNKNOWN-PROC UNKNOWN UNKNOWN 0 0 DIMENSION
POINTER) UNKNOWN-ACCESS ()) (179 'boundary_val' (INTEGER 4 0 0 0 INTEGER
()) (1 0 DEFERRED () ()) (UNKNOWN-FL UNKNOWN-INTENT UNKNOWN-PROC UNKNOWN
UNKNOWN 0 0 DIMENSION POINTER) UNKNOWN-ACCESS ())) PUBLIC (() () () ())
() 0 0 96431082)
127 'Superconvergence_type' 'elements' '' 1 ((DERIVED UNKNOWN-INTENT
UNKNOWN-PROC UNKNOWN UNKNOWN 0 0 POINTER_COMP) (UNKNOWN 0 0 0 0 UNKNOWN
()) 0 0 () () 0 ((180 'nsp' (INTEGER 4 0 0 0 INTEGER ()) () (UNKNOWN-FL
UNKNOWN-INTENT UNKNOWN-PROC UNKNOWN UNKNOWN 0 0) UNKNOWN-ACCESS ()) (
181 'l' (REAL 8 0 0 0 REAL ()) (2 0 DEFERRED () () () ()) (UNKNOWN-FL
UNKNOWN-INTENT UNKNOWN-PROC UNKNOWN UNKNOWN 0 0 DIMENSION POINTER)
UNKNOWN-ACCESS ()) (182 'n' (REAL 8 0 0 0 REAL ()) (2 0 DEFERRED () () ()
()) (UNKNOWN-FL UNKNOWN-INTENT UNKNOWN-PROC UNKNOWN UNKNOWN 0 0
DIMENSION POINTER) UNKNOWN-ACCESS ()) (183 'dn' (REAL 8 0 0 0 REAL ()) (
3 0 DEFERRED () () () () () ()) (UNKNOWN-FL UNKNOWN-INTENT UNKNOWN-PROC
UNKNOWN UNKNOWN 0 0 DIMENSION POINTER) UNKNOWN-ACCESS ())) PUBLIC (() ()
() ()) () 0 0 18282395)
129 'Constraints_type' 'elements' '' 1 ((DERIVED UNKNOWN-INTENT
UNKNOWN-PROC UNKNOWN UNKNOWN 0 0 POINTER_COMP) (UNKNOWN 0 0 0 0 UNKNOWN
()) 0 0 () () 0 ((184 'type' (INTEGER 4 0 0 0 INTEGER ()) () (
UNKNOWN-FL UNKNOWN-INTENT UNKNOWN-PROC UNKNOWN UNKNOWN 0 0)
UNKNOWN-ACCESS ()) (185 'dim' (INTEGER 4 0 0 0 INTEGER ()) () (
UNKNOWN-FL UNKNOWN-INTENT UNKNOWN-PROC UNKNOWN UNKNOWN 0 0)
UNKNOWN-ACCESS ()) (186 'degree' (INTEGER 4 0 0 0 INTEGER ()) () (
UNKNOWN-FL UNKNOWN-INTENT UNKNOWN-PROC UNKNOWN UNKNOWN 0 0)
UNKNOWN-ACCESS ()) (187 'loc' (INTEGER 4 0 0 0 INTEGER ()) () (
UNKNOWN-FL UNKNOWN-INTENT UNKNOWN-PROC UNKNOWN UNKNOWN 0 0)
UNKNOWN-ACCESS ()) (188 'n_constraints' (INTEGER 4 0 0 0 INTEGER ()) ()
(UNKNOWN-FL UNKNOWN-INTENT UNKNOWN-PROC UNKNOWN UNKNOWN 0 0)
UNKNOWN-ACCESS ()) (189 'orthogonal' (REAL 8 0 0 0 REAL ()) (3 0
DEFERRED () () () () () ()) (UNKNOWN-FL UNKNOWN-INTENT UNKNOWN-PROC
UNKNOWN UNKNOWN 0 0 DIMENSION POINTER) UNKNOWN-ACCESS (NULL (UNKNOWN 0 0
0 0 UNKNOWN ()) 0))) PUBLIC (() () () ()) () 0 0 57548971)
143 'Csr_matrix' 'sparse_tools' '' 1 ((DERIVED UNKNOWN-INTENT
UNKNOWN-PROC UNKNOWN UNKNOWN 0 0 POINTER_COMP) (UNKNOWN 0 0 0 0 UNKNOWN
()) 0 0 () () 0 ((190 'sparsity' (DERIVED 144 0 0 0 DERIVED ()) () (
UNKNOWN-FL UNKNOWN-INTENT UNKNOWN-PROC UNKNOWN UNKNOWN 0 0)
UNKNOWN-ACCESS (STRUCTURE (DERIVED 144 0 0 0 DERIVED ()) 0 (((NULL (
UNKNOWN 0 0 0 0 UNKNOWN ()) 0) ()) ((NULL (UNKNOWN 0 0 0 0 UNKNOWN ()) 0)
()) ((NULL (UNKNOWN 0 0 0 0 UNKNOWN ()) 0) ()) (() ()) ((NULL (UNKNOWN 0
0 0 0 UNKNOWN ()) 0) ()) ((NULL (UNKNOWN 0 0 0 0 UNKNOWN ()) 0) ()) ((
NULL (UNKNOWN 0 0 0 0 UNKNOWN ()) 0) ()) ((CONSTANT (CHARACTER 1 0 0 0
CHARACTER (())) 0 101
'                                                                                                     ')
()) ((CONSTANT (LOGICAL 4 0 0 0 LOGICAL ()) 0 0) ()) ((CONSTANT (
LOGICAL 4 0 0 0 LOGICAL ()) 0 0) ())) ())) (191 'val' (REAL 8 0 0 0 REAL
()) (1 0 DEFERRED () ()) (UNKNOWN-FL UNKNOWN-INTENT UNKNOWN-PROC UNKNOWN
UNKNOWN 0 0 DIMENSION POINTER) UNKNOWN-ACCESS (NULL (UNKNOWN 0 0 0 0
UNKNOWN ()) 0)) (192 'ival' (INTEGER 4 0 0 0 INTEGER ()) (1 0 DEFERRED ()
()) (UNKNOWN-FL UNKNOWN-INTENT UNKNOWN-PROC UNKNOWN UNKNOWN 0 0
DIMENSION POINTER) UNKNOWN-ACCESS (NULL (UNKNOWN 0 0 0 0 UNKNOWN ()) 0))
(193 'clone' (LOGICAL 4 0 0 0 LOGICAL ()) () (UNKNOWN-FL UNKNOWN-INTENT
UNKNOWN-PROC UNKNOWN UNKNOWN 0 0) UNKNOWN-ACCESS (CONSTANT (LOGICAL 4 0
0 0 LOGICAL ()) 0 0)) (194 'external_val' (LOGICAL 4 0 0 0 LOGICAL ()) ()
(UNKNOWN-FL UNKNOWN-INTENT UNKNOWN-PROC UNKNOWN UNKNOWN 0 0)
UNKNOWN-ACCESS (CONSTANT (LOGICAL 4 0 0 0 LOGICAL ()) 0 0)) (195
'inactive' (DERIVED 196 0 0 0 DERIVED ()) () (UNKNOWN-FL UNKNOWN-INTENT
UNKNOWN-PROC UNKNOWN UNKNOWN 0 0 POINTER) UNKNOWN-ACCESS ()) (197 'ksp'
(INTEGER 8 0 0 0 INTEGER ()) () (UNKNOWN-FL UNKNOWN-INTENT UNKNOWN-PROC
UNKNOWN UNKNOWN 0 0 POINTER) UNKNOWN-ACCESS (NULL (UNKNOWN 0 0 0 0
UNKNOWN ()) 0)) (198 'refcount' (DERIVED 50 0 0 0 DERIVED ()) () (
UNKNOWN-FL UNKNOWN-INTENT UNKNOWN-PROC UNKNOWN UNKNOWN 0 0 POINTER)
UNKNOWN-ACCESS (NULL (UNKNOWN 0 0 0 0 UNKNOWN ()) 0)) (199 'name' (
CHARACTER 1 0 0 0 CHARACTER ((CONSTANT (INTEGER 4 0 0 0 INTEGER ()) 0
'101'))) () (UNKNOWN-FL UNKNOWN-INTENT UNKNOWN-PROC UNKNOWN UNKNOWN 0 0)
UNKNOWN-ACCESS (CONSTANT (CHARACTER 1 0 0 0 CHARACTER (())) 0 101
'                                                                                                     ')))
PUBLIC (() () () ()) () 0 0 66371681)
144 'Csr_sparsity' 'sparse_tools' '' 1 ((DERIVED UNKNOWN-INTENT
UNKNOWN-PROC UNKNOWN UNKNOWN 0 0 POINTER_COMP) (UNKNOWN 0 0 0 0 UNKNOWN
()) 0 0 () () 0 ((200 'findrm' (INTEGER 4 0 0 0 INTEGER ()) (1 0
DEFERRED () ()) (UNKNOWN-FL UNKNOWN-INTENT UNKNOWN-PROC UNKNOWN UNKNOWN
0 0 DIMENSION POINTER) UNKNOWN-ACCESS (NULL (UNKNOWN 0 0 0 0 UNKNOWN ())
0)) (201 'centrm' (INTEGER 4 0 0 0 INTEGER ()) (1 0 DEFERRED () ()) (
UNKNOWN-FL UNKNOWN-INTENT UNKNOWN-PROC UNKNOWN UNKNOWN 0 0 DIMENSION
POINTER) UNKNOWN-ACCESS (NULL (UNKNOWN 0 0 0 0 UNKNOWN ()) 0)) (202 'colm'
(INTEGER 4 0 0 0 INTEGER ()) (1 0 DEFERRED () ()) (UNKNOWN-FL
UNKNOWN-INTENT UNKNOWN-PROC UNKNOWN UNKNOWN 0 0 DIMENSION POINTER)
UNKNOWN-ACCESS (NULL (UNKNOWN 0 0 0 0 UNKNOWN ()) 0)) (203 'columns' (
INTEGER 4 0 0 0 INTEGER ()) () (UNKNOWN-FL UNKNOWN-INTENT UNKNOWN-PROC
UNKNOWN UNKNOWN 0 0) UNKNOWN-ACCESS ()) (204 'row_halo' (DERIVED 45 0 0
0 DERIVED ()) () (UNKNOWN-FL UNKNOWN-INTENT UNKNOWN-PROC UNKNOWN UNKNOWN
0 0 POINTER) UNKNOWN-ACCESS (NULL (UNKNOWN 0 0 0 0 UNKNOWN ()) 0)) (205
'column_halo' (DERIVED 45 0 0 0 DERIVED ()) () (UNKNOWN-FL
UNKNOWN-INTENT UNKNOWN-PROC UNKNOWN UNKNOWN 0 0 POINTER) UNKNOWN-ACCESS
(NULL (UNKNOWN 0 0 0 0 UNKNOWN ()) 0)) (206 'refcount' (DERIVED 50 0 0 0
DERIVED ()) () (UNKNOWN-FL UNKNOWN-INTENT UNKNOWN-PROC UNKNOWN UNKNOWN 0
0 POINTER) UNKNOWN-ACCESS (NULL (UNKNOWN 0 0 0 0 UNKNOWN ()) 0)) (207
'name' (CHARACTER 1 0 0 0 CHARACTER ((CONSTANT (INTEGER 4 0 0 0 INTEGER
()) 0 '101'))) () (UNKNOWN-FL UNKNOWN-INTENT UNKNOWN-PROC UNKNOWN
UNKNOWN 0 0) UNKNOWN-ACCESS (CONSTANT (CHARACTER 1 0 0 0 CHARACTER (()))
0 101
'                                                                                                     '))
(208 'wrapped' (LOGICAL 4 0 0 0 LOGICAL ()) () (UNKNOWN-FL
UNKNOWN-INTENT UNKNOWN-PROC UNKNOWN UNKNOWN 0 0) UNKNOWN-ACCESS (
CONSTANT (LOGICAL 4 0 0 0 LOGICAL ()) 0 0)) (209 'sorted_rows' (LOGICAL
4 0 0 0 LOGICAL ()) () (UNKNOWN-FL UNKNOWN-INTENT UNKNOWN-PROC UNKNOWN
UNKNOWN 0 0) UNKNOWN-ACCESS (CONSTANT (LOGICAL 4 0 0 0 LOGICAL ()) 0 0)))
PUBLIC (() () () ()) () 0 0 78882345)
160 'Integer_set' 'integer_set_module' '' 1 ((DERIVED UNKNOWN-INTENT
UNKNOWN-PROC UNKNOWN UNKNOWN 0 0) (UNKNOWN 0 0 0 0 UNKNOWN ()) 0 0 () ()
0 ((210 'address' (DERIVED 211 0 0 0 DERIVED ()) () (UNKNOWN-FL
UNKNOWN-INTENT UNKNOWN-PROC UNKNOWN UNKNOWN 0 0) UNKNOWN-ACCESS ()))
PUBLIC (() () () ()) () 0 0 67217964)
162 'Vector_boundary_condition' 'fields_data_types' '' 1 ((DERIVED
UNKNOWN-INTENT UNKNOWN-PROC UNKNOWN UNKNOWN 0 0 POINTER_COMP) (UNKNOWN 0
0 0 0 UNKNOWN ()) 0 0 () () 0 ((212 'name' (CHARACTER 1 0 0 0 CHARACTER
((CONSTANT (INTEGER 4 0 0 0 INTEGER ()) 0 '101'))) () (UNKNOWN-FL
UNKNOWN-INTENT UNKNOWN-PROC UNKNOWN UNKNOWN 0 0) UNKNOWN-ACCESS ()) (
213 'type' (CHARACTER 1 0 0 0 CHARACTER ((CONSTANT (INTEGER 4 0 0 0
INTEGER ()) 0 '101'))) () (UNKNOWN-FL UNKNOWN-INTENT UNKNOWN-PROC
UNKNOWN UNKNOWN 0 0) UNKNOWN-ACCESS (CONSTANT (CHARACTER 1 0 0 0
CHARACTER (())) 0 101
'                                                                                                     '))
(214 'applies' (LOGICAL 4 0 0 0 LOGICAL ()) (1 0 EXPLICIT (CONSTANT (
INTEGER 4 0 0 0 INTEGER ()) 0 '1') (CONSTANT (INTEGER 4 0 0 0 INTEGER ())
0 '3')) (UNKNOWN-FL UNKNOWN-INTENT UNKNOWN-PROC UNKNOWN UNKNOWN 0 0
DIMENSION) UNKNOWN-ACCESS ()) (215 'surface_element_list' (INTEGER 4 0 0
0 INTEGER ()) (1 0 DEFERRED () ()) (UNKNOWN-FL UNKNOWN-INTENT
UNKNOWN-PROC UNKNOWN UNKNOWN 0 0 DIMENSION POINTER) UNKNOWN-ACCESS (
NULL (UNKNOWN 0 0 0 0 UNKNOWN ()) 0)) (216 'surface_node_list' (INTEGER
4 0 0 0 INTEGER ()) (1 0 DEFERRED () ()) (UNKNOWN-FL UNKNOWN-INTENT
UNKNOWN-PROC UNKNOWN UNKNOWN 0 0 DIMENSION POINTER) UNKNOWN-ACCESS (
NULL (UNKNOWN 0 0 0 0 UNKNOWN ()) 0)) (217 'surface_mesh' (DERIVED 46 0
0 0 DERIVED ()) () (UNKNOWN-FL UNKNOWN-INTENT UNKNOWN-PROC UNKNOWN
UNKNOWN 0 0 POINTER) UNKNOWN-ACCESS ()) (218 'surface_fields' (DERIVED
47 0 0 0 DERIVED ()) (1 0 DEFERRED () ()) (UNKNOWN-FL UNKNOWN-INTENT
UNKNOWN-PROC UNKNOWN UNKNOWN 0 0 DIMENSION POINTER) UNKNOWN-ACCESS (
NULL (UNKNOWN 0 0 0 0 UNKNOWN ()) 0)) (219 'scalar_surface_fields' (
DERIVED 220 0 0 0 DERIVED ()) (1 0 DEFERRED () ()) (UNKNOWN-FL
UNKNOWN-INTENT UNKNOWN-PROC UNKNOWN UNKNOWN 0 0 DIMENSION POINTER)
UNKNOWN-ACCESS (NULL (UNKNOWN 0 0 0 0 UNKNOWN ()) 0)) (221 'option_path'
(CHARACTER 1 0 0 0 CHARACTER ((CONSTANT (INTEGER 4 0 0 0 INTEGER ()) 0
'8192'))) () (UNKNOWN-FL UNKNOWN-INTENT UNKNOWN-PROC UNKNOWN UNKNOWN 0 0)
UNKNOWN-ACCESS ())) PUBLIC (() () () ()) () 0 0 42205165)
164 'Picker_type' 'picker_data_types' '' 1 ((DERIVED UNKNOWN-INTENT
UNKNOWN-PROC UNKNOWN UNKNOWN 0 0 POINTER_COMP) (UNKNOWN 0 0 0 0 UNKNOWN
()) 0 0 () () 0 ((222 'name' (CHARACTER 1 0 0 0 CHARACTER ((CONSTANT (
INTEGER 4 0 0 0 INTEGER ()) 0 '101'))) () (UNKNOWN-FL UNKNOWN-INTENT
UNKNOWN-PROC UNKNOWN UNKNOWN 0 0) UNKNOWN-ACCESS ()) (223 'refcount' (
DERIVED 50 0 0 0 DERIVED ()) () (UNKNOWN-FL UNKNOWN-INTENT UNKNOWN-PROC
UNKNOWN UNKNOWN 0 0 POINTER) UNKNOWN-ACCESS (NULL (UNKNOWN 0 0 0 0
UNKNOWN ()) 0)) (224 'picker_id' (INTEGER 4 0 0 0 INTEGER ()) () (
UNKNOWN-FL UNKNOWN-INTENT UNKNOWN-PROC UNKNOWN UNKNOWN 0 0)
UNKNOWN-ACCESS (CONSTANT (INTEGER 4 0 0 0 INTEGER ()) 0 '0')) (225
'last_mesh_movement' (INTEGER 4 0 0 0 INTEGER ()) () (UNKNOWN-FL
UNKNOWN-INTENT UNKNOWN-PROC UNKNOWN UNKNOWN 0 0) UNKNOWN-ACCESS (
CONSTANT (INTEGER 4 0 0 0 INTEGER ()) 0 '0'))) PUBLIC (() () () ()) () 0
0 8821665)
196 'Logical_array_ptr' 'sparse_tools' '' 1 ((DERIVED UNKNOWN-INTENT
UNKNOWN-PROC UNKNOWN UNKNOWN 0 0 POINTER_COMP) (UNKNOWN 0 0 0 0 UNKNOWN
()) 0 0 () () 0 ((226 'ptr' (LOGICAL 4 0 0 0 LOGICAL ()) (1 0 DEFERRED ()
()) (UNKNOWN-FL UNKNOWN-INTENT UNKNOWN-PROC UNKNOWN UNKNOWN 0 0
DIMENSION POINTER) UNKNOWN-ACCESS (NULL (UNKNOWN 0 0 0 0 UNKNOWN ()) 0)))
PUBLIC (() () () ()) () 0 0 30974511)
211 'C_ptr' '__iso_c_binding' '' 1 ((DERIVED UNKNOWN-INTENT UNKNOWN-PROC
UNKNOWN UNKNOWN 0 0 IS_BIND_C IS_C_INTEROP IS_ISO_C) (DERIVED 211 0 1 1
UNKNOWN ()) 0 0 () () 0 ((227 '__c_ptr_c_address' (INTEGER 8 0 1 0
INTEGER ()) () (UNKNOWN-FL UNKNOWN-INTENT UNKNOWN-PROC UNKNOWN UNKNOWN 0
0) UNKNOWN-ACCESS ())) UNKNOWN-ACCESS () () 2 42 0)
220 'Scalar_field' 'fields_data_types' '' 1 ((DERIVED UNKNOWN-INTENT
UNKNOWN-PROC UNKNOWN UNKNOWN 0 0 POINTER_COMP) (UNKNOWN 0 0 0 0 UNKNOWN
()) 0 0 () () 0 ((228 'val' (REAL 8 0 0 0 REAL ()) (1 0 DEFERRED () ())
(UNKNOWN-FL UNKNOWN-INTENT UNKNOWN-PROC UNKNOWN UNKNOWN 0 0 DIMENSION
POINTER) UNKNOWN-ACCESS ()) (229 'val_stride' (INTEGER 4 0 0 0 INTEGER ())
() (UNKNOWN-FL UNKNOWN-INTENT UNKNOWN-PROC UNKNOWN UNKNOWN 0 0)
UNKNOWN-ACCESS (CONSTANT (INTEGER 4 0 0 0 INTEGER ()) 0 '1')) (230
'wrapped' (LOGICAL 4 0 0 0 LOGICAL ()) () (UNKNOWN-FL UNKNOWN-INTENT
UNKNOWN-PROC UNKNOWN UNKNOWN 0 0) UNKNOWN-ACCESS (CONSTANT (LOGICAL 4 0
0 0 LOGICAL ()) 0 1)) (231 'field_type' (INTEGER 4 0 0 0 INTEGER ()) ()
(UNKNOWN-FL UNKNOWN-INTENT UNKNOWN-PROC UNKNOWN UNKNOWN 0 0)
UNKNOWN-ACCESS (CONSTANT (INTEGER 4 0 0 0 INTEGER ()) 0 '0')) (232 'bc'
(DERIVED 233 0 0 0 DERIVED ()) () (UNKNOWN-FL UNKNOWN-INTENT
UNKNOWN-PROC UNKNOWN UNKNOWN 0 0 POINTER) UNKNOWN-ACCESS (NULL (UNKNOWN
0 0 0 0 UNKNOWN ()) 0)) (234 'name' (CHARACTER 1 0 0 0 CHARACTER ((
CONSTANT (INTEGER 4 0 0 0 INTEGER ()) 0 '101'))) () (UNKNOWN-FL
UNKNOWN-INTENT UNKNOWN-PROC UNKNOWN UNKNOWN 0 0) UNKNOWN-ACCESS ()) (
235 'option_path' (CHARACTER 1 0 0 0 CHARACTER ((CONSTANT (INTEGER 4 0 0
0 INTEGER ()) 0 '8192'))) () (UNKNOWN-FL UNKNOWN-INTENT UNKNOWN-PROC
UNKNOWN UNKNOWN 0 0) UNKNOWN-ACCESS ()) (236 'mesh' (DERIVED 46 0 0 0
DERIVED ()) () (UNKNOWN-FL UNKNOWN-INTENT UNKNOWN-PROC UNKNOWN UNKNOWN 0
0) UNKNOWN-ACCESS (STRUCTURE (DERIVED 46 0 0 0 DERIVED ()) 0 ((() ()) (
(CONSTANT (LOGICAL 4 0 0 0 LOGICAL ()) 0 1) ()) ((STRUCTURE (DERIVED 68
0 0 0 DERIVED ()) 0 ((() ()) (() ()) (() ()) (() ()) ((NULL (UNKNOWN 0 0
0 0 UNKNOWN ()) 0) ()) ((NULL (UNKNOWN 0 0 0 0 UNKNOWN ()) 0) ()) ((
NULL (UNKNOWN 0 0 0 0 UNKNOWN ()) 0) ()) ((NULL (UNKNOWN 0 0 0 0 UNKNOWN
()) 0) ()) ((NULL (UNKNOWN 0 0 0 0 UNKNOWN ()) 0) ()) ((NULL (UNKNOWN 0
0 0 0 UNKNOWN ()) 0) ()) ((NULL (UNKNOWN 0 0 0 0 UNKNOWN ()) 0) ()) ((
STRUCTURE (DERIVED 69 0 0 0 DERIVED ()) 0 ((() ()) (() ()) (() ()) (() ())
((NULL (UNKNOWN 0 0 0 0 UNKNOWN ()) 0) ()) ((NULL (UNKNOWN 0 0 0 0
UNKNOWN ()) 0) ()) (() ()) ((NULL (UNKNOWN 0 0 0 0 UNKNOWN ()) 0) ()) (
() ())) ()) ()) ((NULL (UNKNOWN 0 0 0 0 UNKNOWN ()) 0) ()) ((NULL (
UNKNOWN 0 0 0 0 UNKNOWN ()) 0) ()) ((NULL (UNKNOWN 0 0 0 0 UNKNOWN ()) 0)
()) ((NULL (UNKNOWN 0 0 0 0 UNKNOWN ()) 0) ()) (() ())) ()) ()) (() ())
(() ()) (() ()) (() ()) ((CONSTANT (INTEGER 4 0 0 0 INTEGER ()) 0 '0') ())
((NULL (UNKNOWN 0 0 0 0 UNKNOWN ()) 0) ()) ((NULL (UNKNOWN 0 0 0 0
UNKNOWN ()) 0) ()) ((NULL (UNKNOWN 0 0 0 0 UNKNOWN ()) 0) ()) ((NULL (
UNKNOWN 0 0 0 0 UNKNOWN ()) 0) ()) ((NULL (UNKNOWN 0 0 0 0 UNKNOWN ()) 0)
()) ((NULL (UNKNOWN 0 0 0 0 UNKNOWN ()) 0) ()) ((NULL (UNKNOWN 0 0 0 0
UNKNOWN ()) 0) ()) ((NULL (UNKNOWN 0 0 0 0 UNKNOWN ()) 0) ()) ((NULL (
UNKNOWN 0 0 0 0 UNKNOWN ()) 0) ()) ((NULL (UNKNOWN 0 0 0 0 UNKNOWN ()) 0)
()) ((CONSTANT (LOGICAL 4 0 0 0 LOGICAL ()) 0 0) ())) ())) (237 'refcount'
(DERIVED 50 0 0 0 DERIVED ()) () (UNKNOWN-FL UNKNOWN-INTENT UNKNOWN-PROC
UNKNOWN UNKNOWN 0 0 POINTER) UNKNOWN-ACCESS (NULL (UNKNOWN 0 0 0 0
UNKNOWN ()) 0)) (238 'aliased' (LOGICAL 4 0 0 0 LOGICAL ()) () (
UNKNOWN-FL UNKNOWN-INTENT UNKNOWN-PROC UNKNOWN UNKNOWN 0 0)
UNKNOWN-ACCESS (CONSTANT (LOGICAL 4 0 0 0 LOGICAL ()) 0 0)) (239
'py_locweight' (REAL 8 0 0 0 REAL ()) (2 0 DEFERRED () () () ()) (
UNKNOWN-FL UNKNOWN-INTENT UNKNOWN-PROC UNKNOWN UNKNOWN 0 0 DIMENSION
POINTER) UNKNOWN-ACCESS (NULL (UNKNOWN 0 0 0 0 UNKNOWN ()) 0)) (240
'py_func' (CHARACTER 1 0 0 0 CHARACTER ((CONSTANT (INTEGER 4 0 0 0
INTEGER ()) 0 '8192'))) () (UNKNOWN-FL UNKNOWN-INTENT UNKNOWN-PROC
UNKNOWN UNKNOWN 0 0) UNKNOWN-ACCESS ()) (241 'py_positions' (DERIVED 47
0 0 0 DERIVED ()) () (UNKNOWN-FL UNKNOWN-INTENT UNKNOWN-PROC UNKNOWN
UNKNOWN 0 0 POINTER) UNKNOWN-ACCESS ()) (242 'py_positions_same_mesh' (
LOGICAL 4 0 0 0 LOGICAL ()) () (UNKNOWN-FL UNKNOWN-INTENT UNKNOWN-PROC
UNKNOWN UNKNOWN 0 0) UNKNOWN-ACCESS ()) (243 'py_dim' (INTEGER 4 0 0 0
INTEGER ()) () (UNKNOWN-FL UNKNOWN-INTENT UNKNOWN-PROC UNKNOWN UNKNOWN 0
0) UNKNOWN-ACCESS ()) (244 'py_positions_shape' (DERIVED 68 0 0 0
DERIVED ()) () (UNKNOWN-FL UNKNOWN-INTENT UNKNOWN-PROC UNKNOWN UNKNOWN 0
0 POINTER) UNKNOWN-ACCESS (NULL (UNKNOWN 0 0 0 0 UNKNOWN ()) 0)) (245
'is_embedded' (LOGICAL 4 0 0 0 LOGICAL ()) () (UNKNOWN-FL UNKNOWN-INTENT
UNKNOWN-PROC UNKNOWN UNKNOWN 0 0) UNKNOWN-ACCESS (CONSTANT (LOGICAL 4 0
0 0 LOGICAL ()) 0 0))) PUBLIC (() () () ()) () 0 0 64912956)
233 'Scalar_boundary_conditions_ptr' 'fields_data_types' '' 1 ((DERIVED
UNKNOWN-INTENT UNKNOWN-PROC UNKNOWN UNKNOWN 0 0 POINTER_COMP) (UNKNOWN 0
0 0 0 UNKNOWN ()) 0 0 () () 0 ((246 'boundary_condition' (DERIVED 247 0
0 0 DERIVED ()) (1 0 DEFERRED () ()) (UNKNOWN-FL UNKNOWN-INTENT
UNKNOWN-PROC UNKNOWN UNKNOWN 0 0 DIMENSION POINTER) UNKNOWN-ACCESS (
NULL (UNKNOWN 0 0 0 0 UNKNOWN ()) 0))) PUBLIC (() () () ()) () 0 0
47502942)
247 'Scalar_boundary_condition' 'fields_data_types' '' 1 ((DERIVED
UNKNOWN-INTENT UNKNOWN-PROC UNKNOWN UNKNOWN 0 0 POINTER_COMP) (UNKNOWN 0
0 0 0 UNKNOWN ()) 0 0 () () 0 ((248 'name' (CHARACTER 1 0 0 0 CHARACTER
((CONSTANT (INTEGER 4 0 0 0 INTEGER ()) 0 '101'))) () (UNKNOWN-FL
UNKNOWN-INTENT UNKNOWN-PROC UNKNOWN UNKNOWN 0 0) UNKNOWN-ACCESS ()) (
249 'type' (CHARACTER 1 0 0 0 CHARACTER ((CONSTANT (INTEGER 4 0 0 0
INTEGER ()) 0 '101'))) () (UNKNOWN-FL UNKNOWN-INTENT UNKNOWN-PROC
UNKNOWN UNKNOWN 0 0) UNKNOWN-ACCESS (CONSTANT (CHARACTER 1 0 0 0
CHARACTER (())) 0 101
'                                                                                                     '))
(250 'surface_element_list' (INTEGER 4 0 0 0 INTEGER ()) (1 0 DEFERRED ()
()) (UNKNOWN-FL UNKNOWN-INTENT UNKNOWN-PROC UNKNOWN UNKNOWN 0 0
DIMENSION POINTER) UNKNOWN-ACCESS (NULL (UNKNOWN 0 0 0 0 UNKNOWN ()) 0))
(251 'surface_node_list' (INTEGER 4 0 0 0 INTEGER ()) (1 0 DEFERRED () ())
(UNKNOWN-FL UNKNOWN-INTENT UNKNOWN-PROC UNKNOWN UNKNOWN 0 0 DIMENSION
POINTER) UNKNOWN-ACCESS (NULL (UNKNOWN 0 0 0 0 UNKNOWN ()) 0)) (252
'surface_mesh' (DERIVED 46 0 0 0 DERIVED ()) () (UNKNOWN-FL
UNKNOWN-INTENT UNKNOWN-PROC UNKNOWN UNKNOWN 0 0 POINTER) UNKNOWN-ACCESS
()) (253 'surface_fields' (DERIVED 220 0 0 0 DERIVED ()) (1 0 DEFERRED ()
()) (UNKNOWN-FL UNKNOWN-INTENT UNKNOWN-PROC UNKNOWN UNKNOWN 0 0
DIMENSION POINTER) UNKNOWN-ACCESS (NULL (UNKNOWN 0 0 0 0 UNKNOWN ()) 0))
(254 'option_path' (CHARACTER 1 0 0 0 CHARACTER ((CONSTANT (INTEGER 4 0
0 0 INTEGER ()) 0 '8192'))) () (UNKNOWN-FL UNKNOWN-INTENT UNKNOWN-PROC
UNKNOWN UNKNOWN 0 0) UNKNOWN-ACCESS ())) PUBLIC (() () () ()) () 0 0
50740068)
)

('reorder_element_halo' 0 20 'reorder_halo_from_element_halo' 0 25
'reorder_halo_receives' 0 30 'reorder_l1_from_l2_halo' 0 34)
