GFORTRAN module version '10' created from Integer_hash_table.F90
MD5:b43261ad7b77d0c5dded0c6f7708498b -- If you edit this, you'll get what you deserve.

(() () () () () () () () () () () () () () () () () () () () () () ()
() () () ())

()

(('allocate' 'integer_hash_table_module' 2) ('copy'
'integer_hash_table_module' 3) ('deallocate' 'integer_hash_table_module'
4) ('fetch' 'integer_hash_table_module' 5 6) ('fetch_pair'
'integer_hash_table_module' 7) ('has_key' 'integer_hash_table_module' 8)
('insert' 'integer_hash_table_module' 9) ('integer_hash_table'
'integer_hash_table_module' 10) ('key_count' 'integer_hash_table_module'
11) ('print' 'integer_hash_table_module' 12) ('remove'
'integer_hash_table_module' 13))

()

()

()

(10 'Integer_hash_table' 'integer_hash_table_module' '' 1 ((DERIVED
UNKNOWN-INTENT UNKNOWN-PROC UNKNOWN UNKNOWN 0 0) (UNKNOWN 0 0 0 0
UNKNOWN ()) 0 0 () () 0 ((14 'address' (DERIVED 15 0 0 0 DERIVED ()) ()
(UNKNOWN-FL UNKNOWN-INTENT UNKNOWN-PROC UNKNOWN UNKNOWN 0 0)
UNKNOWN-ACCESS ())) PUBLIC (() () () ()) () 0 0 67448272)
16 'integer_hash_table' 'integer_hash_table_module' '' 1 ((PROCEDURE
UNKNOWN-INTENT UNKNOWN-PROC DECL UNKNOWN 0 0 FUNCTION GENERIC) (INTEGER
4 0 0 0 INTEGER ()) 0 0 () () 0 () () () 0 0)
2 'integer_hash_table_allocate' 'integer_hash_table_module' '' 1 ((
PROCEDURE UNKNOWN-INTENT MODULE-PROC DECL UNKNOWN 0 0 SUBROUTINE) (
UNKNOWN 0 0 0 0 UNKNOWN ()) 17 0 (18) () 0 () () () 0 0)
3 'integer_hash_table_copy' 'integer_hash_table_module' '' 1 ((
PROCEDURE UNKNOWN-INTENT MODULE-PROC DECL UNKNOWN 0 0 SUBROUTINE) (
UNKNOWN 0 0 0 0 UNKNOWN ()) 19 0 (20 21) () 0 () () () 0 0)
4 'integer_hash_table_delete' 'integer_hash_table_module' '' 1 ((
PROCEDURE UNKNOWN-INTENT MODULE-PROC DECL UNKNOWN 0 0 SUBROUTINE) (
UNKNOWN 0 0 0 0 UNKNOWN ()) 22 0 (23) () 0 () () () 0 0)
5 'integer_hash_table_fetch_v' 'integer_hash_table_module' '' 1 ((
PROCEDURE UNKNOWN-INTENT MODULE-PROC DECL UNKNOWN 0 0 DIMENSION FUNCTION
ALWAYS_EXPLICIT) (INTEGER 4 0 0 0 INTEGER ()) 24 0 (25 26) (1 0 EXPLICIT
(CONSTANT (INTEGER 4 0 0 0 INTEGER ()) 0 '1') (FUNCTION (INTEGER 4 0 0 0
INTEGER ()) 0 27 (('' (VARIABLE (INTEGER 4 0 0 0 INTEGER ()) 1 26 ((
ARRAY (FULL 1 2))))) ('' ()) ('' ())) '' 0 'size')) 28 () () () 0 0)
6 'integer_hash_table_fetch' 'integer_hash_table_module' '' 1 ((
PROCEDURE UNKNOWN-INTENT MODULE-PROC DECL UNKNOWN 0 0 FUNCTION) (
INTEGER 4 0 0 0 INTEGER ()) 29 0 (30 31) () 32 () () () 0 0)
7 'integer_hash_table_fetch_pair' 'integer_hash_table_module' '' 1 ((
PROCEDURE UNKNOWN-INTENT MODULE-PROC DECL UNKNOWN 0 0 SUBROUTINE) (
UNKNOWN 0 0 0 0 UNKNOWN ()) 33 0 (34 35 36 37) () 0 () () () 0 0)
8 'integer_hash_table_has_key' 'integer_hash_table_module' '' 1 ((
PROCEDURE UNKNOWN-INTENT MODULE-PROC DECL UNKNOWN 0 0 FUNCTION) (
LOGICAL 4 0 0 0 LOGICAL ()) 38 0 (39 40) () 41 () () () 0 0)
9 'integer_hash_table_insert' 'integer_hash_table_module' '' 1 ((
PROCEDURE UNKNOWN-INTENT MODULE-PROC DECL UNKNOWN 0 0 SUBROUTINE) (
UNKNOWN 0 0 0 0 UNKNOWN ()) 42 0 (43 44 45) () 0 () () () 0 0)
11 'integer_hash_table_length' 'integer_hash_table_module' '' 1 ((
PROCEDURE UNKNOWN-INTENT MODULE-PROC DECL UNKNOWN 0 0 FUNCTION PURE) (
INTEGER 4 0 0 0 INTEGER ()) 46 0 (47) () 48 () () () 0 0)
12 'print_hash_table' 'integer_hash_table_module' '' 1 ((PROCEDURE
UNKNOWN-INTENT MODULE-PROC DECL UNKNOWN 0 0 SUBROUTINE) (UNKNOWN 0 0 0 0
UNKNOWN ()) 49 0 (50 51) () 0 () () () 0 0)
13 'integer_hash_table_remove' 'integer_hash_table_module' '' 1 ((
PROCEDURE UNKNOWN-INTENT MODULE-PROC DECL UNKNOWN 0 0 SUBROUTINE) (
UNKNOWN 0 0 0 0 UNKNOWN ()) 52 0 (53 54) () 0 () () () 0 0)
15 'C_ptr' '__iso_c_binding' '' 1 ((DERIVED UNKNOWN-INTENT UNKNOWN-PROC
UNKNOWN UNKNOWN 0 0 IS_BIND_C IS_C_INTEROP IS_ISO_C) (DERIVED 15 0 1 1
UNKNOWN ()) 0 0 () () 0 ((55 '__c_ptr_c_address' (INTEGER 8 0 1 0
INTEGER ()) () (UNKNOWN-FL UNKNOWN-INTENT UNKNOWN-PROC UNKNOWN UNKNOWN 0
0) UNKNOWN-ACCESS ())) UNKNOWN-ACCESS () () 2 42 0)
18 'ihash' '' '' 17 ((VARIABLE OUT UNKNOWN-PROC UNKNOWN UNKNOWN 0 0
DUMMY) (DERIVED 10 0 0 0 DERIVED ()) 0 0 () () 0 () () () 0 0)
20 'ihash_copy' '' '' 19 ((VARIABLE OUT UNKNOWN-PROC UNKNOWN UNKNOWN 0 0
DUMMY) (DERIVED 10 0 0 0 DERIVED ()) 0 0 () () 0 () () () 0 0)
21 'ihash' '' '' 19 ((VARIABLE IN UNKNOWN-PROC UNKNOWN UNKNOWN 0 0 DUMMY)
(DERIVED 10 0 0 0 DERIVED ()) 0 0 () () 0 () () () 0 0)
23 'ihash' '' '' 22 ((VARIABLE INOUT UNKNOWN-PROC UNKNOWN UNKNOWN 0 0
DUMMY) (DERIVED 10 0 0 0 DERIVED ()) 0 0 () () 0 () () () 0 0)
25 'ihash' '' '' 24 ((VARIABLE IN UNKNOWN-PROC UNKNOWN UNKNOWN 0 0 DUMMY)
(DERIVED 10 0 0 0 DERIVED ()) 0 0 () () 0 () () () 0 0)
26 'keys' '' '' 24 ((VARIABLE IN UNKNOWN-PROC UNKNOWN UNKNOWN 0 0
DIMENSION DUMMY) (INTEGER 4 0 0 0 INTEGER ()) 0 0 () (1 0 ASSUMED_SHAPE
(CONSTANT (INTEGER 4 0 0 0 INTEGER ()) 0 '1') ()) 0 () () () 0 0)
27 'size' '(intrinsic)' '' 24 ((PROCEDURE UNKNOWN-INTENT UNKNOWN-PROC
UNKNOWN UNKNOWN 0 0 FUNCTION) (REAL 8 0 0 0 REAL ()) 0 0 () () 27 () ()
() 0 0)
28 'vals' '' '' 24 ((VARIABLE UNKNOWN-INTENT UNKNOWN-PROC UNKNOWN
UNKNOWN 0 0 DIMENSION RESULT ALWAYS_EXPLICIT) (INTEGER 4 0 0 0 INTEGER ())
0 0 () (1 0 EXPLICIT (CONSTANT (INTEGER 4 0 0 0 INTEGER ()) 0 '1') (
FUNCTION (INTEGER 4 0 0 0 INTEGER ()) 0 27 (('' (VARIABLE (INTEGER 4 0 0
0 INTEGER ()) 1 26 ((ARRAY (FULL 1 2))))) ('' ()) ('' ())) '' 0 'size'))
0 () () () 0 0)
30 'ihash' '' '' 29 ((VARIABLE IN UNKNOWN-PROC UNKNOWN UNKNOWN 0 0 DUMMY)
(DERIVED 10 0 0 0 DERIVED ()) 0 0 () () 0 () () () 0 0)
31 'key' '' '' 29 ((VARIABLE IN UNKNOWN-PROC UNKNOWN UNKNOWN 0 0 DUMMY)
(INTEGER 4 0 0 0 INTEGER ()) 0 0 () () 0 () () () 0 0)
32 'val' '' '' 29 ((VARIABLE UNKNOWN-INTENT UNKNOWN-PROC UNKNOWN UNKNOWN
0 0 RESULT) (INTEGER 4 0 0 0 INTEGER ()) 0 0 () () 0 () () () 0 0)
34 'ihash' '' '' 33 ((VARIABLE IN UNKNOWN-PROC UNKNOWN UNKNOWN 0 0 DUMMY)
(DERIVED 10 0 0 0 DERIVED ()) 0 0 () () 0 () () () 0 0)
35 'idx' '' '' 33 ((VARIABLE IN UNKNOWN-PROC UNKNOWN UNKNOWN 0 0 DUMMY)
(INTEGER 4 0 0 0 INTEGER ()) 0 0 () () 0 () () () 0 0)
36 'key' '' '' 33 ((VARIABLE OUT UNKNOWN-PROC UNKNOWN UNKNOWN 0 0 DUMMY)
(INTEGER 4 0 0 0 INTEGER ()) 0 0 () () 0 () () () 0 0)
37 'val' '' '' 33 ((VARIABLE OUT UNKNOWN-PROC UNKNOWN UNKNOWN 0 0 DUMMY)
(INTEGER 4 0 0 0 INTEGER ()) 0 0 () () 0 () () () 0 0)
39 'ihash' '' '' 38 ((VARIABLE IN UNKNOWN-PROC UNKNOWN UNKNOWN 0 0 DUMMY)
(DERIVED 10 0 0 0 DERIVED ()) 0 0 () () 0 () () () 0 0)
40 'key' '' '' 38 ((VARIABLE IN UNKNOWN-PROC UNKNOWN UNKNOWN 0 0 DUMMY)
(INTEGER 4 0 0 0 INTEGER ()) 0 0 () () 0 () () () 0 0)
41 'bool' '' '' 38 ((VARIABLE UNKNOWN-INTENT UNKNOWN-PROC UNKNOWN
UNKNOWN 0 0 RESULT) (LOGICAL 4 0 0 0 LOGICAL ()) 0 0 () () 0 () () () 0
0)
43 'ihash' '' '' 42 ((VARIABLE INOUT UNKNOWN-PROC UNKNOWN UNKNOWN 0 0
DUMMY) (DERIVED 10 0 0 0 DERIVED ()) 0 0 () () 0 () () () 0 0)
44 'key' '' '' 42 ((VARIABLE IN UNKNOWN-PROC UNKNOWN UNKNOWN 0 0 DUMMY)
(INTEGER 4 0 0 0 INTEGER ()) 0 0 () () 0 () () () 0 0)
45 'val' '' '' 42 ((VARIABLE IN UNKNOWN-PROC UNKNOWN UNKNOWN 0 0 DUMMY)
(INTEGER 4 0 0 0 INTEGER ()) 0 0 () () 0 () () () 0 0)
47 'ihash' '' '' 46 ((VARIABLE IN UNKNOWN-PROC UNKNOWN UNKNOWN 0 0 DUMMY)
(DERIVED 10 0 0 0 DERIVED ()) 0 0 () () 0 () () () 0 0)
48 'len' '' '' 46 ((VARIABLE UNKNOWN-INTENT UNKNOWN-PROC UNKNOWN UNKNOWN
0 0 RESULT) (INTEGER 4 0 0 0 INTEGER ()) 0 0 () () 0 () () () 0 0)
50 'ihash' '' '' 49 ((VARIABLE IN UNKNOWN-PROC UNKNOWN UNKNOWN 0 0 DUMMY)
(DERIVED 10 0 0 0 DERIVED ()) 0 0 () () 0 () () () 0 0)
51 'priority' '' '' 49 ((VARIABLE IN UNKNOWN-PROC UNKNOWN UNKNOWN 0 0
DUMMY) (INTEGER 4 0 0 0 INTEGER ()) 0 0 () () 0 () () () 0 0)
53 'ihash' '' '' 52 ((VARIABLE INOUT UNKNOWN-PROC UNKNOWN UNKNOWN 0 0
DUMMY) (DERIVED 10 0 0 0 DERIVED ()) 0 0 () () 0 () () () 0 0)
54 'key' '' '' 52 ((VARIABLE IN UNKNOWN-PROC UNKNOWN UNKNOWN 0 0 DUMMY)
(INTEGER 4 0 0 0 INTEGER ()) 0 0 () () 0 () () () 0 0)
)

('Integer_hash_table' 0 10 'integer_hash_table' 0 16)
