GFORTRAN module version '10' created from Integer_set.F90
MD5:85dd1e9e529aab50f55345a553b28e33 -- If you edit this, you'll get what you deserve.

(() () () () () () () () () () () () () () () () () () () () () () ()
() () () ())

()

(('allocate' 'integer_set_module' 2 3) ('copy' 'integer_set_module' 4 5)
('deallocate' 'integer_set_module' 6 7) ('fetch' 'integer_set_module' 8)
('has_value' 'integer_set_module' 9 10) ('insert' 'integer_set_module'
11 12 13) ('integer_set' 'integer_set_module' 14) ('integer_set_vector'
'integer_set_module' 15) ('key_count' 'integer_set_module' 16 17) (
'remove' 'integer_set_module' 18) ('set_intersection' 'integer_set_module'
19 20))

()

()

()

(14 'Integer_set' 'integer_set_module' '' 1 ((DERIVED UNKNOWN-INTENT
UNKNOWN-PROC UNKNOWN UNKNOWN 0 0) (UNKNOWN 0 0 0 0 UNKNOWN ()) 0 0 () ()
0 ((21 'address' (DERIVED 22 0 0 0 DERIVED ()) () (UNKNOWN-FL
UNKNOWN-INTENT UNKNOWN-PROC UNKNOWN UNKNOWN 0 0) UNKNOWN-ACCESS ()))
PUBLIC (() () () ()) () 0 0 67217964)
15 'Integer_set_vector' 'integer_set_module' '' 1 ((DERIVED
UNKNOWN-INTENT UNKNOWN-PROC UNKNOWN UNKNOWN 0 0 POINTER_COMP) (UNKNOWN 0
0 0 0 UNKNOWN ()) 0 0 () () 0 ((23 'sets' (DERIVED 14 0 0 0 DERIVED ())
(1 0 DEFERRED () ()) (UNKNOWN-FL UNKNOWN-INTENT UNKNOWN-PROC UNKNOWN
UNKNOWN 0 0 DIMENSION POINTER) UNKNOWN-ACCESS ())) PUBLIC (() () () ())
() 0 0 40688950)
24 'integer_set' 'integer_set_module' '' 1 ((PROCEDURE UNKNOWN-INTENT
UNKNOWN-PROC DECL UNKNOWN 0 0 FUNCTION GENERIC) (INTEGER 4 0 0 0 INTEGER
()) 0 0 () () 0 () () () 0 0)
25 'integer_set_vector' 'integer_set_module' '' 1 ((PROCEDURE
UNKNOWN-INTENT UNKNOWN-PROC DECL UNKNOWN 0 0 FUNCTION GENERIC) (INTEGER
4 0 0 0 INTEGER ()) 0 0 () () 0 () () () 0 0)
26 'set2vector' 'integer_set_module' '' 1 ((PROCEDURE UNKNOWN-INTENT
MODULE-PROC DECL UNKNOWN 0 0 DIMENSION FUNCTION ALWAYS_EXPLICIT) (
INTEGER 4 0 0 0 INTEGER ()) 27 0 (28) (1 0 EXPLICIT (CONSTANT (INTEGER 4
0 0 0 INTEGER ()) 0 '1') (FUNCTION (INTEGER 4 0 0 0 INTEGER ()) 0 29 ((''
(VARIABLE (DERIVED 14 0 0 0 DERIVED ()) 0 28 ())))
'integer_set_length_single' 1 17)) 30 () () () 0 0)
31 'set_complement' 'integer_set_module' '' 1 ((PROCEDURE UNKNOWN-INTENT
MODULE-PROC DECL UNKNOWN 0 0 SUBROUTINE) (UNKNOWN 0 0 0 0 UNKNOWN ()) 32
0 (33 34 35) () 0 () () () 0 0)
36 'set_minus' 'integer_set_module' '' 1 ((PROCEDURE UNKNOWN-INTENT
MODULE-PROC DECL UNKNOWN 0 0 SUBROUTINE) (UNKNOWN 0 0 0 0 UNKNOWN ()) 37
0 (38 39 40) () 0 () () () 0 0)
2 'integer_set_allocate_vector' 'integer_set_module' '' 1 ((PROCEDURE
UNKNOWN-INTENT MODULE-PROC DECL UNKNOWN 0 0 SUBROUTINE ALWAYS_EXPLICIT)
(UNKNOWN 0 0 0 0 UNKNOWN ()) 41 0 (42) () 0 () () () 0 0)
3 'integer_set_allocate_single' 'integer_set_module' '' 1 ((PROCEDURE
UNKNOWN-INTENT MODULE-PROC DECL UNKNOWN 0 0 SUBROUTINE) (UNKNOWN 0 0 0 0
UNKNOWN ()) 43 0 (44) () 0 () () () 0 0)
4 'integer_set_copy_multiple' 'integer_set_module' '' 1 ((PROCEDURE
UNKNOWN-INTENT MODULE-PROC DECL UNKNOWN 0 0 SUBROUTINE ALWAYS_EXPLICIT)
(UNKNOWN 0 0 0 0 UNKNOWN ()) 45 0 (46 47) () 0 () () () 0 0)
5 'integer_set_copy' 'integer_set_module' '' 1 ((PROCEDURE
UNKNOWN-INTENT MODULE-PROC DECL UNKNOWN 0 0 SUBROUTINE) (UNKNOWN 0 0 0 0
UNKNOWN ()) 48 0 (49 50) () 0 () () () 0 0)
6 'integer_set_delete_vector' 'integer_set_module' '' 1 ((PROCEDURE
UNKNOWN-INTENT MODULE-PROC DECL UNKNOWN 0 0 SUBROUTINE ALWAYS_EXPLICIT)
(UNKNOWN 0 0 0 0 UNKNOWN ()) 51 0 (52) () 0 () () () 0 0)
7 'integer_set_delete_single' 'integer_set_module' '' 1 ((PROCEDURE
UNKNOWN-INTENT MODULE-PROC DECL UNKNOWN 0 0 SUBROUTINE) (UNKNOWN 0 0 0 0
UNKNOWN ()) 53 0 (54) () 0 () () () 0 0)
8 'integer_set_fetch' 'integer_set_module' '' 1 ((PROCEDURE
UNKNOWN-INTENT MODULE-PROC DECL UNKNOWN 0 0 FUNCTION) (INTEGER 4 0 0 0
INTEGER ()) 55 0 (56 57) () 58 () () () 0 0)
9 'integer_set_has_value_multiple' 'integer_set_module' '' 1 ((
PROCEDURE UNKNOWN-INTENT MODULE-PROC DECL UNKNOWN 0 0 DIMENSION FUNCTION
ALWAYS_EXPLICIT) (LOGICAL 4 0 0 0 LOGICAL ()) 59 0 (60 61) (1 0 EXPLICIT
(CONSTANT (INTEGER 4 0 0 0 INTEGER ()) 0 '1') (FUNCTION (INTEGER 4 0 0 0
INTEGER ()) 0 62 (('' (VARIABLE (INTEGER 4 0 0 0 INTEGER ()) 1 61 ((
ARRAY (FULL 1 2))))) ('' ()) ('' ())) '' 0 'size')) 63 () () () 0 0)
10 'integer_set_has_value' 'integer_set_module' '' 1 ((PROCEDURE
UNKNOWN-INTENT MODULE-PROC DECL UNKNOWN 0 0 FUNCTION) (LOGICAL 4 0 0 0
LOGICAL ()) 64 0 (65 66) () 67 () () () 0 0)
11 'integer_set_insert_set' 'integer_set_module' '' 1 ((PROCEDURE
UNKNOWN-INTENT MODULE-PROC DECL UNKNOWN 0 0 SUBROUTINE) (UNKNOWN 0 0 0 0
UNKNOWN ()) 68 0 (69 70) () 0 () () () 0 0)
12 'integer_set_insert_multiple' 'integer_set_module' '' 1 ((PROCEDURE
UNKNOWN-INTENT MODULE-PROC DECL UNKNOWN 0 0 SUBROUTINE ALWAYS_EXPLICIT)
(UNKNOWN 0 0 0 0 UNKNOWN ()) 71 0 (72 73) () 0 () () () 0 0)
13 'integer_set_insert' 'integer_set_module' '' 1 ((PROCEDURE
UNKNOWN-INTENT MODULE-PROC DECL UNKNOWN 0 0 SUBROUTINE ALWAYS_EXPLICIT)
(UNKNOWN 0 0 0 0 UNKNOWN ()) 74 0 (75 76 77) () 0 () () () 0 0)
16 'integer_set_length_vector' 'integer_set_module' '' 1 ((PROCEDURE
UNKNOWN-INTENT MODULE-PROC DECL UNKNOWN 0 0 DIMENSION FUNCTION PURE
ALWAYS_EXPLICIT) (INTEGER 4 0 0 0 INTEGER ()) 78 0 (79) (1 0 EXPLICIT (
CONSTANT (INTEGER 4 0 0 0 INTEGER ()) 0 '1') (FUNCTION (INTEGER 4 0 0 0
INTEGER ()) 0 80 (('' (VARIABLE (DERIVED 14 0 0 0 DERIVED ()) 1 79 ((
ARRAY (FULL 1 2))))) ('' ()) ('' ())) '' 0 'size')) 81 () () () 0 0)
17 'integer_set_length_single' 'integer_set_module' '' 1 ((PROCEDURE
UNKNOWN-INTENT MODULE-PROC DECL UNKNOWN 0 0 FUNCTION PURE) (INTEGER 4 0
0 0 INTEGER ()) 82 0 (83) () 84 () () () 0 0)
18 'integer_set_remove' 'integer_set_module' '' 1 ((PROCEDURE
UNKNOWN-INTENT MODULE-PROC DECL UNKNOWN 0 0 SUBROUTINE) (UNKNOWN 0 0 0 0
UNKNOWN ()) 85 0 (86 87) () 0 () () () 0 0)
19 'set_intersection_multiple' 'integer_set_module' '' 1 ((PROCEDURE
UNKNOWN-INTENT MODULE-PROC DECL UNKNOWN 0 0 SUBROUTINE ALWAYS_EXPLICIT)
(UNKNOWN 0 0 0 0 UNKNOWN ()) 88 0 (89 90) () 0 () () () 0 0)
20 'set_intersection_two' 'integer_set_module' '' 1 ((PROCEDURE
UNKNOWN-INTENT MODULE-PROC DECL UNKNOWN 0 0 SUBROUTINE) (UNKNOWN 0 0 0 0
UNKNOWN ()) 91 0 (92 93 94) () 0 () () () 0 0)
22 'C_ptr' '__iso_c_binding' '' 1 ((DERIVED UNKNOWN-INTENT UNKNOWN-PROC
UNKNOWN UNKNOWN 0 0 IS_BIND_C IS_C_INTEROP IS_ISO_C) (DERIVED 22 0 1 1
UNKNOWN ()) 0 0 () () 0 ((95 '__c_ptr_c_address' (INTEGER 8 0 1 0
INTEGER ()) () (UNKNOWN-FL UNKNOWN-INTENT UNKNOWN-PROC UNKNOWN UNKNOWN 0
0) UNKNOWN-ACCESS ())) UNKNOWN-ACCESS () () 2 42 0)
28 'iset' '' '' 27 ((VARIABLE IN UNKNOWN-PROC UNKNOWN UNKNOWN 0 0 DUMMY)
(DERIVED 14 0 0 0 DERIVED ()) 0 0 () () 0 () () () 0 0)
29 'key_count' 'integer_set_module' '' 1 ((PROCEDURE UNKNOWN-INTENT
UNKNOWN-PROC UNKNOWN UNKNOWN 0 0 GENERIC) (UNKNOWN 0 0 0 0 UNKNOWN ()) 0
0 () () 0 () () () 0 0)
30 'vec' '' '' 27 ((VARIABLE UNKNOWN-INTENT UNKNOWN-PROC UNKNOWN UNKNOWN
0 0 DIMENSION RESULT ALWAYS_EXPLICIT) (INTEGER 4 0 0 0 INTEGER ()) 0 0 ()
(1 0 EXPLICIT (CONSTANT (INTEGER 4 0 0 0 INTEGER ()) 0 '1') (FUNCTION (
INTEGER 4 0 0 0 INTEGER ()) 0 29 (('' (VARIABLE (DERIVED 14 0 0 0
DERIVED ()) 0 28 ()))) 'integer_set_length_single' 1 17)) 0 () () () 0 0)
33 'complement' '' '' 32 ((VARIABLE OUT UNKNOWN-PROC UNKNOWN UNKNOWN 0 0
DUMMY) (DERIVED 14 0 0 0 DERIVED ()) 0 0 () () 0 () () () 0 0)
34 'universe' '' '' 32 ((VARIABLE IN UNKNOWN-PROC UNKNOWN UNKNOWN 0 0
DUMMY) (DERIVED 14 0 0 0 DERIVED ()) 0 0 () () 0 () () () 0 0)
35 'current' '' '' 32 ((VARIABLE IN UNKNOWN-PROC UNKNOWN UNKNOWN 0 0
DUMMY) (DERIVED 14 0 0 0 DERIVED ()) 0 0 () () 0 () () () 0 0)
38 'minus' '' '' 37 ((VARIABLE OUT UNKNOWN-PROC UNKNOWN UNKNOWN 0 0
DUMMY) (DERIVED 14 0 0 0 DERIVED ()) 0 0 () () 0 () () () 0 0)
39 'a' '' '' 37 ((VARIABLE IN UNKNOWN-PROC UNKNOWN UNKNOWN 0 0 DUMMY) (
DERIVED 14 0 0 0 DERIVED ()) 0 0 () () 0 () () () 0 0)
40 'b' '' '' 37 ((VARIABLE IN UNKNOWN-PROC UNKNOWN UNKNOWN 0 0 DUMMY) (
DERIVED 14 0 0 0 DERIVED ()) 0 0 () () 0 () () () 0 0)
42 'iset' '' '' 41 ((VARIABLE OUT UNKNOWN-PROC UNKNOWN UNKNOWN 0 0
DIMENSION DUMMY) (DERIVED 14 0 0 0 DERIVED ()) 0 0 () (1 0 ASSUMED_SHAPE
(CONSTANT (INTEGER 4 0 0 0 INTEGER ()) 0 '1') ()) 0 () () () 0 0)
44 'iset' '' '' 43 ((VARIABLE OUT UNKNOWN-PROC UNKNOWN UNKNOWN 0 0 DUMMY)
(DERIVED 14 0 0 0 DERIVED ()) 0 0 () () 0 () () () 0 0)
46 'iset_copy' '' '' 45 ((VARIABLE OUT UNKNOWN-PROC UNKNOWN UNKNOWN 0 0
DIMENSION DUMMY) (DERIVED 14 0 0 0 DERIVED ()) 0 0 () (1 0 ASSUMED_SHAPE
(CONSTANT (INTEGER 4 0 0 0 INTEGER ()) 0 '1') ()) 0 () () () 0 0)
47 'iset' '' '' 45 ((VARIABLE IN UNKNOWN-PROC UNKNOWN UNKNOWN 0 0
DIMENSION DUMMY) (DERIVED 14 0 0 0 DERIVED ()) 0 0 () (1 0 ASSUMED_SHAPE
(CONSTANT (INTEGER 4 0 0 0 INTEGER ()) 0 '1') ()) 0 () () () 0 0)
49 'iset_copy' '' '' 48 ((VARIABLE OUT UNKNOWN-PROC UNKNOWN UNKNOWN 0 0
DUMMY) (DERIVED 14 0 0 0 DERIVED ()) 0 0 () () 0 () () () 0 0)
50 'iset' '' '' 48 ((VARIABLE IN UNKNOWN-PROC UNKNOWN UNKNOWN 0 0 DUMMY)
(DERIVED 14 0 0 0 DERIVED ()) 0 0 () () 0 () () () 0 0)
52 'iset' '' '' 51 ((VARIABLE INOUT UNKNOWN-PROC UNKNOWN UNKNOWN 0 0
DIMENSION DUMMY) (DERIVED 14 0 0 0 DERIVED ()) 0 0 () (1 0 ASSUMED_SHAPE
(CONSTANT (INTEGER 4 0 0 0 INTEGER ()) 0 '1') ()) 0 () () () 0 0)
54 'iset' '' '' 53 ((VARIABLE INOUT UNKNOWN-PROC UNKNOWN UNKNOWN 0 0
DUMMY) (DERIVED 14 0 0 0 DERIVED ()) 0 0 () () 0 () () () 0 0)
56 'iset' '' '' 55 ((VARIABLE IN UNKNOWN-PROC UNKNOWN UNKNOWN 0 0 DUMMY)
(DERIVED 14 0 0 0 DERIVED ()) 0 0 () () 0 () () () 0 0)
57 'idx' '' '' 55 ((VARIABLE IN UNKNOWN-PROC UNKNOWN UNKNOWN 0 0 DUMMY)
(INTEGER 4 0 0 0 INTEGER ()) 0 0 () () 0 () () () 0 0)
58 'val' '' '' 55 ((VARIABLE UNKNOWN-INTENT UNKNOWN-PROC UNKNOWN UNKNOWN
0 0 RESULT) (INTEGER 4 0 0 0 INTEGER ()) 0 0 () () 0 () () () 0 0)
60 'iset' '' '' 59 ((VARIABLE IN UNKNOWN-PROC UNKNOWN UNKNOWN 0 0 DUMMY)
(DERIVED 14 0 0 0 DERIVED ()) 0 0 () () 0 () () () 0 0)
61 'val' '' '' 59 ((VARIABLE IN UNKNOWN-PROC UNKNOWN UNKNOWN 0 0
DIMENSION DUMMY) (INTEGER 4 0 0 0 INTEGER ()) 0 0 () (1 0 ASSUMED_SHAPE
(CONSTANT (INTEGER 4 0 0 0 INTEGER ()) 0 '1') ()) 0 () () () 0 0)
62 'size' '(intrinsic)' '' 59 ((PROCEDURE UNKNOWN-INTENT UNKNOWN-PROC
UNKNOWN UNKNOWN 0 0 FUNCTION) (REAL 8 0 0 0 REAL ()) 0 0 () () 62 () ()
() 0 0)
63 'bool' '' '' 59 ((VARIABLE UNKNOWN-INTENT UNKNOWN-PROC UNKNOWN
UNKNOWN 0 0 DIMENSION RESULT ALWAYS_EXPLICIT) (LOGICAL 4 0 0 0 LOGICAL ())
0 0 () (1 0 EXPLICIT (CONSTANT (INTEGER 4 0 0 0 INTEGER ()) 0 '1') (
FUNCTION (INTEGER 4 0 0 0 INTEGER ()) 0 62 (('' (VARIABLE (INTEGER 4 0 0
0 INTEGER ()) 1 61 ((ARRAY (FULL 1 2))))) ('' ()) ('' ())) '' 0 'size'))
0 () () () 0 0)
65 'iset' '' '' 64 ((VARIABLE IN UNKNOWN-PROC UNKNOWN UNKNOWN 0 0 DUMMY)
(DERIVED 14 0 0 0 DERIVED ()) 0 0 () () 0 () () () 0 0)
66 'val' '' '' 64 ((VARIABLE IN UNKNOWN-PROC UNKNOWN UNKNOWN 0 0 DUMMY)
(INTEGER 4 0 0 0 INTEGER ()) 0 0 () () 0 () () () 0 0)
67 'bool' '' '' 64 ((VARIABLE UNKNOWN-INTENT UNKNOWN-PROC UNKNOWN
UNKNOWN 0 0 RESULT) (LOGICAL 4 0 0 0 LOGICAL ()) 0 0 () () 0 () () () 0
0)
69 'iset' '' '' 68 ((VARIABLE INOUT UNKNOWN-PROC UNKNOWN UNKNOWN 0 0
DUMMY) (DERIVED 14 0 0 0 DERIVED ()) 0 0 () () 0 () () () 0 0)
70 'value_set' '' '' 68 ((VARIABLE IN UNKNOWN-PROC UNKNOWN UNKNOWN 0 0
DUMMY) (DERIVED 14 0 0 0 DERIVED ()) 0 0 () () 0 () () () 0 0)
72 'iset' '' '' 71 ((VARIABLE INOUT UNKNOWN-PROC UNKNOWN UNKNOWN 0 0
DUMMY) (DERIVED 14 0 0 0 DERIVED ()) 0 0 () () 0 () () () 0 0)
73 'values' '' '' 71 ((VARIABLE IN UNKNOWN-PROC UNKNOWN UNKNOWN 0 0
DIMENSION DUMMY) (INTEGER 4 0 0 0 INTEGER ()) 0 0 () (1 0 ASSUMED_SHAPE
(CONSTANT (INTEGER 4 0 0 0 INTEGER ()) 0 '1') ()) 0 () () () 0 0)
75 'iset' '' '' 74 ((VARIABLE INOUT UNKNOWN-PROC UNKNOWN UNKNOWN 0 0
DUMMY) (DERIVED 14 0 0 0 DERIVED ()) 0 0 () () 0 () () () 0 0)
76 'val' '' '' 74 ((VARIABLE IN UNKNOWN-PROC UNKNOWN UNKNOWN 0 0 DUMMY)
(INTEGER 4 0 0 0 INTEGER ()) 0 0 () () 0 () () () 0 0)
77 'changed' '' '' 74 ((VARIABLE OUT UNKNOWN-PROC UNKNOWN UNKNOWN 0 0
OPTIONAL DUMMY) (LOGICAL 4 0 0 0 LOGICAL ()) 0 0 () () 0 () () () 0 0)
79 'iset' '' '' 78 ((VARIABLE IN UNKNOWN-PROC UNKNOWN UNKNOWN 0 0
DIMENSION DUMMY) (DERIVED 14 0 0 0 DERIVED ()) 0 0 () (1 0 ASSUMED_SHAPE
(CONSTANT (INTEGER 4 0 0 0 INTEGER ()) 0 '1') ()) 0 () () () 0 0)
80 'size' '(intrinsic)' '' 78 ((PROCEDURE UNKNOWN-INTENT UNKNOWN-PROC
UNKNOWN UNKNOWN 0 0 FUNCTION) (REAL 8 0 0 0 REAL ()) 0 0 () () 80 () ()
() 0 0)
81 'len' '' '' 78 ((VARIABLE UNKNOWN-INTENT UNKNOWN-PROC UNKNOWN UNKNOWN
0 0 DIMENSION RESULT ALWAYS_EXPLICIT) (INTEGER 4 0 0 0 INTEGER ()) 0 0 ()
(1 0 EXPLICIT (CONSTANT (INTEGER 4 0 0 0 INTEGER ()) 0 '1') (FUNCTION (
INTEGER 4 0 0 0 INTEGER ()) 0 80 (('' (VARIABLE (DERIVED 14 0 0 0
DERIVED ()) 1 79 ((ARRAY (FULL 1 2))))) ('' ()) ('' ())) '' 0 'size')) 0
() () () 0 0)
83 'iset' '' '' 82 ((VARIABLE IN UNKNOWN-PROC UNKNOWN UNKNOWN 0 0 DUMMY)
(DERIVED 14 0 0 0 DERIVED ()) 0 0 () () 0 () () () 0 0)
84 'len' '' '' 82 ((VARIABLE UNKNOWN-INTENT UNKNOWN-PROC UNKNOWN UNKNOWN
0 0 RESULT) (INTEGER 4 0 0 0 INTEGER ()) 0 0 () () 0 () () () 0 0)
86 'iset' '' '' 85 ((VARIABLE IN UNKNOWN-PROC UNKNOWN UNKNOWN 0 0 DUMMY)
(DERIVED 14 0 0 0 DERIVED ()) 0 0 () () 0 () () () 0 0)
87 'idx' '' '' 85 ((VARIABLE IN UNKNOWN-PROC UNKNOWN UNKNOWN 0 0 DUMMY)
(INTEGER 4 0 0 0 INTEGER ()) 0 0 () () 0 () () () 0 0)
89 'intersection' '' '' 88 ((VARIABLE OUT UNKNOWN-PROC UNKNOWN UNKNOWN 0
0 DUMMY) (DERIVED 14 0 0 0 DERIVED ()) 0 0 () () 0 () () () 0 0)
90 'isets' '' '' 88 ((VARIABLE IN UNKNOWN-PROC UNKNOWN UNKNOWN 0 0
DIMENSION DUMMY) (DERIVED 14 0 0 0 DERIVED ()) 0 0 () (1 0 ASSUMED_SHAPE
(CONSTANT (INTEGER 4 0 0 0 INTEGER ()) 0 '1') ()) 0 () () () 0 0)
92 'intersection' '' '' 91 ((VARIABLE OUT UNKNOWN-PROC UNKNOWN UNKNOWN 0
0 DUMMY) (DERIVED 14 0 0 0 DERIVED ()) 0 0 () () 0 () () () 0 0)
93 'a' '' '' 91 ((VARIABLE IN UNKNOWN-PROC UNKNOWN UNKNOWN 0 0 DUMMY) (
DERIVED 14 0 0 0 DERIVED ()) 0 0 () () 0 () () () 0 0)
94 'b' '' '' 91 ((VARIABLE IN UNKNOWN-PROC UNKNOWN UNKNOWN 0 0 DUMMY) (
DERIVED 14 0 0 0 DERIVED ()) 0 0 () () 0 () () () 0 0)
)

('Integer_set' 0 14 'Integer_set_vector' 0 15 'integer_set' 0 24
'integer_set_vector' 0 25 'set2vector' 0 26 'set_complement' 0 31
'set_minus' 0 36)
