GFORTRAN module version '10' created from Multiphase.F90
MD5:55c35ed405a364430eac05a814de98b1 -- If you edit this, you'll get what you deserve.

(() () () () () () () () () () () () () () () () () () () () () () ()
() () () ())

()

()

(('petscfortran8' 2 0 0 '') ('petscfortran2' 3 0 0 '') ('petscfortran4'
4 0 0 '') ('petscfortran5' 5 0 0 '') ('mpi_fortran_in_place' 6 0 0 '') (
'mpi_fortran_status_ignore' 7 0 0 '') ('mpi_fortran_statuses_ignore' 8 0
0 '') ('petscfortran6' 9 0 0 '') ('petscfortran7' 10 0 0 '') (
'petscfortran9' 11 0 0 '') ('mpi_fortran_argv_null' 12 0 0 '') (
'mpi_fortran_argvs_null' 13 0 0 '') ('mpi_fortran_bottom' 14 0 0 '') (
'mpi_fortran_errcodes_ignore' 15 0 0 '') ('petscfortran1' 16 0 0 '') (
'petscfortran10' 17 0 0 ''))

()

()

(18 'add_fluid_particle_drag' 'multiphase_module' '' 1 ((PROCEDURE
UNKNOWN-INTENT MODULE-PROC DECL UNKNOWN 0 0 SUBROUTINE ALWAYS_EXPLICIT)
(UNKNOWN 0 0 0 0 UNKNOWN ()) 19 0 (20 21 22 23 24 25) () 0 () () () 0 0)
26 'add_heat_transfer' 'multiphase_module' '' 1 ((PROCEDURE
UNKNOWN-INTENT MODULE-PROC DECL UNKNOWN 0 0 SUBROUTINE ALWAYS_EXPLICIT)
(UNKNOWN 0 0 0 0 UNKNOWN ()) 27 0 (28 29 30 31 32) () 0 () () () 0 0)
33 'calculate_diagnostic_phase_volume_fraction' 'multiphase_module' '' 1
((PROCEDURE UNKNOWN-INTENT MODULE-PROC DECL UNKNOWN 0 0 SUBROUTINE
ALWAYS_EXPLICIT) (UNKNOWN 0 0 0 0 UNKNOWN ()) 34 0 (35) () 0 () () () 0
0)
36 'get_nonlinear_volume_fraction' 'multiphase_module' '' 1 ((PROCEDURE
UNKNOWN-INTENT MODULE-PROC DECL UNKNOWN 0 0 SUBROUTINE) (UNKNOWN 0 0 0 0
UNKNOWN ()) 37 0 (38 39) () 0 () () () 0 0)
40 'get_phase_submaterials' 'multiphase_module' '' 1 ((PROCEDURE
UNKNOWN-INTENT MODULE-PROC DECL UNKNOWN 0 0 SUBROUTINE ALWAYS_EXPLICIT)
(UNKNOWN 0 0 0 0 UNKNOWN ()) 41 0 (42 43 44 45) () 0 () () () 0 0)
2 'petsc_null_object' 'petscsysdef' '' 1 ((VARIABLE UNKNOWN-INTENT
UNKNOWN-PROC UNKNOWN UNKNOWN 0 0 IN_COMMON) (INTEGER 8 0 0 0 INTEGER ())
0 0 () () 0 () () () 0 0)
3 'petsc_null_integer' 'petscsysdef' '' 1 ((VARIABLE UNKNOWN-INTENT
UNKNOWN-PROC UNKNOWN UNKNOWN 0 0 IN_COMMON) (INTEGER 4 0 0 0 INTEGER ())
0 0 () () 0 () () () 0 0)
4 'petsc_null_scalar' 'petscsysdef' '' 1 ((VARIABLE UNKNOWN-INTENT
UNKNOWN-PROC UNKNOWN UNKNOWN 0 0 IN_COMMON) (REAL 8 0 0 0 REAL ()) 0 0 ()
() 0 () () () 0 0)
5 'petsc_null_double' 'petscsysdef' '' 1 ((VARIABLE UNKNOWN-INTENT
UNKNOWN-PROC UNKNOWN UNKNOWN 0 0 IN_COMMON) (REAL 8 0 0 0 REAL ()) 0 0 ()
() 0 () () () 0 0)
6 'mpi_in_place' 'mpi_interfaces' '' 1 ((VARIABLE UNKNOWN-INTENT
UNKNOWN-PROC UNKNOWN UNKNOWN 0 0 IN_COMMON) (INTEGER 4 0 0 0 INTEGER ())
0 0 () () 0 () () () 0 0)
7 'mpi_status_ignore' 'mpi_interfaces' '' 1 ((VARIABLE UNKNOWN-INTENT
UNKNOWN-PROC UNKNOWN UNKNOWN 0 0 DIMENSION IN_COMMON) (INTEGER 4 0 0 0
INTEGER ()) 0 0 () (1 0 EXPLICIT (CONSTANT (INTEGER 4 0 0 0 INTEGER ())
0 '1') (CONSTANT (INTEGER 4 0 0 0 INTEGER ()) 0 '6')) 0 () () () 0 0)
8 'mpi_statuses_ignore' 'mpi_interfaces' '' 1 ((VARIABLE UNKNOWN-INTENT
UNKNOWN-PROC UNKNOWN UNKNOWN 0 0 IN_COMMON) (REAL 8 0 0 0 REAL ()) 0 0 ()
() 0 () () () 0 0)
9 'petsc_null_real' 'petscsysdef' '' 1 ((VARIABLE UNKNOWN-INTENT
UNKNOWN-PROC UNKNOWN UNKNOWN 0 0 IN_COMMON) (REAL 8 0 0 0 REAL ()) 0 0 ()
() 0 () () () 0 0)
10 'petsc_null_bool' 'petscsysdef' '' 1 ((VARIABLE UNKNOWN-INTENT
UNKNOWN-PROC UNKNOWN UNKNOWN 0 0 IN_COMMON) (LOGICAL 4 0 0 0 LOGICAL ())
0 0 () () 0 () () () 0 0)
11 'petsc_comm_world' 'petscsysdef' '' 1 ((VARIABLE UNKNOWN-INTENT
UNKNOWN-PROC UNKNOWN UNKNOWN 0 0 IN_COMMON) (INTEGER 4 0 0 0 INTEGER ())
0 0 () () 0 () () () 0 0)
12 'mpi_argv_null' 'mpi_interfaces' '' 1 ((VARIABLE UNKNOWN-INTENT
UNKNOWN-PROC UNKNOWN UNKNOWN 0 0 DIMENSION IN_COMMON) (CHARACTER 1 0 0 0
CHARACTER ((CONSTANT (INTEGER 4 0 0 0 INTEGER ()) 0 '1'))) 0 0 () (1 0
EXPLICIT (CONSTANT (INTEGER 4 0 0 0 INTEGER ()) 0 '1') (CONSTANT (
INTEGER 4 0 0 0 INTEGER ()) 0 '1')) 0 () () () 0 0)
13 'mpi_argvs_null' 'mpi_interfaces' '' 1 ((VARIABLE UNKNOWN-INTENT
UNKNOWN-PROC UNKNOWN UNKNOWN 0 0 IN_COMMON) (REAL 8 0 0 0 REAL ()) 0 0 ()
() 0 () () () 0 0)
14 'mpi_bottom' 'mpi_interfaces' '' 1 ((VARIABLE UNKNOWN-INTENT
UNKNOWN-PROC UNKNOWN UNKNOWN 0 0 IN_COMMON) (INTEGER 4 0 0 0 INTEGER ())
0 0 () () 0 () () () 0 0)
15 'mpi_errcodes_ignore' 'mpi_interfaces' '' 1 ((VARIABLE UNKNOWN-INTENT
UNKNOWN-PROC UNKNOWN UNKNOWN 0 0 DIMENSION IN_COMMON) (INTEGER 4 0 0 0
INTEGER ()) 0 0 () (1 0 EXPLICIT (CONSTANT (INTEGER 4 0 0 0 INTEGER ())
0 '1') (CONSTANT (INTEGER 4 0 0 0 INTEGER ()) 0 '1')) 0 () () () 0 0)
16 'petsc_null_character' 'petscsysdef' '' 1 ((VARIABLE UNKNOWN-INTENT
UNKNOWN-PROC UNKNOWN IMPLICIT-SAVE 0 0 IN_COMMON) (CHARACTER 1 0 0 0
CHARACTER ((CONSTANT (INTEGER 4 0 0 0 INTEGER ()) 0 '80'))) 0 0 () () 0
() () () 0 0)
17 'petsc_comm_self' 'petscsysdef' '' 1 ((VARIABLE UNKNOWN-INTENT
UNKNOWN-PROC UNKNOWN UNKNOWN 0 0 IN_COMMON) (INTEGER 4 0 0 0 INTEGER ())
0 0 () () 0 () () () 0 0)
20 'state' '' '' 19 ((VARIABLE INOUT UNKNOWN-PROC UNKNOWN UNKNOWN 0 0
DIMENSION DUMMY) (DERIVED 46 0 0 0 DERIVED ()) 0 0 () (1 0 ASSUMED_SHAPE
(CONSTANT (INTEGER 4 0 0 0 INTEGER ()) 0 '1') ()) 0 () () () 0 0)
21 'istate' '' '' 19 ((VARIABLE IN UNKNOWN-PROC UNKNOWN UNKNOWN 0 0
DUMMY) (INTEGER 4 0 0 0 INTEGER ()) 0 0 () () 0 () () () 0 0)
22 'u' '' '' 19 ((VARIABLE IN UNKNOWN-PROC UNKNOWN UNKNOWN 0 0 DUMMY) (
DERIVED 47 0 0 0 DERIVED ()) 0 0 () () 0 () () () 0 0)
23 'x' '' '' 19 ((VARIABLE IN UNKNOWN-PROC UNKNOWN UNKNOWN 0 0 DUMMY) (
DERIVED 47 0 0 0 DERIVED ()) 0 0 () () 0 () () () 0 0)
24 'big_m' '' '' 19 ((VARIABLE INOUT UNKNOWN-PROC UNKNOWN UNKNOWN 0 0
DUMMY) (DERIVED 48 0 0 0 DERIVED ()) 0 0 () () 0 () () () 0 0)
25 'mom_rhs' '' '' 19 ((VARIABLE INOUT UNKNOWN-PROC UNKNOWN UNKNOWN 0 0
DUMMY) (DERIVED 47 0 0 0 DERIVED ()) 0 0 () () 0 () () () 0 0)
28 'state' '' '' 27 ((VARIABLE INOUT UNKNOWN-PROC UNKNOWN UNKNOWN 0 0
DIMENSION DUMMY) (DERIVED 46 0 0 0 DERIVED ()) 0 0 () (1 0 ASSUMED_SHAPE
(CONSTANT (INTEGER 4 0 0 0 INTEGER ()) 0 '1') ()) 0 () () () 0 0)
29 'istate' '' '' 27 ((VARIABLE IN UNKNOWN-PROC UNKNOWN UNKNOWN 0 0
DUMMY) (INTEGER 4 0 0 0 INTEGER ()) 0 0 () () 0 () () () 0 0)
30 'internal_energy' '' '' 27 ((VARIABLE IN UNKNOWN-PROC UNKNOWN UNKNOWN
0 0 DUMMY) (DERIVED 49 0 0 0 DERIVED ()) 0 0 () () 0 () () () 0 0)
31 'matrix' '' '' 27 ((VARIABLE INOUT UNKNOWN-PROC UNKNOWN UNKNOWN 0 0
DUMMY) (DERIVED 50 0 0 0 DERIVED ()) 0 0 () () 0 () () () 0 0)
32 'rhs' '' '' 27 ((VARIABLE INOUT UNKNOWN-PROC UNKNOWN UNKNOWN 0 0
DUMMY) (DERIVED 49 0 0 0 DERIVED ()) 0 0 () () 0 () () () 0 0)
35 'state' '' '' 34 ((VARIABLE INOUT UNKNOWN-PROC UNKNOWN UNKNOWN 0 0
DIMENSION DUMMY) (DERIVED 46 0 0 0 DERIVED ()) 0 0 () (1 0 ASSUMED_SHAPE
(CONSTANT (INTEGER 4 0 0 0 INTEGER ()) 0 '1') ()) 0 () () () 0 0)
38 'state' '' '' 37 ((VARIABLE INOUT UNKNOWN-PROC UNKNOWN UNKNOWN 0 0
DUMMY) (DERIVED 46 0 0 0 DERIVED ()) 0 0 () () 0 () () () 0 0)
39 'nvfrac' '' '' 37 ((VARIABLE INOUT UNKNOWN-PROC UNKNOWN UNKNOWN 0 0
DUMMY) (DERIVED 49 0 0 0 DERIVED ()) 0 0 () () 0 () () () 0 0)
42 'state' '' '' 41 ((VARIABLE INOUT UNKNOWN-PROC UNKNOWN UNKNOWN 0 0
DIMENSION TARGET DUMMY) (DERIVED 46 0 0 0 DERIVED ()) 0 0 () (1 0
ASSUMED_SHAPE (CONSTANT (INTEGER 4 0 0 0 INTEGER ()) 0 '1') ()) 0 () ()
() 0 0)
43 'istate' '' '' 41 ((VARIABLE IN UNKNOWN-PROC UNKNOWN UNKNOWN 0 0
DUMMY) (INTEGER 4 0 0 0 INTEGER ()) 0 0 () () 0 () () () 0 0)
44 'submaterials' '' '' 41 ((VARIABLE UNKNOWN-INTENT UNKNOWN-PROC
UNKNOWN UNKNOWN 0 0 DIMENSION POINTER DUMMY) (DERIVED 46 0 0 0 DERIVED ())
0 0 () (1 0 DEFERRED () ()) 0 () () () 0 0)
45 'phase_istate' '' '' 41 ((VARIABLE INOUT UNKNOWN-PROC UNKNOWN UNKNOWN
0 0 OPTIONAL DUMMY) (INTEGER 4 0 0 0 INTEGER ()) 0 0 () () 0 () () () 0
0)
46 'State_type' 'state_module' '' 1 ((DERIVED UNKNOWN-INTENT
UNKNOWN-PROC UNKNOWN UNKNOWN 0 0 POINTER_COMP PRIVATE_COMP) (UNKNOWN 0 0
0 0 UNKNOWN ()) 0 0 () () 0 ((51 'name' (CHARACTER 1 0 0 0 CHARACTER ((
CONSTANT (INTEGER 4 0 0 0 INTEGER ()) 0 '101'))) () (UNKNOWN-FL
UNKNOWN-INTENT UNKNOWN-PROC UNKNOWN UNKNOWN 0 0) UNKNOWN-ACCESS (
CONSTANT (CHARACTER 1 0 0 0 CHARACTER (())) 0 101
'                                                                                                     '))
(52 'option_path' (CHARACTER 1 0 0 0 CHARACTER ((CONSTANT (INTEGER 4 0 0
0 INTEGER ()) 0 '8192'))) () (UNKNOWN-FL UNKNOWN-INTENT UNKNOWN-PROC
UNKNOWN UNKNOWN 0 0) UNKNOWN-ACCESS ()) (53 'vector_names' (CHARACTER 1
0 0 0 CHARACTER ((CONSTANT (INTEGER 4 0 0 0 INTEGER ()) 0 '101'))) (1 0
DEFERRED () ()) (UNKNOWN-FL UNKNOWN-INTENT UNKNOWN-PROC UNKNOWN UNKNOWN
0 0 DIMENSION POINTER) UNKNOWN-ACCESS (NULL (UNKNOWN 0 0 0 0 UNKNOWN ())
0)) (54 'scalar_names' (CHARACTER 1 0 0 0 CHARACTER ((CONSTANT (INTEGER
4 0 0 0 INTEGER ()) 0 '101'))) (1 0 DEFERRED () ()) (UNKNOWN-FL
UNKNOWN-INTENT UNKNOWN-PROC UNKNOWN UNKNOWN 0 0 DIMENSION POINTER)
UNKNOWN-ACCESS (NULL (UNKNOWN 0 0 0 0 UNKNOWN ()) 0)) (55 'mesh_names' (
CHARACTER 1 0 0 0 CHARACTER ((CONSTANT (INTEGER 4 0 0 0 INTEGER ()) 0
'101'))) (1 0 DEFERRED () ()) (UNKNOWN-FL UNKNOWN-INTENT UNKNOWN-PROC
UNKNOWN UNKNOWN 0 0 DIMENSION POINTER) UNKNOWN-ACCESS (NULL (UNKNOWN 0 0
0 0 UNKNOWN ()) 0)) (56 'halo_names' (CHARACTER 1 0 0 0 CHARACTER ((
CONSTANT (INTEGER 4 0 0 0 INTEGER ()) 0 '101'))) (1 0 DEFERRED () ()) (
UNKNOWN-FL UNKNOWN-INTENT UNKNOWN-PROC UNKNOWN UNKNOWN 0 0 DIMENSION
POINTER) UNKNOWN-ACCESS (NULL (UNKNOWN 0 0 0 0 UNKNOWN ()) 0)) (57
'tensor_names' (CHARACTER 1 0 0 0 CHARACTER ((CONSTANT (INTEGER 4 0 0 0
INTEGER ()) 0 '101'))) (1 0 DEFERRED () ()) (UNKNOWN-FL UNKNOWN-INTENT
UNKNOWN-PROC UNKNOWN UNKNOWN 0 0 DIMENSION POINTER) UNKNOWN-ACCESS (
NULL (UNKNOWN 0 0 0 0 UNKNOWN ()) 0)) (58 'csr_sparsity_names' (
CHARACTER 1 0 0 0 CHARACTER ((CONSTANT (INTEGER 4 0 0 0 INTEGER ()) 0
'101'))) (1 0 DEFERRED () ()) (UNKNOWN-FL UNKNOWN-INTENT UNKNOWN-PROC
UNKNOWN UNKNOWN 0 0 DIMENSION POINTER) UNKNOWN-ACCESS (NULL (UNKNOWN 0 0
0 0 UNKNOWN ()) 0)) (59 'csr_matrix_names' (CHARACTER 1 0 0 0 CHARACTER
((CONSTANT (INTEGER 4 0 0 0 INTEGER ()) 0 '101'))) (1 0 DEFERRED () ())
(UNKNOWN-FL UNKNOWN-INTENT UNKNOWN-PROC UNKNOWN UNKNOWN 0 0 DIMENSION
POINTER) UNKNOWN-ACCESS (NULL (UNKNOWN 0 0 0 0 UNKNOWN ()) 0)) (60
'block_csr_matrix_names' (CHARACTER 1 0 0 0 CHARACTER ((CONSTANT (
INTEGER 4 0 0 0 INTEGER ()) 0 '101'))) (1 0 DEFERRED () ()) (UNKNOWN-FL
UNKNOWN-INTENT UNKNOWN-PROC UNKNOWN UNKNOWN 0 0 DIMENSION POINTER)
UNKNOWN-ACCESS (NULL (UNKNOWN 0 0 0 0 UNKNOWN ()) 0)) (61
'petsc_csr_matrix_names' (CHARACTER 1 0 0 0 CHARACTER ((CONSTANT (
INTEGER 4 0 0 0 INTEGER ()) 0 '101'))) (1 0 DEFERRED () ()) (UNKNOWN-FL
UNKNOWN-INTENT UNKNOWN-PROC UNKNOWN UNKNOWN 0 0 DIMENSION POINTER)
UNKNOWN-ACCESS (NULL (UNKNOWN 0 0 0 0 UNKNOWN ()) 0)) (62 'vector_fields'
(DERIVED 63 0 0 0 DERIVED ()) (1 0 DEFERRED () ()) (UNKNOWN-FL
UNKNOWN-INTENT UNKNOWN-PROC UNKNOWN UNKNOWN 0 0 DIMENSION POINTER)
UNKNOWN-ACCESS (NULL (UNKNOWN 0 0 0 0 UNKNOWN ()) 0)) (64 'tensor_fields'
(DERIVED 65 0 0 0 DERIVED ()) (1 0 DEFERRED () ()) (UNKNOWN-FL
UNKNOWN-INTENT UNKNOWN-PROC UNKNOWN UNKNOWN 0 0 DIMENSION POINTER)
UNKNOWN-ACCESS (NULL (UNKNOWN 0 0 0 0 UNKNOWN ()) 0)) (66 'scalar_fields'
(DERIVED 67 0 0 0 DERIVED ()) (1 0 DEFERRED () ()) (UNKNOWN-FL
UNKNOWN-INTENT UNKNOWN-PROC UNKNOWN UNKNOWN 0 0 DIMENSION POINTER)
UNKNOWN-ACCESS (NULL (UNKNOWN 0 0 0 0 UNKNOWN ()) 0)) (68 'meshes' (
DERIVED 69 0 0 0 DERIVED ()) (1 0 DEFERRED () ()) (UNKNOWN-FL
UNKNOWN-INTENT UNKNOWN-PROC UNKNOWN UNKNOWN 0 0 DIMENSION POINTER)
UNKNOWN-ACCESS (NULL (UNKNOWN 0 0 0 0 UNKNOWN ()) 0)) (70 'halos' (
DERIVED 71 0 0 0 DERIVED ()) (1 0 DEFERRED () ()) (UNKNOWN-FL
UNKNOWN-INTENT UNKNOWN-PROC UNKNOWN UNKNOWN 0 0 DIMENSION POINTER)
UNKNOWN-ACCESS (NULL (UNKNOWN 0 0 0 0 UNKNOWN ()) 0)) (72 'csr_sparsities'
(DERIVED 73 0 0 0 DERIVED ()) (1 0 DEFERRED () ()) (UNKNOWN-FL
UNKNOWN-INTENT UNKNOWN-PROC UNKNOWN UNKNOWN 0 0 DIMENSION POINTER)
UNKNOWN-ACCESS (NULL (UNKNOWN 0 0 0 0 UNKNOWN ()) 0)) (74 'csr_matrices'
(DERIVED 75 0 0 0 DERIVED ()) (1 0 DEFERRED () ()) (UNKNOWN-FL
UNKNOWN-INTENT UNKNOWN-PROC UNKNOWN UNKNOWN 0 0 DIMENSION POINTER)
UNKNOWN-ACCESS (NULL (UNKNOWN 0 0 0 0 UNKNOWN ()) 0)) (76
'block_csr_matrices' (DERIVED 77 0 0 0 DERIVED ()) (1 0 DEFERRED () ())
(UNKNOWN-FL UNKNOWN-INTENT UNKNOWN-PROC UNKNOWN UNKNOWN 0 0 DIMENSION
POINTER) UNKNOWN-ACCESS (NULL (UNKNOWN 0 0 0 0 UNKNOWN ()) 0)) (78
'petsc_csr_matrices' (DERIVED 79 0 0 0 DERIVED ()) (1 0 DEFERRED () ())
(UNKNOWN-FL UNKNOWN-INTENT UNKNOWN-PROC UNKNOWN UNKNOWN 0 0 DIMENSION
POINTER) UNKNOWN-ACCESS (NULL (UNKNOWN 0 0 0 0 UNKNOWN ()) 0)) (80
'scalar_field_dict' (DERIVED 81 0 0 0 DERIVED ()) () (UNKNOWN-FL
UNKNOWN-INTENT UNKNOWN-PROC UNKNOWN UNKNOWN 0 0 POINTER) UNKNOWN-ACCESS
(NULL (UNKNOWN 0 0 0 0 UNKNOWN ()) 0))) PUBLIC (() () () ()) () 0 0
7575341)
47 'Vector_field' 'fields_data_types' '' 1 ((DERIVED UNKNOWN-INTENT
UNKNOWN-PROC UNKNOWN UNKNOWN 0 0 POINTER_COMP) (UNKNOWN 0 0 0 0 UNKNOWN
()) 0 0 () () 0 ((82 'val' (REAL 8 0 0 0 REAL ()) (2 0 DEFERRED () () ()
()) (UNKNOWN-FL UNKNOWN-INTENT UNKNOWN-PROC UNKNOWN UNKNOWN 0 0
DIMENSION POINTER) UNKNOWN-ACCESS ()) (83 'wrapped' (LOGICAL 4 0 0 0
LOGICAL ()) () (UNKNOWN-FL UNKNOWN-INTENT UNKNOWN-PROC UNKNOWN UNKNOWN 0
0) UNKNOWN-ACCESS (CONSTANT (LOGICAL 4 0 0 0 LOGICAL ()) 0 1)) (84
'field_type' (INTEGER 4 0 0 0 INTEGER ()) () (UNKNOWN-FL UNKNOWN-INTENT
UNKNOWN-PROC UNKNOWN UNKNOWN 0 0) UNKNOWN-ACCESS (CONSTANT (INTEGER 4 0
0 0 INTEGER ()) 0 '0')) (85 'bc' (DERIVED 86 0 0 0 DERIVED ()) () (
UNKNOWN-FL UNKNOWN-INTENT UNKNOWN-PROC UNKNOWN UNKNOWN 0 0 POINTER)
UNKNOWN-ACCESS (NULL (UNKNOWN 0 0 0 0 UNKNOWN ()) 0)) (87 'name' (
CHARACTER 1 0 0 0 CHARACTER ((CONSTANT (INTEGER 4 0 0 0 INTEGER ()) 0
'101'))) () (UNKNOWN-FL UNKNOWN-INTENT UNKNOWN-PROC UNKNOWN UNKNOWN 0 0)
UNKNOWN-ACCESS ()) (88 'dim' (INTEGER 4 0 0 0 INTEGER ()) () (
UNKNOWN-FL UNKNOWN-INTENT UNKNOWN-PROC UNKNOWN UNKNOWN 0 0)
UNKNOWN-ACCESS ()) (89 'option_path' (CHARACTER 1 0 0 0 CHARACTER ((
CONSTANT (INTEGER 4 0 0 0 INTEGER ()) 0 '8192'))) () (UNKNOWN-FL
UNKNOWN-INTENT UNKNOWN-PROC UNKNOWN UNKNOWN 0 0) UNKNOWN-ACCESS ()) (90
'mesh' (DERIVED 91 0 0 0 DERIVED ()) () (UNKNOWN-FL UNKNOWN-INTENT
UNKNOWN-PROC UNKNOWN UNKNOWN 0 0) UNKNOWN-ACCESS (STRUCTURE (DERIVED 91
0 0 0 DERIVED ()) 0 ((() ()) ((CONSTANT (LOGICAL 4 0 0 0 LOGICAL ()) 0 1)
()) ((STRUCTURE (DERIVED 92 0 0 0 DERIVED ()) 0 ((() ()) (() ()) (() ())
(() ()) ((NULL (UNKNOWN 0 0 0 0 UNKNOWN ()) 0) ()) ((NULL (UNKNOWN 0 0 0
0 UNKNOWN ()) 0) ()) ((NULL (UNKNOWN 0 0 0 0 UNKNOWN ()) 0) ()) ((NULL (
UNKNOWN 0 0 0 0 UNKNOWN ()) 0) ()) ((NULL (UNKNOWN 0 0 0 0 UNKNOWN ()) 0)
()) ((NULL (UNKNOWN 0 0 0 0 UNKNOWN ()) 0) ()) ((NULL (UNKNOWN 0 0 0 0
UNKNOWN ()) 0) ()) ((STRUCTURE (DERIVED 93 0 0 0 DERIVED ()) 0 ((() ())
(() ()) (() ()) (() ()) ((NULL (UNKNOWN 0 0 0 0 UNKNOWN ()) 0) ()) ((
NULL (UNKNOWN 0 0 0 0 UNKNOWN ()) 0) ()) (() ()) ((NULL (UNKNOWN 0 0 0 0
UNKNOWN ()) 0) ()) (() ())) ()) ()) ((NULL (UNKNOWN 0 0 0 0 UNKNOWN ())
0) ()) ((NULL (UNKNOWN 0 0 0 0 UNKNOWN ()) 0) ()) ((NULL (UNKNOWN 0 0 0
0 UNKNOWN ()) 0) ()) ((NULL (UNKNOWN 0 0 0 0 UNKNOWN ()) 0) ()) (() ()))
()) ()) (() ()) (() ()) (() ()) (() ()) ((CONSTANT (INTEGER 4 0 0 0
INTEGER ()) 0 '0') ()) ((NULL (UNKNOWN 0 0 0 0 UNKNOWN ()) 0) ()) ((
NULL (UNKNOWN 0 0 0 0 UNKNOWN ()) 0) ()) ((NULL (UNKNOWN 0 0 0 0 UNKNOWN
()) 0) ()) ((NULL (UNKNOWN 0 0 0 0 UNKNOWN ()) 0) ()) ((NULL (UNKNOWN 0
0 0 0 UNKNOWN ()) 0) ()) ((NULL (UNKNOWN 0 0 0 0 UNKNOWN ()) 0) ()) ((
NULL (UNKNOWN 0 0 0 0 UNKNOWN ()) 0) ()) ((NULL (UNKNOWN 0 0 0 0 UNKNOWN
()) 0) ()) ((NULL (UNKNOWN 0 0 0 0 UNKNOWN ()) 0) ()) ((NULL (UNKNOWN 0
0 0 0 UNKNOWN ()) 0) ()) ((CONSTANT (LOGICAL 4 0 0 0 LOGICAL ()) 0 0) ()))
())) (94 'refcount' (DERIVED 95 0 0 0 DERIVED ()) () (UNKNOWN-FL
UNKNOWN-INTENT UNKNOWN-PROC UNKNOWN UNKNOWN 0 0 POINTER) UNKNOWN-ACCESS
(NULL (UNKNOWN 0 0 0 0 UNKNOWN ()) 0)) (96 'aliased' (LOGICAL 4 0 0 0
LOGICAL ()) () (UNKNOWN-FL UNKNOWN-INTENT UNKNOWN-PROC UNKNOWN UNKNOWN 0
0) UNKNOWN-ACCESS (CONSTANT (LOGICAL 4 0 0 0 LOGICAL ()) 0 0)) (97
'picker' (DERIVED 98 0 0 0 DERIVED ()) () (UNKNOWN-FL UNKNOWN-INTENT
UNKNOWN-PROC UNKNOWN UNKNOWN 0 0 POINTER) UNKNOWN-ACCESS (NULL (UNKNOWN
0 0 0 0 UNKNOWN ()) 0))) PUBLIC (() () () ()) () 0 0 43598963)
48 'Petsc_csr_matrix' 'sparse_tools_petsc' '' 1 ((DERIVED UNKNOWN-INTENT
UNKNOWN-PROC UNKNOWN UNKNOWN 0 0 POINTER_COMP) (UNKNOWN 0 0 0 0 UNKNOWN
()) 0 0 () () 0 ((99 'm' (INTEGER 8 0 0 0 INTEGER ()) () (UNKNOWN-FL
UNKNOWN-INTENT UNKNOWN-PROC UNKNOWN UNKNOWN 0 0) UNKNOWN-ACCESS ()) (
100 'row_numbering' (DERIVED 101 0 0 0 DERIVED ()) () (UNKNOWN-FL
UNKNOWN-INTENT UNKNOWN-PROC UNKNOWN UNKNOWN 0 0) UNKNOWN-ACCESS (
STRUCTURE (DERIVED 101 0 0 0 DERIVED ()) 0 (((NULL (UNKNOWN 0 0 0 0
UNKNOWN ()) 0) ()) (() ()) (() ()) (() ()) (() ()) ((NULL (UNKNOWN 0 0 0
0 UNKNOWN ()) 0) ()) ((NULL (UNKNOWN 0 0 0 0 UNKNOWN ()) 0) ()) ((NULL (
UNKNOWN 0 0 0 0 UNKNOWN ()) 0) ()) ((CONSTANT (CHARACTER 1 0 0 0
CHARACTER (())) 0 101
'                                                                                                     ')
())) ())) (102 'column_numbering' (DERIVED 101 0 0 0 DERIVED ()) () (
UNKNOWN-FL UNKNOWN-INTENT UNKNOWN-PROC UNKNOWN UNKNOWN 0 0)
UNKNOWN-ACCESS (STRUCTURE (DERIVED 101 0 0 0 DERIVED ()) 0 (((NULL (
UNKNOWN 0 0 0 0 UNKNOWN ()) 0) ()) (() ()) (() ()) (() ()) (() ()) ((
NULL (UNKNOWN 0 0 0 0 UNKNOWN ()) 0) ()) ((NULL (UNKNOWN 0 0 0 0 UNKNOWN
()) 0) ()) ((NULL (UNKNOWN 0 0 0 0 UNKNOWN ()) 0) ()) ((CONSTANT (
CHARACTER 1 0 0 0 CHARACTER (())) 0 101
'                                                                                                     ')
())) ())) (103 'row_halo' (DERIVED 104 0 0 0 DERIVED ()) () (UNKNOWN-FL
UNKNOWN-INTENT UNKNOWN-PROC UNKNOWN UNKNOWN 0 0 POINTER) UNKNOWN-ACCESS
(NULL (UNKNOWN 0 0 0 0 UNKNOWN ()) 0)) (105 'column_halo' (DERIVED 104 0
0 0 DERIVED ()) () (UNKNOWN-FL UNKNOWN-INTENT UNKNOWN-PROC UNKNOWN
UNKNOWN 0 0 POINTER) UNKNOWN-ACCESS (NULL (UNKNOWN 0 0 0 0 UNKNOWN ()) 0))
(106 'refcount' (DERIVED 95 0 0 0 DERIVED ()) () (UNKNOWN-FL
UNKNOWN-INTENT UNKNOWN-PROC UNKNOWN UNKNOWN 0 0 POINTER) UNKNOWN-ACCESS
(NULL (UNKNOWN 0 0 0 0 UNKNOWN ()) 0)) (107 'name' (CHARACTER 1 0 0 0
CHARACTER ((CONSTANT (INTEGER 4 0 0 0 INTEGER ()) 0 '101'))) () (
UNKNOWN-FL UNKNOWN-INTENT UNKNOWN-PROC UNKNOWN UNKNOWN 0 0)
UNKNOWN-ACCESS (CONSTANT (CHARACTER 1 0 0 0 CHARACTER (())) 0 101
'                                                                                                     '))
(108 'is_assembled' (LOGICAL 4 0 0 0 LOGICAL ()) () (UNKNOWN-FL
UNKNOWN-INTENT UNKNOWN-PROC UNKNOWN UNKNOWN 0 0) UNKNOWN-ACCESS (
CONSTANT (LOGICAL 4 0 0 0 LOGICAL ()) 0 0))) PUBLIC (() () () ()) () 0 0
75554753)
49 'Scalar_field' 'fields_data_types' '' 1 ((DERIVED UNKNOWN-INTENT
UNKNOWN-PROC UNKNOWN UNKNOWN 0 0 POINTER_COMP) (UNKNOWN 0 0 0 0 UNKNOWN
()) 0 0 () () 0 ((109 'val' (REAL 8 0 0 0 REAL ()) (1 0 DEFERRED () ())
(UNKNOWN-FL UNKNOWN-INTENT UNKNOWN-PROC UNKNOWN UNKNOWN 0 0 DIMENSION
POINTER) UNKNOWN-ACCESS ()) (110 'val_stride' (INTEGER 4 0 0 0 INTEGER ())
() (UNKNOWN-FL UNKNOWN-INTENT UNKNOWN-PROC UNKNOWN UNKNOWN 0 0)
UNKNOWN-ACCESS (CONSTANT (INTEGER 4 0 0 0 INTEGER ()) 0 '1')) (111
'wrapped' (LOGICAL 4 0 0 0 LOGICAL ()) () (UNKNOWN-FL UNKNOWN-INTENT
UNKNOWN-PROC UNKNOWN UNKNOWN 0 0) UNKNOWN-ACCESS (CONSTANT (LOGICAL 4 0
0 0 LOGICAL ()) 0 1)) (112 'field_type' (INTEGER 4 0 0 0 INTEGER ()) ()
(UNKNOWN-FL UNKNOWN-INTENT UNKNOWN-PROC UNKNOWN UNKNOWN 0 0)
UNKNOWN-ACCESS (CONSTANT (INTEGER 4 0 0 0 INTEGER ()) 0 '0')) (113 'bc'
(DERIVED 114 0 0 0 DERIVED ()) () (UNKNOWN-FL UNKNOWN-INTENT
UNKNOWN-PROC UNKNOWN UNKNOWN 0 0 POINTER) UNKNOWN-ACCESS (NULL (UNKNOWN
0 0 0 0 UNKNOWN ()) 0)) (115 'name' (CHARACTER 1 0 0 0 CHARACTER ((
CONSTANT (INTEGER 4 0 0 0 INTEGER ()) 0 '101'))) () (UNKNOWN-FL
UNKNOWN-INTENT UNKNOWN-PROC UNKNOWN UNKNOWN 0 0) UNKNOWN-ACCESS ()) (
116 'option_path' (CHARACTER 1 0 0 0 CHARACTER ((CONSTANT (INTEGER 4 0 0
0 INTEGER ()) 0 '8192'))) () (UNKNOWN-FL UNKNOWN-INTENT UNKNOWN-PROC
UNKNOWN UNKNOWN 0 0) UNKNOWN-ACCESS ()) (117 'mesh' (DERIVED 91 0 0 0
DERIVED ()) () (UNKNOWN-FL UNKNOWN-INTENT UNKNOWN-PROC UNKNOWN UNKNOWN 0
0) UNKNOWN-ACCESS (STRUCTURE (DERIVED 91 0 0 0 DERIVED ()) 0 ((() ()) (
(CONSTANT (LOGICAL 4 0 0 0 LOGICAL ()) 0 1) ()) ((STRUCTURE (DERIVED 92
0 0 0 DERIVED ()) 0 ((() ()) (() ()) (() ()) (() ()) ((NULL (UNKNOWN 0 0
0 0 UNKNOWN ()) 0) ()) ((NULL (UNKNOWN 0 0 0 0 UNKNOWN ()) 0) ()) ((
NULL (UNKNOWN 0 0 0 0 UNKNOWN ()) 0) ()) ((NULL (UNKNOWN 0 0 0 0 UNKNOWN
()) 0) ()) ((NULL (UNKNOWN 0 0 0 0 UNKNOWN ()) 0) ()) ((NULL (UNKNOWN 0
0 0 0 UNKNOWN ()) 0) ()) ((NULL (UNKNOWN 0 0 0 0 UNKNOWN ()) 0) ()) ((
STRUCTURE (DERIVED 93 0 0 0 DERIVED ()) 0 ((() ()) (() ()) (() ()) (() ())
((NULL (UNKNOWN 0 0 0 0 UNKNOWN ()) 0) ()) ((NULL (UNKNOWN 0 0 0 0
UNKNOWN ()) 0) ()) (() ()) ((NULL (UNKNOWN 0 0 0 0 UNKNOWN ()) 0) ()) (
() ())) ()) ()) ((NULL (UNKNOWN 0 0 0 0 UNKNOWN ()) 0) ()) ((NULL (
UNKNOWN 0 0 0 0 UNKNOWN ()) 0) ()) ((NULL (UNKNOWN 0 0 0 0 UNKNOWN ()) 0)
()) ((NULL (UNKNOWN 0 0 0 0 UNKNOWN ()) 0) ()) (() ())) ()) ()) (() ())
(() ()) (() ()) (() ()) ((CONSTANT (INTEGER 4 0 0 0 INTEGER ()) 0 '0') ())
((NULL (UNKNOWN 0 0 0 0 UNKNOWN ()) 0) ()) ((NULL (UNKNOWN 0 0 0 0
UNKNOWN ()) 0) ()) ((NULL (UNKNOWN 0 0 0 0 UNKNOWN ()) 0) ()) ((NULL (
UNKNOWN 0 0 0 0 UNKNOWN ()) 0) ()) ((NULL (UNKNOWN 0 0 0 0 UNKNOWN ()) 0)
()) ((NULL (UNKNOWN 0 0 0 0 UNKNOWN ()) 0) ()) ((NULL (UNKNOWN 0 0 0 0
UNKNOWN ()) 0) ()) ((NULL (UNKNOWN 0 0 0 0 UNKNOWN ()) 0) ()) ((NULL (
UNKNOWN 0 0 0 0 UNKNOWN ()) 0) ()) ((NULL (UNKNOWN 0 0 0 0 UNKNOWN ()) 0)
()) ((CONSTANT (LOGICAL 4 0 0 0 LOGICAL ()) 0 0) ())) ())) (118 'refcount'
(DERIVED 95 0 0 0 DERIVED ()) () (UNKNOWN-FL UNKNOWN-INTENT UNKNOWN-PROC
UNKNOWN UNKNOWN 0 0 POINTER) UNKNOWN-ACCESS (NULL (UNKNOWN 0 0 0 0
UNKNOWN ()) 0)) (119 'aliased' (LOGICAL 4 0 0 0 LOGICAL ()) () (
UNKNOWN-FL UNKNOWN-INTENT UNKNOWN-PROC UNKNOWN UNKNOWN 0 0)
UNKNOWN-ACCESS (CONSTANT (LOGICAL 4 0 0 0 LOGICAL ()) 0 0)) (120
'py_locweight' (REAL 8 0 0 0 REAL ()) (2 0 DEFERRED () () () ()) (
UNKNOWN-FL UNKNOWN-INTENT UNKNOWN-PROC UNKNOWN UNKNOWN 0 0 DIMENSION
POINTER) UNKNOWN-ACCESS (NULL (UNKNOWN 0 0 0 0 UNKNOWN ()) 0)) (121
'py_func' (CHARACTER 1 0 0 0 CHARACTER ((CONSTANT (INTEGER 4 0 0 0
INTEGER ()) 0 '8192'))) () (UNKNOWN-FL UNKNOWN-INTENT UNKNOWN-PROC
UNKNOWN UNKNOWN 0 0) UNKNOWN-ACCESS ()) (122 'py_positions' (DERIVED 47
0 0 0 DERIVED ()) () (UNKNOWN-FL UNKNOWN-INTENT UNKNOWN-PROC UNKNOWN
UNKNOWN 0 0 POINTER) UNKNOWN-ACCESS ()) (123 'py_positions_same_mesh' (
LOGICAL 4 0 0 0 LOGICAL ()) () (UNKNOWN-FL UNKNOWN-INTENT UNKNOWN-PROC
UNKNOWN UNKNOWN 0 0) UNKNOWN-ACCESS ()) (124 'py_dim' (INTEGER 4 0 0 0
INTEGER ()) () (UNKNOWN-FL UNKNOWN-INTENT UNKNOWN-PROC UNKNOWN UNKNOWN 0
0) UNKNOWN-ACCESS ()) (125 'py_positions_shape' (DERIVED 92 0 0 0
DERIVED ()) () (UNKNOWN-FL UNKNOWN-INTENT UNKNOWN-PROC UNKNOWN UNKNOWN 0
0 POINTER) UNKNOWN-ACCESS (NULL (UNKNOWN 0 0 0 0 UNKNOWN ()) 0)) (126
'is_embedded' (LOGICAL 4 0 0 0 LOGICAL ()) () (UNKNOWN-FL UNKNOWN-INTENT
UNKNOWN-PROC UNKNOWN UNKNOWN 0 0) UNKNOWN-ACCESS (CONSTANT (LOGICAL 4 0
0 0 LOGICAL ()) 0 0))) PUBLIC (() () () ()) () 0 0 64912956)
50 'Csr_matrix' 'sparse_tools' '' 1 ((DERIVED UNKNOWN-INTENT
UNKNOWN-PROC UNKNOWN UNKNOWN 0 0 POINTER_COMP) (UNKNOWN 0 0 0 0 UNKNOWN
()) 0 0 () () 0 ((127 'sparsity' (DERIVED 128 0 0 0 DERIVED ()) () (
UNKNOWN-FL UNKNOWN-INTENT UNKNOWN-PROC UNKNOWN UNKNOWN 0 0)
UNKNOWN-ACCESS (STRUCTURE (DERIVED 128 0 0 0 DERIVED ()) 0 (((NULL (
UNKNOWN 0 0 0 0 UNKNOWN ()) 0) ()) ((NULL (UNKNOWN 0 0 0 0 UNKNOWN ()) 0)
()) ((NULL (UNKNOWN 0 0 0 0 UNKNOWN ()) 0) ()) (() ()) ((NULL (UNKNOWN 0
0 0 0 UNKNOWN ()) 0) ()) ((NULL (UNKNOWN 0 0 0 0 UNKNOWN ()) 0) ()) ((
NULL (UNKNOWN 0 0 0 0 UNKNOWN ()) 0) ()) ((CONSTANT (CHARACTER 1 0 0 0
CHARACTER (())) 0 101
'                                                                                                     ')
()) ((CONSTANT (LOGICAL 4 0 0 0 LOGICAL ()) 0 0) ()) ((CONSTANT (
LOGICAL 4 0 0 0 LOGICAL ()) 0 0) ())) ())) (129 'val' (REAL 8 0 0 0 REAL
()) (1 0 DEFERRED () ()) (UNKNOWN-FL UNKNOWN-INTENT UNKNOWN-PROC UNKNOWN
UNKNOWN 0 0 DIMENSION POINTER) UNKNOWN-ACCESS (NULL (UNKNOWN 0 0 0 0
UNKNOWN ()) 0)) (130 'ival' (INTEGER 4 0 0 0 INTEGER ()) (1 0 DEFERRED ()
()) (UNKNOWN-FL UNKNOWN-INTENT UNKNOWN-PROC UNKNOWN UNKNOWN 0 0
DIMENSION POINTER) UNKNOWN-ACCESS (NULL (UNKNOWN 0 0 0 0 UNKNOWN ()) 0))
(131 'clone' (LOGICAL 4 0 0 0 LOGICAL ()) () (UNKNOWN-FL UNKNOWN-INTENT
UNKNOWN-PROC UNKNOWN UNKNOWN 0 0) UNKNOWN-ACCESS (CONSTANT (LOGICAL 4 0
0 0 LOGICAL ()) 0 0)) (132 'external_val' (LOGICAL 4 0 0 0 LOGICAL ()) ()
(UNKNOWN-FL UNKNOWN-INTENT UNKNOWN-PROC UNKNOWN UNKNOWN 0 0)
UNKNOWN-ACCESS (CONSTANT (LOGICAL 4 0 0 0 LOGICAL ()) 0 0)) (133
'inactive' (DERIVED 134 0 0 0 DERIVED ()) () (UNKNOWN-FL UNKNOWN-INTENT
UNKNOWN-PROC UNKNOWN UNKNOWN 0 0 POINTER) UNKNOWN-ACCESS ()) (135 'ksp'
(INTEGER 8 0 0 0 INTEGER ()) () (UNKNOWN-FL UNKNOWN-INTENT UNKNOWN-PROC
UNKNOWN UNKNOWN 0 0 POINTER) UNKNOWN-ACCESS (NULL (UNKNOWN 0 0 0 0
UNKNOWN ()) 0)) (136 'refcount' (DERIVED 95 0 0 0 DERIVED ()) () (
UNKNOWN-FL UNKNOWN-INTENT UNKNOWN-PROC UNKNOWN UNKNOWN 0 0 POINTER)
UNKNOWN-ACCESS (NULL (UNKNOWN 0 0 0 0 UNKNOWN ()) 0)) (137 'name' (
CHARACTER 1 0 0 0 CHARACTER ((CONSTANT (INTEGER 4 0 0 0 INTEGER ()) 0
'101'))) () (UNKNOWN-FL UNKNOWN-INTENT UNKNOWN-PROC UNKNOWN UNKNOWN 0 0)
UNKNOWN-ACCESS (CONSTANT (CHARACTER 1 0 0 0 CHARACTER (())) 0 101
'                                                                                                     ')))
PUBLIC (() () () ()) () 0 0 66371681)
63 'Vector_field_pointer' 'fields_data_types' '' 1 ((DERIVED
UNKNOWN-INTENT UNKNOWN-PROC UNKNOWN UNKNOWN 0 0 POINTER_COMP) (UNKNOWN 0
0 0 0 UNKNOWN ()) 0 0 () () 0 ((138 'ptr' (DERIVED 47 0 0 0 DERIVED ())
() (UNKNOWN-FL UNKNOWN-INTENT UNKNOWN-PROC UNKNOWN UNKNOWN 0 0 POINTER)
UNKNOWN-ACCESS (NULL (UNKNOWN 0 0 0 0 UNKNOWN ()) 0))) PUBLIC (() () ()
()) () 0 0 74448721)
65 'Tensor_field_pointer' 'fields_data_types' '' 1 ((DERIVED
UNKNOWN-INTENT UNKNOWN-PROC UNKNOWN UNKNOWN 0 0 POINTER_COMP) (UNKNOWN 0
0 0 0 UNKNOWN ()) 0 0 () () 0 ((139 'ptr' (DERIVED 140 0 0 0 DERIVED ())
() (UNKNOWN-FL UNKNOWN-INTENT UNKNOWN-PROC UNKNOWN UNKNOWN 0 0 POINTER)
UNKNOWN-ACCESS (NULL (UNKNOWN 0 0 0 0 UNKNOWN ()) 0))) PUBLIC (() () ()
()) () 0 0 16722823)
67 'Scalar_field_pointer' 'fields_data_types' '' 1 ((DERIVED
UNKNOWN-INTENT UNKNOWN-PROC UNKNOWN UNKNOWN 0 0 POINTER_COMP) (UNKNOWN 0
0 0 0 UNKNOWN ()) 0 0 () () 0 ((141 'ptr' (DERIVED 49 0 0 0 DERIVED ())
() (UNKNOWN-FL UNKNOWN-INTENT UNKNOWN-PROC UNKNOWN UNKNOWN 0 0 POINTER)
UNKNOWN-ACCESS (NULL (UNKNOWN 0 0 0 0 UNKNOWN ()) 0))) PUBLIC (() () ()
()) () 0 0 54828570)
69 'Mesh_pointer' 'fields_data_types' '' 1 ((DERIVED UNKNOWN-INTENT
UNKNOWN-PROC UNKNOWN UNKNOWN 0 0 POINTER_COMP) (UNKNOWN 0 0 0 0 UNKNOWN
()) 0 0 () () 0 ((142 'ptr' (DERIVED 91 0 0 0 DERIVED ()) () (
UNKNOWN-FL UNKNOWN-INTENT UNKNOWN-PROC UNKNOWN UNKNOWN 0 0 POINTER)
UNKNOWN-ACCESS (NULL (UNKNOWN 0 0 0 0 UNKNOWN ()) 0))) PUBLIC (() () ()
()) () 0 0 65432384)
71 'Halo_pointer' 'halo_data_types' '' 1 ((DERIVED UNKNOWN-INTENT
UNKNOWN-PROC UNKNOWN UNKNOWN 0 0 POINTER_COMP) (UNKNOWN 0 0 0 0 UNKNOWN
()) 0 0 () () 0 ((143 'ptr' (DERIVED 104 0 0 0 DERIVED ()) () (
UNKNOWN-FL UNKNOWN-INTENT UNKNOWN-PROC UNKNOWN UNKNOWN 0 0 POINTER)
UNKNOWN-ACCESS (NULL (UNKNOWN 0 0 0 0 UNKNOWN ()) 0))) PUBLIC (() () ()
()) () 0 0 72023282)
73 'Csr_sparsity_pointer' 'sparse_tools' '' 1 ((DERIVED UNKNOWN-INTENT
UNKNOWN-PROC UNKNOWN UNKNOWN 0 0 POINTER_COMP) (UNKNOWN 0 0 0 0 UNKNOWN
()) 0 0 () () 0 ((144 'ptr' (DERIVED 128 0 0 0 DERIVED ()) () (
UNKNOWN-FL UNKNOWN-INTENT UNKNOWN-PROC UNKNOWN UNKNOWN 0 0 POINTER)
UNKNOWN-ACCESS (NULL (UNKNOWN 0 0 0 0 UNKNOWN ()) 0))) PUBLIC (() () ()
()) () 0 0 9687815)
75 'Csr_matrix_pointer' 'sparse_tools' '' 1 ((DERIVED UNKNOWN-INTENT
UNKNOWN-PROC UNKNOWN UNKNOWN 0 0 POINTER_COMP) (UNKNOWN 0 0 0 0 UNKNOWN
()) 0 0 () () 0 ((145 'ptr' (DERIVED 50 0 0 0 DERIVED ()) () (
UNKNOWN-FL UNKNOWN-INTENT UNKNOWN-PROC UNKNOWN UNKNOWN 0 0 POINTER)
UNKNOWN-ACCESS (NULL (UNKNOWN 0 0 0 0 UNKNOWN ()) 0))) PUBLIC (() () ()
()) () 0 0 82770239)
77 'Block_csr_matrix_pointer' 'sparse_tools' '' 1 ((DERIVED
UNKNOWN-INTENT UNKNOWN-PROC UNKNOWN UNKNOWN 0 0 POINTER_COMP) (UNKNOWN 0
0 0 0 UNKNOWN ()) 0 0 () () 0 ((146 'ptr' (DERIVED 147 0 0 0 DERIVED ())
() (UNKNOWN-FL UNKNOWN-INTENT UNKNOWN-PROC UNKNOWN UNKNOWN 0 0 POINTER)
UNKNOWN-ACCESS (NULL (UNKNOWN 0 0 0 0 UNKNOWN ()) 0))) PUBLIC (() () ()
()) () 0 0 83606449)
79 'Petsc_csr_matrix_pointer' 'sparse_tools_petsc' '' 1 ((DERIVED
UNKNOWN-INTENT UNKNOWN-PROC UNKNOWN UNKNOWN 0 0 POINTER_COMP) (UNKNOWN 0
0 0 0 UNKNOWN ()) 0 0 () () 0 ((148 'ptr' (DERIVED 48 0 0 0 DERIVED ())
() (UNKNOWN-FL UNKNOWN-INTENT UNKNOWN-PROC UNKNOWN UNKNOWN 0 0 POINTER)
UNKNOWN-ACCESS (NULL (UNKNOWN 0 0 0 0 UNKNOWN ()) 0))) PUBLIC (() () ()
()) () 0 0 85445535)
81 'Dict_struct' 'scalar_field_dictionary' '' 1 ((DERIVED UNKNOWN-INTENT
UNKNOWN-PROC UNKNOWN UNKNOWN 0 0 POINTER_COMP PRIVATE_COMP) (UNKNOWN 0 0
0 0 UNKNOWN ()) 0 0 () () 0 ((149 'table' (DERIVED 150 0 0 0 DERIVED ())
(1 0 DEFERRED () ()) (UNKNOWN-FL UNKNOWN-INTENT UNKNOWN-PROC UNKNOWN
UNKNOWN 0 0 DIMENSION POINTER) UNKNOWN-ACCESS ())) PRIVATE (() () () ())
() 0 0 40394189)
86 'Vector_boundary_conditions_ptr' 'fields_data_types' '' 1 ((DERIVED
UNKNOWN-INTENT UNKNOWN-PROC UNKNOWN UNKNOWN 0 0 POINTER_COMP) (UNKNOWN 0
0 0 0 UNKNOWN ()) 0 0 () () 0 ((151 'boundary_condition' (DERIVED 152 0
0 0 DERIVED ()) (1 0 DEFERRED () ()) (UNKNOWN-FL UNKNOWN-INTENT
UNKNOWN-PROC UNKNOWN UNKNOWN 0 0 DIMENSION POINTER) UNKNOWN-ACCESS (
NULL (UNKNOWN 0 0 0 0 UNKNOWN ()) 0))) PUBLIC (() () () ()) () 0 0
84476181)
91 'Mesh_type' 'fields_data_types' '' 1 ((DERIVED UNKNOWN-INTENT
UNKNOWN-PROC UNKNOWN UNKNOWN 0 0 POINTER_COMP) (UNKNOWN 0 0 0 0 UNKNOWN
()) 0 0 () () 0 ((153 'ndglno' (INTEGER 4 0 0 0 INTEGER ()) (1 0
DEFERRED () ()) (UNKNOWN-FL UNKNOWN-INTENT UNKNOWN-PROC UNKNOWN UNKNOWN
0 0 DIMENSION POINTER) UNKNOWN-ACCESS ()) (154 'wrapped' (LOGICAL 4 0 0
0 LOGICAL ()) () (UNKNOWN-FL UNKNOWN-INTENT UNKNOWN-PROC UNKNOWN UNKNOWN
0 0) UNKNOWN-ACCESS (CONSTANT (LOGICAL 4 0 0 0 LOGICAL ()) 0 1)) (155
'shape' (DERIVED 92 0 0 0 DERIVED ()) () (UNKNOWN-FL UNKNOWN-INTENT
UNKNOWN-PROC UNKNOWN UNKNOWN 0 0) UNKNOWN-ACCESS (STRUCTURE (DERIVED 92
0 0 0 DERIVED ()) 0 ((() ()) (() ()) (() ()) (() ()) ((NULL (UNKNOWN 0 0
0 0 UNKNOWN ()) 0) ()) ((NULL (UNKNOWN 0 0 0 0 UNKNOWN ()) 0) ()) ((
NULL (UNKNOWN 0 0 0 0 UNKNOWN ()) 0) ()) ((NULL (UNKNOWN 0 0 0 0 UNKNOWN
()) 0) ()) ((NULL (UNKNOWN 0 0 0 0 UNKNOWN ()) 0) ()) ((NULL (UNKNOWN 0
0 0 0 UNKNOWN ()) 0) ()) ((NULL (UNKNOWN 0 0 0 0 UNKNOWN ()) 0) ()) ((
STRUCTURE (DERIVED 93 0 0 0 DERIVED ()) 0 ((() ()) (() ()) (() ()) (() ())
((NULL (UNKNOWN 0 0 0 0 UNKNOWN ()) 0) ()) ((NULL (UNKNOWN 0 0 0 0
UNKNOWN ()) 0) ()) (() ()) ((NULL (UNKNOWN 0 0 0 0 UNKNOWN ()) 0) ()) (
() ())) ()) ()) ((NULL (UNKNOWN 0 0 0 0 UNKNOWN ()) 0) ()) ((NULL (
UNKNOWN 0 0 0 0 UNKNOWN ()) 0) ()) ((NULL (UNKNOWN 0 0 0 0 UNKNOWN ()) 0)
()) ((NULL (UNKNOWN 0 0 0 0 UNKNOWN ()) 0) ()) (() ())) ())) (156
'elements' (INTEGER 4 0 0 0 INTEGER ()) () (UNKNOWN-FL UNKNOWN-INTENT
UNKNOWN-PROC UNKNOWN UNKNOWN 0 0) UNKNOWN-ACCESS ()) (157 'nodes' (
INTEGER 4 0 0 0 INTEGER ()) () (UNKNOWN-FL UNKNOWN-INTENT UNKNOWN-PROC
UNKNOWN UNKNOWN 0 0) UNKNOWN-ACCESS ()) (158 'name' (CHARACTER 1 0 0 0
CHARACTER ((CONSTANT (INTEGER 4 0 0 0 INTEGER ()) 0 '101'))) () (
UNKNOWN-FL UNKNOWN-INTENT UNKNOWN-PROC UNKNOWN UNKNOWN 0 0)
UNKNOWN-ACCESS ()) (159 'option_path' (CHARACTER 1 0 0 0 CHARACTER ((
CONSTANT (INTEGER 4 0 0 0 INTEGER ()) 0 '8192'))) () (UNKNOWN-FL
UNKNOWN-INTENT UNKNOWN-PROC UNKNOWN UNKNOWN 0 0) UNKNOWN-ACCESS ()) (
160 'continuity' (INTEGER 4 0 0 0 INTEGER ()) () (UNKNOWN-FL
UNKNOWN-INTENT UNKNOWN-PROC UNKNOWN UNKNOWN 0 0) UNKNOWN-ACCESS (
CONSTANT (INTEGER 4 0 0 0 INTEGER ()) 0 '0')) (161 'refcount' (DERIVED
95 0 0 0 DERIVED ()) () (UNKNOWN-FL UNKNOWN-INTENT UNKNOWN-PROC UNKNOWN
UNKNOWN 0 0 POINTER) UNKNOWN-ACCESS (NULL (UNKNOWN 0 0 0 0 UNKNOWN ()) 0))
(162 'faces' (DERIVED 163 0 0 0 DERIVED ()) () (UNKNOWN-FL
UNKNOWN-INTENT UNKNOWN-PROC UNKNOWN UNKNOWN 0 0 POINTER) UNKNOWN-ACCESS
(NULL (UNKNOWN 0 0 0 0 UNKNOWN ()) 0)) (164 'subdomain_mesh' (DERIVED
165 0 0 0 DERIVED ()) () (UNKNOWN-FL UNKNOWN-INTENT UNKNOWN-PROC UNKNOWN
UNKNOWN 0 0 POINTER) UNKNOWN-ACCESS (NULL (UNKNOWN 0 0 0 0 UNKNOWN ()) 0))
(166 'adj_lists' (DERIVED 167 0 0 0 DERIVED ()) () (UNKNOWN-FL
UNKNOWN-INTENT UNKNOWN-PROC UNKNOWN UNKNOWN 0 0 POINTER) UNKNOWN-ACCESS
(NULL (UNKNOWN 0 0 0 0 UNKNOWN ()) 0)) (168 'columns' (INTEGER 4 0 0 0
INTEGER ()) (1 0 DEFERRED () ()) (UNKNOWN-FL UNKNOWN-INTENT UNKNOWN-PROC
UNKNOWN UNKNOWN 0 0 DIMENSION POINTER) UNKNOWN-ACCESS (NULL (UNKNOWN 0 0
0 0 UNKNOWN ()) 0)) (169 'element_columns' (INTEGER 4 0 0 0 INTEGER ())
(1 0 DEFERRED () ()) (UNKNOWN-FL UNKNOWN-INTENT UNKNOWN-PROC UNKNOWN
UNKNOWN 0 0 DIMENSION POINTER) UNKNOWN-ACCESS (NULL (UNKNOWN 0 0 0 0
UNKNOWN ()) 0)) (170 'region_ids' (INTEGER 4 0 0 0 INTEGER ()) (1 0
DEFERRED () ()) (UNKNOWN-FL UNKNOWN-INTENT UNKNOWN-PROC UNKNOWN UNKNOWN
0 0 DIMENSION POINTER) UNKNOWN-ACCESS (NULL (UNKNOWN 0 0 0 0 UNKNOWN ())
0)) (171 'halos' (DERIVED 104 0 0 0 DERIVED ()) (1 0 DEFERRED () ()) (
UNKNOWN-FL UNKNOWN-INTENT UNKNOWN-PROC UNKNOWN UNKNOWN 0 0 DIMENSION
POINTER) UNKNOWN-ACCESS (NULL (UNKNOWN 0 0 0 0 UNKNOWN ()) 0)) (172
'element_halos' (DERIVED 104 0 0 0 DERIVED ()) (1 0 DEFERRED () ()) (
UNKNOWN-FL UNKNOWN-INTENT UNKNOWN-PROC UNKNOWN UNKNOWN 0 0 DIMENSION
POINTER) UNKNOWN-ACCESS (NULL (UNKNOWN 0 0 0 0 UNKNOWN ()) 0)) (173
'colourings' (DERIVED 174 0 0 0 DERIVED ()) (1 0 DEFERRED () ()) (
UNKNOWN-FL UNKNOWN-INTENT UNKNOWN-PROC UNKNOWN UNKNOWN 0 0 DIMENSION
POINTER) UNKNOWN-ACCESS (NULL (UNKNOWN 0 0 0 0 UNKNOWN ()) 0)) (175
'periodic' (LOGICAL 4 0 0 0 LOGICAL ()) () (UNKNOWN-FL UNKNOWN-INTENT
UNKNOWN-PROC UNKNOWN UNKNOWN 0 0) UNKNOWN-ACCESS (CONSTANT (LOGICAL 4 0
0 0 LOGICAL ()) 0 0))) PUBLIC (() () () ()) () 0 0 2572791)
92 'Element_type' 'elements' '' 1 ((DERIVED UNKNOWN-INTENT UNKNOWN-PROC
UNKNOWN UNKNOWN 0 0 POINTER_COMP) (UNKNOWN 0 0 0 0 UNKNOWN ()) 0 0 () ()
0 ((176 'dim' (INTEGER 4 0 0 0 INTEGER ()) () (UNKNOWN-FL UNKNOWN-INTENT
UNKNOWN-PROC UNKNOWN UNKNOWN 0 0) UNKNOWN-ACCESS ()) (177 'loc' (
INTEGER 4 0 0 0 INTEGER ()) () (UNKNOWN-FL UNKNOWN-INTENT UNKNOWN-PROC
UNKNOWN UNKNOWN 0 0) UNKNOWN-ACCESS ()) (178 'ngi' (INTEGER 4 0 0 0
INTEGER ()) () (UNKNOWN-FL UNKNOWN-INTENT UNKNOWN-PROC UNKNOWN UNKNOWN 0
0) UNKNOWN-ACCESS ()) (179 'degree' (INTEGER 4 0 0 0 INTEGER ()) () (
UNKNOWN-FL UNKNOWN-INTENT UNKNOWN-PROC UNKNOWN UNKNOWN 0 0)
UNKNOWN-ACCESS ()) (180 'n' (REAL 8 0 0 0 REAL ()) (2 0 DEFERRED () () ()
()) (UNKNOWN-FL UNKNOWN-INTENT UNKNOWN-PROC UNKNOWN UNKNOWN 0 0
DIMENSION POINTER) UNKNOWN-ACCESS (NULL (UNKNOWN 0 0 0 0 UNKNOWN ()) 0))
(181 'dn' (REAL 8 0 0 0 REAL ()) (3 0 DEFERRED () () () () () ()) (
UNKNOWN-FL UNKNOWN-INTENT UNKNOWN-PROC UNKNOWN UNKNOWN 0 0 DIMENSION
POINTER) UNKNOWN-ACCESS (NULL (UNKNOWN 0 0 0 0 UNKNOWN ()) 0)) (182 'n_s'
(REAL 8 0 0 0 REAL ()) (3 0 DEFERRED () () () () () ()) (UNKNOWN-FL
UNKNOWN-INTENT UNKNOWN-PROC UNKNOWN UNKNOWN 0 0 DIMENSION POINTER)
UNKNOWN-ACCESS (NULL (UNKNOWN 0 0 0 0 UNKNOWN ()) 0)) (183 'dn_s' (REAL
8 0 0 0 REAL ()) (4 0 DEFERRED () () () () () () () ()) (UNKNOWN-FL
UNKNOWN-INTENT UNKNOWN-PROC UNKNOWN UNKNOWN 0 0 DIMENSION POINTER)
UNKNOWN-ACCESS (NULL (UNKNOWN 0 0 0 0 UNKNOWN ()) 0)) (184 'spoly' (
DERIVED 185 0 0 0 DERIVED ()) (2 0 DEFERRED () () () ()) (UNKNOWN-FL
UNKNOWN-INTENT UNKNOWN-PROC UNKNOWN UNKNOWN 0 0 DIMENSION POINTER)
UNKNOWN-ACCESS (NULL (UNKNOWN 0 0 0 0 UNKNOWN ()) 0)) (186 'dspoly' (
DERIVED 185 0 0 0 DERIVED ()) (2 0 DEFERRED () () () ()) (UNKNOWN-FL
UNKNOWN-INTENT UNKNOWN-PROC UNKNOWN UNKNOWN 0 0 DIMENSION POINTER)
UNKNOWN-ACCESS (NULL (UNKNOWN 0 0 0 0 UNKNOWN ()) 0)) (187 'numbering' (
DERIVED 188 0 0 0 DERIVED ()) () (UNKNOWN-FL UNKNOWN-INTENT UNKNOWN-PROC
UNKNOWN UNKNOWN 0 0 POINTER) UNKNOWN-ACCESS (NULL (UNKNOWN 0 0 0 0
UNKNOWN ()) 0)) (189 'quadrature' (DERIVED 93 0 0 0 DERIVED ()) () (
UNKNOWN-FL UNKNOWN-INTENT UNKNOWN-PROC UNKNOWN UNKNOWN 0 0)
UNKNOWN-ACCESS (STRUCTURE (DERIVED 93 0 0 0 DERIVED ()) 0 ((() ()) (() ())
(() ()) (() ()) ((NULL (UNKNOWN 0 0 0 0 UNKNOWN ()) 0) ()) ((NULL (
UNKNOWN 0 0 0 0 UNKNOWN ()) 0) ()) (() ()) ((NULL (UNKNOWN 0 0 0 0
UNKNOWN ()) 0) ()) (() ())) ())) (190 'surface_quadrature' (DERIVED 93 0
0 0 DERIVED ()) () (UNKNOWN-FL UNKNOWN-INTENT UNKNOWN-PROC UNKNOWN
UNKNOWN 0 0 POINTER) UNKNOWN-ACCESS (NULL (UNKNOWN 0 0 0 0 UNKNOWN ()) 0))
(191 'superconvergence' (DERIVED 192 0 0 0 DERIVED ()) () (UNKNOWN-FL
UNKNOWN-INTENT UNKNOWN-PROC UNKNOWN UNKNOWN 0 0 POINTER) UNKNOWN-ACCESS
(NULL (UNKNOWN 0 0 0 0 UNKNOWN ()) 0)) (193 'constraints' (DERIVED 194 0
0 0 DERIVED ()) () (UNKNOWN-FL UNKNOWN-INTENT UNKNOWN-PROC UNKNOWN
UNKNOWN 0 0 POINTER) UNKNOWN-ACCESS (NULL (UNKNOWN 0 0 0 0 UNKNOWN ()) 0))
(195 'refcount' (DERIVED 95 0 0 0 DERIVED ()) () (UNKNOWN-FL
UNKNOWN-INTENT UNKNOWN-PROC UNKNOWN UNKNOWN 0 0 POINTER) UNKNOWN-ACCESS
(NULL (UNKNOWN 0 0 0 0 UNKNOWN ()) 0)) (196 'name' (CHARACTER 1 0 0 0
CHARACTER ((CONSTANT (INTEGER 4 0 0 0 INTEGER ()) 0 '0'))) () (
UNKNOWN-FL UNKNOWN-INTENT UNKNOWN-PROC UNKNOWN UNKNOWN 0 0)
UNKNOWN-ACCESS ())) PUBLIC (() () () ()) () 0 0 79461029)
93 'Quadrature_type' 'quadrature' '' 1 ((DERIVED UNKNOWN-INTENT
UNKNOWN-PROC UNKNOWN UNKNOWN 0 0 POINTER_COMP) (UNKNOWN 0 0 0 0 UNKNOWN
()) 0 0 () () 0 ((197 'dim' (INTEGER 4 0 0 0 INTEGER ()) () (UNKNOWN-FL
UNKNOWN-INTENT UNKNOWN-PROC UNKNOWN UNKNOWN 0 0) UNKNOWN-ACCESS ()) (
198 'degree' (INTEGER 4 0 0 0 INTEGER ()) () (UNKNOWN-FL UNKNOWN-INTENT
UNKNOWN-PROC UNKNOWN UNKNOWN 0 0) UNKNOWN-ACCESS ()) (199 'vertices' (
INTEGER 4 0 0 0 INTEGER ()) () (UNKNOWN-FL UNKNOWN-INTENT UNKNOWN-PROC
UNKNOWN UNKNOWN 0 0) UNKNOWN-ACCESS ()) (200 'ngi' (INTEGER 4 0 0 0
INTEGER ()) () (UNKNOWN-FL UNKNOWN-INTENT UNKNOWN-PROC UNKNOWN UNKNOWN 0
0) UNKNOWN-ACCESS ()) (201 'weight' (REAL 8 0 0 0 REAL ()) (1 0 DEFERRED
() ()) (UNKNOWN-FL UNKNOWN-INTENT UNKNOWN-PROC UNKNOWN UNKNOWN 0 0
DIMENSION POINTER) UNKNOWN-ACCESS (NULL (UNKNOWN 0 0 0 0 UNKNOWN ()) 0))
(202 'l' (REAL 8 0 0 0 REAL ()) (2 0 DEFERRED () () () ()) (UNKNOWN-FL
UNKNOWN-INTENT UNKNOWN-PROC UNKNOWN UNKNOWN 0 0 DIMENSION POINTER)
UNKNOWN-ACCESS (NULL (UNKNOWN 0 0 0 0 UNKNOWN ()) 0)) (203 'name' (
CHARACTER 1 0 0 0 CHARACTER ((CONSTANT (INTEGER 4 0 0 0 INTEGER ()) 0 '0')))
() (UNKNOWN-FL UNKNOWN-INTENT UNKNOWN-PROC UNKNOWN UNKNOWN 0 0)
UNKNOWN-ACCESS ()) (204 'refcount' (DERIVED 95 0 0 0 DERIVED ()) () (
UNKNOWN-FL UNKNOWN-INTENT UNKNOWN-PROC UNKNOWN UNKNOWN 0 0 POINTER)
UNKNOWN-ACCESS (NULL (UNKNOWN 0 0 0 0 UNKNOWN ()) 0)) (205 'family' (
INTEGER 4 0 0 0 INTEGER ()) () (UNKNOWN-FL UNKNOWN-INTENT UNKNOWN-PROC
UNKNOWN UNKNOWN 0 0) UNKNOWN-ACCESS ())) PUBLIC (() () () ()) () 0 0
59837722)
95 'Refcount_type' 'reference_counting' '' 1 ((DERIVED UNKNOWN-INTENT
UNKNOWN-PROC UNKNOWN UNKNOWN 0 0 POINTER_COMP) (UNKNOWN 0 0 0 0 UNKNOWN
()) 0 0 () () 0 ((206 'prev' (DERIVED 95 0 0 0 DERIVED ()) () (
UNKNOWN-FL UNKNOWN-INTENT UNKNOWN-PROC UNKNOWN UNKNOWN 0 0 POINTER)
UNKNOWN-ACCESS (NULL (UNKNOWN 0 0 0 0 UNKNOWN ()) 0)) (207 'next' (
DERIVED 95 0 0 0 DERIVED ()) () (UNKNOWN-FL UNKNOWN-INTENT UNKNOWN-PROC
UNKNOWN UNKNOWN 0 0 POINTER) UNKNOWN-ACCESS (NULL (UNKNOWN 0 0 0 0
UNKNOWN ()) 0)) (208 'count' (INTEGER 4 0 0 0 INTEGER ()) () (
UNKNOWN-FL UNKNOWN-INTENT UNKNOWN-PROC UNKNOWN UNKNOWN 0 0)
UNKNOWN-ACCESS (CONSTANT (INTEGER 4 0 0 0 INTEGER ()) 0 '0')) (209 'id'
(INTEGER 4 0 0 0 INTEGER ()) () (UNKNOWN-FL UNKNOWN-INTENT UNKNOWN-PROC
UNKNOWN UNKNOWN 0 0) UNKNOWN-ACCESS ()) (210 'name' (CHARACTER 1 0 0 0
CHARACTER ((CONSTANT (INTEGER 4 0 0 0 INTEGER ()) 0 '101'))) () (
UNKNOWN-FL UNKNOWN-INTENT UNKNOWN-PROC UNKNOWN UNKNOWN 0 0)
UNKNOWN-ACCESS ()) (211 'type' (CHARACTER 1 0 0 0 CHARACTER ((CONSTANT (
INTEGER 4 0 0 0 INTEGER ()) 0 '101'))) () (UNKNOWN-FL UNKNOWN-INTENT
UNKNOWN-PROC UNKNOWN UNKNOWN 0 0) UNKNOWN-ACCESS ()) (212 'tagged' (
LOGICAL 4 0 0 0 LOGICAL ()) () (UNKNOWN-FL UNKNOWN-INTENT UNKNOWN-PROC
UNKNOWN UNKNOWN 0 0) UNKNOWN-ACCESS (CONSTANT (LOGICAL 4 0 0 0 LOGICAL ())
0 0))) PUBLIC (() () () ()) () 0 0 25948645)
98 'Picker_ptr' 'picker_data_types' '' 1 ((DERIVED UNKNOWN-INTENT
UNKNOWN-PROC UNKNOWN UNKNOWN 0 0 POINTER_COMP) (UNKNOWN 0 0 0 0 UNKNOWN
()) 0 0 () () 0 ((213 'ptr' (DERIVED 214 0 0 0 DERIVED ()) () (
UNKNOWN-FL UNKNOWN-INTENT UNKNOWN-PROC UNKNOWN UNKNOWN 0 0 POINTER)
UNKNOWN-ACCESS (NULL (UNKNOWN 0 0 0 0 UNKNOWN ()) 0))) PUBLIC (() () ()
()) () 0 0 71120007)
101 'Petsc_numbering_type' 'petsc_tools' '' 1 ((DERIVED UNKNOWN-INTENT
UNKNOWN-PROC UNKNOWN UNKNOWN 0 0 POINTER_COMP) (UNKNOWN 0 0 0 0 UNKNOWN
()) 0 0 () () 0 ((215 'halo' (DERIVED 104 0 0 0 DERIVED ()) () (
UNKNOWN-FL UNKNOWN-INTENT UNKNOWN-PROC UNKNOWN UNKNOWN 0 0 POINTER)
UNKNOWN-ACCESS (NULL (UNKNOWN 0 0 0 0 UNKNOWN ()) 0)) (216 'nprivatenodes'
(INTEGER 4 0 0 0 INTEGER ()) () (UNKNOWN-FL UNKNOWN-INTENT UNKNOWN-PROC
UNKNOWN UNKNOWN 0 0) UNKNOWN-ACCESS ()) (217 'universal_length' (
INTEGER 4 0 0 0 INTEGER ()) () (UNKNOWN-FL UNKNOWN-INTENT UNKNOWN-PROC
UNKNOWN UNKNOWN 0 0) UNKNOWN-ACCESS ()) (218 'offset' (INTEGER 4 0 0 0
INTEGER ()) () (UNKNOWN-FL UNKNOWN-INTENT UNKNOWN-PROC UNKNOWN UNKNOWN 0
0) UNKNOWN-ACCESS ()) (219 'gnn2unn' (INTEGER 4 0 0 0 INTEGER ()) (2 0
DEFERRED () () () ()) (UNKNOWN-FL UNKNOWN-INTENT UNKNOWN-PROC UNKNOWN
UNKNOWN 0 0 DIMENSION POINTER) UNKNOWN-ACCESS ()) (220 'ghost_nodes' (
INTEGER 4 0 0 0 INTEGER ()) (1 0 DEFERRED () ()) (UNKNOWN-FL
UNKNOWN-INTENT UNKNOWN-PROC UNKNOWN UNKNOWN 0 0 DIMENSION POINTER)
UNKNOWN-ACCESS (NULL (UNKNOWN 0 0 0 0 UNKNOWN ()) 0)) (221 'ghost2unn' (
INTEGER 4 0 0 0 INTEGER ()) (2 0 DEFERRED () () () ()) (UNKNOWN-FL
UNKNOWN-INTENT UNKNOWN-PROC UNKNOWN UNKNOWN 0 0 DIMENSION POINTER)
UNKNOWN-ACCESS (NULL (UNKNOWN 0 0 0 0 UNKNOWN ()) 0)) (222 'refcount' (
DERIVED 95 0 0 0 DERIVED ()) () (UNKNOWN-FL UNKNOWN-INTENT UNKNOWN-PROC
UNKNOWN UNKNOWN 0 0 POINTER) UNKNOWN-ACCESS (NULL (UNKNOWN 0 0 0 0
UNKNOWN ()) 0)) (223 'name' (CHARACTER 1 0 0 0 CHARACTER ((CONSTANT (
INTEGER 4 0 0 0 INTEGER ()) 0 '101'))) () (UNKNOWN-FL UNKNOWN-INTENT
UNKNOWN-PROC UNKNOWN UNKNOWN 0 0) UNKNOWN-ACCESS (CONSTANT (CHARACTER 1
0 0 0 CHARACTER (())) 0 101
'                                                                                                     ')))
PUBLIC (() () () ()) () 0 0 16529124)
104 'Halo_type' 'halo_data_types' '' 1 ((DERIVED UNKNOWN-INTENT
UNKNOWN-PROC UNKNOWN UNKNOWN 0 0 POINTER_COMP) (UNKNOWN 0 0 0 0 UNKNOWN
()) 0 0 () () 0 ((224 'name' (CHARACTER 1 0 0 0 CHARACTER ((CONSTANT (
INTEGER 4 0 0 0 INTEGER ()) 0 '101'))) () (UNKNOWN-FL UNKNOWN-INTENT
UNKNOWN-PROC UNKNOWN UNKNOWN 0 0) UNKNOWN-ACCESS ()) (225 'refcount' (
DERIVED 95 0 0 0 DERIVED ()) () (UNKNOWN-FL UNKNOWN-INTENT UNKNOWN-PROC
UNKNOWN UNKNOWN 0 0 POINTER) UNKNOWN-ACCESS (NULL (UNKNOWN 0 0 0 0
UNKNOWN ()) 0)) (226 'data_type' (INTEGER 4 0 0 0 INTEGER ()) () (
UNKNOWN-FL UNKNOWN-INTENT UNKNOWN-PROC UNKNOWN UNKNOWN 0 0)
UNKNOWN-ACCESS (CONSTANT (INTEGER 4 0 0 0 INTEGER ()) 0 '0')) (227
'ordering_scheme' (INTEGER 4 0 0 0 INTEGER ()) () (UNKNOWN-FL
UNKNOWN-INTENT UNKNOWN-PROC UNKNOWN UNKNOWN 0 0) UNKNOWN-ACCESS (
CONSTANT (INTEGER 4 0 0 0 INTEGER ()) 0 '0')) (228 'communicator' (
INTEGER 4 0 0 0 INTEGER ()) () (UNKNOWN-FL UNKNOWN-INTENT UNKNOWN-PROC
UNKNOWN UNKNOWN 0 0) UNKNOWN-ACCESS ()) (229 'nprocs' (INTEGER 4 0 0 0
INTEGER ()) () (UNKNOWN-FL UNKNOWN-INTENT UNKNOWN-PROC UNKNOWN UNKNOWN 0
0) UNKNOWN-ACCESS (CONSTANT (INTEGER 4 0 0 0 INTEGER ()) 0 '0')) (230
'sends' (DERIVED 231 0 0 0 DERIVED ()) (1 0 DEFERRED () ()) (UNKNOWN-FL
UNKNOWN-INTENT UNKNOWN-PROC UNKNOWN UNKNOWN 0 0 DIMENSION POINTER)
UNKNOWN-ACCESS (NULL (UNKNOWN 0 0 0 0 UNKNOWN ()) 0)) (232 'receives' (
DERIVED 231 0 0 0 DERIVED ()) (1 0 DEFERRED () ()) (UNKNOWN-FL
UNKNOWN-INTENT UNKNOWN-PROC UNKNOWN UNKNOWN 0 0 DIMENSION POINTER)
UNKNOWN-ACCESS (NULL (UNKNOWN 0 0 0 0 UNKNOWN ()) 0)) (233 'nowned_nodes'
(INTEGER 4 0 0 0 INTEGER ()) () (UNKNOWN-FL UNKNOWN-INTENT UNKNOWN-PROC
UNKNOWN UNKNOWN 0 0) UNKNOWN-ACCESS (CONSTANT (INTEGER 4 0 0 0 INTEGER ())
0 '-1')) (234 'owners' (INTEGER 4 0 0 0 INTEGER ()) (1 0 DEFERRED () ())
(UNKNOWN-FL UNKNOWN-INTENT UNKNOWN-PROC UNKNOWN UNKNOWN 0 0 DIMENSION
POINTER) UNKNOWN-ACCESS (NULL (UNKNOWN 0 0 0 0 UNKNOWN ()) 0)) (235
'unn_count' (INTEGER 4 0 0 0 INTEGER ()) () (UNKNOWN-FL UNKNOWN-INTENT
UNKNOWN-PROC UNKNOWN UNKNOWN 0 0) UNKNOWN-ACCESS (CONSTANT (INTEGER 4 0
0 0 INTEGER ()) 0 '-1')) (236 'owned_nodes_unn_base' (INTEGER 4 0 0 0
INTEGER ()) (1 0 DEFERRED () ()) (UNKNOWN-FL UNKNOWN-INTENT UNKNOWN-PROC
UNKNOWN UNKNOWN 0 0 DIMENSION POINTER) UNKNOWN-ACCESS (NULL (UNKNOWN 0 0
0 0 UNKNOWN ()) 0)) (237 'my_owned_nodes_unn_base' (INTEGER 4 0 0 0
INTEGER ()) () (UNKNOWN-FL UNKNOWN-INTENT UNKNOWN-PROC UNKNOWN UNKNOWN 0
0) UNKNOWN-ACCESS (CONSTANT (INTEGER 4 0 0 0 INTEGER ()) 0 '-1')) (238
'receives_gnn_to_unn' (INTEGER 4 0 0 0 INTEGER ()) (1 0 DEFERRED () ())
(UNKNOWN-FL UNKNOWN-INTENT UNKNOWN-PROC UNKNOWN UNKNOWN 0 0 DIMENSION
POINTER) UNKNOWN-ACCESS (NULL (UNKNOWN 0 0 0 0 UNKNOWN ()) 0)) (239
'gnn_to_unn' (INTEGER 4 0 0 0 INTEGER ()) (1 0 DEFERRED () ()) (
UNKNOWN-FL UNKNOWN-INTENT UNKNOWN-PROC UNKNOWN UNKNOWN 0 0 DIMENSION
POINTER) UNKNOWN-ACCESS (NULL (UNKNOWN 0 0 0 0 UNKNOWN ()) 0))) PUBLIC (
() () () ()) () 0 0 63994053)
114 'Scalar_boundary_conditions_ptr' 'fields_data_types' '' 1 ((DERIVED
UNKNOWN-INTENT UNKNOWN-PROC UNKNOWN UNKNOWN 0 0 POINTER_COMP) (UNKNOWN 0
0 0 0 UNKNOWN ()) 0 0 () () 0 ((240 'boundary_condition' (DERIVED 241 0
0 0 DERIVED ()) (1 0 DEFERRED () ()) (UNKNOWN-FL UNKNOWN-INTENT
UNKNOWN-PROC UNKNOWN UNKNOWN 0 0 DIMENSION POINTER) UNKNOWN-ACCESS (
NULL (UNKNOWN 0 0 0 0 UNKNOWN ()) 0))) PUBLIC (() () () ()) () 0 0
47502942)
128 'Csr_sparsity' 'sparse_tools' '' 1 ((DERIVED UNKNOWN-INTENT
UNKNOWN-PROC UNKNOWN UNKNOWN 0 0 POINTER_COMP) (UNKNOWN 0 0 0 0 UNKNOWN
()) 0 0 () () 0 ((242 'findrm' (INTEGER 4 0 0 0 INTEGER ()) (1 0
DEFERRED () ()) (UNKNOWN-FL UNKNOWN-INTENT UNKNOWN-PROC UNKNOWN UNKNOWN
0 0 DIMENSION POINTER) UNKNOWN-ACCESS (NULL (UNKNOWN 0 0 0 0 UNKNOWN ())
0)) (243 'centrm' (INTEGER 4 0 0 0 INTEGER ()) (1 0 DEFERRED () ()) (
UNKNOWN-FL UNKNOWN-INTENT UNKNOWN-PROC UNKNOWN UNKNOWN 0 0 DIMENSION
POINTER) UNKNOWN-ACCESS (NULL (UNKNOWN 0 0 0 0 UNKNOWN ()) 0)) (244 'colm'
(INTEGER 4 0 0 0 INTEGER ()) (1 0 DEFERRED () ()) (UNKNOWN-FL
UNKNOWN-INTENT UNKNOWN-PROC UNKNOWN UNKNOWN 0 0 DIMENSION POINTER)
UNKNOWN-ACCESS (NULL (UNKNOWN 0 0 0 0 UNKNOWN ()) 0)) (245 'columns' (
INTEGER 4 0 0 0 INTEGER ()) () (UNKNOWN-FL UNKNOWN-INTENT UNKNOWN-PROC
UNKNOWN UNKNOWN 0 0) UNKNOWN-ACCESS ()) (246 'row_halo' (DERIVED 104 0 0
0 DERIVED ()) () (UNKNOWN-FL UNKNOWN-INTENT UNKNOWN-PROC UNKNOWN UNKNOWN
0 0 POINTER) UNKNOWN-ACCESS (NULL (UNKNOWN 0 0 0 0 UNKNOWN ()) 0)) (247
'column_halo' (DERIVED 104 0 0 0 DERIVED ()) () (UNKNOWN-FL
UNKNOWN-INTENT UNKNOWN-PROC UNKNOWN UNKNOWN 0 0 POINTER) UNKNOWN-ACCESS
(NULL (UNKNOWN 0 0 0 0 UNKNOWN ()) 0)) (248 'refcount' (DERIVED 95 0 0 0
DERIVED ()) () (UNKNOWN-FL UNKNOWN-INTENT UNKNOWN-PROC UNKNOWN UNKNOWN 0
0 POINTER) UNKNOWN-ACCESS (NULL (UNKNOWN 0 0 0 0 UNKNOWN ()) 0)) (249
'name' (CHARACTER 1 0 0 0 CHARACTER ((CONSTANT (INTEGER 4 0 0 0 INTEGER
()) 0 '101'))) () (UNKNOWN-FL UNKNOWN-INTENT UNKNOWN-PROC UNKNOWN
UNKNOWN 0 0) UNKNOWN-ACCESS (CONSTANT (CHARACTER 1 0 0 0 CHARACTER (()))
0 101
'                                                                                                     '))
(250 'wrapped' (LOGICAL 4 0 0 0 LOGICAL ()) () (UNKNOWN-FL
UNKNOWN-INTENT UNKNOWN-PROC UNKNOWN UNKNOWN 0 0) UNKNOWN-ACCESS (
CONSTANT (LOGICAL 4 0 0 0 LOGICAL ()) 0 0)) (251 'sorted_rows' (LOGICAL
4 0 0 0 LOGICAL ()) () (UNKNOWN-FL UNKNOWN-INTENT UNKNOWN-PROC UNKNOWN
UNKNOWN 0 0) UNKNOWN-ACCESS (CONSTANT (LOGICAL 4 0 0 0 LOGICAL ()) 0 0)))
PUBLIC (() () () ()) () 0 0 78882345)
134 'Logical_array_ptr' 'sparse_tools' '' 1 ((DERIVED UNKNOWN-INTENT
UNKNOWN-PROC UNKNOWN UNKNOWN 0 0 POINTER_COMP) (UNKNOWN 0 0 0 0 UNKNOWN
()) 0 0 () () 0 ((252 'ptr' (LOGICAL 4 0 0 0 LOGICAL ()) (1 0 DEFERRED ()
()) (UNKNOWN-FL UNKNOWN-INTENT UNKNOWN-PROC UNKNOWN UNKNOWN 0 0
DIMENSION POINTER) UNKNOWN-ACCESS (NULL (UNKNOWN 0 0 0 0 UNKNOWN ()) 0)))
PUBLIC (() () () ()) () 0 0 30974511)
140 'Tensor_field' 'fields_data_types' '' 1 ((DERIVED UNKNOWN-INTENT
UNKNOWN-PROC UNKNOWN UNKNOWN 0 0 POINTER_COMP) (UNKNOWN 0 0 0 0 UNKNOWN
()) 0 0 () () 0 ((253 'val' (REAL 8 0 0 0 REAL ()) (3 0 DEFERRED () () ()
() () ()) (UNKNOWN-FL UNKNOWN-INTENT UNKNOWN-PROC UNKNOWN UNKNOWN 0 0
DIMENSION POINTER) UNKNOWN-ACCESS ()) (254 'wrapped' (LOGICAL 4 0 0 0
LOGICAL ()) () (UNKNOWN-FL UNKNOWN-INTENT UNKNOWN-PROC UNKNOWN UNKNOWN 0
0) UNKNOWN-ACCESS (CONSTANT (LOGICAL 4 0 0 0 LOGICAL ()) 0 1)) (255
'field_type' (INTEGER 4 0 0 0 INTEGER ()) () (UNKNOWN-FL UNKNOWN-INTENT
UNKNOWN-PROC UNKNOWN UNKNOWN 0 0) UNKNOWN-ACCESS (CONSTANT (INTEGER 4 0
0 0 INTEGER ()) 0 '0')) (256 'name' (CHARACTER 1 0 0 0 CHARACTER ((
CONSTANT (INTEGER 4 0 0 0 INTEGER ()) 0 '101'))) () (UNKNOWN-FL
UNKNOWN-INTENT UNKNOWN-PROC UNKNOWN UNKNOWN 0 0) UNKNOWN-ACCESS ()) (
257 'dim' (INTEGER 4 0 0 0 INTEGER ()) (1 0 EXPLICIT (CONSTANT (INTEGER
4 0 0 0 INTEGER ()) 0 '1') (CONSTANT (INTEGER 4 0 0 0 INTEGER ()) 0 '2'))
(UNKNOWN-FL UNKNOWN-INTENT UNKNOWN-PROC UNKNOWN UNKNOWN 0 0 DIMENSION)
UNKNOWN-ACCESS ()) (258 'option_path' (CHARACTER 1 0 0 0 CHARACTER ((
CONSTANT (INTEGER 4 0 0 0 INTEGER ()) 0 '8192'))) () (UNKNOWN-FL
UNKNOWN-INTENT UNKNOWN-PROC UNKNOWN UNKNOWN 0 0) UNKNOWN-ACCESS ()) (
259 'mesh' (DERIVED 91 0 0 0 DERIVED ()) () (UNKNOWN-FL UNKNOWN-INTENT
UNKNOWN-PROC UNKNOWN UNKNOWN 0 0) UNKNOWN-ACCESS (STRUCTURE (DERIVED 91
0 0 0 DERIVED ()) 0 ((() ()) ((CONSTANT (LOGICAL 4 0 0 0 LOGICAL ()) 0 1)
()) ((STRUCTURE (DERIVED 92 0 0 0 DERIVED ()) 0 ((() ()) (() ()) (() ())
(() ()) ((NULL (UNKNOWN 0 0 0 0 UNKNOWN ()) 0) ()) ((NULL (UNKNOWN 0 0 0
0 UNKNOWN ()) 0) ()) ((NULL (UNKNOWN 0 0 0 0 UNKNOWN ()) 0) ()) ((NULL (
UNKNOWN 0 0 0 0 UNKNOWN ()) 0) ()) ((NULL (UNKNOWN 0 0 0 0 UNKNOWN ()) 0)
()) ((NULL (UNKNOWN 0 0 0 0 UNKNOWN ()) 0) ()) ((NULL (UNKNOWN 0 0 0 0
UNKNOWN ()) 0) ()) ((STRUCTURE (DERIVED 93 0 0 0 DERIVED ()) 0 ((() ())
(() ()) (() ()) (() ()) ((NULL (UNKNOWN 0 0 0 0 UNKNOWN ()) 0) ()) ((
NULL (UNKNOWN 0 0 0 0 UNKNOWN ()) 0) ()) (() ()) ((NULL (UNKNOWN 0 0 0 0
UNKNOWN ()) 0) ()) (() ())) ()) ()) ((NULL (UNKNOWN 0 0 0 0 UNKNOWN ())
0) ()) ((NULL (UNKNOWN 0 0 0 0 UNKNOWN ()) 0) ()) ((NULL (UNKNOWN 0 0 0
0 UNKNOWN ()) 0) ()) ((NULL (UNKNOWN 0 0 0 0 UNKNOWN ()) 0) ()) (() ()))
()) ()) (() ()) (() ()) (() ()) (() ()) ((CONSTANT (INTEGER 4 0 0 0
INTEGER ()) 0 '0') ()) ((NULL (UNKNOWN 0 0 0 0 UNKNOWN ()) 0) ()) ((
NULL (UNKNOWN 0 0 0 0 UNKNOWN ()) 0) ()) ((NULL (UNKNOWN 0 0 0 0 UNKNOWN
()) 0) ()) ((NULL (UNKNOWN 0 0 0 0 UNKNOWN ()) 0) ()) ((NULL (UNKNOWN 0
0 0 0 UNKNOWN ()) 0) ()) ((NULL (UNKNOWN 0 0 0 0 UNKNOWN ()) 0) ()) ((
NULL (UNKNOWN 0 0 0 0 UNKNOWN ()) 0) ()) ((NULL (UNKNOWN 0 0 0 0 UNKNOWN
()) 0) ()) ((NULL (UNKNOWN 0 0 0 0 UNKNOWN ()) 0) ()) ((NULL (UNKNOWN 0
0 0 0 UNKNOWN ()) 0) ()) ((CONSTANT (LOGICAL 4 0 0 0 LOGICAL ()) 0 0) ()))
())) (260 'refcount' (DERIVED 95 0 0 0 DERIVED ()) () (UNKNOWN-FL
UNKNOWN-INTENT UNKNOWN-PROC UNKNOWN UNKNOWN 0 0 POINTER) UNKNOWN-ACCESS
(NULL (UNKNOWN 0 0 0 0 UNKNOWN ()) 0)) (261 'aliased' (LOGICAL 4 0 0 0
LOGICAL ()) () (UNKNOWN-FL UNKNOWN-INTENT UNKNOWN-PROC UNKNOWN UNKNOWN 0
0) UNKNOWN-ACCESS (CONSTANT (LOGICAL 4 0 0 0 LOGICAL ()) 0 0))) PUBLIC (
() () () ()) () 0 0 25110185)
147 'Block_csr_matrix' 'sparse_tools' '' 1 ((DERIVED UNKNOWN-INTENT
UNKNOWN-PROC UNKNOWN UNKNOWN 0 0 POINTER_COMP) (UNKNOWN 0 0 0 0 UNKNOWN
()) 0 0 () () 0 ((262 'sparsity' (DERIVED 128 0 0 0 DERIVED ()) () (
UNKNOWN-FL UNKNOWN-INTENT UNKNOWN-PROC UNKNOWN UNKNOWN 0 0)
UNKNOWN-ACCESS (STRUCTURE (DERIVED 128 0 0 0 DERIVED ()) 0 (((NULL (
UNKNOWN 0 0 0 0 UNKNOWN ()) 0) ()) ((NULL (UNKNOWN 0 0 0 0 UNKNOWN ()) 0)
()) ((NULL (UNKNOWN 0 0 0 0 UNKNOWN ()) 0) ()) (() ()) ((NULL (UNKNOWN 0
0 0 0 UNKNOWN ()) 0) ()) ((NULL (UNKNOWN 0 0 0 0 UNKNOWN ()) 0) ()) ((
NULL (UNKNOWN 0 0 0 0 UNKNOWN ()) 0) ()) ((CONSTANT (CHARACTER 1 0 0 0
CHARACTER (())) 0 101
'                                                                                                     ')
()) ((CONSTANT (LOGICAL 4 0 0 0 LOGICAL ()) 0 0) ()) ((CONSTANT (
LOGICAL 4 0 0 0 LOGICAL ()) 0 0) ())) ())) (263 'val' (DERIVED 264 0 0 0
DERIVED ()) (2 0 DEFERRED () () () ()) (UNKNOWN-FL UNKNOWN-INTENT
UNKNOWN-PROC UNKNOWN UNKNOWN 0 0 DIMENSION POINTER) UNKNOWN-ACCESS (
NULL (UNKNOWN 0 0 0 0 UNKNOWN ()) 0)) (265 'contiguous_val' (REAL 8 0 0
0 REAL ()) (1 0 DEFERRED () ()) (UNKNOWN-FL UNKNOWN-INTENT UNKNOWN-PROC
UNKNOWN UNKNOWN 0 0 DIMENSION POINTER) UNKNOWN-ACCESS (NULL (UNKNOWN 0 0
0 0 UNKNOWN ()) 0)) (266 'ival' (DERIVED 231 0 0 0 DERIVED ()) (2 0
DEFERRED () () () ()) (UNKNOWN-FL UNKNOWN-INTENT UNKNOWN-PROC UNKNOWN
UNKNOWN 0 0 DIMENSION POINTER) UNKNOWN-ACCESS (NULL (UNKNOWN 0 0 0 0
UNKNOWN ()) 0)) (267 'blocks' (INTEGER 4 0 0 0 INTEGER ()) (1 0 EXPLICIT
(CONSTANT (INTEGER 4 0 0 0 INTEGER ()) 0 '1') (CONSTANT (INTEGER 4 0 0 0
INTEGER ()) 0 '2')) (UNKNOWN-FL UNKNOWN-INTENT UNKNOWN-PROC UNKNOWN
UNKNOWN 0 0 DIMENSION) UNKNOWN-ACCESS (ARRAY (INTEGER 4 0 0 0 INTEGER ())
1 (((CONSTANT (INTEGER 4 0 0 0 INTEGER ()) 0 '0') ()) ((CONSTANT (
INTEGER 4 0 0 0 INTEGER ()) 0 '0') ())) ('2'))) (268 'clone' (LOGICAL 4
0 0 0 LOGICAL ()) () (UNKNOWN-FL UNKNOWN-INTENT UNKNOWN-PROC UNKNOWN
UNKNOWN 0 0) UNKNOWN-ACCESS (CONSTANT (LOGICAL 4 0 0 0 LOGICAL ()) 0 0))
(269 'external_val' (LOGICAL 4 0 0 0 LOGICAL ()) () (UNKNOWN-FL
UNKNOWN-INTENT UNKNOWN-PROC UNKNOWN UNKNOWN 0 0) UNKNOWN-ACCESS (
CONSTANT (LOGICAL 4 0 0 0 LOGICAL ()) 0 0)) (270 'columns' (INTEGER 4 0
0 0 INTEGER ()) () (UNKNOWN-FL UNKNOWN-INTENT UNKNOWN-PROC UNKNOWN
UNKNOWN 0 0) UNKNOWN-ACCESS ()) (271 'refcount' (DERIVED 95 0 0 0
DERIVED ()) () (UNKNOWN-FL UNKNOWN-INTENT UNKNOWN-PROC UNKNOWN UNKNOWN 0
0 POINTER) UNKNOWN-ACCESS (NULL (UNKNOWN 0 0 0 0 UNKNOWN ()) 0)) (272
'name' (CHARACTER 1 0 0 0 CHARACTER ((CONSTANT (INTEGER 4 0 0 0 INTEGER
()) 0 '101'))) () (UNKNOWN-FL UNKNOWN-INTENT UNKNOWN-PROC UNKNOWN
UNKNOWN 0 0) UNKNOWN-ACCESS (CONSTANT (CHARACTER 1 0 0 0 CHARACTER (()))
0 101
'                                                                                                     '))
(273 'diagonal' (LOGICAL 4 0 0 0 LOGICAL ()) () (UNKNOWN-FL
UNKNOWN-INTENT UNKNOWN-PROC UNKNOWN UNKNOWN 0 0) UNKNOWN-ACCESS (
CONSTANT (LOGICAL 4 0 0 0 LOGICAL ()) 0 0)) (274 'equal_diagonal_blocks'
(LOGICAL 4 0 0 0 LOGICAL ()) () (UNKNOWN-FL UNKNOWN-INTENT UNKNOWN-PROC
UNKNOWN UNKNOWN 0 0) UNKNOWN-ACCESS (CONSTANT (LOGICAL 4 0 0 0 LOGICAL ())
0 0)) (275 'ksp' (INTEGER 8 0 0 0 INTEGER ()) () (UNKNOWN-FL
UNKNOWN-INTENT UNKNOWN-PROC UNKNOWN UNKNOWN 0 0 POINTER) UNKNOWN-ACCESS
(NULL (UNKNOWN 0 0 0 0 UNKNOWN ()) 0))) PUBLIC (() () () ()) () 0 0
61921235)
150 'Hash_list' 'scalar_field_dictionary' '' 1 ((DERIVED UNKNOWN-INTENT
UNKNOWN-PROC UNKNOWN UNKNOWN 0 0 POINTER_COMP) (UNKNOWN 0 0 0 0 UNKNOWN
()) 0 0 () () 0 ((276 'list' (DERIVED 277 0 0 0 DERIVED ()) () (
UNKNOWN-FL UNKNOWN-INTENT UNKNOWN-PROC UNKNOWN UNKNOWN 0 0 POINTER)
UNKNOWN-ACCESS ())) PUBLIC (() () () ()) () 0 0 75083678)
152 'Vector_boundary_condition' 'fields_data_types' '' 1 ((DERIVED
UNKNOWN-INTENT UNKNOWN-PROC UNKNOWN UNKNOWN 0 0 POINTER_COMP) (UNKNOWN 0
0 0 0 UNKNOWN ()) 0 0 () () 0 ((278 'name' (CHARACTER 1 0 0 0 CHARACTER
((CONSTANT (INTEGER 4 0 0 0 INTEGER ()) 0 '101'))) () (UNKNOWN-FL
UNKNOWN-INTENT UNKNOWN-PROC UNKNOWN UNKNOWN 0 0) UNKNOWN-ACCESS ()) (
279 'type' (CHARACTER 1 0 0 0 CHARACTER ((CONSTANT (INTEGER 4 0 0 0
INTEGER ()) 0 '101'))) () (UNKNOWN-FL UNKNOWN-INTENT UNKNOWN-PROC
UNKNOWN UNKNOWN 0 0) UNKNOWN-ACCESS (CONSTANT (CHARACTER 1 0 0 0
CHARACTER (())) 0 101
'                                                                                                     '))
(280 'applies' (LOGICAL 4 0 0 0 LOGICAL ()) (1 0 EXPLICIT (CONSTANT (
INTEGER 4 0 0 0 INTEGER ()) 0 '1') (CONSTANT (INTEGER 4 0 0 0 INTEGER ())
0 '3')) (UNKNOWN-FL UNKNOWN-INTENT UNKNOWN-PROC UNKNOWN UNKNOWN 0 0
DIMENSION) UNKNOWN-ACCESS ()) (281 'surface_element_list' (INTEGER 4 0 0
0 INTEGER ()) (1 0 DEFERRED () ()) (UNKNOWN-FL UNKNOWN-INTENT
UNKNOWN-PROC UNKNOWN UNKNOWN 0 0 DIMENSION POINTER) UNKNOWN-ACCESS (
NULL (UNKNOWN 0 0 0 0 UNKNOWN ()) 0)) (282 'surface_node_list' (INTEGER
4 0 0 0 INTEGER ()) (1 0 DEFERRED () ()) (UNKNOWN-FL UNKNOWN-INTENT
UNKNOWN-PROC UNKNOWN UNKNOWN 0 0 DIMENSION POINTER) UNKNOWN-ACCESS (
NULL (UNKNOWN 0 0 0 0 UNKNOWN ()) 0)) (283 'surface_mesh' (DERIVED 91 0
0 0 DERIVED ()) () (UNKNOWN-FL UNKNOWN-INTENT UNKNOWN-PROC UNKNOWN
UNKNOWN 0 0 POINTER) UNKNOWN-ACCESS ()) (284 'surface_fields' (DERIVED
47 0 0 0 DERIVED ()) (1 0 DEFERRED () ()) (UNKNOWN-FL UNKNOWN-INTENT
UNKNOWN-PROC UNKNOWN UNKNOWN 0 0 DIMENSION POINTER) UNKNOWN-ACCESS (
NULL (UNKNOWN 0 0 0 0 UNKNOWN ()) 0)) (285 'scalar_surface_fields' (
DERIVED 49 0 0 0 DERIVED ()) (1 0 DEFERRED () ()) (UNKNOWN-FL
UNKNOWN-INTENT UNKNOWN-PROC UNKNOWN UNKNOWN 0 0 DIMENSION POINTER)
UNKNOWN-ACCESS (NULL (UNKNOWN 0 0 0 0 UNKNOWN ()) 0)) (286 'option_path'
(CHARACTER 1 0 0 0 CHARACTER ((CONSTANT (INTEGER 4 0 0 0 INTEGER ()) 0
'8192'))) () (UNKNOWN-FL UNKNOWN-INTENT UNKNOWN-PROC UNKNOWN UNKNOWN 0 0)
UNKNOWN-ACCESS ())) PUBLIC (() () () ()) () 0 0 42205165)
163 'Mesh_faces' 'fields_data_types' '' 1 ((DERIVED UNKNOWN-INTENT
UNKNOWN-PROC UNKNOWN UNKNOWN 0 0 POINTER_COMP) (UNKNOWN 0 0 0 0 UNKNOWN
()) 0 0 () () 0 ((287 'shape' (DERIVED 92 0 0 0 DERIVED ()) () (
UNKNOWN-FL UNKNOWN-INTENT UNKNOWN-PROC UNKNOWN UNKNOWN 0 0 POINTER)
UNKNOWN-ACCESS ()) (288 'face_list' (DERIVED 50 0 0 0 DERIVED ()) () (
UNKNOWN-FL UNKNOWN-INTENT UNKNOWN-PROC UNKNOWN UNKNOWN 0 0)
UNKNOWN-ACCESS (STRUCTURE (DERIVED 50 0 0 0 DERIVED ()) 0 (((STRUCTURE (
DERIVED 128 0 0 0 DERIVED ()) 0 (((NULL (UNKNOWN 0 0 0 0 UNKNOWN ()) 0)
()) ((NULL (UNKNOWN 0 0 0 0 UNKNOWN ()) 0) ()) ((NULL (UNKNOWN 0 0 0 0
UNKNOWN ()) 0) ()) (() ()) ((NULL (UNKNOWN 0 0 0 0 UNKNOWN ()) 0) ()) (
(NULL (UNKNOWN 0 0 0 0 UNKNOWN ()) 0) ()) ((NULL (UNKNOWN 0 0 0 0
UNKNOWN ()) 0) ()) ((CONSTANT (CHARACTER 1 0 0 0 CHARACTER (())) 0 101
'                                                                                                     ')
()) ((CONSTANT (LOGICAL 4 0 0 0 LOGICAL ()) 0 0) ()) ((CONSTANT (
LOGICAL 4 0 0 0 LOGICAL ()) 0 0) ())) ()) ()) ((NULL (UNKNOWN 0 0 0 0
UNKNOWN ()) 0) ()) ((NULL (UNKNOWN 0 0 0 0 UNKNOWN ()) 0) ()) ((
CONSTANT (LOGICAL 4 0 0 0 LOGICAL ()) 0 0) ()) ((CONSTANT (LOGICAL 4 0 0
0 LOGICAL ()) 0 0) ()) (() ()) ((NULL (UNKNOWN 0 0 0 0 UNKNOWN ()) 0) ())
((NULL (UNKNOWN 0 0 0 0 UNKNOWN ()) 0) ()) ((CONSTANT (CHARACTER 1 0 0 0
CHARACTER (())) 0 101
'                                                                                                     ')
())) ())) (289 'face_lno' (INTEGER 4 0 0 0 INTEGER ()) (1 0 DEFERRED ()
()) (UNKNOWN-FL UNKNOWN-INTENT UNKNOWN-PROC UNKNOWN UNKNOWN 0 0
DIMENSION POINTER) UNKNOWN-ACCESS ()) (290 'surface_mesh' (DERIVED 91 0
0 0 DERIVED ()) () (UNKNOWN-FL UNKNOWN-INTENT UNKNOWN-PROC UNKNOWN
UNKNOWN 0 0) UNKNOWN-ACCESS (STRUCTURE (DERIVED 91 0 0 0 DERIVED ()) 0 (
(() ()) ((CONSTANT (LOGICAL 4 0 0 0 LOGICAL ()) 0 1) ()) ((STRUCTURE (
DERIVED 92 0 0 0 DERIVED ()) 0 ((() ()) (() ()) (() ()) (() ()) ((NULL (
UNKNOWN 0 0 0 0 UNKNOWN ()) 0) ()) ((NULL (UNKNOWN 0 0 0 0 UNKNOWN ()) 0)
()) ((NULL (UNKNOWN 0 0 0 0 UNKNOWN ()) 0) ()) ((NULL (UNKNOWN 0 0 0 0
UNKNOWN ()) 0) ()) ((NULL (UNKNOWN 0 0 0 0 UNKNOWN ()) 0) ()) ((NULL (
UNKNOWN 0 0 0 0 UNKNOWN ()) 0) ()) ((NULL (UNKNOWN 0 0 0 0 UNKNOWN ()) 0)
()) ((STRUCTURE (DERIVED 93 0 0 0 DERIVED ()) 0 ((() ()) (() ()) (() ())
(() ()) ((NULL (UNKNOWN 0 0 0 0 UNKNOWN ()) 0) ()) ((NULL (UNKNOWN 0 0 0
0 UNKNOWN ()) 0) ()) (() ()) ((NULL (UNKNOWN 0 0 0 0 UNKNOWN ()) 0) ())
(() ())) ()) ()) ((NULL (UNKNOWN 0 0 0 0 UNKNOWN ()) 0) ()) ((NULL (
UNKNOWN 0 0 0 0 UNKNOWN ()) 0) ()) ((NULL (UNKNOWN 0 0 0 0 UNKNOWN ()) 0)
()) ((NULL (UNKNOWN 0 0 0 0 UNKNOWN ()) 0) ()) (() ())) ()) ()) (() ())
(() ()) (() ()) (() ()) ((CONSTANT (INTEGER 4 0 0 0 INTEGER ()) 0 '0') ())
((NULL (UNKNOWN 0 0 0 0 UNKNOWN ()) 0) ()) ((NULL (UNKNOWN 0 0 0 0
UNKNOWN ()) 0) ()) ((NULL (UNKNOWN 0 0 0 0 UNKNOWN ()) 0) ()) ((NULL (
UNKNOWN 0 0 0 0 UNKNOWN ()) 0) ()) ((NULL (UNKNOWN 0 0 0 0 UNKNOWN ()) 0)
()) ((NULL (UNKNOWN 0 0 0 0 UNKNOWN ()) 0) ()) ((NULL (UNKNOWN 0 0 0 0
UNKNOWN ()) 0) ()) ((NULL (UNKNOWN 0 0 0 0 UNKNOWN ()) 0) ()) ((NULL (
UNKNOWN 0 0 0 0 UNKNOWN ()) 0) ()) ((NULL (UNKNOWN 0 0 0 0 UNKNOWN ()) 0)
()) ((CONSTANT (LOGICAL 4 0 0 0 LOGICAL ()) 0 0) ())) ())) (291
'surface_node_list' (INTEGER 4 0 0 0 INTEGER ()) (1 0 DEFERRED () ()) (
UNKNOWN-FL UNKNOWN-INTENT UNKNOWN-PROC UNKNOWN UNKNOWN 0 0 DIMENSION
POINTER) UNKNOWN-ACCESS ()) (292 'face_element_list' (INTEGER 4 0 0 0
INTEGER ()) (1 0 DEFERRED () ()) (UNKNOWN-FL UNKNOWN-INTENT UNKNOWN-PROC
UNKNOWN UNKNOWN 0 0 DIMENSION POINTER) UNKNOWN-ACCESS ()) (293
'boundary_ids' (INTEGER 4 0 0 0 INTEGER ()) (1 0 DEFERRED () ()) (
UNKNOWN-FL UNKNOWN-INTENT UNKNOWN-PROC UNKNOWN UNKNOWN 0 0 DIMENSION
POINTER) UNKNOWN-ACCESS ()) (294 'coplanar_ids' (INTEGER 4 0 0 0 INTEGER
()) (1 0 DEFERRED () ()) (UNKNOWN-FL UNKNOWN-INTENT UNKNOWN-PROC UNKNOWN
UNKNOWN 0 0 DIMENSION POINTER) UNKNOWN-ACCESS (NULL (UNKNOWN 0 0 0 0
UNKNOWN ()) 0)) (295 'dg_surface_mesh' (DERIVED 91 0 0 0 DERIVED ()) ()
(UNKNOWN-FL UNKNOWN-INTENT UNKNOWN-PROC UNKNOWN UNKNOWN 0 0 POINTER)
UNKNOWN-ACCESS (NULL (UNKNOWN 0 0 0 0 UNKNOWN ()) 0)) (296
'has_discontinuous_internal_boundaries' (LOGICAL 4 0 0 0 LOGICAL ()) ()
(UNKNOWN-FL UNKNOWN-INTENT UNKNOWN-PROC UNKNOWN UNKNOWN 0 0)
UNKNOWN-ACCESS (CONSTANT (LOGICAL 4 0 0 0 LOGICAL ()) 0 0)) (297
'unique_surface_element_count' (INTEGER 4 0 0 0 INTEGER ()) () (
UNKNOWN-FL UNKNOWN-INTENT UNKNOWN-PROC UNKNOWN UNKNOWN 0 0)
UNKNOWN-ACCESS ())) PUBLIC (() () () ()) () 0 0 11936185)
165 'Mesh_subdomain_mesh' 'fields_data_types' '' 1 ((DERIVED
UNKNOWN-INTENT UNKNOWN-PROC UNKNOWN UNKNOWN 0 0 POINTER_COMP) (UNKNOWN 0
0 0 0 UNKNOWN ()) 0 0 () () 0 ((298 'element_list' (INTEGER 4 0 0 0
INTEGER ()) (1 0 DEFERRED () ()) (UNKNOWN-FL UNKNOWN-INTENT UNKNOWN-PROC
UNKNOWN UNKNOWN 0 0 DIMENSION POINTER) UNKNOWN-ACCESS ()) (299 'node_list'
(INTEGER 4 0 0 0 INTEGER ()) (1 0 DEFERRED () ()) (UNKNOWN-FL
UNKNOWN-INTENT UNKNOWN-PROC UNKNOWN UNKNOWN 0 0 DIMENSION POINTER)
UNKNOWN-ACCESS ())) PUBLIC (() () () ()) () 0 0 85302181)
167 'Adjacency_cache' 'fields_data_types' '' 1 ((DERIVED UNKNOWN-INTENT
UNKNOWN-PROC UNKNOWN UNKNOWN 0 0 POINTER_COMP) (UNKNOWN 0 0 0 0 UNKNOWN
()) 0 0 () () 0 ((300 'nnlist' (DERIVED 128 0 0 0 DERIVED ()) () (
UNKNOWN-FL UNKNOWN-INTENT UNKNOWN-PROC UNKNOWN UNKNOWN 0 0 POINTER)
UNKNOWN-ACCESS (NULL (UNKNOWN 0 0 0 0 UNKNOWN ()) 0)) (301 'nelist' (
DERIVED 128 0 0 0 DERIVED ()) () (UNKNOWN-FL UNKNOWN-INTENT UNKNOWN-PROC
UNKNOWN UNKNOWN 0 0 POINTER) UNKNOWN-ACCESS (NULL (UNKNOWN 0 0 0 0
UNKNOWN ()) 0)) (302 'eelist' (DERIVED 128 0 0 0 DERIVED ()) () (
UNKNOWN-FL UNKNOWN-INTENT UNKNOWN-PROC UNKNOWN UNKNOWN 0 0 POINTER)
UNKNOWN-ACCESS (NULL (UNKNOWN 0 0 0 0 UNKNOWN ()) 0))) PUBLIC (() () ()
()) () 0 0 37419158)
174 'Integer_set_vector' 'integer_set_module' '' 1 ((DERIVED
UNKNOWN-INTENT UNKNOWN-PROC UNKNOWN UNKNOWN 0 0 POINTER_COMP) (UNKNOWN 0
0 0 0 UNKNOWN ()) 0 0 () () 0 ((303 'sets' (DERIVED 304 0 0 0 DERIVED ())
(1 0 DEFERRED () ()) (UNKNOWN-FL UNKNOWN-INTENT UNKNOWN-PROC UNKNOWN
UNKNOWN 0 0 DIMENSION POINTER) UNKNOWN-ACCESS ())) PUBLIC (() () () ())
() 0 0 40688950)
185 'Polynomial' 'polynomials' '' 1 ((DERIVED UNKNOWN-INTENT
UNKNOWN-PROC UNKNOWN UNKNOWN 0 0 POINTER_COMP) (UNKNOWN 0 0 0 0 UNKNOWN
()) 0 0 () () 0 ((305 'coefs' (REAL 8 0 0 0 REAL ()) (1 0 DEFERRED () ())
(UNKNOWN-FL UNKNOWN-INTENT UNKNOWN-PROC UNKNOWN UNKNOWN 0 0 DIMENSION
POINTER) UNKNOWN-ACCESS (NULL (UNKNOWN 0 0 0 0 UNKNOWN ()) 0)) (306
'degree' (INTEGER 4 0 0 0 INTEGER ()) () (UNKNOWN-FL UNKNOWN-INTENT
UNKNOWN-PROC UNKNOWN UNKNOWN 0 0) UNKNOWN-ACCESS (CONSTANT (INTEGER 4 0
0 0 INTEGER ()) 0 '-1'))) PUBLIC (() () () ()) () 0 0 87989236)
188 'Ele_numbering_type' 'element_numbering' '' 1 ((DERIVED
UNKNOWN-INTENT UNKNOWN-PROC UNKNOWN UNKNOWN 0 0 POINTER_COMP) (UNKNOWN 0
0 0 0 UNKNOWN ()) 0 0 () () 0 ((307 'faces' (INTEGER 4 0 0 0 INTEGER ())
() (UNKNOWN-FL UNKNOWN-INTENT UNKNOWN-PROC UNKNOWN UNKNOWN 0 0)
UNKNOWN-ACCESS ()) (308 'vertices' (INTEGER 4 0 0 0 INTEGER ()) () (
UNKNOWN-FL UNKNOWN-INTENT UNKNOWN-PROC UNKNOWN UNKNOWN 0 0)
UNKNOWN-ACCESS ()) (309 'edges' (INTEGER 4 0 0 0 INTEGER ()) () (
UNKNOWN-FL UNKNOWN-INTENT UNKNOWN-PROC UNKNOWN UNKNOWN 0 0)
UNKNOWN-ACCESS ()) (310 'boundaries' (INTEGER 4 0 0 0 INTEGER ()) () (
UNKNOWN-FL UNKNOWN-INTENT UNKNOWN-PROC UNKNOWN UNKNOWN 0 0)
UNKNOWN-ACCESS ()) (311 'degree' (INTEGER 4 0 0 0 INTEGER ()) () (
UNKNOWN-FL UNKNOWN-INTENT UNKNOWN-PROC UNKNOWN UNKNOWN 0 0)
UNKNOWN-ACCESS ()) (312 'dimension' (INTEGER 4 0 0 0 INTEGER ()) () (
UNKNOWN-FL UNKNOWN-INTENT UNKNOWN-PROC UNKNOWN UNKNOWN 0 0)
UNKNOWN-ACCESS ()) (313 'nodes' (INTEGER 4 0 0 0 INTEGER ()) () (
UNKNOWN-FL UNKNOWN-INTENT UNKNOWN-PROC UNKNOWN UNKNOWN 0 0)
UNKNOWN-ACCESS ()) (314 'type' (INTEGER 4 0 0 0 INTEGER ()) () (
UNKNOWN-FL UNKNOWN-INTENT UNKNOWN-PROC UNKNOWN UNKNOWN 0 0)
UNKNOWN-ACCESS (CONSTANT (INTEGER 4 0 0 0 INTEGER ()) 0 '1')) (315
'family' (INTEGER 4 0 0 0 INTEGER ()) () (UNKNOWN-FL UNKNOWN-INTENT
UNKNOWN-PROC UNKNOWN UNKNOWN 0 0) UNKNOWN-ACCESS ()) (316 'count2number'
(INTEGER 4 0 0 0 INTEGER ()) (3 0 DEFERRED () () () () () ()) (
UNKNOWN-FL UNKNOWN-INTENT UNKNOWN-PROC UNKNOWN UNKNOWN 0 0 DIMENSION
POINTER) UNKNOWN-ACCESS ()) (317 'number2count' (INTEGER 4 0 0 0 INTEGER
()) (2 0 DEFERRED () () () ()) (UNKNOWN-FL UNKNOWN-INTENT UNKNOWN-PROC
UNKNOWN UNKNOWN 0 0 DIMENSION POINTER) UNKNOWN-ACCESS ()) (318
'boundary_coord' (INTEGER 4 0 0 0 INTEGER ()) (1 0 DEFERRED () ()) (
UNKNOWN-FL UNKNOWN-INTENT UNKNOWN-PROC UNKNOWN UNKNOWN 0 0 DIMENSION
POINTER) UNKNOWN-ACCESS ()) (319 'boundary_val' (INTEGER 4 0 0 0 INTEGER
()) (1 0 DEFERRED () ()) (UNKNOWN-FL UNKNOWN-INTENT UNKNOWN-PROC UNKNOWN
UNKNOWN 0 0 DIMENSION POINTER) UNKNOWN-ACCESS ())) PUBLIC (() () () ())
() 0 0 96431082)
192 'Superconvergence_type' 'elements' '' 1 ((DERIVED UNKNOWN-INTENT
UNKNOWN-PROC UNKNOWN UNKNOWN 0 0 POINTER_COMP) (UNKNOWN 0 0 0 0 UNKNOWN
()) 0 0 () () 0 ((320 'nsp' (INTEGER 4 0 0 0 INTEGER ()) () (UNKNOWN-FL
UNKNOWN-INTENT UNKNOWN-PROC UNKNOWN UNKNOWN 0 0) UNKNOWN-ACCESS ()) (
321 'l' (REAL 8 0 0 0 REAL ()) (2 0 DEFERRED () () () ()) (UNKNOWN-FL
UNKNOWN-INTENT UNKNOWN-PROC UNKNOWN UNKNOWN 0 0 DIMENSION POINTER)
UNKNOWN-ACCESS ()) (322 'n' (REAL 8 0 0 0 REAL ()) (2 0 DEFERRED () () ()
()) (UNKNOWN-FL UNKNOWN-INTENT UNKNOWN-PROC UNKNOWN UNKNOWN 0 0
DIMENSION POINTER) UNKNOWN-ACCESS ()) (323 'dn' (REAL 8 0 0 0 REAL ()) (
3 0 DEFERRED () () () () () ()) (UNKNOWN-FL UNKNOWN-INTENT UNKNOWN-PROC
UNKNOWN UNKNOWN 0 0 DIMENSION POINTER) UNKNOWN-ACCESS ())) PUBLIC (() ()
() ()) () 0 0 18282395)
194 'Constraints_type' 'elements' '' 1 ((DERIVED UNKNOWN-INTENT
UNKNOWN-PROC UNKNOWN UNKNOWN 0 0 POINTER_COMP) (UNKNOWN 0 0 0 0 UNKNOWN
()) 0 0 () () 0 ((324 'type' (INTEGER 4 0 0 0 INTEGER ()) () (
UNKNOWN-FL UNKNOWN-INTENT UNKNOWN-PROC UNKNOWN UNKNOWN 0 0)
UNKNOWN-ACCESS ()) (325 'dim' (INTEGER 4 0 0 0 INTEGER ()) () (
UNKNOWN-FL UNKNOWN-INTENT UNKNOWN-PROC UNKNOWN UNKNOWN 0 0)
UNKNOWN-ACCESS ()) (326 'degree' (INTEGER 4 0 0 0 INTEGER ()) () (
UNKNOWN-FL UNKNOWN-INTENT UNKNOWN-PROC UNKNOWN UNKNOWN 0 0)
UNKNOWN-ACCESS ()) (327 'loc' (INTEGER 4 0 0 0 INTEGER ()) () (
UNKNOWN-FL UNKNOWN-INTENT UNKNOWN-PROC UNKNOWN UNKNOWN 0 0)
UNKNOWN-ACCESS ()) (328 'n_constraints' (INTEGER 4 0 0 0 INTEGER ()) ()
(UNKNOWN-FL UNKNOWN-INTENT UNKNOWN-PROC UNKNOWN UNKNOWN 0 0)
UNKNOWN-ACCESS ()) (329 'orthogonal' (REAL 8 0 0 0 REAL ()) (3 0
DEFERRED () () () () () ()) (UNKNOWN-FL UNKNOWN-INTENT UNKNOWN-PROC
UNKNOWN UNKNOWN 0 0 DIMENSION POINTER) UNKNOWN-ACCESS (NULL (UNKNOWN 0 0
0 0 UNKNOWN ()) 0))) PUBLIC (() () () ()) () 0 0 57548971)
214 'Picker_type' 'picker_data_types' '' 1 ((DERIVED UNKNOWN-INTENT
UNKNOWN-PROC UNKNOWN UNKNOWN 0 0 POINTER_COMP) (UNKNOWN 0 0 0 0 UNKNOWN
()) 0 0 () () 0 ((330 'name' (CHARACTER 1 0 0 0 CHARACTER ((CONSTANT (
INTEGER 4 0 0 0 INTEGER ()) 0 '101'))) () (UNKNOWN-FL UNKNOWN-INTENT
UNKNOWN-PROC UNKNOWN UNKNOWN 0 0) UNKNOWN-ACCESS ()) (331 'refcount' (
DERIVED 95 0 0 0 DERIVED ()) () (UNKNOWN-FL UNKNOWN-INTENT UNKNOWN-PROC
UNKNOWN UNKNOWN 0 0 POINTER) UNKNOWN-ACCESS (NULL (UNKNOWN 0 0 0 0
UNKNOWN ()) 0)) (332 'picker_id' (INTEGER 4 0 0 0 INTEGER ()) () (
UNKNOWN-FL UNKNOWN-INTENT UNKNOWN-PROC UNKNOWN UNKNOWN 0 0)
UNKNOWN-ACCESS (CONSTANT (INTEGER 4 0 0 0 INTEGER ()) 0 '0')) (333
'last_mesh_movement' (INTEGER 4 0 0 0 INTEGER ()) () (UNKNOWN-FL
UNKNOWN-INTENT UNKNOWN-PROC UNKNOWN UNKNOWN 0 0) UNKNOWN-ACCESS (
CONSTANT (INTEGER 4 0 0 0 INTEGER ()) 0 '0'))) PUBLIC (() () () ()) () 0
0 8821665)
231 'Integer_vector' 'futils' '' 1 ((DERIVED UNKNOWN-INTENT UNKNOWN-PROC
UNKNOWN UNKNOWN 0 0 POINTER_COMP) (UNKNOWN 0 0 0 0 UNKNOWN ()) 0 0 () ()
0 ((334 'ptr' (INTEGER 4 0 0 0 INTEGER ()) (1 0 DEFERRED () ()) (
UNKNOWN-FL UNKNOWN-INTENT UNKNOWN-PROC UNKNOWN UNKNOWN 0 0 DIMENSION
POINTER) UNKNOWN-ACCESS ())) PUBLIC (() () () ()) () 0 0 9661976)
241 'Scalar_boundary_condition' 'fields_data_types' '' 1 ((DERIVED
UNKNOWN-INTENT UNKNOWN-PROC UNKNOWN UNKNOWN 0 0 POINTER_COMP) (UNKNOWN 0
0 0 0 UNKNOWN ()) 0 0 () () 0 ((335 'name' (CHARACTER 1 0 0 0 CHARACTER
((CONSTANT (INTEGER 4 0 0 0 INTEGER ()) 0 '101'))) () (UNKNOWN-FL
UNKNOWN-INTENT UNKNOWN-PROC UNKNOWN UNKNOWN 0 0) UNKNOWN-ACCESS ()) (
336 'type' (CHARACTER 1 0 0 0 CHARACTER ((CONSTANT (INTEGER 4 0 0 0
INTEGER ()) 0 '101'))) () (UNKNOWN-FL UNKNOWN-INTENT UNKNOWN-PROC
UNKNOWN UNKNOWN 0 0) UNKNOWN-ACCESS (CONSTANT (CHARACTER 1 0 0 0
CHARACTER (())) 0 101
'                                                                                                     '))
(337 'surface_element_list' (INTEGER 4 0 0 0 INTEGER ()) (1 0 DEFERRED ()
()) (UNKNOWN-FL UNKNOWN-INTENT UNKNOWN-PROC UNKNOWN UNKNOWN 0 0
DIMENSION POINTER) UNKNOWN-ACCESS (NULL (UNKNOWN 0 0 0 0 UNKNOWN ()) 0))
(338 'surface_node_list' (INTEGER 4 0 0 0 INTEGER ()) (1 0 DEFERRED () ())
(UNKNOWN-FL UNKNOWN-INTENT UNKNOWN-PROC UNKNOWN UNKNOWN 0 0 DIMENSION
POINTER) UNKNOWN-ACCESS (NULL (UNKNOWN 0 0 0 0 UNKNOWN ()) 0)) (339
'surface_mesh' (DERIVED 91 0 0 0 DERIVED ()) () (UNKNOWN-FL
UNKNOWN-INTENT UNKNOWN-PROC UNKNOWN UNKNOWN 0 0 POINTER) UNKNOWN-ACCESS
()) (340 'surface_fields' (DERIVED 49 0 0 0 DERIVED ()) (1 0 DEFERRED ()
()) (UNKNOWN-FL UNKNOWN-INTENT UNKNOWN-PROC UNKNOWN UNKNOWN 0 0
DIMENSION POINTER) UNKNOWN-ACCESS (NULL (UNKNOWN 0 0 0 0 UNKNOWN ()) 0))
(341 'option_path' (CHARACTER 1 0 0 0 CHARACTER ((CONSTANT (INTEGER 4 0
0 0 INTEGER ()) 0 '8192'))) () (UNKNOWN-FL UNKNOWN-INTENT UNKNOWN-PROC
UNKNOWN UNKNOWN 0 0) UNKNOWN-ACCESS ())) PUBLIC (() () () ()) () 0 0
50740068)
264 'Real_vector' 'futils' '' 1 ((DERIVED UNKNOWN-INTENT UNKNOWN-PROC
UNKNOWN UNKNOWN 0 0 POINTER_COMP) (UNKNOWN 0 0 0 0 UNKNOWN ()) 0 0 () ()
0 ((342 'ptr' (REAL 8 0 0 0 REAL ()) (1 0 DEFERRED () ()) (UNKNOWN-FL
UNKNOWN-INTENT UNKNOWN-PROC UNKNOWN UNKNOWN 0 0 DIMENSION POINTER)
UNKNOWN-ACCESS ())) PUBLIC (() () () ()) () 0 0 72870256)
277 'Linked_list' 'scalar_field_dictionary' '' 1 ((DERIVED
UNKNOWN-INTENT UNKNOWN-PROC UNKNOWN UNKNOWN 0 0 POINTER_COMP) (UNKNOWN 0
0 0 0 UNKNOWN ()) 0 0 () () 0 ((343 'next' (DERIVED 277 0 0 0 DERIVED ())
() (UNKNOWN-FL UNKNOWN-INTENT UNKNOWN-PROC UNKNOWN UNKNOWN 0 0 POINTER)
UNKNOWN-ACCESS ()) (344 'data' (DERIVED 345 0 0 0 DERIVED ()) () (
UNKNOWN-FL UNKNOWN-INTENT UNKNOWN-PROC UNKNOWN UNKNOWN 0 0)
UNKNOWN-ACCESS (STRUCTURE (DERIVED 345 0 0 0 DERIVED ()) 0 ((() ()) ((
STRUCTURE (DERIVED 67 0 0 0 DERIVED ()) 0 (((NULL (UNKNOWN 0 0 0 0
UNKNOWN ()) 0) ())) ()) ())) ()))) PUBLIC (() () () ()) () 0 0 27933139)
304 'Integer_set' 'integer_set_module' '' 1 ((DERIVED UNKNOWN-INTENT
UNKNOWN-PROC UNKNOWN UNKNOWN 0 0) (UNKNOWN 0 0 0 0 UNKNOWN ()) 0 0 () ()
0 ((346 'address' (DERIVED 347 0 0 0 DERIVED ()) () (UNKNOWN-FL
UNKNOWN-INTENT UNKNOWN-PROC UNKNOWN UNKNOWN 0 0) UNKNOWN-ACCESS ()))
PUBLIC (() () () ()) () 0 0 67217964)
345 'List_data' 'scalar_field_dictionary' '' 1 ((DERIVED UNKNOWN-INTENT
UNKNOWN-PROC UNKNOWN UNKNOWN 0 0 POINTER_COMP) (UNKNOWN 0 0 0 0 UNKNOWN
()) 0 0 () () 0 ((348 'key' (CHARACTER 1 0 0 0 CHARACTER ((CONSTANT (
INTEGER 4 0 0 0 INTEGER ()) 0 '101'))) () (UNKNOWN-FL UNKNOWN-INTENT
UNKNOWN-PROC UNKNOWN UNKNOWN 0 0) UNKNOWN-ACCESS ()) (349 'value' (
DERIVED 67 0 0 0 DERIVED ()) () (UNKNOWN-FL UNKNOWN-INTENT UNKNOWN-PROC
UNKNOWN UNKNOWN 0 0) UNKNOWN-ACCESS (STRUCTURE (DERIVED 67 0 0 0 DERIVED
()) 0 (((NULL (UNKNOWN 0 0 0 0 UNKNOWN ()) 0) ())) ()))) PUBLIC (() () ()
()) () 0 0 22193082)
347 'C_ptr' '__iso_c_binding' '' 1 ((DERIVED UNKNOWN-INTENT UNKNOWN-PROC
UNKNOWN UNKNOWN 0 0 IS_BIND_C IS_C_INTEROP IS_ISO_C) (DERIVED 347 0 1 1
UNKNOWN ()) 0 0 () () 0 ((350 '__c_ptr_c_address' (INTEGER 8 0 1 0
INTEGER ()) () (UNKNOWN-FL UNKNOWN-INTENT UNKNOWN-PROC UNKNOWN UNKNOWN 0
0) UNKNOWN-ACCESS ())) UNKNOWN-ACCESS () () 2 42 0)
)

('add_fluid_particle_drag' 0 18 'add_heat_transfer' 0 26
'calculate_diagnostic_phase_volume_fraction' 0 33
'get_nonlinear_volume_fraction' 0 36 'get_phase_submaterials' 0 40)
