GFORTRAN module version '10' created from Pickers.F90
MD5:8ae1820cba4cf95249b3a1e56d38e93e -- If you edit this, you'll get what you deserve.

(() () () () () () () () () () () () () () () () () () () () () () ()
() () () ())

()

(('addref' 'pickers_deallocates' 2) ('allocate' 'pickers_allocates' 3 4
5 6 7 8 9 10 11 12 13 14 15 16 17) ('deallocate' 'pickers_deallocates'
18) ('has_references' 'pickers_allocates' 19 20 21 22 23 24 25 26 27) (
'incref' 'pickers_allocates' 28 29 30 31 32 33 34 35 36) ('nullify'
'pickers_deallocates' 37) ('picker_inquire' 'pickers_inquire' 38 39 40
41 42 43 44 45 46 47) ('picker_inquire_region' 'pickers_inquire' 48) (
'picker_ptr' 'picker_data_types' 49) ('picker_type' 'picker_data_types'
50))

(('mpi_fortran_argv_null' 51 0 0 '') ('mpi_fortran_errcodes_ignore' 52 0
0 '') ('mpi_fortran_status_ignore' 53 0 0 '') (
'mpi_fortran_statuses_ignore' 54 0 0 '') ('petscfortran6' 55 0 0 '') (
'petscfortran7' 56 0 0 '') ('petscfortran8' 57 0 0 '') (
'mpi_fortran_in_place' 58 0 0 '') ('petscfortran9' 59 0 0 '') (
'petscfortran1' 60 0 0 '') ('petscfortran10' 61 0 0 '') ('petscfortran2'
62 0 0 '') ('petscfortran4' 63 0 0 '') ('petscfortran5' 64 0 0 '') (
'mpi_fortran_argvs_null' 65 0 0 '') ('mpi_fortran_bottom' 66 0 0 ''))

()

()

(67 'Refcount_type' 'reference_counting' '' 1 ((DERIVED UNKNOWN-INTENT
UNKNOWN-PROC UNKNOWN UNKNOWN 0 0 POINTER_COMP) (UNKNOWN 0 0 0 0 UNKNOWN
()) 0 0 () () 0 ((68 'prev' (DERIVED 67 0 0 0 DERIVED ()) () (
UNKNOWN-FL UNKNOWN-INTENT UNKNOWN-PROC UNKNOWN UNKNOWN 0 0 POINTER)
UNKNOWN-ACCESS (NULL (UNKNOWN 0 0 0 0 UNKNOWN ()) 0)) (69 'next' (
DERIVED 67 0 0 0 DERIVED ()) () (UNKNOWN-FL UNKNOWN-INTENT UNKNOWN-PROC
UNKNOWN UNKNOWN 0 0 POINTER) UNKNOWN-ACCESS (NULL (UNKNOWN 0 0 0 0
UNKNOWN ()) 0)) (70 'count' (INTEGER 4 0 0 0 INTEGER ()) () (UNKNOWN-FL
UNKNOWN-INTENT UNKNOWN-PROC UNKNOWN UNKNOWN 0 0) UNKNOWN-ACCESS (
CONSTANT (INTEGER 4 0 0 0 INTEGER ()) 0 '0')) (71 'id' (INTEGER 4 0 0 0
INTEGER ()) () (UNKNOWN-FL UNKNOWN-INTENT UNKNOWN-PROC UNKNOWN UNKNOWN 0
0) UNKNOWN-ACCESS ()) (72 'name' (CHARACTER 1 0 0 0 CHARACTER ((
CONSTANT (INTEGER 4 0 0 0 INTEGER ()) 0 '101'))) () (UNKNOWN-FL
UNKNOWN-INTENT UNKNOWN-PROC UNKNOWN UNKNOWN 0 0) UNKNOWN-ACCESS ()) (73
'type' (CHARACTER 1 0 0 0 CHARACTER ((CONSTANT (INTEGER 4 0 0 0 INTEGER
()) 0 '101'))) () (UNKNOWN-FL UNKNOWN-INTENT UNKNOWN-PROC UNKNOWN
UNKNOWN 0 0) UNKNOWN-ACCESS ()) (74 'tagged' (LOGICAL 4 0 0 0 LOGICAL ())
() (UNKNOWN-FL UNKNOWN-INTENT UNKNOWN-PROC UNKNOWN UNKNOWN 0 0)
UNKNOWN-ACCESS (CONSTANT (LOGICAL 4 0 0 0 LOGICAL ()) 0 0))) PUBLIC (()
() () ()) () 0 0 25948645)
4 'allocate_constraints_type' 'elements' '' 1 ((PROCEDURE UNKNOWN-INTENT
MODULE-PROC DECL UNKNOWN 0 0 SUBROUTINE ALWAYS_EXPLICIT) (UNKNOWN 0 0 0
0 UNKNOWN ()) 75 0 (76 77 78 79) () 0 () () () 0 0)
16 'integer_set_allocate_single' 'integer_set_module' '' 1 ((PROCEDURE
UNKNOWN-INTENT MODULE-PROC DECL UNKNOWN 0 0 SUBROUTINE) (UNKNOWN 0 0 0 0
UNKNOWN ()) 80 0 (81) () 0 () () () 0 0)
17 'integer_hash_table_allocate' 'integer_hash_table_module' '' 1 ((
PROCEDURE UNKNOWN-INTENT MODULE-PROC DECL UNKNOWN 0 0 SUBROUTINE) (
UNKNOWN 0 0 0 0 UNKNOWN ()) 82 0 (83) () 0 () () () 0 0)
15 'integer_set_allocate_vector' 'integer_set_module' '' 1 ((PROCEDURE
UNKNOWN-INTENT MODULE-PROC DECL UNKNOWN 0 0 SUBROUTINE ALWAYS_EXPLICIT)
(UNKNOWN 0 0 0 0 UNKNOWN ()) 84 0 (85) () 0 () () () 0 0)
14 'allocate_halo' 'halos_allocates' '' 1 ((PROCEDURE UNKNOWN-INTENT
MODULE-PROC DECL UNKNOWN 0 0 SUBROUTINE ALWAYS_EXPLICIT) (UNKNOWN 0 0 0
0 UNKNOWN ()) 86 0 (87 88 89 90 91 92 93 94 95) () 0 () () () 0 0)
20 'has_references_quadrature_type' 'quadrature' '' 1 ((PROCEDURE
UNKNOWN-INTENT MODULE-PROC DECL UNKNOWN 0 0 FUNCTION PURE) (LOGICAL 4 0
0 0 LOGICAL ()) 96 0 (97) () 98 () () () 0 0)
99 'Element_type' 'elements' '' 1 ((DERIVED UNKNOWN-INTENT UNKNOWN-PROC
UNKNOWN UNKNOWN 0 0 POINTER_COMP) (UNKNOWN 0 0 0 0 UNKNOWN ()) 0 0 () ()
0 ((100 'dim' (INTEGER 4 0 0 0 INTEGER ()) () (UNKNOWN-FL UNKNOWN-INTENT
UNKNOWN-PROC UNKNOWN UNKNOWN 0 0) UNKNOWN-ACCESS ()) (101 'loc' (
INTEGER 4 0 0 0 INTEGER ()) () (UNKNOWN-FL UNKNOWN-INTENT UNKNOWN-PROC
UNKNOWN UNKNOWN 0 0) UNKNOWN-ACCESS ()) (102 'ngi' (INTEGER 4 0 0 0
INTEGER ()) () (UNKNOWN-FL UNKNOWN-INTENT UNKNOWN-PROC UNKNOWN UNKNOWN 0
0) UNKNOWN-ACCESS ()) (103 'degree' (INTEGER 4 0 0 0 INTEGER ()) () (
UNKNOWN-FL UNKNOWN-INTENT UNKNOWN-PROC UNKNOWN UNKNOWN 0 0)
UNKNOWN-ACCESS ()) (104 'n' (REAL 8 0 0 0 REAL ()) (2 0 DEFERRED () () ()
()) (UNKNOWN-FL UNKNOWN-INTENT UNKNOWN-PROC UNKNOWN UNKNOWN 0 0
DIMENSION POINTER) UNKNOWN-ACCESS (NULL (UNKNOWN 0 0 0 0 UNKNOWN ()) 0))
(105 'dn' (REAL 8 0 0 0 REAL ()) (3 0 DEFERRED () () () () () ()) (
UNKNOWN-FL UNKNOWN-INTENT UNKNOWN-PROC UNKNOWN UNKNOWN 0 0 DIMENSION
POINTER) UNKNOWN-ACCESS (NULL (UNKNOWN 0 0 0 0 UNKNOWN ()) 0)) (106 'n_s'
(REAL 8 0 0 0 REAL ()) (3 0 DEFERRED () () () () () ()) (UNKNOWN-FL
UNKNOWN-INTENT UNKNOWN-PROC UNKNOWN UNKNOWN 0 0 DIMENSION POINTER)
UNKNOWN-ACCESS (NULL (UNKNOWN 0 0 0 0 UNKNOWN ()) 0)) (107 'dn_s' (REAL
8 0 0 0 REAL ()) (4 0 DEFERRED () () () () () () () ()) (UNKNOWN-FL
UNKNOWN-INTENT UNKNOWN-PROC UNKNOWN UNKNOWN 0 0 DIMENSION POINTER)
UNKNOWN-ACCESS (NULL (UNKNOWN 0 0 0 0 UNKNOWN ()) 0)) (108 'spoly' (
DERIVED 109 0 0 0 DERIVED ()) (2 0 DEFERRED () () () ()) (UNKNOWN-FL
UNKNOWN-INTENT UNKNOWN-PROC UNKNOWN UNKNOWN 0 0 DIMENSION POINTER)
UNKNOWN-ACCESS (NULL (UNKNOWN 0 0 0 0 UNKNOWN ()) 0)) (110 'dspoly' (
DERIVED 109 0 0 0 DERIVED ()) (2 0 DEFERRED () () () ()) (UNKNOWN-FL
UNKNOWN-INTENT UNKNOWN-PROC UNKNOWN UNKNOWN 0 0 DIMENSION POINTER)
UNKNOWN-ACCESS (NULL (UNKNOWN 0 0 0 0 UNKNOWN ()) 0)) (111 'numbering' (
DERIVED 112 0 0 0 DERIVED ()) () (UNKNOWN-FL UNKNOWN-INTENT UNKNOWN-PROC
UNKNOWN UNKNOWN 0 0 POINTER) UNKNOWN-ACCESS (NULL (UNKNOWN 0 0 0 0
UNKNOWN ()) 0)) (113 'quadrature' (DERIVED 114 0 0 0 DERIVED ()) () (
UNKNOWN-FL UNKNOWN-INTENT UNKNOWN-PROC UNKNOWN UNKNOWN 0 0)
UNKNOWN-ACCESS (STRUCTURE (DERIVED 114 0 0 0 DERIVED ()) 0 ((() ()) (()
()) (() ()) (() ()) ((NULL (UNKNOWN 0 0 0 0 UNKNOWN ()) 0) ()) ((NULL (
UNKNOWN 0 0 0 0 UNKNOWN ()) 0) ()) (() ()) ((NULL (UNKNOWN 0 0 0 0
UNKNOWN ()) 0) ()) (() ())) ())) (115 'surface_quadrature' (DERIVED 114
0 0 0 DERIVED ()) () (UNKNOWN-FL UNKNOWN-INTENT UNKNOWN-PROC UNKNOWN
UNKNOWN 0 0 POINTER) UNKNOWN-ACCESS (NULL (UNKNOWN 0 0 0 0 UNKNOWN ()) 0))
(116 'superconvergence' (DERIVED 117 0 0 0 DERIVED ()) () (UNKNOWN-FL
UNKNOWN-INTENT UNKNOWN-PROC UNKNOWN UNKNOWN 0 0 POINTER) UNKNOWN-ACCESS
(NULL (UNKNOWN 0 0 0 0 UNKNOWN ()) 0)) (118 'constraints' (DERIVED 119 0
0 0 DERIVED ()) () (UNKNOWN-FL UNKNOWN-INTENT UNKNOWN-PROC UNKNOWN
UNKNOWN 0 0 POINTER) UNKNOWN-ACCESS (NULL (UNKNOWN 0 0 0 0 UNKNOWN ()) 0))
(120 'refcount' (DERIVED 67 0 0 0 DERIVED ()) () (UNKNOWN-FL
UNKNOWN-INTENT UNKNOWN-PROC UNKNOWN UNKNOWN 0 0 POINTER) UNKNOWN-ACCESS
(NULL (UNKNOWN 0 0 0 0 UNKNOWN ()) 0)) (121 'name' (CHARACTER 1 0 0 0
CHARACTER ((CONSTANT (INTEGER 4 0 0 0 INTEGER ()) 0 '0'))) () (
UNKNOWN-FL UNKNOWN-INTENT UNKNOWN-PROC UNKNOWN UNKNOWN 0 0)
UNKNOWN-ACCESS ())) PUBLIC (() () () ()) () 0 0 79461029)
119 'Constraints_type' 'elements' '' 1 ((DERIVED UNKNOWN-INTENT
UNKNOWN-PROC UNKNOWN UNKNOWN 0 0 POINTER_COMP) (UNKNOWN 0 0 0 0 UNKNOWN
()) 0 0 () () 0 ((122 'type' (INTEGER 4 0 0 0 INTEGER ()) () (
UNKNOWN-FL UNKNOWN-INTENT UNKNOWN-PROC UNKNOWN UNKNOWN 0 0)
UNKNOWN-ACCESS ()) (123 'dim' (INTEGER 4 0 0 0 INTEGER ()) () (
UNKNOWN-FL UNKNOWN-INTENT UNKNOWN-PROC UNKNOWN UNKNOWN 0 0)
UNKNOWN-ACCESS ()) (124 'degree' (INTEGER 4 0 0 0 INTEGER ()) () (
UNKNOWN-FL UNKNOWN-INTENT UNKNOWN-PROC UNKNOWN UNKNOWN 0 0)
UNKNOWN-ACCESS ()) (125 'loc' (INTEGER 4 0 0 0 INTEGER ()) () (
UNKNOWN-FL UNKNOWN-INTENT UNKNOWN-PROC UNKNOWN UNKNOWN 0 0)
UNKNOWN-ACCESS ()) (126 'n_constraints' (INTEGER 4 0 0 0 INTEGER ()) ()
(UNKNOWN-FL UNKNOWN-INTENT UNKNOWN-PROC UNKNOWN UNKNOWN 0 0)
UNKNOWN-ACCESS ()) (127 'orthogonal' (REAL 8 0 0 0 REAL ()) (3 0
DEFERRED () () () () () ()) (UNKNOWN-FL UNKNOWN-INTENT UNKNOWN-PROC
UNKNOWN UNKNOWN 0 0 DIMENSION POINTER) UNKNOWN-ACCESS (NULL (UNKNOWN 0 0
0 0 UNKNOWN ()) 0))) PUBLIC (() () () ()) () 0 0 57548971)
114 'Quadrature_type' 'quadrature' '' 1 ((DERIVED UNKNOWN-INTENT
UNKNOWN-PROC UNKNOWN UNKNOWN 0 0 POINTER_COMP) (UNKNOWN 0 0 0 0 UNKNOWN
()) 0 0 () () 0 ((128 'dim' (INTEGER 4 0 0 0 INTEGER ()) () (UNKNOWN-FL
UNKNOWN-INTENT UNKNOWN-PROC UNKNOWN UNKNOWN 0 0) UNKNOWN-ACCESS ()) (
129 'degree' (INTEGER 4 0 0 0 INTEGER ()) () (UNKNOWN-FL UNKNOWN-INTENT
UNKNOWN-PROC UNKNOWN UNKNOWN 0 0) UNKNOWN-ACCESS ()) (130 'vertices' (
INTEGER 4 0 0 0 INTEGER ()) () (UNKNOWN-FL UNKNOWN-INTENT UNKNOWN-PROC
UNKNOWN UNKNOWN 0 0) UNKNOWN-ACCESS ()) (131 'ngi' (INTEGER 4 0 0 0
INTEGER ()) () (UNKNOWN-FL UNKNOWN-INTENT UNKNOWN-PROC UNKNOWN UNKNOWN 0
0) UNKNOWN-ACCESS ()) (132 'weight' (REAL 8 0 0 0 REAL ()) (1 0 DEFERRED
() ()) (UNKNOWN-FL UNKNOWN-INTENT UNKNOWN-PROC UNKNOWN UNKNOWN 0 0
DIMENSION POINTER) UNKNOWN-ACCESS (NULL (UNKNOWN 0 0 0 0 UNKNOWN ()) 0))
(133 'l' (REAL 8 0 0 0 REAL ()) (2 0 DEFERRED () () () ()) (UNKNOWN-FL
UNKNOWN-INTENT UNKNOWN-PROC UNKNOWN UNKNOWN 0 0 DIMENSION POINTER)
UNKNOWN-ACCESS (NULL (UNKNOWN 0 0 0 0 UNKNOWN ()) 0)) (134 'name' (
CHARACTER 1 0 0 0 CHARACTER ((CONSTANT (INTEGER 4 0 0 0 INTEGER ()) 0 '0')))
() (UNKNOWN-FL UNKNOWN-INTENT UNKNOWN-PROC UNKNOWN UNKNOWN 0 0)
UNKNOWN-ACCESS ()) (135 'refcount' (DERIVED 67 0 0 0 DERIVED ()) () (
UNKNOWN-FL UNKNOWN-INTENT UNKNOWN-PROC UNKNOWN UNKNOWN 0 0 POINTER)
UNKNOWN-ACCESS (NULL (UNKNOWN 0 0 0 0 UNKNOWN ()) 0)) (136 'family' (
INTEGER 4 0 0 0 INTEGER ()) () (UNKNOWN-FL UNKNOWN-INTENT UNKNOWN-PROC
UNKNOWN UNKNOWN 0 0) UNKNOWN-ACCESS ())) PUBLIC (() () () ()) () 0 0
59837722)
23 'has_references_block_csr_matrix' 'sparse_tools' '' 1 ((PROCEDURE
UNKNOWN-INTENT MODULE-PROC DECL UNKNOWN 0 0 FUNCTION PURE) (LOGICAL 4 0
0 0 LOGICAL ()) 137 0 (138) () 139 () () () 0 0)
140 'Dynamic_csr_matrix' 'sparse_tools' '' 1 ((DERIVED UNKNOWN-INTENT
UNKNOWN-PROC UNKNOWN UNKNOWN 0 0 POINTER_COMP) (UNKNOWN 0 0 0 0 UNKNOWN
()) 0 0 () () 0 ((141 'colm' (DERIVED 142 0 0 0 DERIVED ()) (1 0
DEFERRED () ()) (UNKNOWN-FL UNKNOWN-INTENT UNKNOWN-PROC UNKNOWN UNKNOWN
0 0 DIMENSION POINTER) UNKNOWN-ACCESS (NULL (UNKNOWN 0 0 0 0 UNKNOWN ())
0)) (143 'val' (DERIVED 144 0 0 0 DERIVED ()) (1 0 DEFERRED () ()) (
UNKNOWN-FL UNKNOWN-INTENT UNKNOWN-PROC UNKNOWN UNKNOWN 0 0 DIMENSION
POINTER) UNKNOWN-ACCESS (NULL (UNKNOWN 0 0 0 0 UNKNOWN ()) 0)) (145
'columns' (INTEGER 4 0 0 0 INTEGER ()) () (UNKNOWN-FL UNKNOWN-INTENT
UNKNOWN-PROC UNKNOWN UNKNOWN 0 0) UNKNOWN-ACCESS ()) (146 'refcount' (
DERIVED 67 0 0 0 DERIVED ()) () (UNKNOWN-FL UNKNOWN-INTENT UNKNOWN-PROC
UNKNOWN UNKNOWN 0 0 POINTER) UNKNOWN-ACCESS (NULL (UNKNOWN 0 0 0 0
UNKNOWN ()) 0)) (147 'name' (CHARACTER 1 0 0 0 CHARACTER ((CONSTANT (
INTEGER 4 0 0 0 INTEGER ()) 0 '101'))) () (UNKNOWN-FL UNKNOWN-INTENT
UNKNOWN-PROC UNKNOWN UNKNOWN 0 0) UNKNOWN-ACCESS (CONSTANT (CHARACTER 1
0 0 0 CHARACTER (())) 0 101
'                                                                                                     ')))
PUBLIC (() () () ()) () 0 0 55305057)
148 'Block_dynamic_csr_matrix' 'sparse_tools' '' 1 ((DERIVED
UNKNOWN-INTENT UNKNOWN-PROC UNKNOWN UNKNOWN 0 0 POINTER_COMP) (UNKNOWN 0
0 0 0 UNKNOWN ()) 0 0 () () 0 ((149 'blocks' (DERIVED 140 0 0 0 DERIVED
()) (2 0 DEFERRED () () () ()) (UNKNOWN-FL UNKNOWN-INTENT UNKNOWN-PROC
UNKNOWN UNKNOWN 0 0 DIMENSION POINTER) UNKNOWN-ACCESS (NULL (UNKNOWN 0 0
0 0 UNKNOWN ()) 0)) (150 'refcount' (DERIVED 67 0 0 0 DERIVED ()) () (
UNKNOWN-FL UNKNOWN-INTENT UNKNOWN-PROC UNKNOWN UNKNOWN 0 0 POINTER)
UNKNOWN-ACCESS (NULL (UNKNOWN 0 0 0 0 UNKNOWN ()) 0)) (151 'name' (
CHARACTER 1 0 0 0 CHARACTER ((CONSTANT (INTEGER 4 0 0 0 INTEGER ()) 0
'101'))) () (UNKNOWN-FL UNKNOWN-INTENT UNKNOWN-PROC UNKNOWN UNKNOWN 0 0)
UNKNOWN-ACCESS (CONSTANT (CHARACTER 1 0 0 0 CHARACTER (())) 0 101
'                                                                                                     ')))
PUBLIC (() () () ()) () 0 0 56141267)
152 'Csr_sparsity' 'sparse_tools' '' 1 ((DERIVED UNKNOWN-INTENT
UNKNOWN-PROC UNKNOWN UNKNOWN 0 0 POINTER_COMP) (UNKNOWN 0 0 0 0 UNKNOWN
()) 0 0 () () 0 ((153 'findrm' (INTEGER 4 0 0 0 INTEGER ()) (1 0
DEFERRED () ()) (UNKNOWN-FL UNKNOWN-INTENT UNKNOWN-PROC UNKNOWN UNKNOWN
0 0 DIMENSION POINTER) UNKNOWN-ACCESS (NULL (UNKNOWN 0 0 0 0 UNKNOWN ())
0)) (154 'centrm' (INTEGER 4 0 0 0 INTEGER ()) (1 0 DEFERRED () ()) (
UNKNOWN-FL UNKNOWN-INTENT UNKNOWN-PROC UNKNOWN UNKNOWN 0 0 DIMENSION
POINTER) UNKNOWN-ACCESS (NULL (UNKNOWN 0 0 0 0 UNKNOWN ()) 0)) (155 'colm'
(INTEGER 4 0 0 0 INTEGER ()) (1 0 DEFERRED () ()) (UNKNOWN-FL
UNKNOWN-INTENT UNKNOWN-PROC UNKNOWN UNKNOWN 0 0 DIMENSION POINTER)
UNKNOWN-ACCESS (NULL (UNKNOWN 0 0 0 0 UNKNOWN ()) 0)) (156 'columns' (
INTEGER 4 0 0 0 INTEGER ()) () (UNKNOWN-FL UNKNOWN-INTENT UNKNOWN-PROC
UNKNOWN UNKNOWN 0 0) UNKNOWN-ACCESS ()) (157 'row_halo' (DERIVED 158 0 0
0 DERIVED ()) () (UNKNOWN-FL UNKNOWN-INTENT UNKNOWN-PROC UNKNOWN UNKNOWN
0 0 POINTER) UNKNOWN-ACCESS (NULL (UNKNOWN 0 0 0 0 UNKNOWN ()) 0)) (159
'column_halo' (DERIVED 158 0 0 0 DERIVED ()) () (UNKNOWN-FL
UNKNOWN-INTENT UNKNOWN-PROC UNKNOWN UNKNOWN 0 0 POINTER) UNKNOWN-ACCESS
(NULL (UNKNOWN 0 0 0 0 UNKNOWN ()) 0)) (160 'refcount' (DERIVED 67 0 0 0
DERIVED ()) () (UNKNOWN-FL UNKNOWN-INTENT UNKNOWN-PROC UNKNOWN UNKNOWN 0
0 POINTER) UNKNOWN-ACCESS (NULL (UNKNOWN 0 0 0 0 UNKNOWN ()) 0)) (161
'name' (CHARACTER 1 0 0 0 CHARACTER ((CONSTANT (INTEGER 4 0 0 0 INTEGER
()) 0 '101'))) () (UNKNOWN-FL UNKNOWN-INTENT UNKNOWN-PROC UNKNOWN
UNKNOWN 0 0) UNKNOWN-ACCESS (CONSTANT (CHARACTER 1 0 0 0 CHARACTER (()))
0 101
'                                                                                                     '))
(162 'wrapped' (LOGICAL 4 0 0 0 LOGICAL ()) () (UNKNOWN-FL
UNKNOWN-INTENT UNKNOWN-PROC UNKNOWN UNKNOWN 0 0) UNKNOWN-ACCESS (
CONSTANT (LOGICAL 4 0 0 0 LOGICAL ()) 0 0)) (163 'sorted_rows' (LOGICAL
4 0 0 0 LOGICAL ()) () (UNKNOWN-FL UNKNOWN-INTENT UNKNOWN-PROC UNKNOWN
UNKNOWN 0 0) UNKNOWN-ACCESS (CONSTANT (LOGICAL 4 0 0 0 LOGICAL ()) 0 0)))
PUBLIC (() () () ()) () 0 0 78882345)
164 'Integer_set' 'integer_set_module' '' 1 ((DERIVED UNKNOWN-INTENT
UNKNOWN-PROC UNKNOWN UNKNOWN 0 0) (UNKNOWN 0 0 0 0 UNKNOWN ()) 0 0 () ()
0 ((165 'address' (DERIVED 166 0 0 0 DERIVED ()) () (UNKNOWN-FL
UNKNOWN-INTENT UNKNOWN-PROC UNKNOWN UNKNOWN 0 0) UNKNOWN-ACCESS ()))
PUBLIC (() () () ()) () 0 0 67217964)
158 'Halo_type' 'halo_data_types' '' 1 ((DERIVED UNKNOWN-INTENT
UNKNOWN-PROC UNKNOWN UNKNOWN 0 0 POINTER_COMP) (UNKNOWN 0 0 0 0 UNKNOWN
()) 0 0 () () 0 ((167 'name' (CHARACTER 1 0 0 0 CHARACTER ((CONSTANT (
INTEGER 4 0 0 0 INTEGER ()) 0 '101'))) () (UNKNOWN-FL UNKNOWN-INTENT
UNKNOWN-PROC UNKNOWN UNKNOWN 0 0) UNKNOWN-ACCESS ()) (168 'refcount' (
DERIVED 67 0 0 0 DERIVED ()) () (UNKNOWN-FL UNKNOWN-INTENT UNKNOWN-PROC
UNKNOWN UNKNOWN 0 0 POINTER) UNKNOWN-ACCESS (NULL (UNKNOWN 0 0 0 0
UNKNOWN ()) 0)) (169 'data_type' (INTEGER 4 0 0 0 INTEGER ()) () (
UNKNOWN-FL UNKNOWN-INTENT UNKNOWN-PROC UNKNOWN UNKNOWN 0 0)
UNKNOWN-ACCESS (CONSTANT (INTEGER 4 0 0 0 INTEGER ()) 0 '0')) (170
'ordering_scheme' (INTEGER 4 0 0 0 INTEGER ()) () (UNKNOWN-FL
UNKNOWN-INTENT UNKNOWN-PROC UNKNOWN UNKNOWN 0 0) UNKNOWN-ACCESS (
CONSTANT (INTEGER 4 0 0 0 INTEGER ()) 0 '0')) (171 'communicator' (
INTEGER 4 0 0 0 INTEGER ()) () (UNKNOWN-FL UNKNOWN-INTENT UNKNOWN-PROC
UNKNOWN UNKNOWN 0 0) UNKNOWN-ACCESS ()) (172 'nprocs' (INTEGER 4 0 0 0
INTEGER ()) () (UNKNOWN-FL UNKNOWN-INTENT UNKNOWN-PROC UNKNOWN UNKNOWN 0
0) UNKNOWN-ACCESS (CONSTANT (INTEGER 4 0 0 0 INTEGER ()) 0 '0')) (173
'sends' (DERIVED 142 0 0 0 DERIVED ()) (1 0 DEFERRED () ()) (UNKNOWN-FL
UNKNOWN-INTENT UNKNOWN-PROC UNKNOWN UNKNOWN 0 0 DIMENSION POINTER)
UNKNOWN-ACCESS (NULL (UNKNOWN 0 0 0 0 UNKNOWN ()) 0)) (174 'receives' (
DERIVED 142 0 0 0 DERIVED ()) (1 0 DEFERRED () ()) (UNKNOWN-FL
UNKNOWN-INTENT UNKNOWN-PROC UNKNOWN UNKNOWN 0 0 DIMENSION POINTER)
UNKNOWN-ACCESS (NULL (UNKNOWN 0 0 0 0 UNKNOWN ()) 0)) (175 'nowned_nodes'
(INTEGER 4 0 0 0 INTEGER ()) () (UNKNOWN-FL UNKNOWN-INTENT UNKNOWN-PROC
UNKNOWN UNKNOWN 0 0) UNKNOWN-ACCESS (CONSTANT (INTEGER 4 0 0 0 INTEGER ())
0 '-1')) (176 'owners' (INTEGER 4 0 0 0 INTEGER ()) (1 0 DEFERRED () ())
(UNKNOWN-FL UNKNOWN-INTENT UNKNOWN-PROC UNKNOWN UNKNOWN 0 0 DIMENSION
POINTER) UNKNOWN-ACCESS (NULL (UNKNOWN 0 0 0 0 UNKNOWN ()) 0)) (177
'unn_count' (INTEGER 4 0 0 0 INTEGER ()) () (UNKNOWN-FL UNKNOWN-INTENT
UNKNOWN-PROC UNKNOWN UNKNOWN 0 0) UNKNOWN-ACCESS (CONSTANT (INTEGER 4 0
0 0 INTEGER ()) 0 '-1')) (178 'owned_nodes_unn_base' (INTEGER 4 0 0 0
INTEGER ()) (1 0 DEFERRED () ()) (UNKNOWN-FL UNKNOWN-INTENT UNKNOWN-PROC
UNKNOWN UNKNOWN 0 0 DIMENSION POINTER) UNKNOWN-ACCESS (NULL (UNKNOWN 0 0
0 0 UNKNOWN ()) 0)) (179 'my_owned_nodes_unn_base' (INTEGER 4 0 0 0
INTEGER ()) () (UNKNOWN-FL UNKNOWN-INTENT UNKNOWN-PROC UNKNOWN UNKNOWN 0
0) UNKNOWN-ACCESS (CONSTANT (INTEGER 4 0 0 0 INTEGER ()) 0 '-1')) (180
'receives_gnn_to_unn' (INTEGER 4 0 0 0 INTEGER ()) (1 0 DEFERRED () ())
(UNKNOWN-FL UNKNOWN-INTENT UNKNOWN-PROC UNKNOWN UNKNOWN 0 0 DIMENSION
POINTER) UNKNOWN-ACCESS (NULL (UNKNOWN 0 0 0 0 UNKNOWN ()) 0)) (181
'gnn_to_unn' (INTEGER 4 0 0 0 INTEGER ()) (1 0 DEFERRED () ()) (
UNKNOWN-FL UNKNOWN-INTENT UNKNOWN-PROC UNKNOWN UNKNOWN 0 0 DIMENSION
POINTER) UNKNOWN-ACCESS (NULL (UNKNOWN 0 0 0 0 UNKNOWN ()) 0))) PUBLIC (
() () () ()) () 0 0 63994053)
182 'Integer_hash_table' 'integer_hash_table_module' '' 1 ((DERIVED
UNKNOWN-INTENT UNKNOWN-PROC UNKNOWN UNKNOWN 0 0) (UNKNOWN 0 0 0 0
UNKNOWN ()) 0 0 () () 0 ((183 'address' (DERIVED 166 0 0 0 DERIVED ()) ()
(UNKNOWN-FL UNKNOWN-INTENT UNKNOWN-PROC UNKNOWN UNKNOWN 0 0)
UNKNOWN-ACCESS ())) PUBLIC (() () () ()) () 0 0 67448272)
184 'Csr_matrix' 'sparse_tools' '' 1 ((DERIVED UNKNOWN-INTENT
UNKNOWN-PROC UNKNOWN UNKNOWN 0 0 POINTER_COMP) (UNKNOWN 0 0 0 0 UNKNOWN
()) 0 0 () () 0 ((185 'sparsity' (DERIVED 152 0 0 0 DERIVED ()) () (
UNKNOWN-FL UNKNOWN-INTENT UNKNOWN-PROC UNKNOWN UNKNOWN 0 0)
UNKNOWN-ACCESS (STRUCTURE (DERIVED 152 0 0 0 DERIVED ()) 0 (((NULL (
UNKNOWN 0 0 0 0 UNKNOWN ()) 0) ()) ((NULL (UNKNOWN 0 0 0 0 UNKNOWN ()) 0)
()) ((NULL (UNKNOWN 0 0 0 0 UNKNOWN ()) 0) ()) (() ()) ((NULL (UNKNOWN 0
0 0 0 UNKNOWN ()) 0) ()) ((NULL (UNKNOWN 0 0 0 0 UNKNOWN ()) 0) ()) ((
NULL (UNKNOWN 0 0 0 0 UNKNOWN ()) 0) ()) ((CONSTANT (CHARACTER 1 0 0 0
CHARACTER (())) 0 101
'                                                                                                     ')
()) ((CONSTANT (LOGICAL 4 0 0 0 LOGICAL ()) 0 0) ()) ((CONSTANT (
LOGICAL 4 0 0 0 LOGICAL ()) 0 0) ())) ())) (186 'val' (REAL 8 0 0 0 REAL
()) (1 0 DEFERRED () ()) (UNKNOWN-FL UNKNOWN-INTENT UNKNOWN-PROC UNKNOWN
UNKNOWN 0 0 DIMENSION POINTER) UNKNOWN-ACCESS (NULL (UNKNOWN 0 0 0 0
UNKNOWN ()) 0)) (187 'ival' (INTEGER 4 0 0 0 INTEGER ()) (1 0 DEFERRED ()
()) (UNKNOWN-FL UNKNOWN-INTENT UNKNOWN-PROC UNKNOWN UNKNOWN 0 0
DIMENSION POINTER) UNKNOWN-ACCESS (NULL (UNKNOWN 0 0 0 0 UNKNOWN ()) 0))
(188 'clone' (LOGICAL 4 0 0 0 LOGICAL ()) () (UNKNOWN-FL UNKNOWN-INTENT
UNKNOWN-PROC UNKNOWN UNKNOWN 0 0) UNKNOWN-ACCESS (CONSTANT (LOGICAL 4 0
0 0 LOGICAL ()) 0 0)) (189 'external_val' (LOGICAL 4 0 0 0 LOGICAL ()) ()
(UNKNOWN-FL UNKNOWN-INTENT UNKNOWN-PROC UNKNOWN UNKNOWN 0 0)
UNKNOWN-ACCESS (CONSTANT (LOGICAL 4 0 0 0 LOGICAL ()) 0 0)) (190
'inactive' (DERIVED 191 0 0 0 DERIVED ()) () (UNKNOWN-FL UNKNOWN-INTENT
UNKNOWN-PROC UNKNOWN UNKNOWN 0 0 POINTER) UNKNOWN-ACCESS ()) (192 'ksp'
(INTEGER 8 0 0 0 INTEGER ()) () (UNKNOWN-FL UNKNOWN-INTENT UNKNOWN-PROC
UNKNOWN UNKNOWN 0 0 POINTER) UNKNOWN-ACCESS (NULL (UNKNOWN 0 0 0 0
UNKNOWN ()) 0)) (193 'refcount' (DERIVED 67 0 0 0 DERIVED ()) () (
UNKNOWN-FL UNKNOWN-INTENT UNKNOWN-PROC UNKNOWN UNKNOWN 0 0 POINTER)
UNKNOWN-ACCESS (NULL (UNKNOWN 0 0 0 0 UNKNOWN ()) 0)) (194 'name' (
CHARACTER 1 0 0 0 CHARACTER ((CONSTANT (INTEGER 4 0 0 0 INTEGER ()) 0
'101'))) () (UNKNOWN-FL UNKNOWN-INTENT UNKNOWN-PROC UNKNOWN UNKNOWN 0 0)
UNKNOWN-ACCESS (CONSTANT (CHARACTER 1 0 0 0 CHARACTER (())) 0 101
'                                                                                                     ')))
PUBLIC (() () () ()) () 0 0 66371681)
195 'Block_csr_matrix' 'sparse_tools' '' 1 ((DERIVED UNKNOWN-INTENT
UNKNOWN-PROC UNKNOWN UNKNOWN 0 0 POINTER_COMP) (UNKNOWN 0 0 0 0 UNKNOWN
()) 0 0 () () 0 ((196 'sparsity' (DERIVED 152 0 0 0 DERIVED ()) () (
UNKNOWN-FL UNKNOWN-INTENT UNKNOWN-PROC UNKNOWN UNKNOWN 0 0)
UNKNOWN-ACCESS (STRUCTURE (DERIVED 152 0 0 0 DERIVED ()) 0 (((NULL (
UNKNOWN 0 0 0 0 UNKNOWN ()) 0) ()) ((NULL (UNKNOWN 0 0 0 0 UNKNOWN ()) 0)
()) ((NULL (UNKNOWN 0 0 0 0 UNKNOWN ()) 0) ()) (() ()) ((NULL (UNKNOWN 0
0 0 0 UNKNOWN ()) 0) ()) ((NULL (UNKNOWN 0 0 0 0 UNKNOWN ()) 0) ()) ((
NULL (UNKNOWN 0 0 0 0 UNKNOWN ()) 0) ()) ((CONSTANT (CHARACTER 1 0 0 0
CHARACTER (())) 0 101
'                                                                                                     ')
()) ((CONSTANT (LOGICAL 4 0 0 0 LOGICAL ()) 0 0) ()) ((CONSTANT (
LOGICAL 4 0 0 0 LOGICAL ()) 0 0) ())) ())) (197 'val' (DERIVED 144 0 0 0
DERIVED ()) (2 0 DEFERRED () () () ()) (UNKNOWN-FL UNKNOWN-INTENT
UNKNOWN-PROC UNKNOWN UNKNOWN 0 0 DIMENSION POINTER) UNKNOWN-ACCESS (
NULL (UNKNOWN 0 0 0 0 UNKNOWN ()) 0)) (198 'contiguous_val' (REAL 8 0 0
0 REAL ()) (1 0 DEFERRED () ()) (UNKNOWN-FL UNKNOWN-INTENT UNKNOWN-PROC
UNKNOWN UNKNOWN 0 0 DIMENSION POINTER) UNKNOWN-ACCESS (NULL (UNKNOWN 0 0
0 0 UNKNOWN ()) 0)) (199 'ival' (DERIVED 142 0 0 0 DERIVED ()) (2 0
DEFERRED () () () ()) (UNKNOWN-FL UNKNOWN-INTENT UNKNOWN-PROC UNKNOWN
UNKNOWN 0 0 DIMENSION POINTER) UNKNOWN-ACCESS (NULL (UNKNOWN 0 0 0 0
UNKNOWN ()) 0)) (200 'blocks' (INTEGER 4 0 0 0 INTEGER ()) (1 0 EXPLICIT
(CONSTANT (INTEGER 4 0 0 0 INTEGER ()) 0 '1') (CONSTANT (INTEGER 4 0 0 0
INTEGER ()) 0 '2')) (UNKNOWN-FL UNKNOWN-INTENT UNKNOWN-PROC UNKNOWN
UNKNOWN 0 0 DIMENSION) UNKNOWN-ACCESS (ARRAY (INTEGER 4 0 0 0 INTEGER ())
1 (((CONSTANT (INTEGER 4 0 0 0 INTEGER ()) 0 '0') ()) ((CONSTANT (
INTEGER 4 0 0 0 INTEGER ()) 0 '0') ())) ('2'))) (201 'clone' (LOGICAL 4
0 0 0 LOGICAL ()) () (UNKNOWN-FL UNKNOWN-INTENT UNKNOWN-PROC UNKNOWN
UNKNOWN 0 0) UNKNOWN-ACCESS (CONSTANT (LOGICAL 4 0 0 0 LOGICAL ()) 0 0))
(202 'external_val' (LOGICAL 4 0 0 0 LOGICAL ()) () (UNKNOWN-FL
UNKNOWN-INTENT UNKNOWN-PROC UNKNOWN UNKNOWN 0 0) UNKNOWN-ACCESS (
CONSTANT (LOGICAL 4 0 0 0 LOGICAL ()) 0 0)) (203 'columns' (INTEGER 4 0
0 0 INTEGER ()) () (UNKNOWN-FL UNKNOWN-INTENT UNKNOWN-PROC UNKNOWN
UNKNOWN 0 0) UNKNOWN-ACCESS ()) (204 'refcount' (DERIVED 67 0 0 0
DERIVED ()) () (UNKNOWN-FL UNKNOWN-INTENT UNKNOWN-PROC UNKNOWN UNKNOWN 0
0 POINTER) UNKNOWN-ACCESS (NULL (UNKNOWN 0 0 0 0 UNKNOWN ()) 0)) (205
'name' (CHARACTER 1 0 0 0 CHARACTER ((CONSTANT (INTEGER 4 0 0 0 INTEGER
()) 0 '101'))) () (UNKNOWN-FL UNKNOWN-INTENT UNKNOWN-PROC UNKNOWN
UNKNOWN 0 0) UNKNOWN-ACCESS (CONSTANT (CHARACTER 1 0 0 0 CHARACTER (()))
0 101
'                                                                                                     '))
(206 'diagonal' (LOGICAL 4 0 0 0 LOGICAL ()) () (UNKNOWN-FL
UNKNOWN-INTENT UNKNOWN-PROC UNKNOWN UNKNOWN 0 0) UNKNOWN-ACCESS (
CONSTANT (LOGICAL 4 0 0 0 LOGICAL ()) 0 0)) (207 'equal_diagonal_blocks'
(LOGICAL 4 0 0 0 LOGICAL ()) () (UNKNOWN-FL UNKNOWN-INTENT UNKNOWN-PROC
UNKNOWN UNKNOWN 0 0) UNKNOWN-ACCESS (CONSTANT (LOGICAL 4 0 0 0 LOGICAL ())
0 0)) (208 'ksp' (INTEGER 8 0 0 0 INTEGER ()) () (UNKNOWN-FL
UNKNOWN-INTENT UNKNOWN-PROC UNKNOWN UNKNOWN 0 0 POINTER) UNKNOWN-ACCESS
(NULL (UNKNOWN 0 0 0 0 UNKNOWN ()) 0))) PUBLIC (() () () ()) () 0 0
61921235)
112 'Ele_numbering_type' 'element_numbering' '' 1 ((DERIVED
UNKNOWN-INTENT UNKNOWN-PROC UNKNOWN UNKNOWN 0 0 POINTER_COMP) (UNKNOWN 0
0 0 0 UNKNOWN ()) 0 0 () () 0 ((209 'faces' (INTEGER 4 0 0 0 INTEGER ())
() (UNKNOWN-FL UNKNOWN-INTENT UNKNOWN-PROC UNKNOWN UNKNOWN 0 0)
UNKNOWN-ACCESS ()) (210 'vertices' (INTEGER 4 0 0 0 INTEGER ()) () (
UNKNOWN-FL UNKNOWN-INTENT UNKNOWN-PROC UNKNOWN UNKNOWN 0 0)
UNKNOWN-ACCESS ()) (211 'edges' (INTEGER 4 0 0 0 INTEGER ()) () (
UNKNOWN-FL UNKNOWN-INTENT UNKNOWN-PROC UNKNOWN UNKNOWN 0 0)
UNKNOWN-ACCESS ()) (212 'boundaries' (INTEGER 4 0 0 0 INTEGER ()) () (
UNKNOWN-FL UNKNOWN-INTENT UNKNOWN-PROC UNKNOWN UNKNOWN 0 0)
UNKNOWN-ACCESS ()) (213 'degree' (INTEGER 4 0 0 0 INTEGER ()) () (
UNKNOWN-FL UNKNOWN-INTENT UNKNOWN-PROC UNKNOWN UNKNOWN 0 0)
UNKNOWN-ACCESS ()) (214 'dimension' (INTEGER 4 0 0 0 INTEGER ()) () (
UNKNOWN-FL UNKNOWN-INTENT UNKNOWN-PROC UNKNOWN UNKNOWN 0 0)
UNKNOWN-ACCESS ()) (215 'nodes' (INTEGER 4 0 0 0 INTEGER ()) () (
UNKNOWN-FL UNKNOWN-INTENT UNKNOWN-PROC UNKNOWN UNKNOWN 0 0)
UNKNOWN-ACCESS ()) (216 'type' (INTEGER 4 0 0 0 INTEGER ()) () (
UNKNOWN-FL UNKNOWN-INTENT UNKNOWN-PROC UNKNOWN UNKNOWN 0 0)
UNKNOWN-ACCESS (CONSTANT (INTEGER 4 0 0 0 INTEGER ()) 0 '1')) (217
'family' (INTEGER 4 0 0 0 INTEGER ()) () (UNKNOWN-FL UNKNOWN-INTENT
UNKNOWN-PROC UNKNOWN UNKNOWN 0 0) UNKNOWN-ACCESS ()) (218 'count2number'
(INTEGER 4 0 0 0 INTEGER ()) (3 0 DEFERRED () () () () () ()) (
UNKNOWN-FL UNKNOWN-INTENT UNKNOWN-PROC UNKNOWN UNKNOWN 0 0 DIMENSION
POINTER) UNKNOWN-ACCESS ()) (219 'number2count' (INTEGER 4 0 0 0 INTEGER
()) (2 0 DEFERRED () () () ()) (UNKNOWN-FL UNKNOWN-INTENT UNKNOWN-PROC
UNKNOWN UNKNOWN 0 0 DIMENSION POINTER) UNKNOWN-ACCESS ()) (220
'boundary_coord' (INTEGER 4 0 0 0 INTEGER ()) (1 0 DEFERRED () ()) (
UNKNOWN-FL UNKNOWN-INTENT UNKNOWN-PROC UNKNOWN UNKNOWN 0 0 DIMENSION
POINTER) UNKNOWN-ACCESS ()) (221 'boundary_val' (INTEGER 4 0 0 0 INTEGER
()) (1 0 DEFERRED () ()) (UNKNOWN-FL UNKNOWN-INTENT UNKNOWN-PROC UNKNOWN
UNKNOWN 0 0 DIMENSION POINTER) UNKNOWN-ACCESS ())) PUBLIC (() () () ())
() 0 0 96431082)
222 'Vector_field' 'fields_data_types' '' 1 ((DERIVED UNKNOWN-INTENT
UNKNOWN-PROC UNKNOWN UNKNOWN 0 0 POINTER_COMP) (UNKNOWN 0 0 0 0 UNKNOWN
()) 0 0 () () 0 ((223 'val' (REAL 8 0 0 0 REAL ()) (2 0 DEFERRED () () ()
()) (UNKNOWN-FL UNKNOWN-INTENT UNKNOWN-PROC UNKNOWN UNKNOWN 0 0
DIMENSION POINTER) UNKNOWN-ACCESS ()) (224 'wrapped' (LOGICAL 4 0 0 0
LOGICAL ()) () (UNKNOWN-FL UNKNOWN-INTENT UNKNOWN-PROC UNKNOWN UNKNOWN 0
0) UNKNOWN-ACCESS (CONSTANT (LOGICAL 4 0 0 0 LOGICAL ()) 0 1)) (225
'field_type' (INTEGER 4 0 0 0 INTEGER ()) () (UNKNOWN-FL UNKNOWN-INTENT
UNKNOWN-PROC UNKNOWN UNKNOWN 0 0) UNKNOWN-ACCESS (CONSTANT (INTEGER 4 0
0 0 INTEGER ()) 0 '0')) (226 'bc' (DERIVED 227 0 0 0 DERIVED ()) () (
UNKNOWN-FL UNKNOWN-INTENT UNKNOWN-PROC UNKNOWN UNKNOWN 0 0 POINTER)
UNKNOWN-ACCESS (NULL (UNKNOWN 0 0 0 0 UNKNOWN ()) 0)) (228 'name' (
CHARACTER 1 0 0 0 CHARACTER ((CONSTANT (INTEGER 4 0 0 0 INTEGER ()) 0
'101'))) () (UNKNOWN-FL UNKNOWN-INTENT UNKNOWN-PROC UNKNOWN UNKNOWN 0 0)
UNKNOWN-ACCESS ()) (229 'dim' (INTEGER 4 0 0 0 INTEGER ()) () (
UNKNOWN-FL UNKNOWN-INTENT UNKNOWN-PROC UNKNOWN UNKNOWN 0 0)
UNKNOWN-ACCESS ()) (230 'option_path' (CHARACTER 1 0 0 0 CHARACTER ((
CONSTANT (INTEGER 4 0 0 0 INTEGER ()) 0 '8192'))) () (UNKNOWN-FL
UNKNOWN-INTENT UNKNOWN-PROC UNKNOWN UNKNOWN 0 0) UNKNOWN-ACCESS ()) (
231 'mesh' (DERIVED 232 0 0 0 DERIVED ()) () (UNKNOWN-FL UNKNOWN-INTENT
UNKNOWN-PROC UNKNOWN UNKNOWN 0 0) UNKNOWN-ACCESS (STRUCTURE (DERIVED 232
0 0 0 DERIVED ()) 0 ((() ()) ((CONSTANT (LOGICAL 4 0 0 0 LOGICAL ()) 0 1)
()) ((STRUCTURE (DERIVED 99 0 0 0 DERIVED ()) 0 ((() ()) (() ()) (() ())
(() ()) ((NULL (UNKNOWN 0 0 0 0 UNKNOWN ()) 0) ()) ((NULL (UNKNOWN 0 0 0
0 UNKNOWN ()) 0) ()) ((NULL (UNKNOWN 0 0 0 0 UNKNOWN ()) 0) ()) ((NULL (
UNKNOWN 0 0 0 0 UNKNOWN ()) 0) ()) ((NULL (UNKNOWN 0 0 0 0 UNKNOWN ()) 0)
()) ((NULL (UNKNOWN 0 0 0 0 UNKNOWN ()) 0) ()) ((NULL (UNKNOWN 0 0 0 0
UNKNOWN ()) 0) ()) ((STRUCTURE (DERIVED 114 0 0 0 DERIVED ()) 0 ((() ())
(() ()) (() ()) (() ()) ((NULL (UNKNOWN 0 0 0 0 UNKNOWN ()) 0) ()) ((
NULL (UNKNOWN 0 0 0 0 UNKNOWN ()) 0) ()) (() ()) ((NULL (UNKNOWN 0 0 0 0
UNKNOWN ()) 0) ()) (() ())) ()) ()) ((NULL (UNKNOWN 0 0 0 0 UNKNOWN ())
0) ()) ((NULL (UNKNOWN 0 0 0 0 UNKNOWN ()) 0) ()) ((NULL (UNKNOWN 0 0 0
0 UNKNOWN ()) 0) ()) ((NULL (UNKNOWN 0 0 0 0 UNKNOWN ()) 0) ()) (() ()))
()) ()) (() ()) (() ()) (() ()) (() ()) ((CONSTANT (INTEGER 4 0 0 0
INTEGER ()) 0 '0') ()) ((NULL (UNKNOWN 0 0 0 0 UNKNOWN ()) 0) ()) ((
NULL (UNKNOWN 0 0 0 0 UNKNOWN ()) 0) ()) ((NULL (UNKNOWN 0 0 0 0 UNKNOWN
()) 0) ()) ((NULL (UNKNOWN 0 0 0 0 UNKNOWN ()) 0) ()) ((NULL (UNKNOWN 0
0 0 0 UNKNOWN ()) 0) ()) ((NULL (UNKNOWN 0 0 0 0 UNKNOWN ()) 0) ()) ((
NULL (UNKNOWN 0 0 0 0 UNKNOWN ()) 0) ()) ((NULL (UNKNOWN 0 0 0 0 UNKNOWN
()) 0) ()) ((NULL (UNKNOWN 0 0 0 0 UNKNOWN ()) 0) ()) ((NULL (UNKNOWN 0
0 0 0 UNKNOWN ()) 0) ()) ((CONSTANT (LOGICAL 4 0 0 0 LOGICAL ()) 0 0) ()))
())) (233 'refcount' (DERIVED 67 0 0 0 DERIVED ()) () (UNKNOWN-FL
UNKNOWN-INTENT UNKNOWN-PROC UNKNOWN UNKNOWN 0 0 POINTER) UNKNOWN-ACCESS
(NULL (UNKNOWN 0 0 0 0 UNKNOWN ()) 0)) (234 'aliased' (LOGICAL 4 0 0 0
LOGICAL ()) () (UNKNOWN-FL UNKNOWN-INTENT UNKNOWN-PROC UNKNOWN UNKNOWN 0
0) UNKNOWN-ACCESS (CONSTANT (LOGICAL 4 0 0 0 LOGICAL ()) 0 0)) (235
'picker' (DERIVED 49 0 0 0 DERIVED ()) () (UNKNOWN-FL UNKNOWN-INTENT
UNKNOWN-PROC UNKNOWN UNKNOWN 0 0 POINTER) UNKNOWN-ACCESS (NULL (UNKNOWN
0 0 0 0 UNKNOWN ()) 0))) PUBLIC (() () () ()) () 0 0 43598963)
22 'has_references_dynamic_csr_matrix' 'sparse_tools' '' 1 ((PROCEDURE
UNKNOWN-INTENT MODULE-PROC DECL UNKNOWN 0 0 FUNCTION PURE) (LOGICAL 4 0
0 0 LOGICAL ()) 236 0 (237) () 238 () () () 0 0)
227 'Vector_boundary_conditions_ptr' 'fields_data_types' '' 1 ((DERIVED
UNKNOWN-INTENT UNKNOWN-PROC UNKNOWN UNKNOWN 0 0 POINTER_COMP) (UNKNOWN 0
0 0 0 UNKNOWN ()) 0 0 () () 0 ((239 'boundary_condition' (DERIVED 240 0
0 0 DERIVED ()) (1 0 DEFERRED () ()) (UNKNOWN-FL UNKNOWN-INTENT
UNKNOWN-PROC UNKNOWN UNKNOWN 0 0 DIMENSION POINTER) UNKNOWN-ACCESS (
NULL (UNKNOWN 0 0 0 0 UNKNOWN ()) 0))) PUBLIC (() () () ()) () 0 0
84476181)
232 'Mesh_type' 'fields_data_types' '' 1 ((DERIVED UNKNOWN-INTENT
UNKNOWN-PROC UNKNOWN UNKNOWN 0 0 POINTER_COMP) (UNKNOWN 0 0 0 0 UNKNOWN
()) 0 0 () () 0 ((241 'ndglno' (INTEGER 4 0 0 0 INTEGER ()) (1 0
DEFERRED () ()) (UNKNOWN-FL UNKNOWN-INTENT UNKNOWN-PROC UNKNOWN UNKNOWN
0 0 DIMENSION POINTER) UNKNOWN-ACCESS ()) (242 'wrapped' (LOGICAL 4 0 0
0 LOGICAL ()) () (UNKNOWN-FL UNKNOWN-INTENT UNKNOWN-PROC UNKNOWN UNKNOWN
0 0) UNKNOWN-ACCESS (CONSTANT (LOGICAL 4 0 0 0 LOGICAL ()) 0 1)) (243
'shape' (DERIVED 99 0 0 0 DERIVED ()) () (UNKNOWN-FL UNKNOWN-INTENT
UNKNOWN-PROC UNKNOWN UNKNOWN 0 0) UNKNOWN-ACCESS (STRUCTURE (DERIVED 99
0 0 0 DERIVED ()) 0 ((() ()) (() ()) (() ()) (() ()) ((NULL (UNKNOWN 0 0
0 0 UNKNOWN ()) 0) ()) ((NULL (UNKNOWN 0 0 0 0 UNKNOWN ()) 0) ()) ((
NULL (UNKNOWN 0 0 0 0 UNKNOWN ()) 0) ()) ((NULL (UNKNOWN 0 0 0 0 UNKNOWN
()) 0) ()) ((NULL (UNKNOWN 0 0 0 0 UNKNOWN ()) 0) ()) ((NULL (UNKNOWN 0
0 0 0 UNKNOWN ()) 0) ()) ((NULL (UNKNOWN 0 0 0 0 UNKNOWN ()) 0) ()) ((
STRUCTURE (DERIVED 114 0 0 0 DERIVED ()) 0 ((() ()) (() ()) (() ()) (()
()) ((NULL (UNKNOWN 0 0 0 0 UNKNOWN ()) 0) ()) ((NULL (UNKNOWN 0 0 0 0
UNKNOWN ()) 0) ()) (() ()) ((NULL (UNKNOWN 0 0 0 0 UNKNOWN ()) 0) ()) (
() ())) ()) ()) ((NULL (UNKNOWN 0 0 0 0 UNKNOWN ()) 0) ()) ((NULL (
UNKNOWN 0 0 0 0 UNKNOWN ()) 0) ()) ((NULL (UNKNOWN 0 0 0 0 UNKNOWN ()) 0)
()) ((NULL (UNKNOWN 0 0 0 0 UNKNOWN ()) 0) ()) (() ())) ())) (244
'elements' (INTEGER 4 0 0 0 INTEGER ()) () (UNKNOWN-FL UNKNOWN-INTENT
UNKNOWN-PROC UNKNOWN UNKNOWN 0 0) UNKNOWN-ACCESS ()) (245 'nodes' (
INTEGER 4 0 0 0 INTEGER ()) () (UNKNOWN-FL UNKNOWN-INTENT UNKNOWN-PROC
UNKNOWN UNKNOWN 0 0) UNKNOWN-ACCESS ()) (246 'name' (CHARACTER 1 0 0 0
CHARACTER ((CONSTANT (INTEGER 4 0 0 0 INTEGER ()) 0 '101'))) () (
UNKNOWN-FL UNKNOWN-INTENT UNKNOWN-PROC UNKNOWN UNKNOWN 0 0)
UNKNOWN-ACCESS ()) (247 'option_path' (CHARACTER 1 0 0 0 CHARACTER ((
CONSTANT (INTEGER 4 0 0 0 INTEGER ()) 0 '8192'))) () (UNKNOWN-FL
UNKNOWN-INTENT UNKNOWN-PROC UNKNOWN UNKNOWN 0 0) UNKNOWN-ACCESS ()) (
248 'continuity' (INTEGER 4 0 0 0 INTEGER ()) () (UNKNOWN-FL
UNKNOWN-INTENT UNKNOWN-PROC UNKNOWN UNKNOWN 0 0) UNKNOWN-ACCESS (
CONSTANT (INTEGER 4 0 0 0 INTEGER ()) 0 '0')) (249 'refcount' (DERIVED
67 0 0 0 DERIVED ()) () (UNKNOWN-FL UNKNOWN-INTENT UNKNOWN-PROC UNKNOWN
UNKNOWN 0 0 POINTER) UNKNOWN-ACCESS (NULL (UNKNOWN 0 0 0 0 UNKNOWN ()) 0))
(250 'faces' (DERIVED 251 0 0 0 DERIVED ()) () (UNKNOWN-FL
UNKNOWN-INTENT UNKNOWN-PROC UNKNOWN UNKNOWN 0 0 POINTER) UNKNOWN-ACCESS
(NULL (UNKNOWN 0 0 0 0 UNKNOWN ()) 0)) (252 'subdomain_mesh' (DERIVED
253 0 0 0 DERIVED ()) () (UNKNOWN-FL UNKNOWN-INTENT UNKNOWN-PROC UNKNOWN
UNKNOWN 0 0 POINTER) UNKNOWN-ACCESS (NULL (UNKNOWN 0 0 0 0 UNKNOWN ()) 0))
(254 'adj_lists' (DERIVED 255 0 0 0 DERIVED ()) () (UNKNOWN-FL
UNKNOWN-INTENT UNKNOWN-PROC UNKNOWN UNKNOWN 0 0 POINTER) UNKNOWN-ACCESS
(NULL (UNKNOWN 0 0 0 0 UNKNOWN ()) 0)) (256 'columns' (INTEGER 4 0 0 0
INTEGER ()) (1 0 DEFERRED () ()) (UNKNOWN-FL UNKNOWN-INTENT UNKNOWN-PROC
UNKNOWN UNKNOWN 0 0 DIMENSION POINTER) UNKNOWN-ACCESS (NULL (UNKNOWN 0 0
0 0 UNKNOWN ()) 0)) (257 'element_columns' (INTEGER 4 0 0 0 INTEGER ())
(1 0 DEFERRED () ()) (UNKNOWN-FL UNKNOWN-INTENT UNKNOWN-PROC UNKNOWN
UNKNOWN 0 0 DIMENSION POINTER) UNKNOWN-ACCESS (NULL (UNKNOWN 0 0 0 0
UNKNOWN ()) 0)) (258 'region_ids' (INTEGER 4 0 0 0 INTEGER ()) (1 0
DEFERRED () ()) (UNKNOWN-FL UNKNOWN-INTENT UNKNOWN-PROC UNKNOWN UNKNOWN
0 0 DIMENSION POINTER) UNKNOWN-ACCESS (NULL (UNKNOWN 0 0 0 0 UNKNOWN ())
0)) (259 'halos' (DERIVED 158 0 0 0 DERIVED ()) (1 0 DEFERRED () ()) (
UNKNOWN-FL UNKNOWN-INTENT UNKNOWN-PROC UNKNOWN UNKNOWN 0 0 DIMENSION
POINTER) UNKNOWN-ACCESS (NULL (UNKNOWN 0 0 0 0 UNKNOWN ()) 0)) (260
'element_halos' (DERIVED 158 0 0 0 DERIVED ()) (1 0 DEFERRED () ()) (
UNKNOWN-FL UNKNOWN-INTENT UNKNOWN-PROC UNKNOWN UNKNOWN 0 0 DIMENSION
POINTER) UNKNOWN-ACCESS (NULL (UNKNOWN 0 0 0 0 UNKNOWN ()) 0)) (261
'colourings' (DERIVED 262 0 0 0 DERIVED ()) (1 0 DEFERRED () ()) (
UNKNOWN-FL UNKNOWN-INTENT UNKNOWN-PROC UNKNOWN UNKNOWN 0 0 DIMENSION
POINTER) UNKNOWN-ACCESS (NULL (UNKNOWN 0 0 0 0 UNKNOWN ()) 0)) (263
'periodic' (LOGICAL 4 0 0 0 LOGICAL ()) () (UNKNOWN-FL UNKNOWN-INTENT
UNKNOWN-PROC UNKNOWN UNKNOWN 0 0) UNKNOWN-ACCESS (CONSTANT (LOGICAL 4 0
0 0 LOGICAL ()) 0 0))) PUBLIC (() () () ()) () 0 0 2572791)
109 'Polynomial' 'polynomials' '' 1 ((DERIVED UNKNOWN-INTENT
UNKNOWN-PROC UNKNOWN UNKNOWN 0 0 POINTER_COMP) (UNKNOWN 0 0 0 0 UNKNOWN
()) 0 0 () () 0 ((264 'coefs' (REAL 8 0 0 0 REAL ()) (1 0 DEFERRED () ())
(UNKNOWN-FL UNKNOWN-INTENT UNKNOWN-PROC UNKNOWN UNKNOWN 0 0 DIMENSION
POINTER) UNKNOWN-ACCESS (NULL (UNKNOWN 0 0 0 0 UNKNOWN ()) 0)) (265
'degree' (INTEGER 4 0 0 0 INTEGER ()) () (UNKNOWN-FL UNKNOWN-INTENT
UNKNOWN-PROC UNKNOWN UNKNOWN 0 0) UNKNOWN-ACCESS (CONSTANT (INTEGER 4 0
0 0 INTEGER ()) 0 '-1'))) PUBLIC (() () () ()) () 0 0 87989236)
117 'Superconvergence_type' 'elements' '' 1 ((DERIVED UNKNOWN-INTENT
UNKNOWN-PROC UNKNOWN UNKNOWN 0 0 POINTER_COMP) (UNKNOWN 0 0 0 0 UNKNOWN
()) 0 0 () () 0 ((266 'nsp' (INTEGER 4 0 0 0 INTEGER ()) () (UNKNOWN-FL
UNKNOWN-INTENT UNKNOWN-PROC UNKNOWN UNKNOWN 0 0) UNKNOWN-ACCESS ()) (
267 'l' (REAL 8 0 0 0 REAL ()) (2 0 DEFERRED () () () ()) (UNKNOWN-FL
UNKNOWN-INTENT UNKNOWN-PROC UNKNOWN UNKNOWN 0 0 DIMENSION POINTER)
UNKNOWN-ACCESS ()) (268 'n' (REAL 8 0 0 0 REAL ()) (2 0 DEFERRED () () ()
()) (UNKNOWN-FL UNKNOWN-INTENT UNKNOWN-PROC UNKNOWN UNKNOWN 0 0
DIMENSION POINTER) UNKNOWN-ACCESS ()) (269 'dn' (REAL 8 0 0 0 REAL ()) (
3 0 DEFERRED () () () () () ()) (UNKNOWN-FL UNKNOWN-INTENT UNKNOWN-PROC
UNKNOWN UNKNOWN 0 0 DIMENSION POINTER) UNKNOWN-ACCESS ())) PUBLIC (() ()
() ()) () 0 0 18282395)
142 'Integer_vector' 'futils' '' 1 ((DERIVED UNKNOWN-INTENT UNKNOWN-PROC
UNKNOWN UNKNOWN 0 0 POINTER_COMP) (UNKNOWN 0 0 0 0 UNKNOWN ()) 0 0 () ()
0 ((270 'ptr' (INTEGER 4 0 0 0 INTEGER ()) (1 0 DEFERRED () ()) (
UNKNOWN-FL UNKNOWN-INTENT UNKNOWN-PROC UNKNOWN UNKNOWN 0 0 DIMENSION
POINTER) UNKNOWN-ACCESS ())) PUBLIC (() () () ()) () 0 0 9661976)
144 'Real_vector' 'futils' '' 1 ((DERIVED UNKNOWN-INTENT UNKNOWN-PROC
UNKNOWN UNKNOWN 0 0 POINTER_COMP) (UNKNOWN 0 0 0 0 UNKNOWN ()) 0 0 () ()
0 ((271 'ptr' (REAL 8 0 0 0 REAL ()) (1 0 DEFERRED () ()) (UNKNOWN-FL
UNKNOWN-INTENT UNKNOWN-PROC UNKNOWN UNKNOWN 0 0 DIMENSION POINTER)
UNKNOWN-ACCESS ())) PUBLIC (() () () ()) () 0 0 72870256)
191 'Logical_array_ptr' 'sparse_tools' '' 1 ((DERIVED UNKNOWN-INTENT
UNKNOWN-PROC UNKNOWN UNKNOWN 0 0 POINTER_COMP) (UNKNOWN 0 0 0 0 UNKNOWN
()) 0 0 () () 0 ((272 'ptr' (LOGICAL 4 0 0 0 LOGICAL ()) (1 0 DEFERRED ()
()) (UNKNOWN-FL UNKNOWN-INTENT UNKNOWN-PROC UNKNOWN UNKNOWN 0 0
DIMENSION POINTER) UNKNOWN-ACCESS (NULL (UNKNOWN 0 0 0 0 UNKNOWN ()) 0)))
PUBLIC (() () () ()) () 0 0 30974511)
251 'Mesh_faces' 'fields_data_types' '' 1 ((DERIVED UNKNOWN-INTENT
UNKNOWN-PROC UNKNOWN UNKNOWN 0 0 POINTER_COMP) (UNKNOWN 0 0 0 0 UNKNOWN
()) 0 0 () () 0 ((273 'shape' (DERIVED 99 0 0 0 DERIVED ()) () (
UNKNOWN-FL UNKNOWN-INTENT UNKNOWN-PROC UNKNOWN UNKNOWN 0 0 POINTER)
UNKNOWN-ACCESS ()) (274 'face_list' (DERIVED 184 0 0 0 DERIVED ()) () (
UNKNOWN-FL UNKNOWN-INTENT UNKNOWN-PROC UNKNOWN UNKNOWN 0 0)
UNKNOWN-ACCESS (STRUCTURE (DERIVED 184 0 0 0 DERIVED ()) 0 (((STRUCTURE
(DERIVED 152 0 0 0 DERIVED ()) 0 (((NULL (UNKNOWN 0 0 0 0 UNKNOWN ()) 0)
()) ((NULL (UNKNOWN 0 0 0 0 UNKNOWN ()) 0) ()) ((NULL (UNKNOWN 0 0 0 0
UNKNOWN ()) 0) ()) (() ()) ((NULL (UNKNOWN 0 0 0 0 UNKNOWN ()) 0) ()) (
(NULL (UNKNOWN 0 0 0 0 UNKNOWN ()) 0) ()) ((NULL (UNKNOWN 0 0 0 0
UNKNOWN ()) 0) ()) ((CONSTANT (CHARACTER 1 0 0 0 CHARACTER (())) 0 101
'                                                                                                     ')
()) ((CONSTANT (LOGICAL 4 0 0 0 LOGICAL ()) 0 0) ()) ((CONSTANT (
LOGICAL 4 0 0 0 LOGICAL ()) 0 0) ())) ()) ()) ((NULL (UNKNOWN 0 0 0 0
UNKNOWN ()) 0) ()) ((NULL (UNKNOWN 0 0 0 0 UNKNOWN ()) 0) ()) ((
CONSTANT (LOGICAL 4 0 0 0 LOGICAL ()) 0 0) ()) ((CONSTANT (LOGICAL 4 0 0
0 LOGICAL ()) 0 0) ()) (() ()) ((NULL (UNKNOWN 0 0 0 0 UNKNOWN ()) 0) ())
((NULL (UNKNOWN 0 0 0 0 UNKNOWN ()) 0) ()) ((CONSTANT (CHARACTER 1 0 0 0
CHARACTER (())) 0 101
'                                                                                                     ')
())) ())) (275 'face_lno' (INTEGER 4 0 0 0 INTEGER ()) (1 0 DEFERRED ()
()) (UNKNOWN-FL UNKNOWN-INTENT UNKNOWN-PROC UNKNOWN UNKNOWN 0 0
DIMENSION POINTER) UNKNOWN-ACCESS ()) (276 'surface_mesh' (DERIVED 232 0
0 0 DERIVED ()) () (UNKNOWN-FL UNKNOWN-INTENT UNKNOWN-PROC UNKNOWN
UNKNOWN 0 0) UNKNOWN-ACCESS (STRUCTURE (DERIVED 232 0 0 0 DERIVED ()) 0
((() ()) ((CONSTANT (LOGICAL 4 0 0 0 LOGICAL ()) 0 1) ()) ((STRUCTURE (
DERIVED 99 0 0 0 DERIVED ()) 0 ((() ()) (() ()) (() ()) (() ()) ((NULL (
UNKNOWN 0 0 0 0 UNKNOWN ()) 0) ()) ((NULL (UNKNOWN 0 0 0 0 UNKNOWN ()) 0)
()) ((NULL (UNKNOWN 0 0 0 0 UNKNOWN ()) 0) ()) ((NULL (UNKNOWN 0 0 0 0
UNKNOWN ()) 0) ()) ((NULL (UNKNOWN 0 0 0 0 UNKNOWN ()) 0) ()) ((NULL (
UNKNOWN 0 0 0 0 UNKNOWN ()) 0) ()) ((NULL (UNKNOWN 0 0 0 0 UNKNOWN ()) 0)
()) ((STRUCTURE (DERIVED 114 0 0 0 DERIVED ()) 0 ((() ()) (() ()) (() ())
(() ()) ((NULL (UNKNOWN 0 0 0 0 UNKNOWN ()) 0) ()) ((NULL (UNKNOWN 0 0 0
0 UNKNOWN ()) 0) ()) (() ()) ((NULL (UNKNOWN 0 0 0 0 UNKNOWN ()) 0) ())
(() ())) ()) ()) ((NULL (UNKNOWN 0 0 0 0 UNKNOWN ()) 0) ()) ((NULL (
UNKNOWN 0 0 0 0 UNKNOWN ()) 0) ()) ((NULL (UNKNOWN 0 0 0 0 UNKNOWN ()) 0)
()) ((NULL (UNKNOWN 0 0 0 0 UNKNOWN ()) 0) ()) (() ())) ()) ()) (() ())
(() ()) (() ()) (() ()) ((CONSTANT (INTEGER 4 0 0 0 INTEGER ()) 0 '0') ())
((NULL (UNKNOWN 0 0 0 0 UNKNOWN ()) 0) ()) ((NULL (UNKNOWN 0 0 0 0
UNKNOWN ()) 0) ()) ((NULL (UNKNOWN 0 0 0 0 UNKNOWN ()) 0) ()) ((NULL (
UNKNOWN 0 0 0 0 UNKNOWN ()) 0) ()) ((NULL (UNKNOWN 0 0 0 0 UNKNOWN ()) 0)
()) ((NULL (UNKNOWN 0 0 0 0 UNKNOWN ()) 0) ()) ((NULL (UNKNOWN 0 0 0 0
UNKNOWN ()) 0) ()) ((NULL (UNKNOWN 0 0 0 0 UNKNOWN ()) 0) ()) ((NULL (
UNKNOWN 0 0 0 0 UNKNOWN ()) 0) ()) ((NULL (UNKNOWN 0 0 0 0 UNKNOWN ()) 0)
()) ((CONSTANT (LOGICAL 4 0 0 0 LOGICAL ()) 0 0) ())) ())) (277
'surface_node_list' (INTEGER 4 0 0 0 INTEGER ()) (1 0 DEFERRED () ()) (
UNKNOWN-FL UNKNOWN-INTENT UNKNOWN-PROC UNKNOWN UNKNOWN 0 0 DIMENSION
POINTER) UNKNOWN-ACCESS ()) (278 'face_element_list' (INTEGER 4 0 0 0
INTEGER ()) (1 0 DEFERRED () ()) (UNKNOWN-FL UNKNOWN-INTENT UNKNOWN-PROC
UNKNOWN UNKNOWN 0 0 DIMENSION POINTER) UNKNOWN-ACCESS ()) (279
'boundary_ids' (INTEGER 4 0 0 0 INTEGER ()) (1 0 DEFERRED () ()) (
UNKNOWN-FL UNKNOWN-INTENT UNKNOWN-PROC UNKNOWN UNKNOWN 0 0 DIMENSION
POINTER) UNKNOWN-ACCESS ()) (280 'coplanar_ids' (INTEGER 4 0 0 0 INTEGER
()) (1 0 DEFERRED () ()) (UNKNOWN-FL UNKNOWN-INTENT UNKNOWN-PROC UNKNOWN
UNKNOWN 0 0 DIMENSION POINTER) UNKNOWN-ACCESS (NULL (UNKNOWN 0 0 0 0
UNKNOWN ()) 0)) (281 'dg_surface_mesh' (DERIVED 232 0 0 0 DERIVED ()) ()
(UNKNOWN-FL UNKNOWN-INTENT UNKNOWN-PROC UNKNOWN UNKNOWN 0 0 POINTER)
UNKNOWN-ACCESS (NULL (UNKNOWN 0 0 0 0 UNKNOWN ()) 0)) (282
'has_discontinuous_internal_boundaries' (LOGICAL 4 0 0 0 LOGICAL ()) ()
(UNKNOWN-FL UNKNOWN-INTENT UNKNOWN-PROC UNKNOWN UNKNOWN 0 0)
UNKNOWN-ACCESS (CONSTANT (LOGICAL 4 0 0 0 LOGICAL ()) 0 0)) (283
'unique_surface_element_count' (INTEGER 4 0 0 0 INTEGER ()) () (
UNKNOWN-FL UNKNOWN-INTENT UNKNOWN-PROC UNKNOWN UNKNOWN 0 0)
UNKNOWN-ACCESS ())) PUBLIC (() () () ()) () 0 0 11936185)
21 'has_references_block_dynamic_csr_matrix' 'sparse_tools' '' 1 ((
PROCEDURE UNKNOWN-INTENT MODULE-PROC DECL UNKNOWN 0 0 FUNCTION PURE) (
LOGICAL 4 0 0 0 LOGICAL ()) 284 0 (285) () 286 () () () 0 0)
255 'Adjacency_cache' 'fields_data_types' '' 1 ((DERIVED UNKNOWN-INTENT
UNKNOWN-PROC UNKNOWN UNKNOWN 0 0 POINTER_COMP) (UNKNOWN 0 0 0 0 UNKNOWN
()) 0 0 () () 0 ((287 'nnlist' (DERIVED 152 0 0 0 DERIVED ()) () (
UNKNOWN-FL UNKNOWN-INTENT UNKNOWN-PROC UNKNOWN UNKNOWN 0 0 POINTER)
UNKNOWN-ACCESS (NULL (UNKNOWN 0 0 0 0 UNKNOWN ()) 0)) (288 'nelist' (
DERIVED 152 0 0 0 DERIVED ()) () (UNKNOWN-FL UNKNOWN-INTENT UNKNOWN-PROC
UNKNOWN UNKNOWN 0 0 POINTER) UNKNOWN-ACCESS (NULL (UNKNOWN 0 0 0 0
UNKNOWN ()) 0)) (289 'eelist' (DERIVED 152 0 0 0 DERIVED ()) () (
UNKNOWN-FL UNKNOWN-INTENT UNKNOWN-PROC UNKNOWN UNKNOWN 0 0 POINTER)
UNKNOWN-ACCESS (NULL (UNKNOWN 0 0 0 0 UNKNOWN ()) 0))) PUBLIC (() () ()
()) () 0 0 37419158)
253 'Mesh_subdomain_mesh' 'fields_data_types' '' 1 ((DERIVED
UNKNOWN-INTENT UNKNOWN-PROC UNKNOWN UNKNOWN 0 0 POINTER_COMP) (UNKNOWN 0
0 0 0 UNKNOWN ()) 0 0 () () 0 ((290 'element_list' (INTEGER 4 0 0 0
INTEGER ()) (1 0 DEFERRED () ()) (UNKNOWN-FL UNKNOWN-INTENT UNKNOWN-PROC
UNKNOWN UNKNOWN 0 0 DIMENSION POINTER) UNKNOWN-ACCESS ()) (291 'node_list'
(INTEGER 4 0 0 0 INTEGER ()) (1 0 DEFERRED () ()) (UNKNOWN-FL
UNKNOWN-INTENT UNKNOWN-PROC UNKNOWN UNKNOWN 0 0 DIMENSION POINTER)
UNKNOWN-ACCESS ())) PUBLIC (() () () ()) () 0 0 85302181)
240 'Vector_boundary_condition' 'fields_data_types' '' 1 ((DERIVED
UNKNOWN-INTENT UNKNOWN-PROC UNKNOWN UNKNOWN 0 0 POINTER_COMP) (UNKNOWN 0
0 0 0 UNKNOWN ()) 0 0 () () 0 ((292 'name' (CHARACTER 1 0 0 0 CHARACTER
((CONSTANT (INTEGER 4 0 0 0 INTEGER ()) 0 '101'))) () (UNKNOWN-FL
UNKNOWN-INTENT UNKNOWN-PROC UNKNOWN UNKNOWN 0 0) UNKNOWN-ACCESS ()) (
293 'type' (CHARACTER 1 0 0 0 CHARACTER ((CONSTANT (INTEGER 4 0 0 0
INTEGER ()) 0 '101'))) () (UNKNOWN-FL UNKNOWN-INTENT UNKNOWN-PROC
UNKNOWN UNKNOWN 0 0) UNKNOWN-ACCESS (CONSTANT (CHARACTER 1 0 0 0
CHARACTER (())) 0 101
'                                                                                                     '))
(294 'applies' (LOGICAL 4 0 0 0 LOGICAL ()) (1 0 EXPLICIT (CONSTANT (
INTEGER 4 0 0 0 INTEGER ()) 0 '1') (CONSTANT (INTEGER 4 0 0 0 INTEGER ())
0 '3')) (UNKNOWN-FL UNKNOWN-INTENT UNKNOWN-PROC UNKNOWN UNKNOWN 0 0
DIMENSION) UNKNOWN-ACCESS ()) (295 'surface_element_list' (INTEGER 4 0 0
0 INTEGER ()) (1 0 DEFERRED () ()) (UNKNOWN-FL UNKNOWN-INTENT
UNKNOWN-PROC UNKNOWN UNKNOWN 0 0 DIMENSION POINTER) UNKNOWN-ACCESS (
NULL (UNKNOWN 0 0 0 0 UNKNOWN ()) 0)) (296 'surface_node_list' (INTEGER
4 0 0 0 INTEGER ()) (1 0 DEFERRED () ()) (UNKNOWN-FL UNKNOWN-INTENT
UNKNOWN-PROC UNKNOWN UNKNOWN 0 0 DIMENSION POINTER) UNKNOWN-ACCESS (
NULL (UNKNOWN 0 0 0 0 UNKNOWN ()) 0)) (297 'surface_mesh' (DERIVED 232 0
0 0 DERIVED ()) () (UNKNOWN-FL UNKNOWN-INTENT UNKNOWN-PROC UNKNOWN
UNKNOWN 0 0 POINTER) UNKNOWN-ACCESS ()) (298 'surface_fields' (DERIVED
222 0 0 0 DERIVED ()) (1 0 DEFERRED () ()) (UNKNOWN-FL UNKNOWN-INTENT
UNKNOWN-PROC UNKNOWN UNKNOWN 0 0 DIMENSION POINTER) UNKNOWN-ACCESS (
NULL (UNKNOWN 0 0 0 0 UNKNOWN ()) 0)) (299 'scalar_surface_fields' (
DERIVED 300 0 0 0 DERIVED ()) (1 0 DEFERRED () ()) (UNKNOWN-FL
UNKNOWN-INTENT UNKNOWN-PROC UNKNOWN UNKNOWN 0 0 DIMENSION POINTER)
UNKNOWN-ACCESS (NULL (UNKNOWN 0 0 0 0 UNKNOWN ()) 0)) (301 'option_path'
(CHARACTER 1 0 0 0 CHARACTER ((CONSTANT (INTEGER 4 0 0 0 INTEGER ()) 0
'8192'))) () (UNKNOWN-FL UNKNOWN-INTENT UNKNOWN-PROC UNKNOWN UNKNOWN 0 0)
UNKNOWN-ACCESS ())) PUBLIC (() () () ()) () 0 0 42205165)
166 'C_ptr' '__iso_c_binding' '' 1 ((DERIVED UNKNOWN-INTENT UNKNOWN-PROC
UNKNOWN UNKNOWN 0 0 IS_BIND_C IS_C_INTEROP IS_ISO_C) (DERIVED 166 0 1 1
UNKNOWN ()) 0 0 () () 0 ((302 '__c_ptr_c_address' (INTEGER 8 0 1 0
INTEGER ()) () (UNKNOWN-FL UNKNOWN-INTENT UNKNOWN-PROC UNKNOWN UNKNOWN 0
0) UNKNOWN-ACCESS ())) UNKNOWN-ACCESS () () 2 42 0)
62 'petsc_null_integer' 'petscsysdef' '' 1 ((VARIABLE UNKNOWN-INTENT
UNKNOWN-PROC UNKNOWN UNKNOWN 0 0 IN_COMMON) (INTEGER 4 0 0 0 INTEGER ())
0 0 () () 0 () () () 0 0)
262 'Integer_set_vector' 'integer_set_module' '' 1 ((DERIVED
UNKNOWN-INTENT UNKNOWN-PROC UNKNOWN UNKNOWN 0 0 POINTER_COMP) (UNKNOWN 0
0 0 0 UNKNOWN ()) 0 0 () () 0 ((303 'sets' (DERIVED 164 0 0 0 DERIVED ())
(1 0 DEFERRED () ()) (UNKNOWN-FL UNKNOWN-INTENT UNKNOWN-PROC UNKNOWN
UNKNOWN 0 0 DIMENSION POINTER) UNKNOWN-ACCESS ())) PUBLIC (() () () ())
() 0 0 40688950)
300 'Scalar_field' 'fields_data_types' '' 1 ((DERIVED UNKNOWN-INTENT
UNKNOWN-PROC UNKNOWN UNKNOWN 0 0 POINTER_COMP) (UNKNOWN 0 0 0 0 UNKNOWN
()) 0 0 () () 0 ((304 'val' (REAL 8 0 0 0 REAL ()) (1 0 DEFERRED () ())
(UNKNOWN-FL UNKNOWN-INTENT UNKNOWN-PROC UNKNOWN UNKNOWN 0 0 DIMENSION
POINTER) UNKNOWN-ACCESS ()) (305 'val_stride' (INTEGER 4 0 0 0 INTEGER ())
() (UNKNOWN-FL UNKNOWN-INTENT UNKNOWN-PROC UNKNOWN UNKNOWN 0 0)
UNKNOWN-ACCESS (CONSTANT (INTEGER 4 0 0 0 INTEGER ()) 0 '1')) (306
'wrapped' (LOGICAL 4 0 0 0 LOGICAL ()) () (UNKNOWN-FL UNKNOWN-INTENT
UNKNOWN-PROC UNKNOWN UNKNOWN 0 0) UNKNOWN-ACCESS (CONSTANT (LOGICAL 4 0
0 0 LOGICAL ()) 0 1)) (307 'field_type' (INTEGER 4 0 0 0 INTEGER ()) ()
(UNKNOWN-FL UNKNOWN-INTENT UNKNOWN-PROC UNKNOWN UNKNOWN 0 0)
UNKNOWN-ACCESS (CONSTANT (INTEGER 4 0 0 0 INTEGER ()) 0 '0')) (308 'bc'
(DERIVED 309 0 0 0 DERIVED ()) () (UNKNOWN-FL UNKNOWN-INTENT
UNKNOWN-PROC UNKNOWN UNKNOWN 0 0 POINTER) UNKNOWN-ACCESS (NULL (UNKNOWN
0 0 0 0 UNKNOWN ()) 0)) (310 'name' (CHARACTER 1 0 0 0 CHARACTER ((
CONSTANT (INTEGER 4 0 0 0 INTEGER ()) 0 '101'))) () (UNKNOWN-FL
UNKNOWN-INTENT UNKNOWN-PROC UNKNOWN UNKNOWN 0 0) UNKNOWN-ACCESS ()) (
311 'option_path' (CHARACTER 1 0 0 0 CHARACTER ((CONSTANT (INTEGER 4 0 0
0 INTEGER ()) 0 '8192'))) () (UNKNOWN-FL UNKNOWN-INTENT UNKNOWN-PROC
UNKNOWN UNKNOWN 0 0) UNKNOWN-ACCESS ()) (312 'mesh' (DERIVED 232 0 0 0
DERIVED ()) () (UNKNOWN-FL UNKNOWN-INTENT UNKNOWN-PROC UNKNOWN UNKNOWN 0
0) UNKNOWN-ACCESS (STRUCTURE (DERIVED 232 0 0 0 DERIVED ()) 0 ((() ()) (
(CONSTANT (LOGICAL 4 0 0 0 LOGICAL ()) 0 1) ()) ((STRUCTURE (DERIVED 99
0 0 0 DERIVED ()) 0 ((() ()) (() ()) (() ()) (() ()) ((NULL (UNKNOWN 0 0
0 0 UNKNOWN ()) 0) ()) ((NULL (UNKNOWN 0 0 0 0 UNKNOWN ()) 0) ()) ((
NULL (UNKNOWN 0 0 0 0 UNKNOWN ()) 0) ()) ((NULL (UNKNOWN 0 0 0 0 UNKNOWN
()) 0) ()) ((NULL (UNKNOWN 0 0 0 0 UNKNOWN ()) 0) ()) ((NULL (UNKNOWN 0
0 0 0 UNKNOWN ()) 0) ()) ((NULL (UNKNOWN 0 0 0 0 UNKNOWN ()) 0) ()) ((
STRUCTURE (DERIVED 114 0 0 0 DERIVED ()) 0 ((() ()) (() ()) (() ()) (()
()) ((NULL (UNKNOWN 0 0 0 0 UNKNOWN ()) 0) ()) ((NULL (UNKNOWN 0 0 0 0
UNKNOWN ()) 0) ()) (() ()) ((NULL (UNKNOWN 0 0 0 0 UNKNOWN ()) 0) ()) (
() ())) ()) ()) ((NULL (UNKNOWN 0 0 0 0 UNKNOWN ()) 0) ()) ((NULL (
UNKNOWN 0 0 0 0 UNKNOWN ()) 0) ()) ((NULL (UNKNOWN 0 0 0 0 UNKNOWN ()) 0)
()) ((NULL (UNKNOWN 0 0 0 0 UNKNOWN ()) 0) ()) (() ())) ()) ()) (() ())
(() ()) (() ()) (() ()) ((CONSTANT (INTEGER 4 0 0 0 INTEGER ()) 0 '0') ())
((NULL (UNKNOWN 0 0 0 0 UNKNOWN ()) 0) ()) ((NULL (UNKNOWN 0 0 0 0
UNKNOWN ()) 0) ()) ((NULL (UNKNOWN 0 0 0 0 UNKNOWN ()) 0) ()) ((NULL (
UNKNOWN 0 0 0 0 UNKNOWN ()) 0) ()) ((NULL (UNKNOWN 0 0 0 0 UNKNOWN ()) 0)
()) ((NULL (UNKNOWN 0 0 0 0 UNKNOWN ()) 0) ()) ((NULL (UNKNOWN 0 0 0 0
UNKNOWN ()) 0) ()) ((NULL (UNKNOWN 0 0 0 0 UNKNOWN ()) 0) ()) ((NULL (
UNKNOWN 0 0 0 0 UNKNOWN ()) 0) ()) ((NULL (UNKNOWN 0 0 0 0 UNKNOWN ()) 0)
()) ((CONSTANT (LOGICAL 4 0 0 0 LOGICAL ()) 0 0) ())) ())) (313 'refcount'
(DERIVED 67 0 0 0 DERIVED ()) () (UNKNOWN-FL UNKNOWN-INTENT UNKNOWN-PROC
UNKNOWN UNKNOWN 0 0 POINTER) UNKNOWN-ACCESS (NULL (UNKNOWN 0 0 0 0
UNKNOWN ()) 0)) (314 'aliased' (LOGICAL 4 0 0 0 LOGICAL ()) () (
UNKNOWN-FL UNKNOWN-INTENT UNKNOWN-PROC UNKNOWN UNKNOWN 0 0)
UNKNOWN-ACCESS (CONSTANT (LOGICAL 4 0 0 0 LOGICAL ()) 0 0)) (315
'py_locweight' (REAL 8 0 0 0 REAL ()) (2 0 DEFERRED () () () ()) (
UNKNOWN-FL UNKNOWN-INTENT UNKNOWN-PROC UNKNOWN UNKNOWN 0 0 DIMENSION
POINTER) UNKNOWN-ACCESS (NULL (UNKNOWN 0 0 0 0 UNKNOWN ()) 0)) (316
'py_func' (CHARACTER 1 0 0 0 CHARACTER ((CONSTANT (INTEGER 4 0 0 0
INTEGER ()) 0 '8192'))) () (UNKNOWN-FL UNKNOWN-INTENT UNKNOWN-PROC
UNKNOWN UNKNOWN 0 0) UNKNOWN-ACCESS ()) (317 'py_positions' (DERIVED 222
0 0 0 DERIVED ()) () (UNKNOWN-FL UNKNOWN-INTENT UNKNOWN-PROC UNKNOWN
UNKNOWN 0 0 POINTER) UNKNOWN-ACCESS ()) (318 'py_positions_same_mesh' (
LOGICAL 4 0 0 0 LOGICAL ()) () (UNKNOWN-FL UNKNOWN-INTENT UNKNOWN-PROC
UNKNOWN UNKNOWN 0 0) UNKNOWN-ACCESS ()) (319 'py_dim' (INTEGER 4 0 0 0
INTEGER ()) () (UNKNOWN-FL UNKNOWN-INTENT UNKNOWN-PROC UNKNOWN UNKNOWN 0
0) UNKNOWN-ACCESS ()) (320 'py_positions_shape' (DERIVED 99 0 0 0
DERIVED ()) () (UNKNOWN-FL UNKNOWN-INTENT UNKNOWN-PROC UNKNOWN UNKNOWN 0
0 POINTER) UNKNOWN-ACCESS (NULL (UNKNOWN 0 0 0 0 UNKNOWN ()) 0)) (321
'is_embedded' (LOGICAL 4 0 0 0 LOGICAL ()) () (UNKNOWN-FL UNKNOWN-INTENT
UNKNOWN-PROC UNKNOWN UNKNOWN 0 0) UNKNOWN-ACCESS (CONSTANT (LOGICAL 4 0
0 0 LOGICAL ()) 0 0))) PUBLIC (() () () ()) () 0 0 64912956)
25 'has_references_csr_sparsity' 'sparse_tools' '' 1 ((PROCEDURE
UNKNOWN-INTENT MODULE-PROC DECL UNKNOWN 0 0 FUNCTION PURE) (LOGICAL 4 0
0 0 LOGICAL ()) 322 0 (323) () 324 () () () 0 0)
309 'Scalar_boundary_conditions_ptr' 'fields_data_types' '' 1 ((DERIVED
UNKNOWN-INTENT UNKNOWN-PROC UNKNOWN UNKNOWN 0 0 POINTER_COMP) (UNKNOWN 0
0 0 0 UNKNOWN ()) 0 0 () () 0 ((325 'boundary_condition' (DERIVED 326 0
0 0 DERIVED ()) (1 0 DEFERRED () ()) (UNKNOWN-FL UNKNOWN-INTENT
UNKNOWN-PROC UNKNOWN UNKNOWN 0 0 DIMENSION POINTER) UNKNOWN-ACCESS (
NULL (UNKNOWN 0 0 0 0 UNKNOWN ()) 0))) PUBLIC (() () () ()) () 0 0
47502942)
326 'Scalar_boundary_condition' 'fields_data_types' '' 1 ((DERIVED
UNKNOWN-INTENT UNKNOWN-PROC UNKNOWN UNKNOWN 0 0 POINTER_COMP) (UNKNOWN 0
0 0 0 UNKNOWN ()) 0 0 () () 0 ((327 'name' (CHARACTER 1 0 0 0 CHARACTER
((CONSTANT (INTEGER 4 0 0 0 INTEGER ()) 0 '101'))) () (UNKNOWN-FL
UNKNOWN-INTENT UNKNOWN-PROC UNKNOWN UNKNOWN 0 0) UNKNOWN-ACCESS ()) (
328 'type' (CHARACTER 1 0 0 0 CHARACTER ((CONSTANT (INTEGER 4 0 0 0
INTEGER ()) 0 '101'))) () (UNKNOWN-FL UNKNOWN-INTENT UNKNOWN-PROC
UNKNOWN UNKNOWN 0 0) UNKNOWN-ACCESS (CONSTANT (CHARACTER 1 0 0 0
CHARACTER (())) 0 101
'                                                                                                     '))
(329 'surface_element_list' (INTEGER 4 0 0 0 INTEGER ()) (1 0 DEFERRED ()
()) (UNKNOWN-FL UNKNOWN-INTENT UNKNOWN-PROC UNKNOWN UNKNOWN 0 0
DIMENSION POINTER) UNKNOWN-ACCESS (NULL (UNKNOWN 0 0 0 0 UNKNOWN ()) 0))
(330 'surface_node_list' (INTEGER 4 0 0 0 INTEGER ()) (1 0 DEFERRED () ())
(UNKNOWN-FL UNKNOWN-INTENT UNKNOWN-PROC UNKNOWN UNKNOWN 0 0 DIMENSION
POINTER) UNKNOWN-ACCESS (NULL (UNKNOWN 0 0 0 0 UNKNOWN ()) 0)) (331
'surface_mesh' (DERIVED 232 0 0 0 DERIVED ()) () (UNKNOWN-FL
UNKNOWN-INTENT UNKNOWN-PROC UNKNOWN UNKNOWN 0 0 POINTER) UNKNOWN-ACCESS
()) (332 'surface_fields' (DERIVED 300 0 0 0 DERIVED ()) (1 0 DEFERRED ()
()) (UNKNOWN-FL UNKNOWN-INTENT UNKNOWN-PROC UNKNOWN UNKNOWN 0 0
DIMENSION POINTER) UNKNOWN-ACCESS (NULL (UNKNOWN 0 0 0 0 UNKNOWN ()) 0))
(333 'option_path' (CHARACTER 1 0 0 0 CHARACTER ((CONSTANT (INTEGER 4 0
0 0 INTEGER ()) 0 '8192'))) () (UNKNOWN-FL UNKNOWN-INTENT UNKNOWN-PROC
UNKNOWN UNKNOWN 0 0) UNKNOWN-ACCESS ())) PUBLIC (() () () ()) () 0 0
50740068)
18 'deallocate_picker' 'pickers_deallocates' '' 1 ((PROCEDURE
UNKNOWN-INTENT MODULE-PROC DECL UNKNOWN 0 0 SUBROUTINE) (UNKNOWN 0 0 0 0
UNKNOWN ()) 334 0 (335) () 0 () () () 0 0)
2 'addref_picker_type' 'pickers_deallocates' '' 1 ((PROCEDURE
UNKNOWN-INTENT MODULE-PROC DECL UNKNOWN 0 0 SUBROUTINE ALWAYS_EXPLICIT)
(UNKNOWN 0 0 0 0 UNKNOWN ()) 336 0 (337) () 0 () () () 0 0)
27 'has_references_picker_type' 'pickers_deallocates' '' 1 ((PROCEDURE
UNKNOWN-INTENT MODULE-PROC DECL UNKNOWN 0 0 FUNCTION PURE) (LOGICAL 4 0
0 0 LOGICAL ()) 338 0 (339) () 340 () () () 0 0)
24 'has_references_csr_matrix' 'sparse_tools' '' 1 ((PROCEDURE
UNKNOWN-INTENT MODULE-PROC DECL UNKNOWN 0 0 FUNCTION PURE) (LOGICAL 4 0
0 0 LOGICAL ()) 341 0 (342) () 343 () () () 0 0)
37 'nullify_picker' 'pickers_deallocates' '' 1 ((PROCEDURE
UNKNOWN-INTENT MODULE-PROC DECL UNKNOWN 0 0 SUBROUTINE) (UNKNOWN 0 0 0 0
UNKNOWN ()) 344 0 (345) () 0 () () () 0 0)
58 'mpi_in_place' 'mpi_interfaces' '' 1 ((VARIABLE UNKNOWN-INTENT
UNKNOWN-PROC UNKNOWN UNKNOWN 0 0 IN_COMMON) (INTEGER 4 0 0 0 INTEGER ())
0 0 () () 0 () () () 0 0)
53 'mpi_status_ignore' 'mpi_interfaces' '' 1 ((VARIABLE UNKNOWN-INTENT
UNKNOWN-PROC UNKNOWN UNKNOWN 0 0 DIMENSION IN_COMMON) (INTEGER 4 0 0 0
INTEGER ()) 0 0 () (1 0 EXPLICIT (CONSTANT (INTEGER 4 0 0 0 INTEGER ())
0 '1') (CONSTANT (INTEGER 4 0 0 0 INTEGER ()) 0 '6')) 0 () () () 0 0)
51 'mpi_argv_null' 'mpi_interfaces' '' 1 ((VARIABLE UNKNOWN-INTENT
UNKNOWN-PROC UNKNOWN UNKNOWN 0 0 DIMENSION IN_COMMON) (CHARACTER 1 0 0 0
CHARACTER ((CONSTANT (INTEGER 4 0 0 0 INTEGER ()) 0 '1'))) 0 0 () (1 0
EXPLICIT (CONSTANT (INTEGER 4 0 0 0 INTEGER ()) 0 '1') (CONSTANT (
INTEGER 4 0 0 0 INTEGER ()) 0 '1')) 0 () () () 0 0)
54 'mpi_statuses_ignore' 'mpi_interfaces' '' 1 ((VARIABLE UNKNOWN-INTENT
UNKNOWN-PROC UNKNOWN UNKNOWN 0 0 IN_COMMON) (REAL 8 0 0 0 REAL ()) 0 0 ()
() 0 () () () 0 0)
56 'petsc_null_bool' 'petscsysdef' '' 1 ((VARIABLE UNKNOWN-INTENT
UNKNOWN-PROC UNKNOWN UNKNOWN 0 0 IN_COMMON) (LOGICAL 4 0 0 0 LOGICAL ())
0 0 () () 0 () () () 0 0)
57 'petsc_null_object' 'petscsysdef' '' 1 ((VARIABLE UNKNOWN-INTENT
UNKNOWN-PROC UNKNOWN UNKNOWN 0 0 IN_COMMON) (INTEGER 8 0 0 0 INTEGER ())
0 0 () () 0 () () () 0 0)
61 'petsc_comm_self' 'petscsysdef' '' 1 ((VARIABLE UNKNOWN-INTENT
UNKNOWN-PROC UNKNOWN UNKNOWN 0 0 IN_COMMON) (INTEGER 4 0 0 0 INTEGER ())
0 0 () () 0 () () () 0 0)
60 'petsc_null_character' 'petscsysdef' '' 1 ((VARIABLE UNKNOWN-INTENT
UNKNOWN-PROC UNKNOWN IMPLICIT-SAVE 0 0 IN_COMMON) (CHARACTER 1 0 0 0
CHARACTER ((CONSTANT (INTEGER 4 0 0 0 INTEGER ()) 0 '80'))) 0 0 () () 0
() () () 0 0)
5 'allocate_element_with_surface' 'elements' '' 1 ((PROCEDURE
UNKNOWN-INTENT MODULE-PROC DECL UNKNOWN 0 0 SUBROUTINE ALWAYS_EXPLICIT)
(UNKNOWN 0 0 0 0 UNKNOWN ()) 346 0 (347 348 349 350 351 352 353 354 355
356) () 0 () () () 0 0)
19 'has_references_element_type' 'elements' '' 1 ((PROCEDURE
UNKNOWN-INTENT MODULE-PROC DECL UNKNOWN 0 0 FUNCTION PURE) (LOGICAL 4 0
0 0 LOGICAL ()) 357 0 (358) () 359 () () () 0 0)
59 'petsc_comm_world' 'petscsysdef' '' 1 ((VARIABLE UNKNOWN-INTENT
UNKNOWN-PROC UNKNOWN UNKNOWN 0 0 IN_COMMON) (INTEGER 4 0 0 0 INTEGER ())
0 0 () () 0 () () () 0 0)
55 'petsc_null_real' 'petscsysdef' '' 1 ((VARIABLE UNKNOWN-INTENT
UNKNOWN-PROC UNKNOWN UNKNOWN 0 0 IN_COMMON) (REAL 8 0 0 0 REAL ()) 0 0 ()
() 0 () () () 0 0)
65 'mpi_argvs_null' 'mpi_interfaces' '' 1 ((VARIABLE UNKNOWN-INTENT
UNKNOWN-PROC UNKNOWN UNKNOWN 0 0 IN_COMMON) (REAL 8 0 0 0 REAL ()) 0 0 ()
() 0 () () () 0 0)
64 'petsc_null_double' 'petscsysdef' '' 1 ((VARIABLE UNKNOWN-INTENT
UNKNOWN-PROC UNKNOWN UNKNOWN 0 0 IN_COMMON) (REAL 8 0 0 0 REAL ()) 0 0 ()
() 0 () () () 0 0)
52 'mpi_errcodes_ignore' 'mpi_interfaces' '' 1 ((VARIABLE UNKNOWN-INTENT
UNKNOWN-PROC UNKNOWN UNKNOWN 0 0 DIMENSION IN_COMMON) (INTEGER 4 0 0 0
INTEGER ()) 0 0 () (1 0 EXPLICIT (CONSTANT (INTEGER 4 0 0 0 INTEGER ())
0 '1') (CONSTANT (INTEGER 4 0 0 0 INTEGER ()) 0 '1')) 0 () () () 0 0)
66 'mpi_bottom' 'mpi_interfaces' '' 1 ((VARIABLE UNKNOWN-INTENT
UNKNOWN-PROC UNKNOWN UNKNOWN 0 0 IN_COMMON) (INTEGER 4 0 0 0 INTEGER ())
0 0 () () 0 () () () 0 0)
28 'incref_element_type' 'elements' '' 1 ((PROCEDURE UNKNOWN-INTENT
MODULE-PROC DECL UNKNOWN 0 0 SUBROUTINE ALWAYS_EXPLICIT) (UNKNOWN 0 0 0
0 UNKNOWN ()) 360 0 (361) () 0 () () () 0 0)
63 'petsc_null_scalar' 'petscsysdef' '' 1 ((VARIABLE UNKNOWN-INTENT
UNKNOWN-PROC UNKNOWN UNKNOWN 0 0 IN_COMMON) (REAL 8 0 0 0 REAL ()) 0 0 ()
() 0 () () () 0 0)
36 'incref_picker_type' 'pickers_deallocates' '' 1 ((PROCEDURE
UNKNOWN-INTENT MODULE-PROC DECL UNKNOWN 0 0 SUBROUTINE ALWAYS_EXPLICIT)
(UNKNOWN 0 0 0 0 UNKNOWN ()) 362 0 (363) () 0 () () () 0 0)
30 'incref_block_dynamic_csr_matrix' 'sparse_tools' '' 1 ((PROCEDURE
UNKNOWN-INTENT MODULE-PROC DECL UNKNOWN 0 0 SUBROUTINE ALWAYS_EXPLICIT)
(UNKNOWN 0 0 0 0 UNKNOWN ()) 364 0 (365) () 0 () () () 0 0)
40 'picker_inquire_nodes' 'pickers_inquire' '' 1 ((PROCEDURE
UNKNOWN-INTENT MODULE-PROC DECL UNKNOWN 0 0 SUBROUTINE ALWAYS_EXPLICIT)
(UNKNOWN 0 0 0 0 UNKNOWN ()) 366 0 (367 368 369 370 371) () 0 () () () 0
0)
39 'picker_inquire_node_tolerance' 'pickers_inquire' '' 1 ((PROCEDURE
UNKNOWN-INTENT MODULE-PROC DECL UNKNOWN 0 0 SUBROUTINE) (UNKNOWN 0 0 0 0
UNKNOWN ()) 372 0 (373 374 375 376 377) () 0 () () () 0 0)
38 'picker_inquire_nodes_tolerance' 'pickers_inquire' '' 1 ((PROCEDURE
UNKNOWN-INTENT MODULE-PROC DECL UNKNOWN 0 0 SUBROUTINE) (UNKNOWN 0 0 0 0
UNKNOWN ()) 378 0 (379 380 381 382) () 0 () () () 0 0)
29 'incref_quadrature_type' 'quadrature' '' 1 ((PROCEDURE UNKNOWN-INTENT
MODULE-PROC DECL UNKNOWN 0 0 SUBROUTINE ALWAYS_EXPLICIT) (UNKNOWN 0 0 0
0 UNKNOWN ()) 383 0 (384) () 0 () () () 0 0)
42 'picker_inquire_multiple_positions_xyz' 'pickers_inquire' '' 1 ((
PROCEDURE UNKNOWN-INTENT MODULE-PROC DECL UNKNOWN 0 0 SUBROUTINE
ALWAYS_EXPLICIT) (UNKNOWN 0 0 0 0 UNKNOWN ()) 385 0 (386 387 388 389 390
391 392) () 0 () () () 0 0)
41 'picker_inquire_node' 'pickers_inquire' '' 1 ((PROCEDURE
UNKNOWN-INTENT MODULE-PROC DECL UNKNOWN 0 0 SUBROUTINE ALWAYS_EXPLICIT)
(UNKNOWN 0 0 0 0 UNKNOWN ()) 393 0 (394 395 396 397 398 399) () 0 () ()
() 0 0)
44 'picker_inquire_single_position_tolerance' 'pickers_inquire' '' 1 ((
PROCEDURE UNKNOWN-INTENT MODULE-PROC DECL UNKNOWN 0 0 SUBROUTINE) (
UNKNOWN 0 0 0 0 UNKNOWN ()) 400 0 (401 402 403 404) () 0 () () () 0 0)
45 'picker_inquire_multiple_positions' 'pickers_inquire' '' 1 ((
PROCEDURE UNKNOWN-INTENT MODULE-PROC DECL UNKNOWN 0 0 SUBROUTINE
ALWAYS_EXPLICIT) (UNKNOWN 0 0 0 0 UNKNOWN ()) 405 0 (406 407 408 409 410)
() 0 () () () 0 0)
43 'picker_inquire_multiple_positions_tolerance' 'pickers_inquire' '' 1
((PROCEDURE UNKNOWN-INTENT MODULE-PROC DECL UNKNOWN 0 0 SUBROUTINE
ALWAYS_EXPLICIT) (UNKNOWN 0 0 0 0 UNKNOWN ()) 411 0 (412 413 414 415) ()
0 () () () 0 0)
47 'picker_inquire_single_position' 'pickers_inquire' '' 1 ((PROCEDURE
UNKNOWN-INTENT MODULE-PROC DECL UNKNOWN 0 0 SUBROUTINE ALWAYS_EXPLICIT)
(UNKNOWN 0 0 0 0 UNKNOWN ()) 416 0 (417 418 419 420 421) () 0 () () () 0
0)
32 'incref_block_csr_matrix' 'sparse_tools' '' 1 ((PROCEDURE
UNKNOWN-INTENT MODULE-PROC DECL UNKNOWN 0 0 SUBROUTINE ALWAYS_EXPLICIT)
(UNKNOWN 0 0 0 0 UNKNOWN ()) 422 0 (423) () 0 () () () 0 0)
48 'picker_inquire_single_region' 'pickers_inquire' '' 1 ((PROCEDURE
UNKNOWN-INTENT MODULE-PROC DECL UNKNOWN 0 0 SUBROUTINE ALWAYS_EXPLICIT)
(UNKNOWN 0 0 0 0 UNKNOWN ()) 424 0 (425 426 427 428) () 0 () () () 0 0)
46 'picker_inquire_single_position_xyz' 'pickers_inquire' '' 1 ((
PROCEDURE UNKNOWN-INTENT MODULE-PROC DECL UNKNOWN 0 0 SUBROUTINE
ALWAYS_EXPLICIT) (UNKNOWN 0 0 0 0 UNKNOWN ()) 429 0 (430 431 432 433 434
435 436) () 0 () () () 0 0)
34 'incref_csr_sparsity' 'sparse_tools' '' 1 ((PROCEDURE UNKNOWN-INTENT
MODULE-PROC DECL UNKNOWN 0 0 SUBROUTINE ALWAYS_EXPLICIT) (UNKNOWN 0 0 0
0 UNKNOWN ()) 437 0 (438) () 0 () () () 0 0)
35 'incref_halo_type' 'halos_allocates' '' 1 ((PROCEDURE UNKNOWN-INTENT
MODULE-PROC DECL UNKNOWN 0 0 SUBROUTINE ALWAYS_EXPLICIT) (UNKNOWN 0 0 0
0 UNKNOWN ()) 439 0 (440) () 0 () () () 0 0)
33 'incref_csr_matrix' 'sparse_tools' '' 1 ((PROCEDURE UNKNOWN-INTENT
MODULE-PROC DECL UNKNOWN 0 0 SUBROUTINE ALWAYS_EXPLICIT) (UNKNOWN 0 0 0
0 UNKNOWN ()) 441 0 (442) () 0 () () () 0 0)
31 'incref_dynamic_csr_matrix' 'sparse_tools' '' 1 ((PROCEDURE
UNKNOWN-INTENT MODULE-PROC DECL UNKNOWN 0 0 SUBROUTINE ALWAYS_EXPLICIT)
(UNKNOWN 0 0 0 0 UNKNOWN ()) 443 0 (444) () 0 () () () 0 0)
6 'allocate_element' 'elements' '' 1 ((PROCEDURE UNKNOWN-INTENT
MODULE-PROC DECL UNKNOWN 0 0 SUBROUTINE ALWAYS_EXPLICIT) (UNKNOWN 0 0 0
0 UNKNOWN ()) 445 0 (446 447 448 449 450) () 0 () () () 0 0)
451 'node_count_vector' 'fields_base' '' 1 ((PROCEDURE UNKNOWN-INTENT
MODULE-PROC DECL UNKNOWN 0 0 FUNCTION PURE) (INTEGER 4 0 0 0 INTEGER ())
452 0 (453) () 454 () () () 0 0)
26 'has_references_halo_type' 'halos_allocates' '' 1 ((PROCEDURE
UNKNOWN-INTENT MODULE-PROC DECL UNKNOWN 0 0 FUNCTION PURE) (LOGICAL 4 0
0 0 LOGICAL ()) 455 0 (456) () 457 () () () 0 0)
13 'allocate_halo_halo' 'halos_allocates' '' 1 ((PROCEDURE
UNKNOWN-INTENT MODULE-PROC DECL UNKNOWN 0 0 SUBROUTINE) (UNKNOWN 0 0 0 0
UNKNOWN ()) 458 0 (459 460) () 0 () () () 0 0)
7 'allocate_quad' 'quadrature' '' 1 ((PROCEDURE UNKNOWN-INTENT
MODULE-PROC DECL UNKNOWN 0 0 SUBROUTINE ALWAYS_EXPLICIT) (UNKNOWN 0 0 0
0 UNKNOWN ()) 461 0 (462 463 464 465 466) () 0 () () () 0 0)
3 'allocate_picker' 'pickers_allocates' '' 1 ((PROCEDURE UNKNOWN-INTENT
MODULE-PROC DECL UNKNOWN 0 0 SUBROUTINE ALWAYS_EXPLICIT) (UNKNOWN 0 0 0
0 UNKNOWN ()) 467 0 (468 469 470) () 0 () () () 0 0)
10 'allocate_dcsr_matrix' 'sparse_tools' '' 1 ((PROCEDURE UNKNOWN-INTENT
MODULE-PROC DECL UNKNOWN 0 0 SUBROUTINE ALWAYS_EXPLICIT) (UNKNOWN 0 0 0
0 UNKNOWN ()) 471 0 (472 473 474 475 476) () 0 () () () 0 0)
9 'allocate_block_dcsr_matrix' 'sparse_tools' '' 1 ((PROCEDURE
UNKNOWN-INTENT MODULE-PROC DECL UNKNOWN 0 0 SUBROUTINE ALWAYS_EXPLICIT)
(UNKNOWN 0 0 0 0 UNKNOWN ()) 477 0 (478 479 480 481 482 483) () 0 () ()
() 0 0)
11 'allocate_block_csr_matrix' 'sparse_tools' '' 1 ((PROCEDURE
UNKNOWN-INTENT MODULE-PROC DECL UNKNOWN 0 0 SUBROUTINE ALWAYS_EXPLICIT)
(UNKNOWN 0 0 0 0 UNKNOWN ()) 484 0 (485 486 487 488 489 490 491 492) ()
0 () () () 0 0)
12 'allocate_csr_matrix' 'sparse_tools' '' 1 ((PROCEDURE UNKNOWN-INTENT
MODULE-PROC DECL UNKNOWN 0 0 SUBROUTINE ALWAYS_EXPLICIT) (UNKNOWN 0 0 0
0 UNKNOWN ()) 493 0 (494 495 496 497 498 499) () 0 () () () 0 0)
8 'allocate_csr_sparsity' 'sparse_tools' '' 1 ((PROCEDURE UNKNOWN-INTENT
MODULE-PROC DECL UNKNOWN 0 0 SUBROUTINE ALWAYS_EXPLICIT) (UNKNOWN 0 0 0
0 UNKNOWN ()) 500 0 (501 502 503 504 505 506 507 508) () 0 () () () 0 0)
49 'Picker_ptr' 'picker_data_types' '' 1 ((DERIVED UNKNOWN-INTENT
UNKNOWN-PROC UNKNOWN UNKNOWN 0 0 POINTER_COMP) (UNKNOWN 0 0 0 0 UNKNOWN
()) 0 0 () () 0 ((509 'ptr' (DERIVED 50 0 0 0 DERIVED ()) () (
UNKNOWN-FL UNKNOWN-INTENT UNKNOWN-PROC UNKNOWN UNKNOWN 0 0 POINTER)
UNKNOWN-ACCESS (NULL (UNKNOWN 0 0 0 0 UNKNOWN ()) 0))) PUBLIC (() () ()
()) () 0 0 71120007)
50 'Picker_type' 'picker_data_types' '' 1 ((DERIVED UNKNOWN-INTENT
UNKNOWN-PROC UNKNOWN UNKNOWN 0 0 POINTER_COMP) (UNKNOWN 0 0 0 0 UNKNOWN
()) 0 0 () () 0 ((510 'name' (CHARACTER 1 0 0 0 CHARACTER ((CONSTANT (
INTEGER 4 0 0 0 INTEGER ()) 0 '101'))) () (UNKNOWN-FL UNKNOWN-INTENT
UNKNOWN-PROC UNKNOWN UNKNOWN 0 0) UNKNOWN-ACCESS ()) (511 'refcount' (
DERIVED 67 0 0 0 DERIVED ()) () (UNKNOWN-FL UNKNOWN-INTENT UNKNOWN-PROC
UNKNOWN UNKNOWN 0 0 POINTER) UNKNOWN-ACCESS (NULL (UNKNOWN 0 0 0 0
UNKNOWN ()) 0)) (512 'picker_id' (INTEGER 4 0 0 0 INTEGER ()) () (
UNKNOWN-FL UNKNOWN-INTENT UNKNOWN-PROC UNKNOWN UNKNOWN 0 0)
UNKNOWN-ACCESS (CONSTANT (INTEGER 4 0 0 0 INTEGER ()) 0 '0')) (513
'last_mesh_movement' (INTEGER 4 0 0 0 INTEGER ()) () (UNKNOWN-FL
UNKNOWN-INTENT UNKNOWN-PROC UNKNOWN UNKNOWN 0 0) UNKNOWN-ACCESS (
CONSTANT (INTEGER 4 0 0 0 INTEGER ()) 0 '0'))) PUBLIC (() () () ()) () 0
0 8821665)
514 'initialise_picker' 'pickers_allocates' '' 1 ((PROCEDURE
UNKNOWN-INTENT MODULE-PROC DECL UNKNOWN 0 0 SUBROUTINE) (UNKNOWN 0 0 0 0
UNKNOWN ()) 515 0 (516) () 0 () () () 0 0)
517 'max_picker_ownership_tolerance' 'pickers_inquire' '' 1 ((PARAMETER
UNKNOWN-INTENT UNKNOWN-PROC UNKNOWN IMPLICIT-SAVE 0 0) (REAL 8 0 0 0
REAL ()) 0 0 () (CONSTANT (REAL 8 0 0 0 REAL ()) 0 '0.1999999999999a@0')
() 0 () () () 0 0)
518 'picker_name' 'pickers_base' '' 1 ((PROCEDURE UNKNOWN-INTENT
MODULE-PROC DECL UNKNOWN 0 0 FUNCTION PURE) (CHARACTER 1 0 0 0 CHARACTER
((FUNCTION (INTEGER 4 0 0 0 INTEGER ()) 0 519 (('' (VARIABLE (CHARACTER
1 0 0 0 CHARACTER ((CONSTANT (INTEGER 4 0 0 0 INTEGER ()) 0 '101'))) 0
520 ((COMPONENT 50 510)))) ('' ())) '__len_trim1' 0 'lnblnk'))) 521 0 (
520) () 518 () () () 0 0)
522 'picker_ptr' 'picker_data_types' '' 1 ((PROCEDURE UNKNOWN-INTENT
UNKNOWN-PROC DECL UNKNOWN 0 0 FUNCTION GENERIC) (UNKNOWN 0 0 0 0 UNKNOWN
()) 0 0 () () 0 () () () 0 0)
523 'picker_type' 'picker_data_types' '' 1 ((PROCEDURE UNKNOWN-INTENT
UNKNOWN-PROC DECL UNKNOWN 0 0 FUNCTION GENERIC) (UNKNOWN 0 0 0 0 UNKNOWN
()) 0 0 () () 0 () () () 0 0)
524 'pickers' 'pickers' '' 1 ((MODULE UNKNOWN-INTENT UNKNOWN-PROC
UNKNOWN UNKNOWN 0 0) (UNKNOWN 0 0 0 0 UNKNOWN ()) 0 0 () () 0 () () () 0
0)
525 'remove_picker' 'pickers_deallocates' '' 1 ((PROCEDURE
UNKNOWN-INTENT MODULE-PROC DECL UNKNOWN 0 0 SUBROUTINE) (UNKNOWN 0 0 0 0
UNKNOWN ()) 526 0 (527) () 0 () () () 0 0)
528 'set_picker_name' 'pickers_base' '' 1 ((PROCEDURE UNKNOWN-INTENT
MODULE-PROC DECL UNKNOWN 0 0 SUBROUTINE IMPLICIT_PURE) (UNKNOWN 0 0 0 0
UNKNOWN ()) 529 0 (530 531) () 0 () () () 0 0)
76 'constraint' '' '' 75 ((VARIABLE INOUT UNKNOWN-PROC UNKNOWN UNKNOWN 0
0 DUMMY) (DERIVED 119 0 0 0 DERIVED ()) 0 0 () () 0 () () () 0 0)
77 'element' '' '' 75 ((VARIABLE IN UNKNOWN-PROC UNKNOWN UNKNOWN 0 0
DUMMY) (DERIVED 99 0 0 0 DERIVED ()) 0 0 () () 0 () () () 0 0)
78 'type' '' '' 75 ((VARIABLE IN UNKNOWN-PROC UNKNOWN UNKNOWN 0 0 DUMMY)
(INTEGER 4 0 0 0 INTEGER ()) 0 0 () () 0 () () () 0 0)
79 'stat' '' '' 75 ((VARIABLE OUT UNKNOWN-PROC UNKNOWN UNKNOWN 0 0
OPTIONAL DUMMY) (INTEGER 4 0 0 0 INTEGER ()) 0 0 () () 0 () () () 0 0)
81 'iset' '' '' 80 ((VARIABLE OUT UNKNOWN-PROC UNKNOWN UNKNOWN 0 0 DUMMY)
(DERIVED 164 0 0 0 DERIVED ()) 0 0 () () 0 () () () 0 0)
83 'ihash' '' '' 82 ((VARIABLE OUT UNKNOWN-PROC UNKNOWN UNKNOWN 0 0
DUMMY) (DERIVED 182 0 0 0 DERIVED ()) 0 0 () () 0 () () () 0 0)
85 'iset' '' '' 84 ((VARIABLE OUT UNKNOWN-PROC UNKNOWN UNKNOWN 0 0
DIMENSION DUMMY) (DERIVED 164 0 0 0 DERIVED ()) 0 0 () (1 0
ASSUMED_SHAPE (CONSTANT (INTEGER 4 0 0 0 INTEGER ()) 0 '1') ()) 0 () ()
() 0 0)
87 'halo' '' '' 86 ((VARIABLE OUT UNKNOWN-PROC UNKNOWN UNKNOWN 0 0 DUMMY)
(DERIVED 158 0 0 0 DERIVED ()) 0 0 () () 0 () () () 0 0)
88 'nsends' '' '' 86 ((VARIABLE IN UNKNOWN-PROC UNKNOWN UNKNOWN 0 0
DIMENSION DUMMY) (INTEGER 4 0 0 0 INTEGER ()) 0 0 () (1 0 ASSUMED_SHAPE
(CONSTANT (INTEGER 4 0 0 0 INTEGER ()) 0 '1') ()) 0 () () () 0 0)
89 'nreceives' '' '' 86 ((VARIABLE IN UNKNOWN-PROC UNKNOWN UNKNOWN 0 0
DIMENSION DUMMY) (INTEGER 4 0 0 0 INTEGER ()) 0 0 () (1 0 ASSUMED_SHAPE
(CONSTANT (INTEGER 4 0 0 0 INTEGER ()) 0 '1') ()) 0 () () () 0 0)
90 'name' '' '' 86 ((VARIABLE IN UNKNOWN-PROC UNKNOWN UNKNOWN 0 0
OPTIONAL DUMMY) (CHARACTER 1 0 0 0 CHARACTER (())) 0 0 () () 0 () () ()
0 0)
91 'communicator' '' '' 86 ((VARIABLE IN UNKNOWN-PROC UNKNOWN UNKNOWN 0
0 OPTIONAL DUMMY) (INTEGER 4 0 0 0 INTEGER ()) 0 0 () () 0 () () () 0 0)
92 'nprocs' '' '' 86 ((VARIABLE IN UNKNOWN-PROC UNKNOWN UNKNOWN 0 0
OPTIONAL DUMMY) (INTEGER 4 0 0 0 INTEGER ()) 0 0 () () 0 () () () 0 0)
93 'nowned_nodes' '' '' 86 ((VARIABLE IN UNKNOWN-PROC UNKNOWN UNKNOWN 0
0 OPTIONAL DUMMY) (INTEGER 4 0 0 0 INTEGER ()) 0 0 () () 0 () () () 0 0)
94 'data_type' '' '' 86 ((VARIABLE IN UNKNOWN-PROC UNKNOWN UNKNOWN 0 0
OPTIONAL DUMMY) (INTEGER 4 0 0 0 INTEGER ()) 0 0 () () 0 () () () 0 0)
95 'ordering_scheme' '' '' 86 ((VARIABLE IN UNKNOWN-PROC UNKNOWN UNKNOWN
0 0 OPTIONAL DUMMY) (INTEGER 4 0 0 0 INTEGER ()) 0 0 () () 0 () () () 0
0)
97 'object' '' '' 96 ((VARIABLE IN UNKNOWN-PROC UNKNOWN UNKNOWN 0 0
DUMMY) (DERIVED 114 0 0 0 DERIVED ()) 0 0 () () 0 () () () 0 0)
98 'has_references' '' '' 96 ((VARIABLE UNKNOWN-INTENT UNKNOWN-PROC
UNKNOWN UNKNOWN 0 0 RESULT) (LOGICAL 4 0 0 0 LOGICAL ()) 0 0 () () 0 ()
() () 0 0)
138 'object' '' '' 137 ((VARIABLE IN UNKNOWN-PROC UNKNOWN UNKNOWN 0 0
DUMMY) (DERIVED 195 0 0 0 DERIVED ()) 0 0 () () 0 () () () 0 0)
139 'has_references' '' '' 137 ((VARIABLE UNKNOWN-INTENT UNKNOWN-PROC
UNKNOWN UNKNOWN 0 0 RESULT) (LOGICAL 4 0 0 0 LOGICAL ()) 0 0 () () 0 ()
() () 0 0)
237 'object' '' '' 236 ((VARIABLE IN UNKNOWN-PROC UNKNOWN UNKNOWN 0 0
DUMMY) (DERIVED 140 0 0 0 DERIVED ()) 0 0 () () 0 () () () 0 0)
238 'has_references' '' '' 236 ((VARIABLE UNKNOWN-INTENT UNKNOWN-PROC
UNKNOWN UNKNOWN 0 0 RESULT) (LOGICAL 4 0 0 0 LOGICAL ()) 0 0 () () 0 ()
() () 0 0)
285 'object' '' '' 284 ((VARIABLE IN UNKNOWN-PROC UNKNOWN UNKNOWN 0 0
DUMMY) (DERIVED 148 0 0 0 DERIVED ()) 0 0 () () 0 () () () 0 0)
286 'has_references' '' '' 284 ((VARIABLE UNKNOWN-INTENT UNKNOWN-PROC
UNKNOWN UNKNOWN 0 0 RESULT) (LOGICAL 4 0 0 0 LOGICAL ()) 0 0 () () 0 ()
() () 0 0)
323 'object' '' '' 322 ((VARIABLE IN UNKNOWN-PROC UNKNOWN UNKNOWN 0 0
DUMMY) (DERIVED 152 0 0 0 DERIVED ()) 0 0 () () 0 () () () 0 0)
324 'has_references' '' '' 322 ((VARIABLE UNKNOWN-INTENT UNKNOWN-PROC
UNKNOWN UNKNOWN 0 0 RESULT) (LOGICAL 4 0 0 0 LOGICAL ()) 0 0 () () 0 ()
() () 0 0)
335 'picker' '' '' 334 ((VARIABLE INOUT UNKNOWN-PROC UNKNOWN UNKNOWN 0 0
DUMMY) (DERIVED 50 0 0 0 DERIVED ()) 0 0 () () 0 () () () 0 0)
337 'object' '' '' 336 ((VARIABLE INOUT UNKNOWN-PROC UNKNOWN UNKNOWN 0 0
TARGET DUMMY) (DERIVED 50 0 0 0 DERIVED ()) 0 0 () () 0 () () () 0 0)
339 'object' '' '' 338 ((VARIABLE IN UNKNOWN-PROC UNKNOWN UNKNOWN 0 0
DUMMY) (DERIVED 50 0 0 0 DERIVED ()) 0 0 () () 0 () () () 0 0)
340 'has_references' '' '' 338 ((VARIABLE UNKNOWN-INTENT UNKNOWN-PROC
UNKNOWN UNKNOWN 0 0 RESULT) (LOGICAL 4 0 0 0 LOGICAL ()) 0 0 () () 0 ()
() () 0 0)
342 'object' '' '' 341 ((VARIABLE IN UNKNOWN-PROC UNKNOWN UNKNOWN 0 0
DUMMY) (DERIVED 184 0 0 0 DERIVED ()) 0 0 () () 0 () () () 0 0)
343 'has_references' '' '' 341 ((VARIABLE UNKNOWN-INTENT UNKNOWN-PROC
UNKNOWN UNKNOWN 0 0 RESULT) (LOGICAL 4 0 0 0 LOGICAL ()) 0 0 () () 0 ()
() () 0 0)
345 'picker' '' '' 344 ((VARIABLE INOUT UNKNOWN-PROC UNKNOWN UNKNOWN 0 0
DUMMY) (DERIVED 50 0 0 0 DERIVED ()) 0 0 () () 0 () () () 0 0)
347 'element' '' '' 346 ((VARIABLE INOUT UNKNOWN-PROC UNKNOWN UNKNOWN 0
0 DUMMY) (DERIVED 99 0 0 0 DERIVED ()) 0 0 () () 0 () () () 0 0)
348 'dim' '' '' 346 ((VARIABLE IN UNKNOWN-PROC UNKNOWN UNKNOWN 0 0 DUMMY)
(INTEGER 4 0 0 0 INTEGER ()) 0 0 () () 0 () () () 0 0)
349 'loc' '' '' 346 ((VARIABLE IN UNKNOWN-PROC UNKNOWN UNKNOWN 0 0 DUMMY)
(INTEGER 4 0 0 0 INTEGER ()) 0 0 () () 0 () () () 0 0)
350 'ngi' '' '' 346 ((VARIABLE IN UNKNOWN-PROC UNKNOWN UNKNOWN 0 0 DUMMY)
(INTEGER 4 0 0 0 INTEGER ()) 0 0 () () 0 () () () 0 0)
351 'faces' '' '' 346 ((VARIABLE IN UNKNOWN-PROC UNKNOWN UNKNOWN 0 0
DUMMY) (INTEGER 4 0 0 0 INTEGER ()) 0 0 () () 0 () () () 0 0)
352 'ngi_s' '' '' 346 ((VARIABLE IN UNKNOWN-PROC UNKNOWN UNKNOWN 0 0
DUMMY) (INTEGER 4 0 0 0 INTEGER ()) 0 0 () () 0 () () () 0 0)
353 'coords' '' '' 346 ((VARIABLE IN UNKNOWN-PROC UNKNOWN UNKNOWN 0 0
DUMMY) (INTEGER 4 0 0 0 INTEGER ()) 0 0 () () 0 () () () 0 0)
354 'surface_present' '' '' 346 ((VARIABLE IN UNKNOWN-PROC UNKNOWN
UNKNOWN 0 0 DUMMY) (LOGICAL 4 0 0 0 LOGICAL ()) 0 0 () () 0 () () () 0 0)
355 'type' '' '' 346 ((VARIABLE IN UNKNOWN-PROC UNKNOWN UNKNOWN 0 0
OPTIONAL DUMMY) (INTEGER 4 0 0 0 INTEGER ()) 0 0 () () 0 () () () 0 0)
356 'stat' '' '' 346 ((VARIABLE OUT UNKNOWN-PROC UNKNOWN UNKNOWN 0 0
OPTIONAL DUMMY) (INTEGER 4 0 0 0 INTEGER ()) 0 0 () () 0 () () () 0 0)
358 'object' '' '' 357 ((VARIABLE IN UNKNOWN-PROC UNKNOWN UNKNOWN 0 0
DUMMY) (DERIVED 99 0 0 0 DERIVED ()) 0 0 () () 0 () () () 0 0)
359 'has_references' '' '' 357 ((VARIABLE UNKNOWN-INTENT UNKNOWN-PROC
UNKNOWN UNKNOWN 0 0 RESULT) (LOGICAL 4 0 0 0 LOGICAL ()) 0 0 () () 0 ()
() () 0 0)
361 'object' '' '' 360 ((VARIABLE IN UNKNOWN-PROC UNKNOWN UNKNOWN 0 0
TARGET DUMMY) (DERIVED 99 0 0 0 DERIVED ()) 0 0 () () 0 () () () 0 0)
363 'object' '' '' 362 ((VARIABLE IN UNKNOWN-PROC UNKNOWN UNKNOWN 0 0
TARGET DUMMY) (DERIVED 50 0 0 0 DERIVED ()) 0 0 () () 0 () () () 0 0)
365 'object' '' '' 364 ((VARIABLE IN UNKNOWN-PROC UNKNOWN UNKNOWN 0 0
TARGET DUMMY) (DERIVED 148 0 0 0 DERIVED ()) 0 0 () () 0 () () () 0 0)
367 'positions_a' '' '' 366 ((VARIABLE INOUT UNKNOWN-PROC UNKNOWN
UNKNOWN 0 0 DUMMY) (DERIVED 222 0 0 0 DERIVED ()) 0 0 () () 0 () () () 0
0)
368 'positions_b' '' '' 366 ((VARIABLE IN UNKNOWN-PROC UNKNOWN UNKNOWN 0
0 DUMMY) (DERIVED 222 0 0 0 DERIVED ()) 0 0 () () 0 () () () 0 0)
369 'ele_as' '' '' 366 ((VARIABLE OUT UNKNOWN-PROC UNKNOWN UNKNOWN 0 0
DIMENSION DUMMY) (INTEGER 4 0 0 0 INTEGER ()) 0 0 () (1 0 EXPLICIT (
CONSTANT (INTEGER 4 0 0 0 INTEGER ()) 0 '1') (FUNCTION (INTEGER 4 0 0 0
INTEGER ()) 0 532 (('' (VARIABLE (DERIVED 222 0 0 0 DERIVED ()) 0 368 ())))
'node_count_vector' 1 451)) 0 () () () 0 0)
370 'local_coords' '' '' 366 ((VARIABLE OUT UNKNOWN-PROC UNKNOWN UNKNOWN
0 0 DIMENSION OPTIONAL DUMMY) (REAL 8 0 0 0 REAL ()) 0 0 () (2 0
EXPLICIT (CONSTANT (INTEGER 4 0 0 0 INTEGER ()) 0 '1') (OP (INTEGER 4 0
0 0 INTEGER ()) 0 PLUS (VARIABLE (INTEGER 4 0 0 0 INTEGER ()) 0 367 ((
COMPONENT 222 229))) (CONSTANT (INTEGER 4 0 0 0 INTEGER ()) 0 '1')) (
CONSTANT (INTEGER 4 0 0 0 INTEGER ()) 0 '1') (FUNCTION (INTEGER 4 0 0 0
INTEGER ()) 0 532 (('' (VARIABLE (DERIVED 222 0 0 0 DERIVED ()) 0 368 ())))
'node_count_vector' 1 451)) 0 () () () 0 0)
371 'global' '' '' 366 ((VARIABLE IN UNKNOWN-PROC UNKNOWN UNKNOWN 0 0
OPTIONAL DUMMY) (LOGICAL 4 0 0 0 LOGICAL ()) 0 0 () () 0 () () () 0 0)
373 'positions_a' '' '' 372 ((VARIABLE INOUT UNKNOWN-PROC UNKNOWN
UNKNOWN 0 0 DUMMY) (DERIVED 222 0 0 0 DERIVED ()) 0 0 () () 0 () () () 0
0)
374 'positions_b' '' '' 372 ((VARIABLE IN UNKNOWN-PROC UNKNOWN UNKNOWN 0
0 DUMMY) (DERIVED 222 0 0 0 DERIVED ()) 0 0 () () 0 () () () 0 0)
375 'ele_a' '' '' 372 ((VARIABLE OUT UNKNOWN-PROC UNKNOWN UNKNOWN 0 0
DUMMY) (DERIVED 164 0 0 0 DERIVED ()) 0 0 () () 0 () () () 0 0)
376 'node_b' '' '' 372 ((VARIABLE IN UNKNOWN-PROC UNKNOWN UNKNOWN 0 0
DUMMY) (INTEGER 4 0 0 0 INTEGER ()) 0 0 () () 0 () () () 0 0)
377 'ownership_tolerance' '' '' 372 ((VARIABLE IN UNKNOWN-PROC UNKNOWN
UNKNOWN 0 0 DUMMY) (REAL 8 0 0 0 REAL ()) 0 0 () () 0 () () () 0 0)
379 'positions_a' '' '' 378 ((VARIABLE INOUT UNKNOWN-PROC UNKNOWN
UNKNOWN 0 0 DUMMY) (DERIVED 222 0 0 0 DERIVED ()) 0 0 () () 0 () () () 0
0)
380 'positions_b' '' '' 378 ((VARIABLE IN UNKNOWN-PROC UNKNOWN UNKNOWN 0
0 DUMMY) (DERIVED 222 0 0 0 DERIVED ()) 0 0 () () 0 () () () 0 0)
381 'ele_as' '' '' 378 ((VARIABLE OUT UNKNOWN-PROC UNKNOWN UNKNOWN 0 0
DIMENSION DUMMY) (DERIVED 164 0 0 0 DERIVED ()) 0 0 () (1 0 EXPLICIT (
CONSTANT (INTEGER 4 0 0 0 INTEGER ()) 0 '1') (FUNCTION (INTEGER 4 0 0 0
INTEGER ()) 0 532 (('' (VARIABLE (DERIVED 222 0 0 0 DERIVED ()) 0 380 ())))
'node_count_vector' 1 451)) 0 () () () 0 0)
382 'ownership_tolerance' '' '' 378 ((VARIABLE IN UNKNOWN-PROC UNKNOWN
UNKNOWN 0 0 DUMMY) (REAL 8 0 0 0 REAL ()) 0 0 () () 0 () () () 0 0)
384 'object' '' '' 383 ((VARIABLE IN UNKNOWN-PROC UNKNOWN UNKNOWN 0 0
TARGET DUMMY) (DERIVED 114 0 0 0 DERIVED ()) 0 0 () () 0 () () () 0 0)
386 'positions' '' '' 385 ((VARIABLE INOUT UNKNOWN-PROC UNKNOWN UNKNOWN
0 0 DUMMY) (DERIVED 222 0 0 0 DERIVED ()) 0 0 () () 0 () () () 0 0)
387 'coordsx' '' '' 385 ((VARIABLE IN UNKNOWN-PROC UNKNOWN UNKNOWN 0 0
DIMENSION DUMMY) (REAL 8 0 0 0 REAL ()) 0 0 () (1 0 ASSUMED_SHAPE (
CONSTANT (INTEGER 4 0 0 0 INTEGER ()) 0 '1') ()) 0 () () () 0 0)
388 'coordsy' '' '' 385 ((VARIABLE IN UNKNOWN-PROC UNKNOWN UNKNOWN 0 0
DIMENSION OPTIONAL DUMMY) (REAL 8 0 0 0 REAL ()) 0 0 () (1 0 EXPLICIT (
CONSTANT (INTEGER 4 0 0 0 INTEGER ()) 0 '1') (FUNCTION (INTEGER 4 0 0 0
INTEGER ()) 0 533 (('' (VARIABLE (REAL 8 0 0 0 REAL ()) 1 387 ((ARRAY (
FULL 1 2))))) ('' ()) ('' ())) '' 0 'size')) 0 () () () 0 0)
389 'coordsz' '' '' 385 ((VARIABLE IN UNKNOWN-PROC UNKNOWN UNKNOWN 0 0
DIMENSION OPTIONAL DUMMY) (REAL 8 0 0 0 REAL ()) 0 0 () (1 0 EXPLICIT (
CONSTANT (INTEGER 4 0 0 0 INTEGER ()) 0 '1') (FUNCTION (INTEGER 4 0 0 0
INTEGER ()) 0 533 (('' (VARIABLE (REAL 8 0 0 0 REAL ()) 1 387 ((ARRAY (
FULL 1 2))))) ('' ()) ('' ())) '' 0 'size')) 0 () () () 0 0)
390 'eles' '' '' 385 ((VARIABLE OUT UNKNOWN-PROC UNKNOWN UNKNOWN 0 0
DIMENSION DUMMY) (INTEGER 4 0 0 0 INTEGER ()) 0 0 () (1 0 EXPLICIT (
CONSTANT (INTEGER 4 0 0 0 INTEGER ()) 0 '1') (FUNCTION (INTEGER 4 0 0 0
INTEGER ()) 0 533 (('' (VARIABLE (REAL 8 0 0 0 REAL ()) 1 387 ((ARRAY (
FULL 1 2))))) ('' ()) ('' ())) '' 0 'size')) 0 () () () 0 0)
391 'local_coords' '' '' 385 ((VARIABLE OUT UNKNOWN-PROC UNKNOWN UNKNOWN
0 0 DIMENSION OPTIONAL DUMMY) (REAL 8 0 0 0 REAL ()) 0 0 () (2 0
EXPLICIT (CONSTANT (INTEGER 4 0 0 0 INTEGER ()) 0 '1') (OP (INTEGER 4 0
0 0 INTEGER ()) 0 PLUS (VARIABLE (INTEGER 4 0 0 0 INTEGER ()) 0 386 ((
COMPONENT 222 229))) (CONSTANT (INTEGER 4 0 0 0 INTEGER ()) 0 '1')) (
CONSTANT (INTEGER 4 0 0 0 INTEGER ()) 0 '1') (FUNCTION (INTEGER 4 0 0 0
INTEGER ()) 0 533 (('' (VARIABLE (REAL 8 0 0 0 REAL ()) 1 387 ((ARRAY (
FULL 1 2))))) ('' ()) ('' ())) '' 0 'size')) 0 () () () 0 0)
392 'global' '' '' 385 ((VARIABLE IN UNKNOWN-PROC UNKNOWN UNKNOWN 0 0
OPTIONAL DUMMY) (LOGICAL 4 0 0 0 LOGICAL ()) 0 0 () () 0 () () () 0 0)
394 'positions_a' '' '' 393 ((VARIABLE INOUT UNKNOWN-PROC UNKNOWN
UNKNOWN 0 0 DUMMY) (DERIVED 222 0 0 0 DERIVED ()) 0 0 () () 0 () () () 0
0)
395 'positions_b' '' '' 393 ((VARIABLE IN UNKNOWN-PROC UNKNOWN UNKNOWN 0
0 DUMMY) (DERIVED 222 0 0 0 DERIVED ()) 0 0 () () 0 () () () 0 0)
396 'ele_a' '' '' 393 ((VARIABLE OUT UNKNOWN-PROC UNKNOWN UNKNOWN 0 0
DUMMY) (INTEGER 4 0 0 0 INTEGER ()) 0 0 () () 0 () () () 0 0)
397 'node_b' '' '' 393 ((VARIABLE IN UNKNOWN-PROC UNKNOWN UNKNOWN 0 0
DUMMY) (INTEGER 4 0 0 0 INTEGER ()) 0 0 () () 0 () () () 0 0)
398 'local_coord' '' '' 393 ((VARIABLE OUT UNKNOWN-PROC UNKNOWN UNKNOWN
0 0 DIMENSION OPTIONAL DUMMY) (REAL 8 0 0 0 REAL ()) 0 0 () (1 0
EXPLICIT (CONSTANT (INTEGER 4 0 0 0 INTEGER ()) 0 '1') (OP (INTEGER 4 0
0 0 INTEGER ()) 0 PLUS (VARIABLE (INTEGER 4 0 0 0 INTEGER ()) 0 394 ((
COMPONENT 222 229))) (CONSTANT (INTEGER 4 0 0 0 INTEGER ()) 0 '1'))) 0 ()
() () 0 0)
399 'global' '' '' 393 ((VARIABLE IN UNKNOWN-PROC UNKNOWN UNKNOWN 0 0
OPTIONAL DUMMY) (LOGICAL 4 0 0 0 LOGICAL ()) 0 0 () () 0 () () () 0 0)
401 'positions' '' '' 400 ((VARIABLE INOUT UNKNOWN-PROC UNKNOWN UNKNOWN
0 0 DUMMY) (DERIVED 222 0 0 0 DERIVED ()) 0 0 () () 0 () () () 0 0)
402 'coord' '' '' 400 ((VARIABLE IN UNKNOWN-PROC UNKNOWN UNKNOWN 0 0
DIMENSION DUMMY) (REAL 8 0 0 0 REAL ()) 0 0 () (1 0 EXPLICIT (CONSTANT (
INTEGER 4 0 0 0 INTEGER ()) 0 '1') (VARIABLE (INTEGER 4 0 0 0 INTEGER ())
0 401 ((COMPONENT 222 229)))) 0 () () () 0 0)
403 'ele' '' '' 400 ((VARIABLE OUT UNKNOWN-PROC UNKNOWN UNKNOWN 0 0
DUMMY) (DERIVED 164 0 0 0 DERIVED ()) 0 0 () () 0 () () () 0 0)
404 'ownership_tolerance' '' '' 400 ((VARIABLE IN UNKNOWN-PROC UNKNOWN
UNKNOWN 0 0 DUMMY) (REAL 8 0 0 0 REAL ()) 0 0 () () 0 () () () 0 0)
406 'positions' '' '' 405 ((VARIABLE INOUT UNKNOWN-PROC UNKNOWN UNKNOWN
0 0 DUMMY) (DERIVED 222 0 0 0 DERIVED ()) 0 0 () () 0 () () () 0 0)
407 'coords' '' '' 405 ((VARIABLE IN UNKNOWN-PROC UNKNOWN UNKNOWN 0 0
DIMENSION DUMMY) (REAL 8 0 0 0 REAL ()) 0 0 () (2 0 ASSUMED_SHAPE (
CONSTANT (INTEGER 4 0 0 0 INTEGER ()) 0 '1') () (CONSTANT (INTEGER 4 0 0
0 INTEGER ()) 0 '1') ()) 0 () () () 0 0)
408 'eles' '' '' 405 ((VARIABLE OUT UNKNOWN-PROC UNKNOWN UNKNOWN 0 0
DIMENSION DUMMY) (INTEGER 4 0 0 0 INTEGER ()) 0 0 () (1 0 EXPLICIT (
CONSTANT (INTEGER 4 0 0 0 INTEGER ()) 0 '1') (FUNCTION (INTEGER 4 0 0 0
INTEGER ()) 0 533 (('' (VARIABLE (REAL 8 0 0 0 REAL ()) 2 407 ((ARRAY (
FULL 2 2 2))))) ('' (CONSTANT (INTEGER 4 0 0 0 INTEGER ()) 0 '2')) ('' ()))
'' 0 'size')) 0 () () () 0 0)
409 'local_coords' '' '' 405 ((VARIABLE OUT UNKNOWN-PROC UNKNOWN UNKNOWN
0 0 DIMENSION OPTIONAL DUMMY) (REAL 8 0 0 0 REAL ()) 0 0 () (2 0
EXPLICIT (CONSTANT (INTEGER 4 0 0 0 INTEGER ()) 0 '1') (OP (INTEGER 4 0
0 0 INTEGER ()) 0 PLUS (VARIABLE (INTEGER 4 0 0 0 INTEGER ()) 0 406 ((
COMPONENT 222 229))) (CONSTANT (INTEGER 4 0 0 0 INTEGER ()) 0 '1')) (
CONSTANT (INTEGER 4 0 0 0 INTEGER ()) 0 '1') (FUNCTION (INTEGER 4 0 0 0
INTEGER ()) 0 533 (('' (VARIABLE (REAL 8 0 0 0 REAL ()) 2 407 ((ARRAY (
FULL 2 2 2))))) ('' (CONSTANT (INTEGER 4 0 0 0 INTEGER ()) 0 '2')) ('' ()))
'' 0 'size')) 0 () () () 0 0)
410 'global' '' '' 405 ((VARIABLE IN UNKNOWN-PROC UNKNOWN UNKNOWN 0 0
OPTIONAL DUMMY) (LOGICAL 4 0 0 0 LOGICAL ()) 0 0 () () 0 () () () 0 0)
412 'positions' '' '' 411 ((VARIABLE INOUT UNKNOWN-PROC UNKNOWN UNKNOWN
0 0 DUMMY) (DERIVED 222 0 0 0 DERIVED ()) 0 0 () () 0 () () () 0 0)
413 'coords' '' '' 411 ((VARIABLE IN UNKNOWN-PROC UNKNOWN UNKNOWN 0 0
DIMENSION DUMMY) (REAL 8 0 0 0 REAL ()) 0 0 () (2 0 ASSUMED_SHAPE (
CONSTANT (INTEGER 4 0 0 0 INTEGER ()) 0 '1') () (CONSTANT (INTEGER 4 0 0
0 INTEGER ()) 0 '1') ()) 0 () () () 0 0)
414 'eles' '' '' 411 ((VARIABLE OUT UNKNOWN-PROC UNKNOWN UNKNOWN 0 0
DIMENSION DUMMY) (DERIVED 164 0 0 0 DERIVED ()) 0 0 () (1 0 EXPLICIT (
CONSTANT (INTEGER 4 0 0 0 INTEGER ()) 0 '1') (FUNCTION (INTEGER 4 0 0 0
INTEGER ()) 0 533 (('' (VARIABLE (REAL 8 0 0 0 REAL ()) 2 413 ((ARRAY (
FULL 2 2 2))))) ('' (CONSTANT (INTEGER 4 0 0 0 INTEGER ()) 0 '2')) ('' ()))
'' 0 'size')) 0 () () () 0 0)
415 'ownership_tolerance' '' '' 411 ((VARIABLE IN UNKNOWN-PROC UNKNOWN
UNKNOWN 0 0 DUMMY) (REAL 8 0 0 0 REAL ()) 0 0 () () 0 () () () 0 0)
417 'positions' '' '' 416 ((VARIABLE INOUT UNKNOWN-PROC UNKNOWN UNKNOWN
0 0 DUMMY) (DERIVED 222 0 0 0 DERIVED ()) 0 0 () () 0 () () () 0 0)
418 'coord' '' '' 416 ((VARIABLE IN UNKNOWN-PROC UNKNOWN UNKNOWN 0 0
DIMENSION DUMMY) (REAL 8 0 0 0 REAL ()) 0 0 () (1 0 EXPLICIT (CONSTANT (
INTEGER 4 0 0 0 INTEGER ()) 0 '1') (VARIABLE (INTEGER 4 0 0 0 INTEGER ())
0 417 ((COMPONENT 222 229)))) 0 () () () 0 0)
419 'ele' '' '' 416 ((VARIABLE OUT UNKNOWN-PROC UNKNOWN UNKNOWN 0 0
DUMMY) (INTEGER 4 0 0 0 INTEGER ()) 0 0 () () 0 () () () 0 0)
420 'local_coord' '' '' 416 ((VARIABLE OUT UNKNOWN-PROC UNKNOWN UNKNOWN
0 0 DIMENSION OPTIONAL DUMMY) (REAL 8 0 0 0 REAL ()) 0 0 () (1 0
EXPLICIT (CONSTANT (INTEGER 4 0 0 0 INTEGER ()) 0 '1') (OP (INTEGER 4 0
0 0 INTEGER ()) 0 PLUS (VARIABLE (INTEGER 4 0 0 0 INTEGER ()) 0 417 ((
COMPONENT 222 229))) (CONSTANT (INTEGER 4 0 0 0 INTEGER ()) 0 '1'))) 0 ()
() () 0 0)
421 'global' '' '' 416 ((VARIABLE IN UNKNOWN-PROC UNKNOWN UNKNOWN 0 0
OPTIONAL DUMMY) (LOGICAL 4 0 0 0 LOGICAL ()) 0 0 () () 0 () () () 0 0)
423 'object' '' '' 422 ((VARIABLE IN UNKNOWN-PROC UNKNOWN UNKNOWN 0 0
TARGET DUMMY) (DERIVED 195 0 0 0 DERIVED ()) 0 0 () () 0 () () () 0 0)
425 'positions' '' '' 424 ((VARIABLE INOUT UNKNOWN-PROC UNKNOWN UNKNOWN
0 0 DUMMY) (DERIVED 222 0 0 0 DERIVED ()) 0 0 () () 0 () () () 0 0)
426 'low' '' '' 424 ((VARIABLE IN UNKNOWN-PROC UNKNOWN UNKNOWN 0 0
DIMENSION DUMMY) (REAL 8 0 0 0 REAL ()) 0 0 () (1 0 ASSUMED_SIZE (
CONSTANT (INTEGER 4 0 0 0 INTEGER ()) 0 '1') ()) 0 () () () 0 0)
427 'high' '' '' 424 ((VARIABLE IN UNKNOWN-PROC UNKNOWN UNKNOWN 0 0
DIMENSION DUMMY) (REAL 8 0 0 0 REAL ()) 0 0 () (1 0 ASSUMED_SIZE (
CONSTANT (INTEGER 4 0 0 0 INTEGER ()) 0 '1') ()) 0 () () () 0 0)
428 'eles' '' '' 424 ((VARIABLE OUT UNKNOWN-PROC UNKNOWN UNKNOWN 0 0
DIMENSION POINTER DUMMY) (INTEGER 4 0 0 0 INTEGER ()) 0 0 () (1 0
DEFERRED () ()) 0 () () () 0 0)
430 'positions' '' '' 429 ((VARIABLE INOUT UNKNOWN-PROC UNKNOWN UNKNOWN
0 0 DUMMY) (DERIVED 222 0 0 0 DERIVED ()) 0 0 () () 0 () () () 0 0)
431 'coordx' '' '' 429 ((VARIABLE IN UNKNOWN-PROC UNKNOWN UNKNOWN 0 0
DUMMY) (REAL 8 0 0 0 REAL ()) 0 0 () () 0 () () () 0 0)
432 'coordy' '' '' 429 ((VARIABLE IN UNKNOWN-PROC UNKNOWN UNKNOWN 0 0
OPTIONAL DUMMY) (REAL 8 0 0 0 REAL ()) 0 0 () () 0 () () () 0 0)
433 'coordz' '' '' 429 ((VARIABLE IN UNKNOWN-PROC UNKNOWN UNKNOWN 0 0
OPTIONAL DUMMY) (REAL 8 0 0 0 REAL ()) 0 0 () () 0 () () () 0 0)
434 'ele' '' '' 429 ((VARIABLE OUT UNKNOWN-PROC UNKNOWN UNKNOWN 0 0
DUMMY) (INTEGER 4 0 0 0 INTEGER ()) 0 0 () () 0 () () () 0 0)
435 'local_coord' '' '' 429 ((VARIABLE OUT UNKNOWN-PROC UNKNOWN UNKNOWN
0 0 DIMENSION OPTIONAL DUMMY) (REAL 8 0 0 0 REAL ()) 0 0 () (1 0
EXPLICIT (CONSTANT (INTEGER 4 0 0 0 INTEGER ()) 0 '1') (OP (INTEGER 4 0
0 0 INTEGER ()) 0 PLUS (VARIABLE (INTEGER 4 0 0 0 INTEGER ()) 0 430 ((
COMPONENT 222 229))) (CONSTANT (INTEGER 4 0 0 0 INTEGER ()) 0 '1'))) 0 ()
() () 0 0)
436 'global' '' '' 429 ((VARIABLE IN UNKNOWN-PROC UNKNOWN UNKNOWN 0 0
OPTIONAL DUMMY) (LOGICAL 4 0 0 0 LOGICAL ()) 0 0 () () 0 () () () 0 0)
438 'object' '' '' 437 ((VARIABLE IN UNKNOWN-PROC UNKNOWN UNKNOWN 0 0
TARGET DUMMY) (DERIVED 152 0 0 0 DERIVED ()) 0 0 () () 0 () () () 0 0)
440 'object' '' '' 439 ((VARIABLE IN UNKNOWN-PROC UNKNOWN UNKNOWN 0 0
TARGET DUMMY) (DERIVED 158 0 0 0 DERIVED ()) 0 0 () () 0 () () () 0 0)
442 'object' '' '' 441 ((VARIABLE IN UNKNOWN-PROC UNKNOWN UNKNOWN 0 0
TARGET DUMMY) (DERIVED 184 0 0 0 DERIVED ()) 0 0 () () 0 () () () 0 0)
444 'object' '' '' 443 ((VARIABLE IN UNKNOWN-PROC UNKNOWN UNKNOWN 0 0
TARGET DUMMY) (DERIVED 140 0 0 0 DERIVED ()) 0 0 () () 0 () () () 0 0)
446 'element' '' '' 445 ((VARIABLE INOUT UNKNOWN-PROC UNKNOWN UNKNOWN 0
0 DUMMY) (DERIVED 99 0 0 0 DERIVED ()) 0 0 () () 0 () () () 0 0)
447 'ele_num' '' '' 445 ((VARIABLE IN UNKNOWN-PROC UNKNOWN UNKNOWN 0 0
DUMMY) (DERIVED 112 0 0 0 DERIVED ()) 0 0 () () 0 () () () 0 0)
448 'ngi' '' '' 445 ((VARIABLE IN UNKNOWN-PROC UNKNOWN UNKNOWN 0 0 DUMMY)
(INTEGER 4 0 0 0 INTEGER ()) 0 0 () () 0 () () () 0 0)
449 'type' '' '' 445 ((VARIABLE IN UNKNOWN-PROC UNKNOWN UNKNOWN 0 0
OPTIONAL DUMMY) (INTEGER 4 0 0 0 INTEGER ()) 0 0 () () 0 () () () 0 0)
450 'stat' '' '' 445 ((VARIABLE OUT UNKNOWN-PROC UNKNOWN UNKNOWN 0 0
OPTIONAL DUMMY) (INTEGER 4 0 0 0 INTEGER ()) 0 0 () () 0 () () () 0 0)
453 'field' '' '' 452 ((VARIABLE IN UNKNOWN-PROC UNKNOWN UNKNOWN 0 0
DUMMY) (DERIVED 222 0 0 0 DERIVED ()) 0 0 () () 0 () () () 0 0)
454 'node_count' '' '' 452 ((VARIABLE UNKNOWN-INTENT UNKNOWN-PROC
UNKNOWN UNKNOWN 0 0 RESULT) (INTEGER 4 0 0 0 INTEGER ()) 0 0 () () 0 ()
() () 0 0)
456 'object' '' '' 455 ((VARIABLE IN UNKNOWN-PROC UNKNOWN UNKNOWN 0 0
DUMMY) (DERIVED 158 0 0 0 DERIVED ()) 0 0 () () 0 () () () 0 0)
457 'has_references' '' '' 455 ((VARIABLE UNKNOWN-INTENT UNKNOWN-PROC
UNKNOWN UNKNOWN 0 0 RESULT) (LOGICAL 4 0 0 0 LOGICAL ()) 0 0 () () 0 ()
() () 0 0)
459 'output_halo' '' '' 458 ((VARIABLE OUT UNKNOWN-PROC UNKNOWN UNKNOWN
0 0 DUMMY) (DERIVED 158 0 0 0 DERIVED ()) 0 0 () () 0 () () () 0 0)
460 'base_halo' '' '' 458 ((VARIABLE IN UNKNOWN-PROC UNKNOWN UNKNOWN 0 0
DUMMY) (DERIVED 158 0 0 0 DERIVED ()) 0 0 () () 0 () () () 0 0)
462 'quad' '' '' 461 ((VARIABLE INOUT UNKNOWN-PROC UNKNOWN UNKNOWN 0 0
DUMMY) (DERIVED 114 0 0 0 DERIVED ()) 0 0 () () 0 () () () 0 0)
463 'vertices' '' '' 461 ((VARIABLE IN UNKNOWN-PROC UNKNOWN UNKNOWN 0 0
DUMMY) (INTEGER 4 0 0 0 INTEGER ()) 0 0 () () 0 () () () 0 0)
464 'ngi' '' '' 461 ((VARIABLE IN UNKNOWN-PROC UNKNOWN UNKNOWN 0 0 DUMMY)
(INTEGER 4 0 0 0 INTEGER ()) 0 0 () () 0 () () () 0 0)
465 'coords' '' '' 461 ((VARIABLE IN UNKNOWN-PROC UNKNOWN UNKNOWN 0 0
DUMMY) (INTEGER 4 0 0 0 INTEGER ()) 0 0 () () 0 () () () 0 0)
466 'stat' '' '' 461 ((VARIABLE OUT UNKNOWN-PROC UNKNOWN UNKNOWN 0 0
OPTIONAL DUMMY) (INTEGER 4 0 0 0 INTEGER ()) 0 0 () () 0 () () () 0 0)
468 'picker' '' '' 467 ((VARIABLE OUT UNKNOWN-PROC UNKNOWN UNKNOWN 0 0
DUMMY) (DERIVED 50 0 0 0 DERIVED ()) 0 0 () () 0 () () () 0 0)
469 'positions' '' '' 467 ((VARIABLE IN UNKNOWN-PROC UNKNOWN UNKNOWN 0 0
DUMMY) (DERIVED 222 0 0 0 DERIVED ()) 0 0 () () 0 () () () 0 0)
470 'name' '' '' 467 ((VARIABLE IN UNKNOWN-PROC UNKNOWN UNKNOWN 0 0
OPTIONAL DUMMY) (CHARACTER 1 0 0 0 CHARACTER (())) 0 0 () () 0 () () ()
0 0)
472 'matrix' '' '' 471 ((VARIABLE INOUT UNKNOWN-PROC UNKNOWN UNKNOWN 0 0
DUMMY) (DERIVED 140 0 0 0 DERIVED ()) 0 0 () () 0 () () () 0 0)
473 'rows' '' '' 471 ((VARIABLE IN UNKNOWN-PROC UNKNOWN UNKNOWN 0 0
DUMMY) (INTEGER 4 0 0 0 INTEGER ()) 0 0 () () 0 () () () 0 0)
474 'columns' '' '' 471 ((VARIABLE IN UNKNOWN-PROC UNKNOWN UNKNOWN 0 0
DUMMY) (INTEGER 4 0 0 0 INTEGER ()) 0 0 () () 0 () () () 0 0)
475 'name' '' '' 471 ((VARIABLE UNKNOWN-INTENT UNKNOWN-PROC UNKNOWN
UNKNOWN 0 0 OPTIONAL DUMMY) (CHARACTER 1 0 0 0 CHARACTER (())) 0 0 () ()
0 () () () 0 0)
476 'stat' '' '' 471 ((VARIABLE OUT UNKNOWN-PROC UNKNOWN UNKNOWN 0 0
OPTIONAL DUMMY) (INTEGER 4 0 0 0 INTEGER ()) 0 0 () () 0 () () () 0 0)
478 'matrix' '' '' 477 ((VARIABLE INOUT UNKNOWN-PROC UNKNOWN UNKNOWN 0 0
DUMMY) (DERIVED 148 0 0 0 DERIVED ()) 0 0 () () 0 () () () 0 0)
479 'blocks' '' '' 477 ((VARIABLE IN UNKNOWN-PROC UNKNOWN UNKNOWN 0 0
DIMENSION DUMMY) (INTEGER 4 0 0 0 INTEGER ()) 0 0 () (1 0 EXPLICIT (
CONSTANT (INTEGER 4 0 0 0 INTEGER ()) 0 '1') (CONSTANT (INTEGER 4 0 0 0
INTEGER ()) 0 '2')) 0 () () () 0 0)
480 'rows' '' '' 477 ((VARIABLE IN UNKNOWN-PROC UNKNOWN UNKNOWN 0 0
DIMENSION DUMMY) (INTEGER 4 0 0 0 INTEGER ()) 0 0 () (1 0 EXPLICIT (
CONSTANT (INTEGER 4 0 0 0 INTEGER ()) 0 '1') (VARIABLE (INTEGER 4 0 0 0
INTEGER ()) 0 479 ((ARRAY (ELEMENT 1 (CONSTANT (INTEGER 4 0 0 0 INTEGER
()) 0 '1') 1))))) 0 () () () 0 0)
481 'columns' '' '' 477 ((VARIABLE IN UNKNOWN-PROC UNKNOWN UNKNOWN 0 0
DIMENSION DUMMY) (INTEGER 4 0 0 0 INTEGER ()) 0 0 () (1 0 EXPLICIT (
CONSTANT (INTEGER 4 0 0 0 INTEGER ()) 0 '1') (VARIABLE (INTEGER 4 0 0 0
INTEGER ()) 0 479 ((ARRAY (ELEMENT 1 (CONSTANT (INTEGER 4 0 0 0 INTEGER
()) 0 '2') 1))))) 0 () () () 0 0)
482 'name' '' '' 477 ((VARIABLE UNKNOWN-INTENT UNKNOWN-PROC UNKNOWN
UNKNOWN 0 0 OPTIONAL DUMMY) (CHARACTER 1 0 0 0 CHARACTER (())) 0 0 () ()
0 () () () 0 0)
483 'stat' '' '' 477 ((VARIABLE OUT UNKNOWN-PROC UNKNOWN UNKNOWN 0 0
OPTIONAL DUMMY) (INTEGER 4 0 0 0 INTEGER ()) 0 0 () () 0 () () () 0 0)
485 'matrix' '' '' 484 ((VARIABLE OUT UNKNOWN-PROC UNKNOWN UNKNOWN 0 0
DUMMY) (DERIVED 195 0 0 0 DERIVED ()) 0 0 () () 0 () () () 0 0)
486 'sparsity' '' '' 484 ((VARIABLE IN UNKNOWN-PROC UNKNOWN UNKNOWN 0 0
DUMMY) (DERIVED 152 0 0 0 DERIVED ()) 0 0 () () 0 () () () 0 0)
487 'blocks' '' '' 484 ((VARIABLE IN UNKNOWN-PROC UNKNOWN UNKNOWN 0 0
DIMENSION DUMMY) (INTEGER 4 0 0 0 INTEGER ()) 0 0 () (1 0 EXPLICIT (
CONSTANT (INTEGER 4 0 0 0 INTEGER ()) 0 '1') (CONSTANT (INTEGER 4 0 0 0
INTEGER ()) 0 '2')) 0 () () () 0 0)
488 'data' '' '' 484 ((VARIABLE IN UNKNOWN-PROC UNKNOWN UNKNOWN 0 0
OPTIONAL DUMMY) (LOGICAL 4 0 0 0 LOGICAL ()) 0 0 () () 0 () () () 0 0)
489 'name' '' '' 484 ((VARIABLE UNKNOWN-INTENT UNKNOWN-PROC UNKNOWN
UNKNOWN 0 0 OPTIONAL DUMMY) (CHARACTER 1 0 0 0 CHARACTER (())) 0 0 () ()
0 () () () 0 0)
490 'diagonal' '' '' 484 ((VARIABLE IN UNKNOWN-PROC UNKNOWN UNKNOWN 0 0
OPTIONAL DUMMY) (LOGICAL 4 0 0 0 LOGICAL ()) 0 0 () () 0 () () () 0 0)
491 'equal_diagonal_blocks' '' '' 484 ((VARIABLE IN UNKNOWN-PROC UNKNOWN
UNKNOWN 0 0 OPTIONAL DUMMY) (LOGICAL 4 0 0 0 LOGICAL ()) 0 0 () () 0 ()
() () 0 0)
492 'stat' '' '' 484 ((VARIABLE OUT UNKNOWN-PROC UNKNOWN UNKNOWN 0 0
OPTIONAL DUMMY) (INTEGER 4 0 0 0 INTEGER ()) 0 0 () () 0 () () () 0 0)
494 'matrix' '' '' 493 ((VARIABLE OUT UNKNOWN-PROC UNKNOWN UNKNOWN 0 0
DUMMY) (DERIVED 184 0 0 0 DERIVED ()) 0 0 () () 0 () () () 0 0)
495 'sparsity' '' '' 493 ((VARIABLE IN UNKNOWN-PROC UNKNOWN UNKNOWN 0 0
DUMMY) (DERIVED 152 0 0 0 DERIVED ()) 0 0 () () 0 () () () 0 0)
496 'val' '' '' 493 ((VARIABLE IN UNKNOWN-PROC UNKNOWN UNKNOWN 0 0
OPTIONAL DUMMY) (LOGICAL 4 0 0 0 LOGICAL ()) 0 0 () () 0 () () () 0 0)
497 'type' '' '' 493 ((VARIABLE IN UNKNOWN-PROC UNKNOWN UNKNOWN 0 0
OPTIONAL DUMMY) (INTEGER 4 0 0 0 INTEGER ()) 0 0 () () 0 () () () 0 0)
498 'name' '' '' 493 ((VARIABLE IN UNKNOWN-PROC UNKNOWN UNKNOWN 0 0
OPTIONAL DUMMY) (CHARACTER 1 0 0 0 CHARACTER (())) 0 0 () () 0 () () ()
0 0)
499 'stat' '' '' 493 ((VARIABLE OUT UNKNOWN-PROC UNKNOWN UNKNOWN 0 0
OPTIONAL DUMMY) (INTEGER 4 0 0 0 INTEGER ()) 0 0 () () 0 () () () 0 0)
501 'sparsity' '' '' 500 ((VARIABLE OUT UNKNOWN-PROC UNKNOWN UNKNOWN 0 0
DUMMY) (DERIVED 152 0 0 0 DERIVED ()) 0 0 () () 0 () () () 0 0)
502 'rows' '' '' 500 ((VARIABLE IN UNKNOWN-PROC UNKNOWN UNKNOWN 0 0
DUMMY) (INTEGER 4 0 0 0 INTEGER ()) 0 0 () () 0 () () () 0 0)
503 'columns' '' '' 500 ((VARIABLE IN UNKNOWN-PROC UNKNOWN UNKNOWN 0 0
DUMMY) (INTEGER 4 0 0 0 INTEGER ()) 0 0 () () 0 () () () 0 0)
504 'entries' '' '' 500 ((VARIABLE IN UNKNOWN-PROC UNKNOWN UNKNOWN 0 0
OPTIONAL DUMMY) (INTEGER 4 0 0 0 INTEGER ()) 0 0 () () 0 () () () 0 0)
505 'nnz' '' '' 500 ((VARIABLE IN UNKNOWN-PROC UNKNOWN UNKNOWN 0 0
DIMENSION OPTIONAL DUMMY) (INTEGER 4 0 0 0 INTEGER ()) 0 0 () (1 0
ASSUMED_SHAPE (CONSTANT (INTEGER 4 0 0 0 INTEGER ()) 0 '1') ()) 0 () ()
() 0 0)
506 'diag' '' '' 500 ((VARIABLE IN UNKNOWN-PROC UNKNOWN UNKNOWN 0 0
OPTIONAL DUMMY) (LOGICAL 4 0 0 0 LOGICAL ()) 0 0 () () 0 () () () 0 0)
507 'name' '' '' 500 ((VARIABLE IN UNKNOWN-PROC UNKNOWN UNKNOWN 0 0
DUMMY) (CHARACTER 1 0 0 0 CHARACTER (())) 0 0 () () 0 () () () 0 0)
508 'stat' '' '' 500 ((VARIABLE OUT UNKNOWN-PROC UNKNOWN UNKNOWN 0 0
OPTIONAL DUMMY) (INTEGER 4 0 0 0 INTEGER ()) 0 0 () () 0 () () () 0 0)
516 'positions' '' '' 515 ((VARIABLE INOUT UNKNOWN-PROC UNKNOWN UNKNOWN
0 0 DUMMY) (DERIVED 222 0 0 0 DERIVED ()) 0 0 () () 0 () () () 0 0)
519 'len_trim' '(intrinsic)' '' 521 ((PROCEDURE UNKNOWN-INTENT
UNKNOWN-PROC UNKNOWN UNKNOWN 0 0 FUNCTION) (INTEGER 4 0 0 0 INTEGER ())
0 0 () () 519 () () () 0 0)
520 'picker' '' '' 521 ((VARIABLE IN UNKNOWN-PROC UNKNOWN UNKNOWN 0 0
DUMMY) (DERIVED 50 0 0 0 DERIVED ()) 0 0 () () 0 () () () 0 0)
527 'field' '' '' 526 ((VARIABLE INOUT UNKNOWN-PROC UNKNOWN UNKNOWN 0 0
DUMMY) (DERIVED 222 0 0 0 DERIVED ()) 0 0 () () 0 () () () 0 0)
530 'picker' '' '' 529 ((VARIABLE INOUT UNKNOWN-PROC UNKNOWN UNKNOWN 0 0
DUMMY) (DERIVED 50 0 0 0 DERIVED ()) 0 0 () () 0 () () () 0 0)
531 'name' '' '' 529 ((VARIABLE IN UNKNOWN-PROC UNKNOWN UNKNOWN 0 0
DUMMY) (CHARACTER 1 0 0 0 CHARACTER (())) 0 0 () () 0 () () () 0 0)
532 'node_count' 'fields' '' 1 ((PROCEDURE UNKNOWN-INTENT UNKNOWN-PROC
UNKNOWN UNKNOWN 0 0 GENERIC) (UNKNOWN 0 0 0 0 UNKNOWN ()) 0 0 () () 0 ()
() () 0 0)
533 'size' '(intrinsic)' '' 1 ((PROCEDURE UNKNOWN-INTENT UNKNOWN-PROC
UNKNOWN UNKNOWN 0 0 GENERIC) (UNKNOWN 0 0 0 0 UNKNOWN ()) 0 0 () () 0 ()
() () 0 0)
)

('Picker_ptr' 0 49 'Picker_type' 0 50 'initialise_picker' 0 514
'max_picker_ownership_tolerance' 0 517 'picker_name' 0 518 'picker_ptr'
0 522 'picker_type' 0 523 'pickers' 0 524 'remove_picker' 0 525
'set_picker_name' 0 528)
