GFORTRAN module version '10' created from Particle_Management.F90
MD5:9fa864950213ef9be6a1f47ef3f49b7b -- If you edit this, you'll get what you deserve.

(() () () () () () () () () () () () () () () () () () () () () () ()
() () () ())

()

(('detector_buffer' 'detector_data_types' 2) ('detector_linked_list'
'detector_data_types' 3) ('detector_list_ptr' 'detector_data_types' 4) (
'detector_type' 'detector_data_types' 5) ('food_set' 'detector_data_types'
6) ('food_variety' 'detector_data_types' 7) ('functional_group'
'detector_data_types' 8) ('le_variable' 'detector_data_types' 9) (
'proxy_agent' 'proxy_agent_module' 10) ('random_walk'
'detector_data_types' 11) ('stringlist' 'detector_data_types' 12))

()

()

()

(13 'Integer_hash_table' 'integer_hash_table_module' '' 1 ((DERIVED
UNKNOWN-INTENT UNKNOWN-PROC UNKNOWN UNKNOWN 0 0) (UNKNOWN 0 0 0 0
UNKNOWN ()) 0 0 () () 0 ((14 'address' (DERIVED 15 0 0 0 DERIVED ()) ()
(UNKNOWN-FL UNKNOWN-INTENT UNKNOWN-PROC UNKNOWN UNKNOWN 0 0)
UNKNOWN-ACCESS ())) PUBLIC (() () () ()) () 0 0 67448272)
16 'Linked_list' 'element_path_list' '' 1 ((DERIVED UNKNOWN-INTENT
UNKNOWN-PROC UNKNOWN UNKNOWN 0 0 POINTER_COMP) (UNKNOWN 0 0 0 0 UNKNOWN
()) 0 0 () () 0 ((17 'next' (DERIVED 16 0 0 0 DERIVED ()) () (
UNKNOWN-FL UNKNOWN-INTENT UNKNOWN-PROC UNKNOWN UNKNOWN 0 0 POINTER)
UNKNOWN-ACCESS ()) (18 'data' (DERIVED 19 0 0 0 DERIVED ()) () (
UNKNOWN-FL UNKNOWN-INTENT UNKNOWN-PROC UNKNOWN UNKNOWN 0 0)
UNKNOWN-ACCESS ())) PUBLIC (() () () ()) () 0 0 25135322)
15 'C_ptr' '__iso_c_binding' '' 1 ((DERIVED UNKNOWN-INTENT UNKNOWN-PROC
UNKNOWN UNKNOWN 0 0 IS_BIND_C IS_C_INTEROP IS_ISO_C) (DERIVED 15 0 1 1
UNKNOWN ()) 0 0 () () 0 ((20 '__c_ptr_c_address' (INTEGER 8 0 1 0
INTEGER ()) () (UNKNOWN-FL UNKNOWN-INTENT UNKNOWN-PROC UNKNOWN UNKNOWN 0
0) UNKNOWN-ACCESS ())) UNKNOWN-ACCESS () () 2 42 0)
19 'Path_element' 'path_element_module' '' 1 ((DERIVED UNKNOWN-INTENT
UNKNOWN-PROC UNKNOWN UNKNOWN 0 0) (UNKNOWN 0 0 0 0 UNKNOWN ()) 0 0 () ()
0 ((21 'ele' (INTEGER 4 0 0 0 INTEGER ()) () (UNKNOWN-FL UNKNOWN-INTENT
UNKNOWN-PROC UNKNOWN UNKNOWN 0 0) UNKNOWN-ACCESS ()) (22 'dist' (REAL 8
0 0 0 REAL ()) () (UNKNOWN-FL UNKNOWN-INTENT UNKNOWN-PROC UNKNOWN
UNKNOWN 0 0) UNKNOWN-ACCESS ())) PUBLIC (() () () ()) () 0 0 169048)
2 'Detector_buffer' 'detector_data_types' '' 1 ((DERIVED UNKNOWN-INTENT
UNKNOWN-PROC UNKNOWN UNKNOWN 0 0 POINTER_COMP) (UNKNOWN 0 0 0 0 UNKNOWN
()) 0 0 () () 0 ((23 'ptr' (REAL 8 0 0 0 REAL ()) (1 0 DEFERRED () ()) (
UNKNOWN-FL UNKNOWN-INTENT UNKNOWN-PROC UNKNOWN UNKNOWN 0 0 DIMENSION
POINTER) UNKNOWN-ACCESS ())) PUBLIC (() () () ()) () 0 0 70276631)
3 'Detector_linked_list' 'detector_data_types' '' 1 ((DERIVED
UNKNOWN-INTENT UNKNOWN-PROC UNKNOWN UNKNOWN 0 0 ALLOC_COMP POINTER_COMP)
(UNKNOWN 0 0 0 0 UNKNOWN ()) 0 0 () () 0 ((24 'length' (INTEGER 4 0 0 0
INTEGER ()) () (UNKNOWN-FL UNKNOWN-INTENT UNKNOWN-PROC UNKNOWN UNKNOWN 0
0) UNKNOWN-ACCESS (CONSTANT (INTEGER 4 0 0 0 INTEGER ()) 0 '0')) (25
'first' (DERIVED 5 0 0 0 DERIVED ()) () (UNKNOWN-FL UNKNOWN-INTENT
UNKNOWN-PROC UNKNOWN UNKNOWN 0 0 POINTER) UNKNOWN-ACCESS (NULL (UNKNOWN
0 0 0 0 UNKNOWN ()) 0)) (26 'last' (DERIVED 5 0 0 0 DERIVED ()) () (
UNKNOWN-FL UNKNOWN-INTENT UNKNOWN-PROC UNKNOWN UNKNOWN 0 0 POINTER)
UNKNOWN-ACCESS (NULL (UNKNOWN 0 0 0 0 UNKNOWN ()) 0)) (27 'id' (INTEGER
4 0 0 0 INTEGER ()) () (UNKNOWN-FL UNKNOWN-INTENT UNKNOWN-PROC UNKNOWN
UNKNOWN 0 0) UNKNOWN-ACCESS ()) (28 'name' (CHARACTER 1 0 0 0 CHARACTER
((CONSTANT (INTEGER 4 0 0 0 INTEGER ()) 0 '101'))) () (UNKNOWN-FL
UNKNOWN-INTENT UNKNOWN-PROC UNKNOWN UNKNOWN 0 0) UNKNOWN-ACCESS ()) (29
'fgroup' (DERIVED 8 0 0 0 DERIVED ()) () (UNKNOWN-FL UNKNOWN-INTENT
UNKNOWN-PROC UNKNOWN UNKNOWN 0 0 POINTER) UNKNOWN-ACCESS (NULL (UNKNOWN
0 0 0 0 UNKNOWN ()) 0)) (30 'stage_name' (CHARACTER 1 0 0 0 CHARACTER (
(CONSTANT (INTEGER 4 0 0 0 INTEGER ()) 0 '101'))) () (UNKNOWN-FL
UNKNOWN-INTENT UNKNOWN-PROC UNKNOWN UNKNOWN 0 0) UNKNOWN-ACCESS ()) (31
'stage_options' (CHARACTER 1 0 0 0 CHARACTER ((CONSTANT (INTEGER 4 0 0 0
INTEGER ()) 0 '8192'))) () (UNKNOWN-FL UNKNOWN-INTENT UNKNOWN-PROC
UNKNOWN UNKNOWN 0 0) UNKNOWN-ACCESS ()) (32 'biovar_pycode' (CHARACTER 1
0 0 0 CHARACTER ((CONSTANT (INTEGER 4 0 0 0 INTEGER ()) 0 '8192'))) () (
UNKNOWN-FL UNKNOWN-INTENT UNKNOWN-PROC UNKNOWN UNKNOWN 0 0)
UNKNOWN-ACCESS ()) (33 'n_subcycles' (INTEGER 4 0 0 0 INTEGER ()) () (
UNKNOWN-FL UNKNOWN-INTENT UNKNOWN-PROC UNKNOWN UNKNOWN 0 0)
UNKNOWN-ACCESS (CONSTANT (INTEGER 4 0 0 0 INTEGER ()) 0 '1')) (34
'velocity_advection' (LOGICAL 4 0 0 0 LOGICAL ()) () (UNKNOWN-FL
UNKNOWN-INTENT UNKNOWN-PROC UNKNOWN UNKNOWN 0 0) UNKNOWN-ACCESS (
CONSTANT (LOGICAL 4 0 0 0 LOGICAL ()) 0 0)) (35 'reflect_on_boundary' (
LOGICAL 4 0 0 0 LOGICAL ()) () (UNKNOWN-FL UNKNOWN-INTENT UNKNOWN-PROC
UNKNOWN UNKNOWN 0 0) UNKNOWN-ACCESS (CONSTANT (LOGICAL 4 0 0 0 LOGICAL ())
0 0)) (36 'move_with_mesh' (LOGICAL 4 0 0 0 LOGICAL ()) () (UNKNOWN-FL
UNKNOWN-INTENT UNKNOWN-PROC UNKNOWN UNKNOWN 0 0) UNKNOWN-ACCESS (
CONSTANT (LOGICAL 4 0 0 0 LOGICAL ()) 0 0)) (37 'n_stages' (INTEGER 4 0
0 0 INTEGER ()) () (UNKNOWN-FL UNKNOWN-INTENT UNKNOWN-PROC UNKNOWN
UNKNOWN 0 0) UNKNOWN-ACCESS (CONSTANT (INTEGER 4 0 0 0 INTEGER ()) 0 '0'))
(38 'timestep_weights' (REAL 8 0 0 0 REAL ()) (1 0 DEFERRED () ()) (
UNKNOWN-FL UNKNOWN-INTENT UNKNOWN-PROC UNKNOWN UNKNOWN 0 0 ALLOCATABLE
DIMENSION) UNKNOWN-ACCESS ()) (39 'stage_matrix' (REAL 8 0 0 0 REAL ())
(2 0 DEFERRED () () () ()) (UNKNOWN-FL UNKNOWN-INTENT UNKNOWN-PROC
UNKNOWN UNKNOWN 0 0 ALLOCATABLE DIMENSION) UNKNOWN-ACCESS ()) (40
'tracking_method' (INTEGER 4 0 0 0 INTEGER ()) () (UNKNOWN-FL
UNKNOWN-INTENT UNKNOWN-PROC UNKNOWN UNKNOWN 0 0) UNKNOWN-ACCESS ()) (41
'search_tolerance' (REAL 8 0 0 0 REAL ()) () (UNKNOWN-FL UNKNOWN-INTENT
UNKNOWN-PROC UNKNOWN UNKNOWN 0 0) UNKNOWN-ACCESS (CONSTANT (REAL 8 0 0 0
REAL ()) 0 '0.6df37f675ef6ec@-8')) (42 'track_periodic' (LOGICAL 4 0 0 0
LOGICAL ()) () (UNKNOWN-FL UNKNOWN-INTENT UNKNOWN-PROC UNKNOWN UNKNOWN 0
0) UNKNOWN-ACCESS (CONSTANT (LOGICAL 4 0 0 0 LOGICAL ()) 0 0)) (43
'periodic_tracking_mesh' (CHARACTER 1 0 0 0 CHARACTER ((CONSTANT (
INTEGER 4 0 0 0 INTEGER ()) 0 '101'))) () (UNKNOWN-FL UNKNOWN-INTENT
UNKNOWN-PROC UNKNOWN UNKNOWN 0 0) UNKNOWN-ACCESS ()) (44
'bid_to_boundary_mapping' (DERIVED 13 0 0 0 DERIVED ()) () (UNKNOWN-FL
UNKNOWN-INTENT UNKNOWN-PROC UNKNOWN UNKNOWN 0 0) UNKNOWN-ACCESS ()) (45
'boundary_mappings' (CHARACTER 1 0 0 0 CHARACTER ((CONSTANT (INTEGER 4 0
0 0 INTEGER ()) 0 '8192'))) (1 0 DEFERRED () ()) (UNKNOWN-FL
UNKNOWN-INTENT UNKNOWN-PROC UNKNOWN UNKNOWN 0 0 ALLOCATABLE DIMENSION)
UNKNOWN-ACCESS ()) (46 'random_walks' (DERIVED 11 0 0 0 DERIVED ()) (1 0
DEFERRED () ()) (UNKNOWN-FL UNKNOWN-INTENT UNKNOWN-PROC UNKNOWN UNKNOWN
0 0 ALLOCATABLE DIMENSION) UNKNOWN-ACCESS (STRUCTURE (DERIVED 11 0 0 0
DERIVED ()) 0 ((() ()) ((CONSTANT (LOGICAL 4 0 0 0 LOGICAL ()) 0 0) ())
((CONSTANT (LOGICAL 4 0 0 0 LOGICAL ()) 0 0) ()) (() ()) (() ()) ((
CONSTANT (LOGICAL 4 0 0 0 LOGICAL ()) 0 0) ()) ((CONSTANT (LOGICAL 4 0 0
0 LOGICAL ()) 0 0) ()) (() ())) ())) (47 'detector_names' (CHARACTER 1 0
0 0 CHARACTER ((CONSTANT (INTEGER 4 0 0 0 INTEGER ()) 0 '101'))) (1 0
DEFERRED () ()) (UNKNOWN-FL UNKNOWN-INTENT UNKNOWN-PROC UNKNOWN UNKNOWN
0 0 ALLOCATABLE DIMENSION) UNKNOWN-ACCESS ()) (48 'sfield_list' (
DERIVED 12 0 0 0 DERIVED ()) (1 0 DEFERRED () ()) (UNKNOWN-FL
UNKNOWN-INTENT UNKNOWN-PROC UNKNOWN UNKNOWN 0 0 ALLOCATABLE DIMENSION)
UNKNOWN-ACCESS ()) (49 'vfield_list' (DERIVED 12 0 0 0 DERIVED ()) (1 0
DEFERRED () ()) (UNKNOWN-FL UNKNOWN-INTENT UNKNOWN-PROC UNKNOWN UNKNOWN
0 0 ALLOCATABLE DIMENSION) UNKNOWN-ACCESS ()) (50 'num_sfields' (
INTEGER 4 0 0 0 INTEGER ()) () (UNKNOWN-FL UNKNOWN-INTENT UNKNOWN-PROC
UNKNOWN UNKNOWN 0 0) UNKNOWN-ACCESS (CONSTANT (INTEGER 4 0 0 0 INTEGER ())
0 '0')) (51 'num_vfields' (INTEGER 4 0 0 0 INTEGER ()) () (UNKNOWN-FL
UNKNOWN-INTENT UNKNOWN-PROC UNKNOWN UNKNOWN 0 0) UNKNOWN-ACCESS (
CONSTANT (INTEGER 4 0 0 0 INTEGER ()) 0 '0')) (52 'binary_output' (
LOGICAL 4 0 0 0 LOGICAL ()) () (UNKNOWN-FL UNKNOWN-INTENT UNKNOWN-PROC
UNKNOWN UNKNOWN 0 0) UNKNOWN-ACCESS (CONSTANT (LOGICAL 4 0 0 0 LOGICAL ())
0 0)) (53 'write_nan_outside' (LOGICAL 4 0 0 0 LOGICAL ()) () (
UNKNOWN-FL UNKNOWN-INTENT UNKNOWN-PROC UNKNOWN UNKNOWN 0 0)
UNKNOWN-ACCESS (CONSTANT (LOGICAL 4 0 0 0 LOGICAL ()) 0 0)) (54
'output_unit' (INTEGER 4 0 0 0 INTEGER ()) () (UNKNOWN-FL UNKNOWN-INTENT
UNKNOWN-PROC UNKNOWN UNKNOWN 0 0) UNKNOWN-ACCESS (CONSTANT (INTEGER 4 0
0 0 INTEGER ()) 0 '0')) (55 'output_period' (REAL 8 0 0 0 REAL ()) () (
UNKNOWN-FL UNKNOWN-INTENT UNKNOWN-PROC UNKNOWN UNKNOWN 0 0)
UNKNOWN-ACCESS ()) (56 'write_index' (INTEGER 4 0 0 0 INTEGER ()) () (
UNKNOWN-FL UNKNOWN-INTENT UNKNOWN-PROC UNKNOWN UNKNOWN 0 0)
UNKNOWN-ACCESS (CONSTANT (INTEGER 4 0 0 0 INTEGER ()) 0 '0')) (57
'total_num_det' (INTEGER 4 0 0 0 INTEGER ()) () (UNKNOWN-FL
UNKNOWN-INTENT UNKNOWN-PROC UNKNOWN UNKNOWN 0 0) UNKNOWN-ACCESS (
CONSTANT (INTEGER 4 0 0 0 INTEGER ()) 0 '0'))) PUBLIC (() () () ()) () 0
0 69936045)
4 'Detector_list_ptr' 'detector_data_types' '' 1 ((DERIVED
UNKNOWN-INTENT UNKNOWN-PROC UNKNOWN UNKNOWN 0 0 POINTER_COMP) (UNKNOWN 0
0 0 0 UNKNOWN ()) 0 0 () () 0 ((58 'ptr' (DERIVED 3 0 0 0 DERIVED ()) ()
(UNKNOWN-FL UNKNOWN-INTENT UNKNOWN-PROC UNKNOWN UNKNOWN 0 0 POINTER)
UNKNOWN-ACCESS ())) PUBLIC (() () () ()) () 0 0 62767556)
5 'Detector_type' 'detector_data_types' '' 1 ((DERIVED UNKNOWN-INTENT
UNKNOWN-PROC UNKNOWN UNKNOWN 0 0 ALLOC_COMP POINTER_COMP) (UNKNOWN 0 0 0
0 UNKNOWN ()) 0 0 () () 0 ((59 'position' (REAL 8 0 0 0 REAL ()) (1 0
DEFERRED () ()) (UNKNOWN-FL UNKNOWN-INTENT UNKNOWN-PROC UNKNOWN UNKNOWN
0 0 ALLOCATABLE DIMENSION) UNKNOWN-ACCESS ()) (60 'name' (CHARACTER 1 0
0 0 CHARACTER ((CONSTANT (INTEGER 4 0 0 0 INTEGER ()) 0 '101'))) () (
UNKNOWN-FL UNKNOWN-INTENT UNKNOWN-PROC UNKNOWN UNKNOWN 0 0)
UNKNOWN-ACCESS ()) (61 'element' (INTEGER 4 0 0 0 INTEGER ()) () (
UNKNOWN-FL UNKNOWN-INTENT UNKNOWN-PROC UNKNOWN UNKNOWN 0 0)
UNKNOWN-ACCESS ()) (62 'local_coords' (REAL 8 0 0 0 REAL ()) (1 0
DEFERRED () ()) (UNKNOWN-FL UNKNOWN-INTENT UNKNOWN-PROC UNKNOWN UNKNOWN
0 0 ALLOCATABLE DIMENSION) UNKNOWN-ACCESS ()) (63 'type' (INTEGER 4 0 0
0 INTEGER ()) () (UNKNOWN-FL UNKNOWN-INTENT UNKNOWN-PROC UNKNOWN UNKNOWN
0 0) UNKNOWN-ACCESS (CONSTANT (INTEGER 4 0 0 0 INTEGER ()) 0 '1')) (64
'id_number' (INTEGER 4 0 0 0 INTEGER ()) () (UNKNOWN-FL UNKNOWN-INTENT
UNKNOWN-PROC UNKNOWN UNKNOWN 0 0) UNKNOWN-ACCESS ()) (65 'list_id' (
INTEGER 4 0 0 0 INTEGER ()) () (UNKNOWN-FL UNKNOWN-INTENT UNKNOWN-PROC
UNKNOWN UNKNOWN 0 0) UNKNOWN-ACCESS ()) (66 'k' (REAL 8 0 0 0 REAL ()) (
2 0 DEFERRED () () () ()) (UNKNOWN-FL UNKNOWN-INTENT UNKNOWN-PROC
UNKNOWN UNKNOWN 0 0 ALLOCATABLE DIMENSION) UNKNOWN-ACCESS ()) (67
'update_vector' (REAL 8 0 0 0 REAL ()) (1 0 DEFERRED () ()) (UNKNOWN-FL
UNKNOWN-INTENT UNKNOWN-PROC UNKNOWN UNKNOWN 0 0 ALLOCATABLE DIMENSION)
UNKNOWN-ACCESS ()) (68 'ray_o' (REAL 8 0 0 0 REAL ()) (1 0 DEFERRED () ())
(UNKNOWN-FL UNKNOWN-INTENT UNKNOWN-PROC UNKNOWN UNKNOWN 0 0 ALLOCATABLE
DIMENSION) UNKNOWN-ACCESS ()) (69 'ray_d' (REAL 8 0 0 0 REAL ()) (1 0
DEFERRED () ()) (UNKNOWN-FL UNKNOWN-INTENT UNKNOWN-PROC UNKNOWN UNKNOWN
0 0 ALLOCATABLE DIMENSION) UNKNOWN-ACCESS ()) (70 'target_distance' (
REAL 8 0 0 0 REAL ()) () (UNKNOWN-FL UNKNOWN-INTENT UNKNOWN-PROC UNKNOWN
UNKNOWN 0 0) UNKNOWN-ACCESS ()) (71 'current_t' (REAL 8 0 0 0 REAL ()) ()
(UNKNOWN-FL UNKNOWN-INTENT UNKNOWN-PROC UNKNOWN UNKNOWN 0 0)
UNKNOWN-ACCESS ()) (72 'current_face' (INTEGER 4 0 0 0 INTEGER ()) () (
UNKNOWN-FL UNKNOWN-INTENT UNKNOWN-PROC UNKNOWN UNKNOWN 0 0)
UNKNOWN-ACCESS ()) (73 'path_elements' (DERIVED 16 0 0 0 DERIVED ()) ()
(UNKNOWN-FL UNKNOWN-INTENT UNKNOWN-PROC UNKNOWN UNKNOWN 0 0 POINTER)
UNKNOWN-ACCESS (NULL (UNKNOWN 0 0 0 0 UNKNOWN ()) 0)) (74 'biology' (
REAL 8 0 0 0 REAL ()) (1 0 DEFERRED () ()) (UNKNOWN-FL UNKNOWN-INTENT
UNKNOWN-PROC UNKNOWN UNKNOWN 0 0 ALLOCATABLE DIMENSION) UNKNOWN-ACCESS ())
(75 'food_requests' (REAL 8 0 0 0 REAL ()) (1 0 DEFERRED () ()) (
UNKNOWN-FL UNKNOWN-INTENT UNKNOWN-PROC UNKNOWN UNKNOWN 0 0 ALLOCATABLE
DIMENSION) UNKNOWN-ACCESS ()) (76 'food_ingests' (REAL 8 0 0 0 REAL ())
(1 0 DEFERRED () ()) (UNKNOWN-FL UNKNOWN-INTENT UNKNOWN-PROC UNKNOWN
UNKNOWN 0 0 ALLOCATABLE DIMENSION) UNKNOWN-ACCESS ()) (77
'food_thresholds' (REAL 8 0 0 0 REAL ()) (1 0 DEFERRED () ()) (
UNKNOWN-FL UNKNOWN-INTENT UNKNOWN-PROC UNKNOWN UNKNOWN 0 0 ALLOCATABLE
DIMENSION) UNKNOWN-ACCESS ()) (78 'env_samples' (REAL 8 0 0 0 REAL ()) (
1 0 DEFERRED () ()) (UNKNOWN-FL UNKNOWN-INTENT UNKNOWN-PROC UNKNOWN
UNKNOWN 0 0 ALLOCATABLE DIMENSION) UNKNOWN-ACCESS ()) (79
'rw_subsubcycles' (INTEGER 4 0 0 0 INTEGER ()) () (UNKNOWN-FL
UNKNOWN-INTENT UNKNOWN-PROC UNKNOWN UNKNOWN 0 0) UNKNOWN-ACCESS (
CONSTANT (INTEGER 4 0 0 0 INTEGER ()) 0 '1')) (80 'dropout' (LOGICAL 4 0
0 0 LOGICAL ()) () (UNKNOWN-FL UNKNOWN-INTENT UNKNOWN-PROC UNKNOWN
UNKNOWN 0 0) UNKNOWN-ACCESS (CONSTANT (LOGICAL 4 0 0 0 LOGICAL ()) 0 0))
(81 'next' (DERIVED 5 0 0 0 DERIVED ()) () (UNKNOWN-FL UNKNOWN-INTENT
UNKNOWN-PROC UNKNOWN UNKNOWN 0 0 POINTER) UNKNOWN-ACCESS (NULL (UNKNOWN
0 0 0 0 UNKNOWN ()) 0)) (82 'previous' (DERIVED 5 0 0 0 DERIVED ()) () (
UNKNOWN-FL UNKNOWN-INTENT UNKNOWN-PROC UNKNOWN UNKNOWN 0 0 POINTER)
UNKNOWN-ACCESS (NULL (UNKNOWN 0 0 0 0 UNKNOWN ()) 0))) PUBLIC (() () ()
()) () 0 0 22336945)
6 'Food_set' 'detector_data_types' '' 1 ((DERIVED UNKNOWN-INTENT
UNKNOWN-PROC UNKNOWN UNKNOWN 0 0 ALLOC_COMP POINTER_COMP) (UNKNOWN 0 0 0
0 UNKNOWN ()) 0 0 () () 0 ((83 'name' (CHARACTER 1 0 0 0 CHARACTER ((
CONSTANT (INTEGER 4 0 0 0 INTEGER ()) 0 '101'))) () (UNKNOWN-FL
UNKNOWN-INTENT UNKNOWN-PROC UNKNOWN UNKNOWN 0 0) UNKNOWN-ACCESS ()) (84
'target_fgroup' (CHARACTER 1 0 0 0 CHARACTER ((CONSTANT (INTEGER 4 0 0 0
INTEGER ()) 0 '101'))) () (UNKNOWN-FL UNKNOWN-INTENT UNKNOWN-PROC
UNKNOWN UNKNOWN 0 0) UNKNOWN-ACCESS ()) (85 'varieties' (DERIVED 7 0 0 0
DERIVED ()) (1 0 DEFERRED () ()) (UNKNOWN-FL UNKNOWN-INTENT UNKNOWN-PROC
UNKNOWN UNKNOWN 0 0 ALLOCATABLE DIMENSION) UNKNOWN-ACCESS (STRUCTURE (
DERIVED 7 0 0 0 DERIVED ()) 0 ((() ()) (() ()) (() ()) ((STRUCTURE (
DERIVED 9 0 0 0 DERIVED ()) 0 ((() ()) ((CONSTANT (INTEGER 4 0 0 0
INTEGER ()) 0 '0') ()) (() ()) (() ()) (() ()) (() ()) (() ()) (() ()) (
(CONSTANT (LOGICAL 4 0 0 0 LOGICAL ()) 0 0) ()) ((CONSTANT (LOGICAL 4 0
0 0 LOGICAL ()) 0 0) ()) (() ()) (() ()) ((CONSTANT (LOGICAL 4 0 0 0
LOGICAL ()) 0 0) ()) ((CONSTANT (LOGICAL 4 0 0 0 LOGICAL ()) 0 0) ())) ())
()) ((STRUCTURE (DERIVED 9 0 0 0 DERIVED ()) 0 ((() ()) ((CONSTANT (
INTEGER 4 0 0 0 INTEGER ()) 0 '0') ()) (() ()) (() ()) (() ()) (() ()) (
() ()) (() ()) ((CONSTANT (LOGICAL 4 0 0 0 LOGICAL ()) 0 0) ()) ((
CONSTANT (LOGICAL 4 0 0 0 LOGICAL ()) 0 0) ()) (() ()) (() ()) ((
CONSTANT (LOGICAL 4 0 0 0 LOGICAL ()) 0 0) ()) ((CONSTANT (LOGICAL 4 0 0
0 LOGICAL ()) 0 0) ())) ()) ())) ())) (86 'ingest_chem_inds' (INTEGER 4
0 0 0 INTEGER ()) (1 0 DEFERRED () ()) (UNKNOWN-FL UNKNOWN-INTENT
UNKNOWN-PROC UNKNOWN UNKNOWN 0 0 ALLOCATABLE DIMENSION) UNKNOWN-ACCESS ())
(87 'sampling' (INTEGER 4 0 0 0 INTEGER ()) () (UNKNOWN-FL
UNKNOWN-INTENT UNKNOWN-PROC UNKNOWN UNKNOWN 0 0) UNKNOWN-ACCESS (
CONSTANT (INTEGER 4 0 0 0 INTEGER ()) 0 '1'))) PUBLIC (() () () ()) () 0
0 39946115)
7 'Food_variety' 'detector_data_types' '' 1 ((DERIVED UNKNOWN-INTENT
UNKNOWN-PROC UNKNOWN UNKNOWN 0 0 POINTER_COMP) (UNKNOWN 0 0 0 0 UNKNOWN
()) 0 0 () () 0 ((88 'name' (CHARACTER 1 0 0 0 CHARACTER ((CONSTANT (
INTEGER 4 0 0 0 INTEGER ()) 0 '101'))) () (UNKNOWN-FL UNKNOWN-INTENT
UNKNOWN-PROC UNKNOWN UNKNOWN 0 0) UNKNOWN-ACCESS ()) (89 'target_list' (
DERIVED 4 0 0 0 DERIVED ()) () (UNKNOWN-FL UNKNOWN-INTENT UNKNOWN-PROC
UNKNOWN UNKNOWN 0 0) UNKNOWN-ACCESS ()) (90 'conc_field' (CHARACTER 1 0
0 0 CHARACTER ((CONSTANT (INTEGER 4 0 0 0 INTEGER ()) 0 '101'))) () (
UNKNOWN-FL UNKNOWN-INTENT UNKNOWN-PROC UNKNOWN UNKNOWN 0 0)
UNKNOWN-ACCESS ()) (91 'vrequest' (DERIVED 9 0 0 0 DERIVED ()) () (
UNKNOWN-FL UNKNOWN-INTENT UNKNOWN-PROC UNKNOWN UNKNOWN 0 0)
UNKNOWN-ACCESS (STRUCTURE (DERIVED 9 0 0 0 DERIVED ()) 0 ((() ()) ((
CONSTANT (INTEGER 4 0 0 0 INTEGER ()) 0 '0') ()) (() ()) (() ()) (() ())
(() ()) (() ()) (() ()) ((CONSTANT (LOGICAL 4 0 0 0 LOGICAL ()) 0 0) ())
((CONSTANT (LOGICAL 4 0 0 0 LOGICAL ()) 0 0) ()) (() ()) (() ()) ((
CONSTANT (LOGICAL 4 0 0 0 LOGICAL ()) 0 0) ()) ((CONSTANT (LOGICAL 4 0 0
0 LOGICAL ()) 0 0) ())) ())) (92 'vingest' (DERIVED 9 0 0 0 DERIVED ())
() (UNKNOWN-FL UNKNOWN-INTENT UNKNOWN-PROC UNKNOWN UNKNOWN 0 0)
UNKNOWN-ACCESS (STRUCTURE (DERIVED 9 0 0 0 DERIVED ()) 0 ((() ()) ((
CONSTANT (INTEGER 4 0 0 0 INTEGER ()) 0 '0') ()) (() ()) (() ()) (() ())
(() ()) (() ()) (() ()) ((CONSTANT (LOGICAL 4 0 0 0 LOGICAL ()) 0 0) ())
((CONSTANT (LOGICAL 4 0 0 0 LOGICAL ()) 0 0) ()) (() ()) (() ()) ((
CONSTANT (LOGICAL 4 0 0 0 LOGICAL ()) 0 0) ()) ((CONSTANT (LOGICAL 4 0 0
0 LOGICAL ()) 0 0) ())) ()))) PUBLIC (() () () ()) () 0 0 4482889)
8 'Functional_group' 'detector_data_types' '' 1 ((DERIVED UNKNOWN-INTENT
UNKNOWN-PROC UNKNOWN UNKNOWN 0 0 ALLOC_COMP POINTER_COMP) (UNKNOWN 0 0 0
0 UNKNOWN ()) 0 0 () () 0 ((93 'name' (CHARACTER 1 0 0 0 CHARACTER ((
CONSTANT (INTEGER 4 0 0 0 INTEGER ()) 0 '101'))) () (UNKNOWN-FL
UNKNOWN-INTENT UNKNOWN-PROC UNKNOWN UNKNOWN 0 0) UNKNOWN-ACCESS ()) (94
'option_path' (CHARACTER 1 0 0 0 CHARACTER ((CONSTANT (INTEGER 4 0 0 0
INTEGER ()) 0 '8192'))) () (UNKNOWN-FL UNKNOWN-INTENT UNKNOWN-PROC
UNKNOWN UNKNOWN 0 0) UNKNOWN-ACCESS ()) (95 'stage_names' (DERIVED 12 0
0 0 DERIVED ()) () (UNKNOWN-FL UNKNOWN-INTENT UNKNOWN-PROC UNKNOWN
UNKNOWN 0 0) UNKNOWN-ACCESS ()) (96 'agent_arrays' (DERIVED 3 0 0 0
DERIVED ()) (1 0 DEFERRED () ()) (UNKNOWN-FL UNKNOWN-INTENT UNKNOWN-PROC
UNKNOWN UNKNOWN 0 0 ALLOCATABLE DIMENSION) UNKNOWN-ACCESS (STRUCTURE (
DERIVED 3 0 0 0 DERIVED ()) 0 (((CONSTANT (INTEGER 4 0 0 0 INTEGER ()) 0
'0') ()) ((NULL (UNKNOWN 0 0 0 0 UNKNOWN ()) 0) ()) ((NULL (UNKNOWN 0 0
0 0 UNKNOWN ()) 0) ()) (() ()) (() ()) ((NULL (UNKNOWN 0 0 0 0 UNKNOWN ())
0) ()) (() ()) (() ()) (() ()) ((CONSTANT (INTEGER 4 0 0 0 INTEGER ()) 0
'1') ()) ((CONSTANT (LOGICAL 4 0 0 0 LOGICAL ()) 0 0) ()) ((CONSTANT (
LOGICAL 4 0 0 0 LOGICAL ()) 0 0) ()) ((CONSTANT (LOGICAL 4 0 0 0 LOGICAL
()) 0 0) ()) ((CONSTANT (INTEGER 4 0 0 0 INTEGER ()) 0 '0') ()) ((NULL (
REAL 8 0 0 0 REAL ()) 0) ()) ((NULL (REAL 8 0 0 0 REAL ()) 0) ()) (() ())
((CONSTANT (REAL 8 0 0 0 REAL ()) 0 '0.6df37f675ef6ec@-8') ()) ((
CONSTANT (LOGICAL 4 0 0 0 LOGICAL ()) 0 0) ()) (() ()) (() ()) ((NULL (
CHARACTER 1 0 0 0 CHARACTER ((CONSTANT (INTEGER 4 0 0 0 INTEGER ()) 0
'8192'))) 0) ()) ((NULL (DERIVED 11 0 0 0 DERIVED ()) 0) ()) ((NULL (
CHARACTER 1 0 0 0 CHARACTER ((CONSTANT (INTEGER 4 0 0 0 INTEGER ()) 0
'101'))) 0) ()) ((NULL (DERIVED 12 0 0 0 DERIVED ()) 0) ()) ((NULL (
DERIVED 12 0 0 0 DERIVED ()) 0) ()) ((CONSTANT (INTEGER 4 0 0 0 INTEGER
()) 0 '0') ()) ((CONSTANT (INTEGER 4 0 0 0 INTEGER ()) 0 '0') ()) ((
CONSTANT (LOGICAL 4 0 0 0 LOGICAL ()) 0 0) ()) ((CONSTANT (LOGICAL 4 0 0
0 LOGICAL ()) 0 0) ()) ((CONSTANT (INTEGER 4 0 0 0 INTEGER ()) 0 '0') ())
(() ()) ((CONSTANT (INTEGER 4 0 0 0 INTEGER ()) 0 '0') ()) ((CONSTANT (
INTEGER 4 0 0 0 INTEGER ()) 0 '0') ())) ())) (97 'variables' (DERIVED 9
0 0 0 DERIVED ()) (1 0 DEFERRED () ()) (UNKNOWN-FL UNKNOWN-INTENT
UNKNOWN-PROC UNKNOWN UNKNOWN 0 0 ALLOCATABLE DIMENSION) UNKNOWN-ACCESS (
STRUCTURE (DERIVED 9 0 0 0 DERIVED ()) 0 ((() ()) ((CONSTANT (INTEGER 4
0 0 0 INTEGER ()) 0 '0') ()) (() ()) (() ()) (() ()) (() ()) (() ()) (()
()) ((CONSTANT (LOGICAL 4 0 0 0 LOGICAL ()) 0 0) ()) ((CONSTANT (
LOGICAL 4 0 0 0 LOGICAL ()) 0 0) ()) (() ()) (() ()) ((CONSTANT (
LOGICAL 4 0 0 0 LOGICAL ()) 0 0) ()) ((CONSTANT (LOGICAL 4 0 0 0 LOGICAL
()) 0 0) ())) ())) (98 'food_sets' (DERIVED 6 0 0 0 DERIVED ()) (1 0
DEFERRED () ()) (UNKNOWN-FL UNKNOWN-INTENT UNKNOWN-PROC UNKNOWN UNKNOWN
0 0 ALLOCATABLE DIMENSION) UNKNOWN-ACCESS (STRUCTURE (DERIVED 6 0 0 0
DERIVED ()) 0 ((() ()) (() ()) ((NULL (DERIVED 7 0 0 0 DERIVED ()) 0) ())
((NULL (INTEGER 4 0 0 0 INTEGER ()) 0) ()) ((CONSTANT (INTEGER 4 0 0 0
INTEGER ()) 0 '1') ())) ())) (99 'envfield_names' (CHARACTER 1 0 0 0
CHARACTER ((CONSTANT (INTEGER 4 0 0 0 INTEGER ()) 0 '101'))) (1 0
DEFERRED () ()) (UNKNOWN-FL UNKNOWN-INTENT UNKNOWN-PROC UNKNOWN UNKNOWN
0 0 ALLOCATABLE DIMENSION) UNKNOWN-ACCESS ()) (100 'envfield_sampling' (
INTEGER 4 0 0 0 INTEGER ()) (1 0 DEFERRED () ()) (UNKNOWN-FL
UNKNOWN-INTENT UNKNOWN-PROC UNKNOWN UNKNOWN 0 0 ALLOCATABLE DIMENSION)
UNKNOWN-ACCESS ()) (101 'n_env_buffer' (INTEGER 4 0 0 0 INTEGER ()) () (
UNKNOWN-FL UNKNOWN-INTENT UNKNOWN-PROC UNKNOWN UNKNOWN 0 0)
UNKNOWN-ACCESS ()) (102 'ivars_uptake' (INTEGER 4 0 0 0 INTEGER ()) (1 0
DEFERRED () ()) (UNKNOWN-FL UNKNOWN-INTENT UNKNOWN-PROC UNKNOWN UNKNOWN
0 0 ALLOCATABLE DIMENSION) UNKNOWN-ACCESS ()) (103 'ivars_release' (
INTEGER 4 0 0 0 INTEGER ()) (1 0 DEFERRED () ()) (UNKNOWN-FL
UNKNOWN-INTENT UNKNOWN-PROC UNKNOWN UNKNOWN 0 0 ALLOCATABLE DIMENSION)
UNKNOWN-ACCESS ()) (104 'motion_var_inds' (INTEGER 4 0 0 0 INTEGER ()) (
1 0 DEFERRED () ()) (UNKNOWN-FL UNKNOWN-INTENT UNKNOWN-PROC UNKNOWN
UNKNOWN 0 0 ALLOCATABLE DIMENSION) UNKNOWN-ACCESS ()) (105
'history_var_inds' (INTEGER 4 0 0 0 INTEGER ()) (1 0 DEFERRED () ()) (
UNKNOWN-FL UNKNOWN-INTENT UNKNOWN-PROC UNKNOWN UNKNOWN 0 0 ALLOCATABLE
DIMENSION) UNKNOWN-ACCESS ()) (106 'init_options' (CHARACTER 1 0 0 0
CHARACTER ((CONSTANT (INTEGER 4 0 0 0 INTEGER ()) 0 '8192'))) () (
UNKNOWN-FL UNKNOWN-INTENT UNKNOWN-PROC UNKNOWN UNKNOWN 0 0)
UNKNOWN-ACCESS ()) (107 'agents_field_path' (CHARACTER 1 0 0 0 CHARACTER
((CONSTANT (INTEGER 4 0 0 0 INTEGER ()) 0 '8192'))) () (UNKNOWN-FL
UNKNOWN-INTENT UNKNOWN-PROC UNKNOWN UNKNOWN 0 0) UNKNOWN-ACCESS ()) (
108 'is_external' (LOGICAL 4 0 0 0 LOGICAL ()) () (UNKNOWN-FL
UNKNOWN-INTENT UNKNOWN-PROC UNKNOWN UNKNOWN 0 0) UNKNOWN-ACCESS (
CONSTANT (LOGICAL 4 0 0 0 LOGICAL ()) 0 0)) (109 'external_python' (
CHARACTER 1 0 0 0 CHARACTER ((CONSTANT (INTEGER 4 0 0 0 INTEGER ()) 0
'8192'))) () (UNKNOWN-FL UNKNOWN-INTENT UNKNOWN-PROC UNKNOWN UNKNOWN 0 0)
UNKNOWN-ACCESS ()) (110 'pyfields' (CHARACTER 1 0 0 0 CHARACTER ((
CONSTANT (INTEGER 4 0 0 0 INTEGER ()) 0 '101'))) (1 0 DEFERRED () ()) (
UNKNOWN-FL UNKNOWN-INTENT UNKNOWN-PROC UNKNOWN UNKNOWN 0 0 ALLOCATABLE
DIMENSION) UNKNOWN-ACCESS ())) PUBLIC (() () () ()) () 0 0 38801957)
9 'Le_variable' 'detector_data_types' '' 1 ((DERIVED UNKNOWN-INTENT
UNKNOWN-PROC UNKNOWN UNKNOWN 0 0) (UNKNOWN 0 0 0 0 UNKNOWN ()) 0 0 () ()
0 ((111 'name' (CHARACTER 1 0 0 0 CHARACTER ((CONSTANT (INTEGER 4 0 0 0
INTEGER ()) 0 '101'))) () (UNKNOWN-FL UNKNOWN-INTENT UNKNOWN-PROC
UNKNOWN UNKNOWN 0 0) UNKNOWN-ACCESS ()) (112 'field_type' (INTEGER 4 0 0
0 INTEGER ()) () (UNKNOWN-FL UNKNOWN-INTENT UNKNOWN-PROC UNKNOWN UNKNOWN
0 0) UNKNOWN-ACCESS (CONSTANT (INTEGER 4 0 0 0 INTEGER ()) 0 '0')) (113
'field_name' (CHARACTER 1 0 0 0 CHARACTER ((CONSTANT (INTEGER 4 0 0 0
INTEGER ()) 0 '101'))) () (UNKNOWN-FL UNKNOWN-INTENT UNKNOWN-PROC
UNKNOWN UNKNOWN 0 0) UNKNOWN-ACCESS ()) (114 'field_path' (CHARACTER 1 0
0 0 CHARACTER ((CONSTANT (INTEGER 4 0 0 0 INTEGER ()) 0 '8192'))) () (
UNKNOWN-FL UNKNOWN-INTENT UNKNOWN-PROC UNKNOWN UNKNOWN 0 0)
UNKNOWN-ACCESS ()) (115 'depletion_field_path' (CHARACTER 1 0 0 0
CHARACTER ((CONSTANT (INTEGER 4 0 0 0 INTEGER ()) 0 '8192'))) () (
UNKNOWN-FL UNKNOWN-INTENT UNKNOWN-PROC UNKNOWN UNKNOWN 0 0)
UNKNOWN-ACCESS ()) (116 'chemfield' (CHARACTER 1 0 0 0 CHARACTER ((
CONSTANT (INTEGER 4 0 0 0 INTEGER ()) 0 '101'))) () (UNKNOWN-FL
UNKNOWN-INTENT UNKNOWN-PROC UNKNOWN UNKNOWN 0 0) UNKNOWN-ACCESS ()) (
117 'i_chemfield' (INTEGER 4 0 0 0 INTEGER ()) () (UNKNOWN-FL
UNKNOWN-INTENT UNKNOWN-PROC UNKNOWN UNKNOWN 0 0) UNKNOWN-ACCESS ()) (
118 'total_field_path' (CHARACTER 1 0 0 0 CHARACTER ((CONSTANT (INTEGER
4 0 0 0 INTEGER ()) 0 '8192'))) () (UNKNOWN-FL UNKNOWN-INTENT
UNKNOWN-PROC UNKNOWN UNKNOWN 0 0) UNKNOWN-ACCESS ()) (119 'record_total'
(LOGICAL 4 0 0 0 LOGICAL ()) () (UNKNOWN-FL UNKNOWN-INTENT UNKNOWN-PROC
UNKNOWN UNKNOWN 0 0) UNKNOWN-ACCESS (CONSTANT (LOGICAL 4 0 0 0 LOGICAL ())
0 0)) (120 'write_to_file' (LOGICAL 4 0 0 0 LOGICAL ()) () (UNKNOWN-FL
UNKNOWN-INTENT UNKNOWN-PROC UNKNOWN UNKNOWN 0 0) UNKNOWN-ACCESS (
CONSTANT (LOGICAL 4 0 0 0 LOGICAL ()) 0 0)) (121 'pool_index' (INTEGER 4
0 0 0 INTEGER ()) () (UNKNOWN-FL UNKNOWN-INTENT UNKNOWN-PROC UNKNOWN
UNKNOWN 0 0) UNKNOWN-ACCESS ()) (122 'ingest_index' (INTEGER 4 0 0 0
INTEGER ()) () (UNKNOWN-FL UNKNOWN-INTENT UNKNOWN-PROC UNKNOWN UNKNOWN 0
0) UNKNOWN-ACCESS ()) (123 'path_integration' (LOGICAL 4 0 0 0 LOGICAL ())
() (UNKNOWN-FL UNKNOWN-INTENT UNKNOWN-PROC UNKNOWN UNKNOWN 0 0)
UNKNOWN-ACCESS (CONSTANT (LOGICAL 4 0 0 0 LOGICAL ()) 0 0)) (124
'stage_diagnostic' (LOGICAL 4 0 0 0 LOGICAL ()) () (UNKNOWN-FL
UNKNOWN-INTENT UNKNOWN-PROC UNKNOWN UNKNOWN 0 0) UNKNOWN-ACCESS (
CONSTANT (LOGICAL 4 0 0 0 LOGICAL ()) 0 0))) PUBLIC (() () () ()) () 0 0
45440416)
10 'Proxy_agent' 'proxy_agent_module' '' 1 ((DERIVED UNKNOWN-INTENT
UNKNOWN-PROC UNKNOWN UNKNOWN 0 0 POINTER_COMP) (UNKNOWN 0 0 0 0 UNKNOWN
()) 0 0 () () 0 ((125 'agent' (DERIVED 5 0 0 0 DERIVED ()) () (
UNKNOWN-FL UNKNOWN-INTENT UNKNOWN-PROC UNKNOWN UNKNOWN 0 0 POINTER)
UNKNOWN-ACCESS ()) (126 'id' (INTEGER 4 0 0 0 INTEGER ()) () (
UNKNOWN-FL UNKNOWN-INTENT UNKNOWN-PROC UNKNOWN UNKNOWN 0 0)
UNKNOWN-ACCESS ()) (127 'size' (REAL 8 0 0 0 REAL ()) () (UNKNOWN-FL
UNKNOWN-INTENT UNKNOWN-PROC UNKNOWN UNKNOWN 0 0) UNKNOWN-ACCESS ()))
PUBLIC (() () () ()) () 0 0 57810028)
11 'Random_walk' 'detector_data_types' '' 1 ((DERIVED UNKNOWN-INTENT
UNKNOWN-PROC UNKNOWN UNKNOWN 0 0) (UNKNOWN 0 0 0 0 UNKNOWN ()) 0 0 () ()
0 ((128 'name' (CHARACTER 1 0 0 0 CHARACTER ((CONSTANT (INTEGER 4 0 0 0
INTEGER ()) 0 '101'))) () (UNKNOWN-FL UNKNOWN-INTENT UNKNOWN-PROC
UNKNOWN UNKNOWN 0 0) UNKNOWN-ACCESS ()) (129 'naive_random_walk' (
LOGICAL 4 0 0 0 LOGICAL ()) () (UNKNOWN-FL UNKNOWN-INTENT UNKNOWN-PROC
UNKNOWN UNKNOWN 0 0) UNKNOWN-ACCESS (CONSTANT (LOGICAL 4 0 0 0 LOGICAL ())
0 0)) (130 'diffusive_random_walk' (LOGICAL 4 0 0 0 LOGICAL ()) () (
UNKNOWN-FL UNKNOWN-INTENT UNKNOWN-PROC UNKNOWN UNKNOWN 0 0)
UNKNOWN-ACCESS (CONSTANT (LOGICAL 4 0 0 0 LOGICAL ()) 0 0)) (131
'diffusivity_field' (CHARACTER 1 0 0 0 CHARACTER ((CONSTANT (INTEGER 4 0
0 0 INTEGER ()) 0 '101'))) () (UNKNOWN-FL UNKNOWN-INTENT UNKNOWN-PROC
UNKNOWN UNKNOWN 0 0) UNKNOWN-ACCESS ()) (132 'diffusivity_grad' (
CHARACTER 1 0 0 0 CHARACTER ((CONSTANT (INTEGER 4 0 0 0 INTEGER ()) 0
'101'))) () (UNKNOWN-FL UNKNOWN-INTENT UNKNOWN-PROC UNKNOWN UNKNOWN 0 0)
UNKNOWN-ACCESS ()) (133 'auto_subcycle' (LOGICAL 4 0 0 0 LOGICAL ()) ()
(UNKNOWN-FL UNKNOWN-INTENT UNKNOWN-PROC UNKNOWN UNKNOWN 0 0)
UNKNOWN-ACCESS (CONSTANT (LOGICAL 4 0 0 0 LOGICAL ()) 0 0)) (134
'python_random_walk' (LOGICAL 4 0 0 0 LOGICAL ()) () (UNKNOWN-FL
UNKNOWN-INTENT UNKNOWN-PROC UNKNOWN UNKNOWN 0 0) UNKNOWN-ACCESS (
CONSTANT (LOGICAL 4 0 0 0 LOGICAL ()) 0 0)) (135 'python_code' (
CHARACTER 1 0 0 0 CHARACTER ((CONSTANT (INTEGER 4 0 0 0 INTEGER ()) 0
'8192'))) () (UNKNOWN-FL UNKNOWN-INTENT UNKNOWN-PROC UNKNOWN UNKNOWN 0 0)
UNKNOWN-ACCESS ())) PUBLIC (() () () ()) () 0 0 30470403)
12 'Stringlist' 'detector_data_types' '' 1 ((DERIVED UNKNOWN-INTENT
UNKNOWN-PROC UNKNOWN UNKNOWN 0 0 POINTER_COMP) (UNKNOWN 0 0 0 0 UNKNOWN
()) 0 0 () () 0 ((136 'ptr' (CHARACTER 1 0 0 0 CHARACTER ((CONSTANT (
INTEGER 4 0 0 0 INTEGER ()) 0 '101'))) (1 0 DEFERRED () ()) (UNKNOWN-FL
UNKNOWN-INTENT UNKNOWN-PROC UNKNOWN UNKNOWN 0 0 DIMENSION POINTER)
UNKNOWN-ACCESS ())) PUBLIC (() () () ()) () 0 0 41966609)
137 'detector_buffer' 'detector_data_types' '' 1 ((PROCEDURE
UNKNOWN-INTENT UNKNOWN-PROC DECL UNKNOWN 0 0 FUNCTION GENERIC) (REAL 8 0
0 0 REAL ()) 0 0 () () 0 () () () 0 0)
138 'detector_linked_list' 'detector_data_types' '' 1 ((PROCEDURE
UNKNOWN-INTENT UNKNOWN-PROC DECL UNKNOWN 0 0 FUNCTION GENERIC) (REAL 8 0
0 0 REAL ()) 0 0 () () 0 () () () 0 0)
139 'detector_list_ptr' 'detector_data_types' '' 1 ((PROCEDURE
UNKNOWN-INTENT UNKNOWN-PROC DECL UNKNOWN 0 0 FUNCTION GENERIC) (REAL 8 0
0 0 REAL ()) 0 0 () () 0 () () () 0 0)
140 'detector_type' 'detector_data_types' '' 1 ((PROCEDURE
UNKNOWN-INTENT UNKNOWN-PROC DECL UNKNOWN 0 0 FUNCTION GENERIC) (REAL 8 0
0 0 REAL ()) 0 0 () () 0 () () () 0 0)
141 'food_set' 'detector_data_types' '' 1 ((PROCEDURE UNKNOWN-INTENT
UNKNOWN-PROC DECL UNKNOWN 0 0 FUNCTION GENERIC) (REAL 8 0 0 0 REAL ()) 0
0 () () 0 () () () 0 0)
142 'food_variety' 'detector_data_types' '' 1 ((PROCEDURE UNKNOWN-INTENT
UNKNOWN-PROC DECL UNKNOWN 0 0 FUNCTION GENERIC) (REAL 8 0 0 0 REAL ()) 0
0 () () 0 () () () 0 0)
143 'functional_group' 'detector_data_types' '' 1 ((PROCEDURE
UNKNOWN-INTENT UNKNOWN-PROC DECL UNKNOWN 0 0 FUNCTION GENERIC) (REAL 8 0
0 0 REAL ()) 0 0 () () 0 () () () 0 0)
144 'geometric_tracking' 'detector_data_types' '' 1 ((PARAMETER
UNKNOWN-INTENT UNKNOWN-PROC UNKNOWN IMPLICIT-SAVE 0 0) (INTEGER 4 0 0 0
INTEGER ()) 0 0 () (CONSTANT (INTEGER 4 0 0 0 INTEGER ()) 0 '3') () 0 ()
() () 0 0)
145 'guided_search_tracking' 'detector_data_types' '' 1 ((PARAMETER
UNKNOWN-INTENT UNKNOWN-PROC UNKNOWN IMPLICIT-SAVE 0 0) (INTEGER 4 0 0 0
INTEGER ()) 0 0 () (CONSTANT (INTEGER 4 0 0 0 INTEGER ()) 0 '1') () 0 ()
() () 0 0)
146 'lagrangian_detector' 'detector_data_types' '' 1 ((PARAMETER
UNKNOWN-INTENT UNKNOWN-PROC UNKNOWN IMPLICIT-SAVE 0 0) (INTEGER 4 0 0 0
INTEGER ()) 0 0 () (CONSTANT (INTEGER 4 0 0 0 INTEGER ()) 0 '2') () 0 ()
() () 0 0)
147 'le_variable' 'detector_data_types' '' 1 ((PROCEDURE UNKNOWN-INTENT
UNKNOWN-PROC DECL UNKNOWN 0 0 FUNCTION GENERIC) (INTEGER 4 0 0 0 INTEGER
()) 0 0 () () 0 () () () 0 0)
148 'proxy_agent' 'proxy_agent_module' '' 1 ((PROCEDURE UNKNOWN-INTENT
UNKNOWN-PROC DECL UNKNOWN 0 0 FUNCTION GENERIC) (REAL 8 0 0 0 REAL ()) 0
0 () () 0 () () () 0 0)
149 'proxy_agent_module' 'proxy_agent_module' '' 1 ((MODULE
UNKNOWN-INTENT UNKNOWN-PROC UNKNOWN UNKNOWN 0 0) (UNKNOWN 0 0 0 0
UNKNOWN ()) 0 0 () () 0 () () () 0 0)
150 'pure_gs' 'detector_data_types' '' 1 ((PARAMETER UNKNOWN-INTENT
UNKNOWN-PROC UNKNOWN IMPLICIT-SAVE 0 0) (INTEGER 4 0 0 0 INTEGER ()) 0 0
() (CONSTANT (INTEGER 4 0 0 0 INTEGER ()) 0 '4') () 0 () () () 0 0)
151 'random_walk' 'detector_data_types' '' 1 ((PROCEDURE UNKNOWN-INTENT
UNKNOWN-PROC DECL UNKNOWN 0 0 FUNCTION GENERIC) (REAL 8 0 0 0 REAL ()) 0
0 () () 0 () () () 0 0)
152 'static_detector' 'detector_data_types' '' 1 ((PARAMETER
UNKNOWN-INTENT UNKNOWN-PROC UNKNOWN IMPLICIT-SAVE 0 0) (INTEGER 4 0 0 0
INTEGER ()) 0 0 () (CONSTANT (INTEGER 4 0 0 0 INTEGER ()) 0 '1') () 0 ()
() () 0 0)
153 'stringlist' 'detector_data_types' '' 1 ((PROCEDURE UNKNOWN-INTENT
UNKNOWN-PROC DECL UNKNOWN 0 0 FUNCTION GENERIC) (REAL 8 0 0 0 REAL ()) 0
0 () () 0 () () () 0 0)
154 'varsmpl_intz' 'detector_data_types' '' 1 ((PARAMETER UNKNOWN-INTENT
UNKNOWN-PROC UNKNOWN IMPLICIT-SAVE 0 0) (INTEGER 4 0 0 0 INTEGER ()) 0 0
() (CONSTANT (INTEGER 4 0 0 0 INTEGER ()) 0 '2') () 0 () () () 0 0)
155 'varsmpl_newz' 'detector_data_types' '' 1 ((PARAMETER UNKNOWN-INTENT
UNKNOWN-PROC UNKNOWN IMPLICIT-SAVE 0 0) (INTEGER 4 0 0 0 INTEGER ()) 0 0
() (CONSTANT (INTEGER 4 0 0 0 INTEGER ()) 0 '1') () 0 () () () 0 0)
156 'varsmpl_oldz' 'detector_data_types' '' 1 ((PARAMETER UNKNOWN-INTENT
UNKNOWN-PROC UNKNOWN IMPLICIT-SAVE 0 0) (INTEGER 4 0 0 0 INTEGER ()) 0 0
() (CONSTANT (INTEGER 4 0 0 0 INTEGER ()) 0 '3') () 0 () () () 0 0)
)

('Detector_buffer' 0 2 'Detector_linked_list' 0 3 'Detector_list_ptr' 0
4 'Detector_type' 0 5 'Food_set' 0 6 'Food_variety' 0 7 'Functional_group'
0 8 'Le_variable' 0 9 'Proxy_agent' 0 10 'Random_walk' 0 11 'Stringlist'
0 12 'detector_buffer' 0 137 'detector_linked_list' 0 138
'detector_list_ptr' 0 139 'detector_type' 0 140 'food_set' 0 141
'food_variety' 0 142 'functional_group' 0 143 'geometric_tracking' 0 144
'guided_search_tracking' 0 145 'lagrangian_detector' 0 146 'le_variable'
0 147 'proxy_agent' 0 148 'proxy_agent_module' 0 149 'pure_gs' 0 150
'random_walk' 0 151 'static_detector' 0 152 'stringlist' 0 153
'varsmpl_intz' 0 154 'varsmpl_newz' 0 155 'varsmpl_oldz' 0 156)
