GFORTRAN module version '10' created from Write_State.F90
MD5:e8650eb3ca94ce25ea883dc8a6fafac5 -- If you edit this, you'll get what you deserve.

(() () () () () () () () () () () () () () () () () () () () () () ()
() () () ())

()

()

(('mpi_fortran_argv_null' 2 0 0 '') ('mpi_fortran_status_ignore' 3 0 0 '')
('mpi_fortran_statuses_ignore' 4 0 0 '') ('petscfortran6' 5 0 0 '') (
'mpi_fortran_errcodes_ignore' 6 0 0 '') ('petscfortran1' 7 0 0 '') (
'petscfortran10' 8 0 0 '') ('petscfortran2' 9 0 0 '') ('petscfortran4'
10 0 0 '') ('petscfortran5' 11 0 0 '') ('petscfortran8' 12 0 0 '') (
'petscfortran9' 13 0 0 '') ('mpi_fortran_argvs_null' 14 0 0 '') (
'mpi_fortran_bottom' 15 0 0 '') ('mpi_fortran_in_place' 16 0 0 '') (
'petscfortran7' 17 0 0 ''))

()

()

(18 'do_write_state' 'write_state_module' '' 1 ((PROCEDURE
UNKNOWN-INTENT MODULE-PROC DECL UNKNOWN 0 0 FUNCTION ALWAYS_EXPLICIT) (
LOGICAL 4 0 0 0 LOGICAL ()) 19 0 (20 21 22) () 18 () () () 0 0)
23 'initialise_write_state' 'write_state_module' '' 1 ((PROCEDURE
UNKNOWN-INTENT MODULE-PROC DECL UNKNOWN 0 0 SUBROUTINE) (UNKNOWN 0 0 0 0
UNKNOWN ()) 0 0 () () 0 () () () 0 0)
24 'vtk_write_state_new_options' 'write_state_module' '' 1 ((PROCEDURE
UNKNOWN-INTENT MODULE-PROC DECL UNKNOWN 0 0 SUBROUTINE ALWAYS_EXPLICIT)
(UNKNOWN 0 0 0 0 UNKNOWN ()) 25 0 (26 27 28 29) () 0 () () () 0 0)
30 'write_state' 'write_state_module' '' 1 ((PROCEDURE UNKNOWN-INTENT
MODULE-PROC DECL UNKNOWN 0 0 SUBROUTINE ALWAYS_EXPLICIT) (UNKNOWN 0 0 0
0 UNKNOWN ()) 31 0 (32 33 34) () 0 () () () 0 0)
35 'write_state_module_check_options' 'write_state_module' '' 1 ((
PROCEDURE UNKNOWN-INTENT MODULE-PROC DECL UNKNOWN 0 0 SUBROUTINE) (
UNKNOWN 0 0 0 0 UNKNOWN ()) 0 0 () () 0 () () () 0 0)
2 'mpi_argv_null' 'mpi_interfaces' '' 1 ((VARIABLE UNKNOWN-INTENT
UNKNOWN-PROC UNKNOWN UNKNOWN 0 0 DIMENSION IN_COMMON) (CHARACTER 1 0 0 0
CHARACTER ((CONSTANT (INTEGER 4 0 0 0 INTEGER ()) 0 '1'))) 0 0 () (1 0
EXPLICIT (CONSTANT (INTEGER 4 0 0 0 INTEGER ()) 0 '1') (CONSTANT (
INTEGER 4 0 0 0 INTEGER ()) 0 '1')) 0 () () () 0 0)
3 'mpi_status_ignore' 'mpi_interfaces' '' 1 ((VARIABLE UNKNOWN-INTENT
UNKNOWN-PROC UNKNOWN UNKNOWN 0 0 DIMENSION IN_COMMON) (INTEGER 4 0 0 0
INTEGER ()) 0 0 () (1 0 EXPLICIT (CONSTANT (INTEGER 4 0 0 0 INTEGER ())
0 '1') (CONSTANT (INTEGER 4 0 0 0 INTEGER ()) 0 '6')) 0 () () () 0 0)
4 'mpi_statuses_ignore' 'mpi_interfaces' '' 1 ((VARIABLE UNKNOWN-INTENT
UNKNOWN-PROC UNKNOWN UNKNOWN 0 0 IN_COMMON) (REAL 8 0 0 0 REAL ()) 0 0 ()
() 0 () () () 0 0)
5 'petsc_null_real' 'petscsysdef' '' 1 ((VARIABLE UNKNOWN-INTENT
UNKNOWN-PROC UNKNOWN UNKNOWN 0 0 IN_COMMON) (REAL 8 0 0 0 REAL ()) 0 0 ()
() 0 () () () 0 0)
6 'mpi_errcodes_ignore' 'mpi_interfaces' '' 1 ((VARIABLE UNKNOWN-INTENT
UNKNOWN-PROC UNKNOWN UNKNOWN 0 0 DIMENSION IN_COMMON) (INTEGER 4 0 0 0
INTEGER ()) 0 0 () (1 0 EXPLICIT (CONSTANT (INTEGER 4 0 0 0 INTEGER ())
0 '1') (CONSTANT (INTEGER 4 0 0 0 INTEGER ()) 0 '1')) 0 () () () 0 0)
7 'petsc_null_character' 'petscsysdef' '' 1 ((VARIABLE UNKNOWN-INTENT
UNKNOWN-PROC UNKNOWN IMPLICIT-SAVE 0 0 IN_COMMON) (CHARACTER 1 0 0 0
CHARACTER ((CONSTANT (INTEGER 4 0 0 0 INTEGER ()) 0 '80'))) 0 0 () () 0
() () () 0 0)
8 'petsc_comm_self' 'petscsysdef' '' 1 ((VARIABLE UNKNOWN-INTENT
UNKNOWN-PROC UNKNOWN UNKNOWN 0 0 IN_COMMON) (INTEGER 4 0 0 0 INTEGER ())
0 0 () () 0 () () () 0 0)
9 'petsc_null_integer' 'petscsysdef' '' 1 ((VARIABLE UNKNOWN-INTENT
UNKNOWN-PROC UNKNOWN UNKNOWN 0 0 IN_COMMON) (INTEGER 4 0 0 0 INTEGER ())
0 0 () () 0 () () () 0 0)
10 'petsc_null_scalar' 'petscsysdef' '' 1 ((VARIABLE UNKNOWN-INTENT
UNKNOWN-PROC UNKNOWN UNKNOWN 0 0 IN_COMMON) (REAL 8 0 0 0 REAL ()) 0 0 ()
() 0 () () () 0 0)
11 'petsc_null_double' 'petscsysdef' '' 1 ((VARIABLE UNKNOWN-INTENT
UNKNOWN-PROC UNKNOWN UNKNOWN 0 0 IN_COMMON) (REAL 8 0 0 0 REAL ()) 0 0 ()
() 0 () () () 0 0)
12 'petsc_null_object' 'petscsysdef' '' 1 ((VARIABLE UNKNOWN-INTENT
UNKNOWN-PROC UNKNOWN UNKNOWN 0 0 IN_COMMON) (INTEGER 8 0 0 0 INTEGER ())
0 0 () () 0 () () () 0 0)
13 'petsc_comm_world' 'petscsysdef' '' 1 ((VARIABLE UNKNOWN-INTENT
UNKNOWN-PROC UNKNOWN UNKNOWN 0 0 IN_COMMON) (INTEGER 4 0 0 0 INTEGER ())
0 0 () () 0 () () () 0 0)
14 'mpi_argvs_null' 'mpi_interfaces' '' 1 ((VARIABLE UNKNOWN-INTENT
UNKNOWN-PROC UNKNOWN UNKNOWN 0 0 IN_COMMON) (REAL 8 0 0 0 REAL ()) 0 0 ()
() 0 () () () 0 0)
15 'mpi_bottom' 'mpi_interfaces' '' 1 ((VARIABLE UNKNOWN-INTENT
UNKNOWN-PROC UNKNOWN UNKNOWN 0 0 IN_COMMON) (INTEGER 4 0 0 0 INTEGER ())
0 0 () () 0 () () () 0 0)
16 'mpi_in_place' 'mpi_interfaces' '' 1 ((VARIABLE UNKNOWN-INTENT
UNKNOWN-PROC UNKNOWN UNKNOWN 0 0 IN_COMMON) (INTEGER 4 0 0 0 INTEGER ())
0 0 () () 0 () () () 0 0)
17 'petsc_null_bool' 'petscsysdef' '' 1 ((VARIABLE UNKNOWN-INTENT
UNKNOWN-PROC UNKNOWN UNKNOWN 0 0 IN_COMMON) (LOGICAL 4 0 0 0 LOGICAL ())
0 0 () () 0 () () () 0 0)
20 'current_time' '' '' 19 ((VARIABLE IN UNKNOWN-PROC UNKNOWN UNKNOWN 0
0 DUMMY) (REAL 8 0 0 0 REAL ()) 0 0 () () 0 () () () 0 0)
21 'timestep' '' '' 19 ((VARIABLE IN UNKNOWN-PROC UNKNOWN UNKNOWN 0 0
DUMMY) (INTEGER 4 0 0 0 INTEGER ()) 0 0 () () 0 () () () 0 0)
22 'adjoint' '' '' 19 ((VARIABLE IN UNKNOWN-PROC UNKNOWN UNKNOWN 0 0
OPTIONAL DUMMY) (LOGICAL 4 0 0 0 LOGICAL ()) 0 0 () () 0 () () () 0 0)
26 'filename' '' '' 25 ((VARIABLE IN UNKNOWN-PROC UNKNOWN UNKNOWN 0 0
DUMMY) (CHARACTER 1 0 0 0 CHARACTER (())) 0 0 () () 0 () () () 0 0)
27 'index' '' '' 25 ((VARIABLE IN UNKNOWN-PROC UNKNOWN UNKNOWN 0 0
OPTIONAL DUMMY) (INTEGER 4 0 0 0 INTEGER ()) 0 0 () () 0 () () () 0 0)
28 'state' '' '' 25 ((VARIABLE INOUT UNKNOWN-PROC UNKNOWN UNKNOWN 0 0
DIMENSION DUMMY) (DERIVED 36 0 0 0 DERIVED ()) 0 0 () (1 0 ASSUMED_SHAPE
(CONSTANT (INTEGER 4 0 0 0 INTEGER ()) 0 '1') ()) 0 () () () 0 0)
29 'write_region_ids' '' '' 25 ((VARIABLE IN UNKNOWN-PROC UNKNOWN
UNKNOWN 0 0 OPTIONAL DUMMY) (LOGICAL 4 0 0 0 LOGICAL ()) 0 0 () () 0 ()
() () 0 0)
32 'dump_no' '' '' 31 ((VARIABLE INOUT UNKNOWN-PROC UNKNOWN UNKNOWN 0 0
DUMMY) (INTEGER 4 0 0 0 INTEGER ()) 0 0 () () 0 () () () 0 0)
33 'state' '' '' 31 ((VARIABLE INOUT UNKNOWN-PROC UNKNOWN UNKNOWN 0 0
DIMENSION DUMMY) (DERIVED 36 0 0 0 DERIVED ()) 0 0 () (1 0 ASSUMED_SHAPE
(CONSTANT (INTEGER 4 0 0 0 INTEGER ()) 0 '1') ()) 0 () () () 0 0)
34 'adjoint' '' '' 31 ((VARIABLE IN UNKNOWN-PROC UNKNOWN UNKNOWN 0 0
OPTIONAL DUMMY) (LOGICAL 4 0 0 0 LOGICAL ()) 0 0 () () 0 () () () 0 0)
36 'State_type' 'state_module' '' 1 ((DERIVED UNKNOWN-INTENT
UNKNOWN-PROC UNKNOWN UNKNOWN 0 0 POINTER_COMP PRIVATE_COMP) (UNKNOWN 0 0
0 0 UNKNOWN ()) 0 0 () () 0 ((37 'name' (CHARACTER 1 0 0 0 CHARACTER ((
CONSTANT (INTEGER 4 0 0 0 INTEGER ()) 0 '101'))) () (UNKNOWN-FL
UNKNOWN-INTENT UNKNOWN-PROC UNKNOWN UNKNOWN 0 0) UNKNOWN-ACCESS (
CONSTANT (CHARACTER 1 0 0 0 CHARACTER (())) 0 101
'                                                                                                     '))
(38 'option_path' (CHARACTER 1 0 0 0 CHARACTER ((CONSTANT (INTEGER 4 0 0
0 INTEGER ()) 0 '8192'))) () (UNKNOWN-FL UNKNOWN-INTENT UNKNOWN-PROC
UNKNOWN UNKNOWN 0 0) UNKNOWN-ACCESS ()) (39 'vector_names' (CHARACTER 1
0 0 0 CHARACTER ((CONSTANT (INTEGER 4 0 0 0 INTEGER ()) 0 '101'))) (1 0
DEFERRED () ()) (UNKNOWN-FL UNKNOWN-INTENT UNKNOWN-PROC UNKNOWN UNKNOWN
0 0 DIMENSION POINTER) UNKNOWN-ACCESS (NULL (UNKNOWN 0 0 0 0 UNKNOWN ())
0)) (40 'scalar_names' (CHARACTER 1 0 0 0 CHARACTER ((CONSTANT (INTEGER
4 0 0 0 INTEGER ()) 0 '101'))) (1 0 DEFERRED () ()) (UNKNOWN-FL
UNKNOWN-INTENT UNKNOWN-PROC UNKNOWN UNKNOWN 0 0 DIMENSION POINTER)
UNKNOWN-ACCESS (NULL (UNKNOWN 0 0 0 0 UNKNOWN ()) 0)) (41 'mesh_names' (
CHARACTER 1 0 0 0 CHARACTER ((CONSTANT (INTEGER 4 0 0 0 INTEGER ()) 0
'101'))) (1 0 DEFERRED () ()) (UNKNOWN-FL UNKNOWN-INTENT UNKNOWN-PROC
UNKNOWN UNKNOWN 0 0 DIMENSION POINTER) UNKNOWN-ACCESS (NULL (UNKNOWN 0 0
0 0 UNKNOWN ()) 0)) (42 'halo_names' (CHARACTER 1 0 0 0 CHARACTER ((
CONSTANT (INTEGER 4 0 0 0 INTEGER ()) 0 '101'))) (1 0 DEFERRED () ()) (
UNKNOWN-FL UNKNOWN-INTENT UNKNOWN-PROC UNKNOWN UNKNOWN 0 0 DIMENSION
POINTER) UNKNOWN-ACCESS (NULL (UNKNOWN 0 0 0 0 UNKNOWN ()) 0)) (43
'tensor_names' (CHARACTER 1 0 0 0 CHARACTER ((CONSTANT (INTEGER 4 0 0 0
INTEGER ()) 0 '101'))) (1 0 DEFERRED () ()) (UNKNOWN-FL UNKNOWN-INTENT
UNKNOWN-PROC UNKNOWN UNKNOWN 0 0 DIMENSION POINTER) UNKNOWN-ACCESS (
NULL (UNKNOWN 0 0 0 0 UNKNOWN ()) 0)) (44 'csr_sparsity_names' (
CHARACTER 1 0 0 0 CHARACTER ((CONSTANT (INTEGER 4 0 0 0 INTEGER ()) 0
'101'))) (1 0 DEFERRED () ()) (UNKNOWN-FL UNKNOWN-INTENT UNKNOWN-PROC
UNKNOWN UNKNOWN 0 0 DIMENSION POINTER) UNKNOWN-ACCESS (NULL (UNKNOWN 0 0
0 0 UNKNOWN ()) 0)) (45 'csr_matrix_names' (CHARACTER 1 0 0 0 CHARACTER
((CONSTANT (INTEGER 4 0 0 0 INTEGER ()) 0 '101'))) (1 0 DEFERRED () ())
(UNKNOWN-FL UNKNOWN-INTENT UNKNOWN-PROC UNKNOWN UNKNOWN 0 0 DIMENSION
POINTER) UNKNOWN-ACCESS (NULL (UNKNOWN 0 0 0 0 UNKNOWN ()) 0)) (46
'block_csr_matrix_names' (CHARACTER 1 0 0 0 CHARACTER ((CONSTANT (
INTEGER 4 0 0 0 INTEGER ()) 0 '101'))) (1 0 DEFERRED () ()) (UNKNOWN-FL
UNKNOWN-INTENT UNKNOWN-PROC UNKNOWN UNKNOWN 0 0 DIMENSION POINTER)
UNKNOWN-ACCESS (NULL (UNKNOWN 0 0 0 0 UNKNOWN ()) 0)) (47
'petsc_csr_matrix_names' (CHARACTER 1 0 0 0 CHARACTER ((CONSTANT (
INTEGER 4 0 0 0 INTEGER ()) 0 '101'))) (1 0 DEFERRED () ()) (UNKNOWN-FL
UNKNOWN-INTENT UNKNOWN-PROC UNKNOWN UNKNOWN 0 0 DIMENSION POINTER)
UNKNOWN-ACCESS (NULL (UNKNOWN 0 0 0 0 UNKNOWN ()) 0)) (48 'vector_fields'
(DERIVED 49 0 0 0 DERIVED ()) (1 0 DEFERRED () ()) (UNKNOWN-FL
UNKNOWN-INTENT UNKNOWN-PROC UNKNOWN UNKNOWN 0 0 DIMENSION POINTER)
UNKNOWN-ACCESS (NULL (UNKNOWN 0 0 0 0 UNKNOWN ()) 0)) (50 'tensor_fields'
(DERIVED 51 0 0 0 DERIVED ()) (1 0 DEFERRED () ()) (UNKNOWN-FL
UNKNOWN-INTENT UNKNOWN-PROC UNKNOWN UNKNOWN 0 0 DIMENSION POINTER)
UNKNOWN-ACCESS (NULL (UNKNOWN 0 0 0 0 UNKNOWN ()) 0)) (52 'scalar_fields'
(DERIVED 53 0 0 0 DERIVED ()) (1 0 DEFERRED () ()) (UNKNOWN-FL
UNKNOWN-INTENT UNKNOWN-PROC UNKNOWN UNKNOWN 0 0 DIMENSION POINTER)
UNKNOWN-ACCESS (NULL (UNKNOWN 0 0 0 0 UNKNOWN ()) 0)) (54 'meshes' (
DERIVED 55 0 0 0 DERIVED ()) (1 0 DEFERRED () ()) (UNKNOWN-FL
UNKNOWN-INTENT UNKNOWN-PROC UNKNOWN UNKNOWN 0 0 DIMENSION POINTER)
UNKNOWN-ACCESS (NULL (UNKNOWN 0 0 0 0 UNKNOWN ()) 0)) (56 'halos' (
DERIVED 57 0 0 0 DERIVED ()) (1 0 DEFERRED () ()) (UNKNOWN-FL
UNKNOWN-INTENT UNKNOWN-PROC UNKNOWN UNKNOWN 0 0 DIMENSION POINTER)
UNKNOWN-ACCESS (NULL (UNKNOWN 0 0 0 0 UNKNOWN ()) 0)) (58 'csr_sparsities'
(DERIVED 59 0 0 0 DERIVED ()) (1 0 DEFERRED () ()) (UNKNOWN-FL
UNKNOWN-INTENT UNKNOWN-PROC UNKNOWN UNKNOWN 0 0 DIMENSION POINTER)
UNKNOWN-ACCESS (NULL (UNKNOWN 0 0 0 0 UNKNOWN ()) 0)) (60 'csr_matrices'
(DERIVED 61 0 0 0 DERIVED ()) (1 0 DEFERRED () ()) (UNKNOWN-FL
UNKNOWN-INTENT UNKNOWN-PROC UNKNOWN UNKNOWN 0 0 DIMENSION POINTER)
UNKNOWN-ACCESS (NULL (UNKNOWN 0 0 0 0 UNKNOWN ()) 0)) (62
'block_csr_matrices' (DERIVED 63 0 0 0 DERIVED ()) (1 0 DEFERRED () ())
(UNKNOWN-FL UNKNOWN-INTENT UNKNOWN-PROC UNKNOWN UNKNOWN 0 0 DIMENSION
POINTER) UNKNOWN-ACCESS (NULL (UNKNOWN 0 0 0 0 UNKNOWN ()) 0)) (64
'petsc_csr_matrices' (DERIVED 65 0 0 0 DERIVED ()) (1 0 DEFERRED () ())
(UNKNOWN-FL UNKNOWN-INTENT UNKNOWN-PROC UNKNOWN UNKNOWN 0 0 DIMENSION
POINTER) UNKNOWN-ACCESS (NULL (UNKNOWN 0 0 0 0 UNKNOWN ()) 0)) (66
'scalar_field_dict' (DERIVED 67 0 0 0 DERIVED ()) () (UNKNOWN-FL
UNKNOWN-INTENT UNKNOWN-PROC UNKNOWN UNKNOWN 0 0 POINTER) UNKNOWN-ACCESS
(NULL (UNKNOWN 0 0 0 0 UNKNOWN ()) 0))) PUBLIC (() () () ()) () 0 0
7575341)
49 'Vector_field_pointer' 'fields_data_types' '' 1 ((DERIVED
UNKNOWN-INTENT UNKNOWN-PROC UNKNOWN UNKNOWN 0 0 POINTER_COMP) (UNKNOWN 0
0 0 0 UNKNOWN ()) 0 0 () () 0 ((68 'ptr' (DERIVED 69 0 0 0 DERIVED ()) ()
(UNKNOWN-FL UNKNOWN-INTENT UNKNOWN-PROC UNKNOWN UNKNOWN 0 0 POINTER)
UNKNOWN-ACCESS (NULL (UNKNOWN 0 0 0 0 UNKNOWN ()) 0))) PUBLIC (() () ()
()) () 0 0 74448721)
51 'Tensor_field_pointer' 'fields_data_types' '' 1 ((DERIVED
UNKNOWN-INTENT UNKNOWN-PROC UNKNOWN UNKNOWN 0 0 POINTER_COMP) (UNKNOWN 0
0 0 0 UNKNOWN ()) 0 0 () () 0 ((70 'ptr' (DERIVED 71 0 0 0 DERIVED ()) ()
(UNKNOWN-FL UNKNOWN-INTENT UNKNOWN-PROC UNKNOWN UNKNOWN 0 0 POINTER)
UNKNOWN-ACCESS (NULL (UNKNOWN 0 0 0 0 UNKNOWN ()) 0))) PUBLIC (() () ()
()) () 0 0 16722823)
53 'Scalar_field_pointer' 'fields_data_types' '' 1 ((DERIVED
UNKNOWN-INTENT UNKNOWN-PROC UNKNOWN UNKNOWN 0 0 POINTER_COMP) (UNKNOWN 0
0 0 0 UNKNOWN ()) 0 0 () () 0 ((72 'ptr' (DERIVED 73 0 0 0 DERIVED ()) ()
(UNKNOWN-FL UNKNOWN-INTENT UNKNOWN-PROC UNKNOWN UNKNOWN 0 0 POINTER)
UNKNOWN-ACCESS (NULL (UNKNOWN 0 0 0 0 UNKNOWN ()) 0))) PUBLIC (() () ()
()) () 0 0 54828570)
55 'Mesh_pointer' 'fields_data_types' '' 1 ((DERIVED UNKNOWN-INTENT
UNKNOWN-PROC UNKNOWN UNKNOWN 0 0 POINTER_COMP) (UNKNOWN 0 0 0 0 UNKNOWN
()) 0 0 () () 0 ((74 'ptr' (DERIVED 75 0 0 0 DERIVED ()) () (UNKNOWN-FL
UNKNOWN-INTENT UNKNOWN-PROC UNKNOWN UNKNOWN 0 0 POINTER) UNKNOWN-ACCESS
(NULL (UNKNOWN 0 0 0 0 UNKNOWN ()) 0))) PUBLIC (() () () ()) () 0 0
65432384)
57 'Halo_pointer' 'halo_data_types' '' 1 ((DERIVED UNKNOWN-INTENT
UNKNOWN-PROC UNKNOWN UNKNOWN 0 0 POINTER_COMP) (UNKNOWN 0 0 0 0 UNKNOWN
()) 0 0 () () 0 ((76 'ptr' (DERIVED 77 0 0 0 DERIVED ()) () (UNKNOWN-FL
UNKNOWN-INTENT UNKNOWN-PROC UNKNOWN UNKNOWN 0 0 POINTER) UNKNOWN-ACCESS
(NULL (UNKNOWN 0 0 0 0 UNKNOWN ()) 0))) PUBLIC (() () () ()) () 0 0
72023282)
59 'Csr_sparsity_pointer' 'sparse_tools' '' 1 ((DERIVED UNKNOWN-INTENT
UNKNOWN-PROC UNKNOWN UNKNOWN 0 0 POINTER_COMP) (UNKNOWN 0 0 0 0 UNKNOWN
()) 0 0 () () 0 ((78 'ptr' (DERIVED 79 0 0 0 DERIVED ()) () (UNKNOWN-FL
UNKNOWN-INTENT UNKNOWN-PROC UNKNOWN UNKNOWN 0 0 POINTER) UNKNOWN-ACCESS
(NULL (UNKNOWN 0 0 0 0 UNKNOWN ()) 0))) PUBLIC (() () () ()) () 0 0
9687815)
61 'Csr_matrix_pointer' 'sparse_tools' '' 1 ((DERIVED UNKNOWN-INTENT
UNKNOWN-PROC UNKNOWN UNKNOWN 0 0 POINTER_COMP) (UNKNOWN 0 0 0 0 UNKNOWN
()) 0 0 () () 0 ((80 'ptr' (DERIVED 81 0 0 0 DERIVED ()) () (UNKNOWN-FL
UNKNOWN-INTENT UNKNOWN-PROC UNKNOWN UNKNOWN 0 0 POINTER) UNKNOWN-ACCESS
(NULL (UNKNOWN 0 0 0 0 UNKNOWN ()) 0))) PUBLIC (() () () ()) () 0 0
82770239)
63 'Block_csr_matrix_pointer' 'sparse_tools' '' 1 ((DERIVED
UNKNOWN-INTENT UNKNOWN-PROC UNKNOWN UNKNOWN 0 0 POINTER_COMP) (UNKNOWN 0
0 0 0 UNKNOWN ()) 0 0 () () 0 ((82 'ptr' (DERIVED 83 0 0 0 DERIVED ()) ()
(UNKNOWN-FL UNKNOWN-INTENT UNKNOWN-PROC UNKNOWN UNKNOWN 0 0 POINTER)
UNKNOWN-ACCESS (NULL (UNKNOWN 0 0 0 0 UNKNOWN ()) 0))) PUBLIC (() () ()
()) () 0 0 83606449)
65 'Petsc_csr_matrix_pointer' 'sparse_tools_petsc' '' 1 ((DERIVED
UNKNOWN-INTENT UNKNOWN-PROC UNKNOWN UNKNOWN 0 0 POINTER_COMP) (UNKNOWN 0
0 0 0 UNKNOWN ()) 0 0 () () 0 ((84 'ptr' (DERIVED 85 0 0 0 DERIVED ()) ()
(UNKNOWN-FL UNKNOWN-INTENT UNKNOWN-PROC UNKNOWN UNKNOWN 0 0 POINTER)
UNKNOWN-ACCESS (NULL (UNKNOWN 0 0 0 0 UNKNOWN ()) 0))) PUBLIC (() () ()
()) () 0 0 85445535)
67 'Dict_struct' 'scalar_field_dictionary' '' 1 ((DERIVED UNKNOWN-INTENT
UNKNOWN-PROC UNKNOWN UNKNOWN 0 0 POINTER_COMP PRIVATE_COMP) (UNKNOWN 0 0
0 0 UNKNOWN ()) 0 0 () () 0 ((86 'table' (DERIVED 87 0 0 0 DERIVED ()) (
1 0 DEFERRED () ()) (UNKNOWN-FL UNKNOWN-INTENT UNKNOWN-PROC UNKNOWN
UNKNOWN 0 0 DIMENSION POINTER) UNKNOWN-ACCESS ())) PRIVATE (() () () ())
() 0 0 40394189)
69 'Vector_field' 'fields_data_types' '' 1 ((DERIVED UNKNOWN-INTENT
UNKNOWN-PROC UNKNOWN UNKNOWN 0 0 POINTER_COMP) (UNKNOWN 0 0 0 0 UNKNOWN
()) 0 0 () () 0 ((88 'val' (REAL 8 0 0 0 REAL ()) (2 0 DEFERRED () () ()
()) (UNKNOWN-FL UNKNOWN-INTENT UNKNOWN-PROC UNKNOWN UNKNOWN 0 0
DIMENSION POINTER) UNKNOWN-ACCESS ()) (89 'wrapped' (LOGICAL 4 0 0 0
LOGICAL ()) () (UNKNOWN-FL UNKNOWN-INTENT UNKNOWN-PROC UNKNOWN UNKNOWN 0
0) UNKNOWN-ACCESS (CONSTANT (LOGICAL 4 0 0 0 LOGICAL ()) 0 1)) (90
'field_type' (INTEGER 4 0 0 0 INTEGER ()) () (UNKNOWN-FL UNKNOWN-INTENT
UNKNOWN-PROC UNKNOWN UNKNOWN 0 0) UNKNOWN-ACCESS (CONSTANT (INTEGER 4 0
0 0 INTEGER ()) 0 '0')) (91 'bc' (DERIVED 92 0 0 0 DERIVED ()) () (
UNKNOWN-FL UNKNOWN-INTENT UNKNOWN-PROC UNKNOWN UNKNOWN 0 0 POINTER)
UNKNOWN-ACCESS (NULL (UNKNOWN 0 0 0 0 UNKNOWN ()) 0)) (93 'name' (
CHARACTER 1 0 0 0 CHARACTER ((CONSTANT (INTEGER 4 0 0 0 INTEGER ()) 0
'101'))) () (UNKNOWN-FL UNKNOWN-INTENT UNKNOWN-PROC UNKNOWN UNKNOWN 0 0)
UNKNOWN-ACCESS ()) (94 'dim' (INTEGER 4 0 0 0 INTEGER ()) () (
UNKNOWN-FL UNKNOWN-INTENT UNKNOWN-PROC UNKNOWN UNKNOWN 0 0)
UNKNOWN-ACCESS ()) (95 'option_path' (CHARACTER 1 0 0 0 CHARACTER ((
CONSTANT (INTEGER 4 0 0 0 INTEGER ()) 0 '8192'))) () (UNKNOWN-FL
UNKNOWN-INTENT UNKNOWN-PROC UNKNOWN UNKNOWN 0 0) UNKNOWN-ACCESS ()) (96
'mesh' (DERIVED 75 0 0 0 DERIVED ()) () (UNKNOWN-FL UNKNOWN-INTENT
UNKNOWN-PROC UNKNOWN UNKNOWN 0 0) UNKNOWN-ACCESS (STRUCTURE (DERIVED 75
0 0 0 DERIVED ()) 0 ((() ()) ((CONSTANT (LOGICAL 4 0 0 0 LOGICAL ()) 0 1)
()) ((STRUCTURE (DERIVED 97 0 0 0 DERIVED ()) 0 ((() ()) (() ()) (() ())
(() ()) ((NULL (UNKNOWN 0 0 0 0 UNKNOWN ()) 0) ()) ((NULL (UNKNOWN 0 0 0
0 UNKNOWN ()) 0) ()) ((NULL (UNKNOWN 0 0 0 0 UNKNOWN ()) 0) ()) ((NULL (
UNKNOWN 0 0 0 0 UNKNOWN ()) 0) ()) ((NULL (UNKNOWN 0 0 0 0 UNKNOWN ()) 0)
()) ((NULL (UNKNOWN 0 0 0 0 UNKNOWN ()) 0) ()) ((NULL (UNKNOWN 0 0 0 0
UNKNOWN ()) 0) ()) ((STRUCTURE (DERIVED 98 0 0 0 DERIVED ()) 0 ((() ())
(() ()) (() ()) (() ()) ((NULL (UNKNOWN 0 0 0 0 UNKNOWN ()) 0) ()) ((
NULL (UNKNOWN 0 0 0 0 UNKNOWN ()) 0) ()) (() ()) ((NULL (UNKNOWN 0 0 0 0
UNKNOWN ()) 0) ()) (() ())) ()) ()) ((NULL (UNKNOWN 0 0 0 0 UNKNOWN ())
0) ()) ((NULL (UNKNOWN 0 0 0 0 UNKNOWN ()) 0) ()) ((NULL (UNKNOWN 0 0 0
0 UNKNOWN ()) 0) ()) ((NULL (UNKNOWN 0 0 0 0 UNKNOWN ()) 0) ()) (() ()))
()) ()) (() ()) (() ()) (() ()) (() ()) ((CONSTANT (INTEGER 4 0 0 0
INTEGER ()) 0 '0') ()) ((NULL (UNKNOWN 0 0 0 0 UNKNOWN ()) 0) ()) ((
NULL (UNKNOWN 0 0 0 0 UNKNOWN ()) 0) ()) ((NULL (UNKNOWN 0 0 0 0 UNKNOWN
()) 0) ()) ((NULL (UNKNOWN 0 0 0 0 UNKNOWN ()) 0) ()) ((NULL (UNKNOWN 0
0 0 0 UNKNOWN ()) 0) ()) ((NULL (UNKNOWN 0 0 0 0 UNKNOWN ()) 0) ()) ((
NULL (UNKNOWN 0 0 0 0 UNKNOWN ()) 0) ()) ((NULL (UNKNOWN 0 0 0 0 UNKNOWN
()) 0) ()) ((NULL (UNKNOWN 0 0 0 0 UNKNOWN ()) 0) ()) ((NULL (UNKNOWN 0
0 0 0 UNKNOWN ()) 0) ()) ((CONSTANT (LOGICAL 4 0 0 0 LOGICAL ()) 0 0) ()))
())) (99 'refcount' (DERIVED 100 0 0 0 DERIVED ()) () (UNKNOWN-FL
UNKNOWN-INTENT UNKNOWN-PROC UNKNOWN UNKNOWN 0 0 POINTER) UNKNOWN-ACCESS
(NULL (UNKNOWN 0 0 0 0 UNKNOWN ()) 0)) (101 'aliased' (LOGICAL 4 0 0 0
LOGICAL ()) () (UNKNOWN-FL UNKNOWN-INTENT UNKNOWN-PROC UNKNOWN UNKNOWN 0
0) UNKNOWN-ACCESS (CONSTANT (LOGICAL 4 0 0 0 LOGICAL ()) 0 0)) (102
'picker' (DERIVED 103 0 0 0 DERIVED ()) () (UNKNOWN-FL UNKNOWN-INTENT
UNKNOWN-PROC UNKNOWN UNKNOWN 0 0 POINTER) UNKNOWN-ACCESS (NULL (UNKNOWN
0 0 0 0 UNKNOWN ()) 0))) PUBLIC (() () () ()) () 0 0 43598963)
71 'Tensor_field' 'fields_data_types' '' 1 ((DERIVED UNKNOWN-INTENT
UNKNOWN-PROC UNKNOWN UNKNOWN 0 0 POINTER_COMP) (UNKNOWN 0 0 0 0 UNKNOWN
()) 0 0 () () 0 ((104 'val' (REAL 8 0 0 0 REAL ()) (3 0 DEFERRED () () ()
() () ()) (UNKNOWN-FL UNKNOWN-INTENT UNKNOWN-PROC UNKNOWN UNKNOWN 0 0
DIMENSION POINTER) UNKNOWN-ACCESS ()) (105 'wrapped' (LOGICAL 4 0 0 0
LOGICAL ()) () (UNKNOWN-FL UNKNOWN-INTENT UNKNOWN-PROC UNKNOWN UNKNOWN 0
0) UNKNOWN-ACCESS (CONSTANT (LOGICAL 4 0 0 0 LOGICAL ()) 0 1)) (106
'field_type' (INTEGER 4 0 0 0 INTEGER ()) () (UNKNOWN-FL UNKNOWN-INTENT
UNKNOWN-PROC UNKNOWN UNKNOWN 0 0) UNKNOWN-ACCESS (CONSTANT (INTEGER 4 0
0 0 INTEGER ()) 0 '0')) (107 'name' (CHARACTER 1 0 0 0 CHARACTER ((
CONSTANT (INTEGER 4 0 0 0 INTEGER ()) 0 '101'))) () (UNKNOWN-FL
UNKNOWN-INTENT UNKNOWN-PROC UNKNOWN UNKNOWN 0 0) UNKNOWN-ACCESS ()) (
108 'dim' (INTEGER 4 0 0 0 INTEGER ()) (1 0 EXPLICIT (CONSTANT (INTEGER
4 0 0 0 INTEGER ()) 0 '1') (CONSTANT (INTEGER 4 0 0 0 INTEGER ()) 0 '2'))
(UNKNOWN-FL UNKNOWN-INTENT UNKNOWN-PROC UNKNOWN UNKNOWN 0 0 DIMENSION)
UNKNOWN-ACCESS ()) (109 'option_path' (CHARACTER 1 0 0 0 CHARACTER ((
CONSTANT (INTEGER 4 0 0 0 INTEGER ()) 0 '8192'))) () (UNKNOWN-FL
UNKNOWN-INTENT UNKNOWN-PROC UNKNOWN UNKNOWN 0 0) UNKNOWN-ACCESS ()) (
110 'mesh' (DERIVED 75 0 0 0 DERIVED ()) () (UNKNOWN-FL UNKNOWN-INTENT
UNKNOWN-PROC UNKNOWN UNKNOWN 0 0) UNKNOWN-ACCESS (STRUCTURE (DERIVED 75
0 0 0 DERIVED ()) 0 ((() ()) ((CONSTANT (LOGICAL 4 0 0 0 LOGICAL ()) 0 1)
()) ((STRUCTURE (DERIVED 97 0 0 0 DERIVED ()) 0 ((() ()) (() ()) (() ())
(() ()) ((NULL (UNKNOWN 0 0 0 0 UNKNOWN ()) 0) ()) ((NULL (UNKNOWN 0 0 0
0 UNKNOWN ()) 0) ()) ((NULL (UNKNOWN 0 0 0 0 UNKNOWN ()) 0) ()) ((NULL (
UNKNOWN 0 0 0 0 UNKNOWN ()) 0) ()) ((NULL (UNKNOWN 0 0 0 0 UNKNOWN ()) 0)
()) ((NULL (UNKNOWN 0 0 0 0 UNKNOWN ()) 0) ()) ((NULL (UNKNOWN 0 0 0 0
UNKNOWN ()) 0) ()) ((STRUCTURE (DERIVED 98 0 0 0 DERIVED ()) 0 ((() ())
(() ()) (() ()) (() ()) ((NULL (UNKNOWN 0 0 0 0 UNKNOWN ()) 0) ()) ((
NULL (UNKNOWN 0 0 0 0 UNKNOWN ()) 0) ()) (() ()) ((NULL (UNKNOWN 0 0 0 0
UNKNOWN ()) 0) ()) (() ())) ()) ()) ((NULL (UNKNOWN 0 0 0 0 UNKNOWN ())
0) ()) ((NULL (UNKNOWN 0 0 0 0 UNKNOWN ()) 0) ()) ((NULL (UNKNOWN 0 0 0
0 UNKNOWN ()) 0) ()) ((NULL (UNKNOWN 0 0 0 0 UNKNOWN ()) 0) ()) (() ()))
()) ()) (() ()) (() ()) (() ()) (() ()) ((CONSTANT (INTEGER 4 0 0 0
INTEGER ()) 0 '0') ()) ((NULL (UNKNOWN 0 0 0 0 UNKNOWN ()) 0) ()) ((
NULL (UNKNOWN 0 0 0 0 UNKNOWN ()) 0) ()) ((NULL (UNKNOWN 0 0 0 0 UNKNOWN
()) 0) ()) ((NULL (UNKNOWN 0 0 0 0 UNKNOWN ()) 0) ()) ((NULL (UNKNOWN 0
0 0 0 UNKNOWN ()) 0) ()) ((NULL (UNKNOWN 0 0 0 0 UNKNOWN ()) 0) ()) ((
NULL (UNKNOWN 0 0 0 0 UNKNOWN ()) 0) ()) ((NULL (UNKNOWN 0 0 0 0 UNKNOWN
()) 0) ()) ((NULL (UNKNOWN 0 0 0 0 UNKNOWN ()) 0) ()) ((NULL (UNKNOWN 0
0 0 0 UNKNOWN ()) 0) ()) ((CONSTANT (LOGICAL 4 0 0 0 LOGICAL ()) 0 0) ()))
())) (111 'refcount' (DERIVED 100 0 0 0 DERIVED ()) () (UNKNOWN-FL
UNKNOWN-INTENT UNKNOWN-PROC UNKNOWN UNKNOWN 0 0 POINTER) UNKNOWN-ACCESS
(NULL (UNKNOWN 0 0 0 0 UNKNOWN ()) 0)) (112 'aliased' (LOGICAL 4 0 0 0
LOGICAL ()) () (UNKNOWN-FL UNKNOWN-INTENT UNKNOWN-PROC UNKNOWN UNKNOWN 0
0) UNKNOWN-ACCESS (CONSTANT (LOGICAL 4 0 0 0 LOGICAL ()) 0 0))) PUBLIC (
() () () ()) () 0 0 25110185)
73 'Scalar_field' 'fields_data_types' '' 1 ((DERIVED UNKNOWN-INTENT
UNKNOWN-PROC UNKNOWN UNKNOWN 0 0 POINTER_COMP) (UNKNOWN 0 0 0 0 UNKNOWN
()) 0 0 () () 0 ((113 'val' (REAL 8 0 0 0 REAL ()) (1 0 DEFERRED () ())
(UNKNOWN-FL UNKNOWN-INTENT UNKNOWN-PROC UNKNOWN UNKNOWN 0 0 DIMENSION
POINTER) UNKNOWN-ACCESS ()) (114 'val_stride' (INTEGER 4 0 0 0 INTEGER ())
() (UNKNOWN-FL UNKNOWN-INTENT UNKNOWN-PROC UNKNOWN UNKNOWN 0 0)
UNKNOWN-ACCESS (CONSTANT (INTEGER 4 0 0 0 INTEGER ()) 0 '1')) (115
'wrapped' (LOGICAL 4 0 0 0 LOGICAL ()) () (UNKNOWN-FL UNKNOWN-INTENT
UNKNOWN-PROC UNKNOWN UNKNOWN 0 0) UNKNOWN-ACCESS (CONSTANT (LOGICAL 4 0
0 0 LOGICAL ()) 0 1)) (116 'field_type' (INTEGER 4 0 0 0 INTEGER ()) ()
(UNKNOWN-FL UNKNOWN-INTENT UNKNOWN-PROC UNKNOWN UNKNOWN 0 0)
UNKNOWN-ACCESS (CONSTANT (INTEGER 4 0 0 0 INTEGER ()) 0 '0')) (117 'bc'
(DERIVED 118 0 0 0 DERIVED ()) () (UNKNOWN-FL UNKNOWN-INTENT
UNKNOWN-PROC UNKNOWN UNKNOWN 0 0 POINTER) UNKNOWN-ACCESS (NULL (UNKNOWN
0 0 0 0 UNKNOWN ()) 0)) (119 'name' (CHARACTER 1 0 0 0 CHARACTER ((
CONSTANT (INTEGER 4 0 0 0 INTEGER ()) 0 '101'))) () (UNKNOWN-FL
UNKNOWN-INTENT UNKNOWN-PROC UNKNOWN UNKNOWN 0 0) UNKNOWN-ACCESS ()) (
120 'option_path' (CHARACTER 1 0 0 0 CHARACTER ((CONSTANT (INTEGER 4 0 0
0 INTEGER ()) 0 '8192'))) () (UNKNOWN-FL UNKNOWN-INTENT UNKNOWN-PROC
UNKNOWN UNKNOWN 0 0) UNKNOWN-ACCESS ()) (121 'mesh' (DERIVED 75 0 0 0
DERIVED ()) () (UNKNOWN-FL UNKNOWN-INTENT UNKNOWN-PROC UNKNOWN UNKNOWN 0
0) UNKNOWN-ACCESS (STRUCTURE (DERIVED 75 0 0 0 DERIVED ()) 0 ((() ()) (
(CONSTANT (LOGICAL 4 0 0 0 LOGICAL ()) 0 1) ()) ((STRUCTURE (DERIVED 97
0 0 0 DERIVED ()) 0 ((() ()) (() ()) (() ()) (() ()) ((NULL (UNKNOWN 0 0
0 0 UNKNOWN ()) 0) ()) ((NULL (UNKNOWN 0 0 0 0 UNKNOWN ()) 0) ()) ((
NULL (UNKNOWN 0 0 0 0 UNKNOWN ()) 0) ()) ((NULL (UNKNOWN 0 0 0 0 UNKNOWN
()) 0) ()) ((NULL (UNKNOWN 0 0 0 0 UNKNOWN ()) 0) ()) ((NULL (UNKNOWN 0
0 0 0 UNKNOWN ()) 0) ()) ((NULL (UNKNOWN 0 0 0 0 UNKNOWN ()) 0) ()) ((
STRUCTURE (DERIVED 98 0 0 0 DERIVED ()) 0 ((() ()) (() ()) (() ()) (() ())
((NULL (UNKNOWN 0 0 0 0 UNKNOWN ()) 0) ()) ((NULL (UNKNOWN 0 0 0 0
UNKNOWN ()) 0) ()) (() ()) ((NULL (UNKNOWN 0 0 0 0 UNKNOWN ()) 0) ()) (
() ())) ()) ()) ((NULL (UNKNOWN 0 0 0 0 UNKNOWN ()) 0) ()) ((NULL (
UNKNOWN 0 0 0 0 UNKNOWN ()) 0) ()) ((NULL (UNKNOWN 0 0 0 0 UNKNOWN ()) 0)
()) ((NULL (UNKNOWN 0 0 0 0 UNKNOWN ()) 0) ()) (() ())) ()) ()) (() ())
(() ()) (() ()) (() ()) ((CONSTANT (INTEGER 4 0 0 0 INTEGER ()) 0 '0') ())
((NULL (UNKNOWN 0 0 0 0 UNKNOWN ()) 0) ()) ((NULL (UNKNOWN 0 0 0 0
UNKNOWN ()) 0) ()) ((NULL (UNKNOWN 0 0 0 0 UNKNOWN ()) 0) ()) ((NULL (
UNKNOWN 0 0 0 0 UNKNOWN ()) 0) ()) ((NULL (UNKNOWN 0 0 0 0 UNKNOWN ()) 0)
()) ((NULL (UNKNOWN 0 0 0 0 UNKNOWN ()) 0) ()) ((NULL (UNKNOWN 0 0 0 0
UNKNOWN ()) 0) ()) ((NULL (UNKNOWN 0 0 0 0 UNKNOWN ()) 0) ()) ((NULL (
UNKNOWN 0 0 0 0 UNKNOWN ()) 0) ()) ((NULL (UNKNOWN 0 0 0 0 UNKNOWN ()) 0)
()) ((CONSTANT (LOGICAL 4 0 0 0 LOGICAL ()) 0 0) ())) ())) (122 'refcount'
(DERIVED 100 0 0 0 DERIVED ()) () (UNKNOWN-FL UNKNOWN-INTENT
UNKNOWN-PROC UNKNOWN UNKNOWN 0 0 POINTER) UNKNOWN-ACCESS (NULL (UNKNOWN
0 0 0 0 UNKNOWN ()) 0)) (123 'aliased' (LOGICAL 4 0 0 0 LOGICAL ()) () (
UNKNOWN-FL UNKNOWN-INTENT UNKNOWN-PROC UNKNOWN UNKNOWN 0 0)
UNKNOWN-ACCESS (CONSTANT (LOGICAL 4 0 0 0 LOGICAL ()) 0 0)) (124
'py_locweight' (REAL 8 0 0 0 REAL ()) (2 0 DEFERRED () () () ()) (
UNKNOWN-FL UNKNOWN-INTENT UNKNOWN-PROC UNKNOWN UNKNOWN 0 0 DIMENSION
POINTER) UNKNOWN-ACCESS (NULL (UNKNOWN 0 0 0 0 UNKNOWN ()) 0)) (125
'py_func' (CHARACTER 1 0 0 0 CHARACTER ((CONSTANT (INTEGER 4 0 0 0
INTEGER ()) 0 '8192'))) () (UNKNOWN-FL UNKNOWN-INTENT UNKNOWN-PROC
UNKNOWN UNKNOWN 0 0) UNKNOWN-ACCESS ()) (126 'py_positions' (DERIVED 69
0 0 0 DERIVED ()) () (UNKNOWN-FL UNKNOWN-INTENT UNKNOWN-PROC UNKNOWN
UNKNOWN 0 0 POINTER) UNKNOWN-ACCESS ()) (127 'py_positions_same_mesh' (
LOGICAL 4 0 0 0 LOGICAL ()) () (UNKNOWN-FL UNKNOWN-INTENT UNKNOWN-PROC
UNKNOWN UNKNOWN 0 0) UNKNOWN-ACCESS ()) (128 'py_dim' (INTEGER 4 0 0 0
INTEGER ()) () (UNKNOWN-FL UNKNOWN-INTENT UNKNOWN-PROC UNKNOWN UNKNOWN 0
0) UNKNOWN-ACCESS ()) (129 'py_positions_shape' (DERIVED 97 0 0 0
DERIVED ()) () (UNKNOWN-FL UNKNOWN-INTENT UNKNOWN-PROC UNKNOWN UNKNOWN 0
0 POINTER) UNKNOWN-ACCESS (NULL (UNKNOWN 0 0 0 0 UNKNOWN ()) 0)) (130
'is_embedded' (LOGICAL 4 0 0 0 LOGICAL ()) () (UNKNOWN-FL UNKNOWN-INTENT
UNKNOWN-PROC UNKNOWN UNKNOWN 0 0) UNKNOWN-ACCESS (CONSTANT (LOGICAL 4 0
0 0 LOGICAL ()) 0 0))) PUBLIC (() () () ()) () 0 0 64912956)
75 'Mesh_type' 'fields_data_types' '' 1 ((DERIVED UNKNOWN-INTENT
UNKNOWN-PROC UNKNOWN UNKNOWN 0 0 POINTER_COMP) (UNKNOWN 0 0 0 0 UNKNOWN
()) 0 0 () () 0 ((131 'ndglno' (INTEGER 4 0 0 0 INTEGER ()) (1 0
DEFERRED () ()) (UNKNOWN-FL UNKNOWN-INTENT UNKNOWN-PROC UNKNOWN UNKNOWN
0 0 DIMENSION POINTER) UNKNOWN-ACCESS ()) (132 'wrapped' (LOGICAL 4 0 0
0 LOGICAL ()) () (UNKNOWN-FL UNKNOWN-INTENT UNKNOWN-PROC UNKNOWN UNKNOWN
0 0) UNKNOWN-ACCESS (CONSTANT (LOGICAL 4 0 0 0 LOGICAL ()) 0 1)) (133
'shape' (DERIVED 97 0 0 0 DERIVED ()) () (UNKNOWN-FL UNKNOWN-INTENT
UNKNOWN-PROC UNKNOWN UNKNOWN 0 0) UNKNOWN-ACCESS (STRUCTURE (DERIVED 97
0 0 0 DERIVED ()) 0 ((() ()) (() ()) (() ()) (() ()) ((NULL (UNKNOWN 0 0
0 0 UNKNOWN ()) 0) ()) ((NULL (UNKNOWN 0 0 0 0 UNKNOWN ()) 0) ()) ((
NULL (UNKNOWN 0 0 0 0 UNKNOWN ()) 0) ()) ((NULL (UNKNOWN 0 0 0 0 UNKNOWN
()) 0) ()) ((NULL (UNKNOWN 0 0 0 0 UNKNOWN ()) 0) ()) ((NULL (UNKNOWN 0
0 0 0 UNKNOWN ()) 0) ()) ((NULL (UNKNOWN 0 0 0 0 UNKNOWN ()) 0) ()) ((
STRUCTURE (DERIVED 98 0 0 0 DERIVED ()) 0 ((() ()) (() ()) (() ()) (() ())
((NULL (UNKNOWN 0 0 0 0 UNKNOWN ()) 0) ()) ((NULL (UNKNOWN 0 0 0 0
UNKNOWN ()) 0) ()) (() ()) ((NULL (UNKNOWN 0 0 0 0 UNKNOWN ()) 0) ()) (
() ())) ()) ()) ((NULL (UNKNOWN 0 0 0 0 UNKNOWN ()) 0) ()) ((NULL (
UNKNOWN 0 0 0 0 UNKNOWN ()) 0) ()) ((NULL (UNKNOWN 0 0 0 0 UNKNOWN ()) 0)
()) ((NULL (UNKNOWN 0 0 0 0 UNKNOWN ()) 0) ()) (() ())) ())) (134
'elements' (INTEGER 4 0 0 0 INTEGER ()) () (UNKNOWN-FL UNKNOWN-INTENT
UNKNOWN-PROC UNKNOWN UNKNOWN 0 0) UNKNOWN-ACCESS ()) (135 'nodes' (
INTEGER 4 0 0 0 INTEGER ()) () (UNKNOWN-FL UNKNOWN-INTENT UNKNOWN-PROC
UNKNOWN UNKNOWN 0 0) UNKNOWN-ACCESS ()) (136 'name' (CHARACTER 1 0 0 0
CHARACTER ((CONSTANT (INTEGER 4 0 0 0 INTEGER ()) 0 '101'))) () (
UNKNOWN-FL UNKNOWN-INTENT UNKNOWN-PROC UNKNOWN UNKNOWN 0 0)
UNKNOWN-ACCESS ()) (137 'option_path' (CHARACTER 1 0 0 0 CHARACTER ((
CONSTANT (INTEGER 4 0 0 0 INTEGER ()) 0 '8192'))) () (UNKNOWN-FL
UNKNOWN-INTENT UNKNOWN-PROC UNKNOWN UNKNOWN 0 0) UNKNOWN-ACCESS ()) (
138 'continuity' (INTEGER 4 0 0 0 INTEGER ()) () (UNKNOWN-FL
UNKNOWN-INTENT UNKNOWN-PROC UNKNOWN UNKNOWN 0 0) UNKNOWN-ACCESS (
CONSTANT (INTEGER 4 0 0 0 INTEGER ()) 0 '0')) (139 'refcount' (DERIVED
100 0 0 0 DERIVED ()) () (UNKNOWN-FL UNKNOWN-INTENT UNKNOWN-PROC UNKNOWN
UNKNOWN 0 0 POINTER) UNKNOWN-ACCESS (NULL (UNKNOWN 0 0 0 0 UNKNOWN ()) 0))
(140 'faces' (DERIVED 141 0 0 0 DERIVED ()) () (UNKNOWN-FL
UNKNOWN-INTENT UNKNOWN-PROC UNKNOWN UNKNOWN 0 0 POINTER) UNKNOWN-ACCESS
(NULL (UNKNOWN 0 0 0 0 UNKNOWN ()) 0)) (142 'subdomain_mesh' (DERIVED
143 0 0 0 DERIVED ()) () (UNKNOWN-FL UNKNOWN-INTENT UNKNOWN-PROC UNKNOWN
UNKNOWN 0 0 POINTER) UNKNOWN-ACCESS (NULL (UNKNOWN 0 0 0 0 UNKNOWN ()) 0))
(144 'adj_lists' (DERIVED 145 0 0 0 DERIVED ()) () (UNKNOWN-FL
UNKNOWN-INTENT UNKNOWN-PROC UNKNOWN UNKNOWN 0 0 POINTER) UNKNOWN-ACCESS
(NULL (UNKNOWN 0 0 0 0 UNKNOWN ()) 0)) (146 'columns' (INTEGER 4 0 0 0
INTEGER ()) (1 0 DEFERRED () ()) (UNKNOWN-FL UNKNOWN-INTENT UNKNOWN-PROC
UNKNOWN UNKNOWN 0 0 DIMENSION POINTER) UNKNOWN-ACCESS (NULL (UNKNOWN 0 0
0 0 UNKNOWN ()) 0)) (147 'element_columns' (INTEGER 4 0 0 0 INTEGER ())
(1 0 DEFERRED () ()) (UNKNOWN-FL UNKNOWN-INTENT UNKNOWN-PROC UNKNOWN
UNKNOWN 0 0 DIMENSION POINTER) UNKNOWN-ACCESS (NULL (UNKNOWN 0 0 0 0
UNKNOWN ()) 0)) (148 'region_ids' (INTEGER 4 0 0 0 INTEGER ()) (1 0
DEFERRED () ()) (UNKNOWN-FL UNKNOWN-INTENT UNKNOWN-PROC UNKNOWN UNKNOWN
0 0 DIMENSION POINTER) UNKNOWN-ACCESS (NULL (UNKNOWN 0 0 0 0 UNKNOWN ())
0)) (149 'halos' (DERIVED 77 0 0 0 DERIVED ()) (1 0 DEFERRED () ()) (
UNKNOWN-FL UNKNOWN-INTENT UNKNOWN-PROC UNKNOWN UNKNOWN 0 0 DIMENSION
POINTER) UNKNOWN-ACCESS (NULL (UNKNOWN 0 0 0 0 UNKNOWN ()) 0)) (150
'element_halos' (DERIVED 77 0 0 0 DERIVED ()) (1 0 DEFERRED () ()) (
UNKNOWN-FL UNKNOWN-INTENT UNKNOWN-PROC UNKNOWN UNKNOWN 0 0 DIMENSION
POINTER) UNKNOWN-ACCESS (NULL (UNKNOWN 0 0 0 0 UNKNOWN ()) 0)) (151
'colourings' (DERIVED 152 0 0 0 DERIVED ()) (1 0 DEFERRED () ()) (
UNKNOWN-FL UNKNOWN-INTENT UNKNOWN-PROC UNKNOWN UNKNOWN 0 0 DIMENSION
POINTER) UNKNOWN-ACCESS (NULL (UNKNOWN 0 0 0 0 UNKNOWN ()) 0)) (153
'periodic' (LOGICAL 4 0 0 0 LOGICAL ()) () (UNKNOWN-FL UNKNOWN-INTENT
UNKNOWN-PROC UNKNOWN UNKNOWN 0 0) UNKNOWN-ACCESS (CONSTANT (LOGICAL 4 0
0 0 LOGICAL ()) 0 0))) PUBLIC (() () () ()) () 0 0 2572791)
77 'Halo_type' 'halo_data_types' '' 1 ((DERIVED UNKNOWN-INTENT
UNKNOWN-PROC UNKNOWN UNKNOWN 0 0 POINTER_COMP) (UNKNOWN 0 0 0 0 UNKNOWN
()) 0 0 () () 0 ((154 'name' (CHARACTER 1 0 0 0 CHARACTER ((CONSTANT (
INTEGER 4 0 0 0 INTEGER ()) 0 '101'))) () (UNKNOWN-FL UNKNOWN-INTENT
UNKNOWN-PROC UNKNOWN UNKNOWN 0 0) UNKNOWN-ACCESS ()) (155 'refcount' (
DERIVED 100 0 0 0 DERIVED ()) () (UNKNOWN-FL UNKNOWN-INTENT UNKNOWN-PROC
UNKNOWN UNKNOWN 0 0 POINTER) UNKNOWN-ACCESS (NULL (UNKNOWN 0 0 0 0
UNKNOWN ()) 0)) (156 'data_type' (INTEGER 4 0 0 0 INTEGER ()) () (
UNKNOWN-FL UNKNOWN-INTENT UNKNOWN-PROC UNKNOWN UNKNOWN 0 0)
UNKNOWN-ACCESS (CONSTANT (INTEGER 4 0 0 0 INTEGER ()) 0 '0')) (157
'ordering_scheme' (INTEGER 4 0 0 0 INTEGER ()) () (UNKNOWN-FL
UNKNOWN-INTENT UNKNOWN-PROC UNKNOWN UNKNOWN 0 0) UNKNOWN-ACCESS (
CONSTANT (INTEGER 4 0 0 0 INTEGER ()) 0 '0')) (158 'communicator' (
INTEGER 4 0 0 0 INTEGER ()) () (UNKNOWN-FL UNKNOWN-INTENT UNKNOWN-PROC
UNKNOWN UNKNOWN 0 0) UNKNOWN-ACCESS ()) (159 'nprocs' (INTEGER 4 0 0 0
INTEGER ()) () (UNKNOWN-FL UNKNOWN-INTENT UNKNOWN-PROC UNKNOWN UNKNOWN 0
0) UNKNOWN-ACCESS (CONSTANT (INTEGER 4 0 0 0 INTEGER ()) 0 '0')) (160
'sends' (DERIVED 161 0 0 0 DERIVED ()) (1 0 DEFERRED () ()) (UNKNOWN-FL
UNKNOWN-INTENT UNKNOWN-PROC UNKNOWN UNKNOWN 0 0 DIMENSION POINTER)
UNKNOWN-ACCESS (NULL (UNKNOWN 0 0 0 0 UNKNOWN ()) 0)) (162 'receives' (
DERIVED 161 0 0 0 DERIVED ()) (1 0 DEFERRED () ()) (UNKNOWN-FL
UNKNOWN-INTENT UNKNOWN-PROC UNKNOWN UNKNOWN 0 0 DIMENSION POINTER)
UNKNOWN-ACCESS (NULL (UNKNOWN 0 0 0 0 UNKNOWN ()) 0)) (163 'nowned_nodes'
(INTEGER 4 0 0 0 INTEGER ()) () (UNKNOWN-FL UNKNOWN-INTENT UNKNOWN-PROC
UNKNOWN UNKNOWN 0 0) UNKNOWN-ACCESS (CONSTANT (INTEGER 4 0 0 0 INTEGER ())
0 '-1')) (164 'owners' (INTEGER 4 0 0 0 INTEGER ()) (1 0 DEFERRED () ())
(UNKNOWN-FL UNKNOWN-INTENT UNKNOWN-PROC UNKNOWN UNKNOWN 0 0 DIMENSION
POINTER) UNKNOWN-ACCESS (NULL (UNKNOWN 0 0 0 0 UNKNOWN ()) 0)) (165
'unn_count' (INTEGER 4 0 0 0 INTEGER ()) () (UNKNOWN-FL UNKNOWN-INTENT
UNKNOWN-PROC UNKNOWN UNKNOWN 0 0) UNKNOWN-ACCESS (CONSTANT (INTEGER 4 0
0 0 INTEGER ()) 0 '-1')) (166 'owned_nodes_unn_base' (INTEGER 4 0 0 0
INTEGER ()) (1 0 DEFERRED () ()) (UNKNOWN-FL UNKNOWN-INTENT UNKNOWN-PROC
UNKNOWN UNKNOWN 0 0 DIMENSION POINTER) UNKNOWN-ACCESS (NULL (UNKNOWN 0 0
0 0 UNKNOWN ()) 0)) (167 'my_owned_nodes_unn_base' (INTEGER 4 0 0 0
INTEGER ()) () (UNKNOWN-FL UNKNOWN-INTENT UNKNOWN-PROC UNKNOWN UNKNOWN 0
0) UNKNOWN-ACCESS (CONSTANT (INTEGER 4 0 0 0 INTEGER ()) 0 '-1')) (168
'receives_gnn_to_unn' (INTEGER 4 0 0 0 INTEGER ()) (1 0 DEFERRED () ())
(UNKNOWN-FL UNKNOWN-INTENT UNKNOWN-PROC UNKNOWN UNKNOWN 0 0 DIMENSION
POINTER) UNKNOWN-ACCESS (NULL (UNKNOWN 0 0 0 0 UNKNOWN ()) 0)) (169
'gnn_to_unn' (INTEGER 4 0 0 0 INTEGER ()) (1 0 DEFERRED () ()) (
UNKNOWN-FL UNKNOWN-INTENT UNKNOWN-PROC UNKNOWN UNKNOWN 0 0 DIMENSION
POINTER) UNKNOWN-ACCESS (NULL (UNKNOWN 0 0 0 0 UNKNOWN ()) 0))) PUBLIC (
() () () ()) () 0 0 63994053)
79 'Csr_sparsity' 'sparse_tools' '' 1 ((DERIVED UNKNOWN-INTENT
UNKNOWN-PROC UNKNOWN UNKNOWN 0 0 POINTER_COMP) (UNKNOWN 0 0 0 0 UNKNOWN
()) 0 0 () () 0 ((170 'findrm' (INTEGER 4 0 0 0 INTEGER ()) (1 0
DEFERRED () ()) (UNKNOWN-FL UNKNOWN-INTENT UNKNOWN-PROC UNKNOWN UNKNOWN
0 0 DIMENSION POINTER) UNKNOWN-ACCESS (NULL (UNKNOWN 0 0 0 0 UNKNOWN ())
0)) (171 'centrm' (INTEGER 4 0 0 0 INTEGER ()) (1 0 DEFERRED () ()) (
UNKNOWN-FL UNKNOWN-INTENT UNKNOWN-PROC UNKNOWN UNKNOWN 0 0 DIMENSION
POINTER) UNKNOWN-ACCESS (NULL (UNKNOWN 0 0 0 0 UNKNOWN ()) 0)) (172 'colm'
(INTEGER 4 0 0 0 INTEGER ()) (1 0 DEFERRED () ()) (UNKNOWN-FL
UNKNOWN-INTENT UNKNOWN-PROC UNKNOWN UNKNOWN 0 0 DIMENSION POINTER)
UNKNOWN-ACCESS (NULL (UNKNOWN 0 0 0 0 UNKNOWN ()) 0)) (173 'columns' (
INTEGER 4 0 0 0 INTEGER ()) () (UNKNOWN-FL UNKNOWN-INTENT UNKNOWN-PROC
UNKNOWN UNKNOWN 0 0) UNKNOWN-ACCESS ()) (174 'row_halo' (DERIVED 77 0 0
0 DERIVED ()) () (UNKNOWN-FL UNKNOWN-INTENT UNKNOWN-PROC UNKNOWN UNKNOWN
0 0 POINTER) UNKNOWN-ACCESS (NULL (UNKNOWN 0 0 0 0 UNKNOWN ()) 0)) (175
'column_halo' (DERIVED 77 0 0 0 DERIVED ()) () (UNKNOWN-FL
UNKNOWN-INTENT UNKNOWN-PROC UNKNOWN UNKNOWN 0 0 POINTER) UNKNOWN-ACCESS
(NULL (UNKNOWN 0 0 0 0 UNKNOWN ()) 0)) (176 'refcount' (DERIVED 100 0 0
0 DERIVED ()) () (UNKNOWN-FL UNKNOWN-INTENT UNKNOWN-PROC UNKNOWN UNKNOWN
0 0 POINTER) UNKNOWN-ACCESS (NULL (UNKNOWN 0 0 0 0 UNKNOWN ()) 0)) (177
'name' (CHARACTER 1 0 0 0 CHARACTER ((CONSTANT (INTEGER 4 0 0 0 INTEGER
()) 0 '101'))) () (UNKNOWN-FL UNKNOWN-INTENT UNKNOWN-PROC UNKNOWN
UNKNOWN 0 0) UNKNOWN-ACCESS (CONSTANT (CHARACTER 1 0 0 0 CHARACTER (()))
0 101
'                                                                                                     '))
(178 'wrapped' (LOGICAL 4 0 0 0 LOGICAL ()) () (UNKNOWN-FL
UNKNOWN-INTENT UNKNOWN-PROC UNKNOWN UNKNOWN 0 0) UNKNOWN-ACCESS (
CONSTANT (LOGICAL 4 0 0 0 LOGICAL ()) 0 0)) (179 'sorted_rows' (LOGICAL
4 0 0 0 LOGICAL ()) () (UNKNOWN-FL UNKNOWN-INTENT UNKNOWN-PROC UNKNOWN
UNKNOWN 0 0) UNKNOWN-ACCESS (CONSTANT (LOGICAL 4 0 0 0 LOGICAL ()) 0 0)))
PUBLIC (() () () ()) () 0 0 78882345)
81 'Csr_matrix' 'sparse_tools' '' 1 ((DERIVED UNKNOWN-INTENT
UNKNOWN-PROC UNKNOWN UNKNOWN 0 0 POINTER_COMP) (UNKNOWN 0 0 0 0 UNKNOWN
()) 0 0 () () 0 ((180 'sparsity' (DERIVED 79 0 0 0 DERIVED ()) () (
UNKNOWN-FL UNKNOWN-INTENT UNKNOWN-PROC UNKNOWN UNKNOWN 0 0)
UNKNOWN-ACCESS (STRUCTURE (DERIVED 79 0 0 0 DERIVED ()) 0 (((NULL (
UNKNOWN 0 0 0 0 UNKNOWN ()) 0) ()) ((NULL (UNKNOWN 0 0 0 0 UNKNOWN ()) 0)
()) ((NULL (UNKNOWN 0 0 0 0 UNKNOWN ()) 0) ()) (() ()) ((NULL (UNKNOWN 0
0 0 0 UNKNOWN ()) 0) ()) ((NULL (UNKNOWN 0 0 0 0 UNKNOWN ()) 0) ()) ((
NULL (UNKNOWN 0 0 0 0 UNKNOWN ()) 0) ()) ((CONSTANT (CHARACTER 1 0 0 0
CHARACTER (())) 0 101
'                                                                                                     ')
()) ((CONSTANT (LOGICAL 4 0 0 0 LOGICAL ()) 0 0) ()) ((CONSTANT (
LOGICAL 4 0 0 0 LOGICAL ()) 0 0) ())) ())) (181 'val' (REAL 8 0 0 0 REAL
()) (1 0 DEFERRED () ()) (UNKNOWN-FL UNKNOWN-INTENT UNKNOWN-PROC UNKNOWN
UNKNOWN 0 0 DIMENSION POINTER) UNKNOWN-ACCESS (NULL (UNKNOWN 0 0 0 0
UNKNOWN ()) 0)) (182 'ival' (INTEGER 4 0 0 0 INTEGER ()) (1 0 DEFERRED ()
()) (UNKNOWN-FL UNKNOWN-INTENT UNKNOWN-PROC UNKNOWN UNKNOWN 0 0
DIMENSION POINTER) UNKNOWN-ACCESS (NULL (UNKNOWN 0 0 0 0 UNKNOWN ()) 0))
(183 'clone' (LOGICAL 4 0 0 0 LOGICAL ()) () (UNKNOWN-FL UNKNOWN-INTENT
UNKNOWN-PROC UNKNOWN UNKNOWN 0 0) UNKNOWN-ACCESS (CONSTANT (LOGICAL 4 0
0 0 LOGICAL ()) 0 0)) (184 'external_val' (LOGICAL 4 0 0 0 LOGICAL ()) ()
(UNKNOWN-FL UNKNOWN-INTENT UNKNOWN-PROC UNKNOWN UNKNOWN 0 0)
UNKNOWN-ACCESS (CONSTANT (LOGICAL 4 0 0 0 LOGICAL ()) 0 0)) (185
'inactive' (DERIVED 186 0 0 0 DERIVED ()) () (UNKNOWN-FL UNKNOWN-INTENT
UNKNOWN-PROC UNKNOWN UNKNOWN 0 0 POINTER) UNKNOWN-ACCESS ()) (187 'ksp'
(INTEGER 8 0 0 0 INTEGER ()) () (UNKNOWN-FL UNKNOWN-INTENT UNKNOWN-PROC
UNKNOWN UNKNOWN 0 0 POINTER) UNKNOWN-ACCESS (NULL (UNKNOWN 0 0 0 0
UNKNOWN ()) 0)) (188 'refcount' (DERIVED 100 0 0 0 DERIVED ()) () (
UNKNOWN-FL UNKNOWN-INTENT UNKNOWN-PROC UNKNOWN UNKNOWN 0 0 POINTER)
UNKNOWN-ACCESS (NULL (UNKNOWN 0 0 0 0 UNKNOWN ()) 0)) (189 'name' (
CHARACTER 1 0 0 0 CHARACTER ((CONSTANT (INTEGER 4 0 0 0 INTEGER ()) 0
'101'))) () (UNKNOWN-FL UNKNOWN-INTENT UNKNOWN-PROC UNKNOWN UNKNOWN 0 0)
UNKNOWN-ACCESS (CONSTANT (CHARACTER 1 0 0 0 CHARACTER (())) 0 101
'                                                                                                     ')))
PUBLIC (() () () ()) () 0 0 66371681)
83 'Block_csr_matrix' 'sparse_tools' '' 1 ((DERIVED UNKNOWN-INTENT
UNKNOWN-PROC UNKNOWN UNKNOWN 0 0 POINTER_COMP) (UNKNOWN 0 0 0 0 UNKNOWN
()) 0 0 () () 0 ((190 'sparsity' (DERIVED 79 0 0 0 DERIVED ()) () (
UNKNOWN-FL UNKNOWN-INTENT UNKNOWN-PROC UNKNOWN UNKNOWN 0 0)
UNKNOWN-ACCESS (STRUCTURE (DERIVED 79 0 0 0 DERIVED ()) 0 (((NULL (
UNKNOWN 0 0 0 0 UNKNOWN ()) 0) ()) ((NULL (UNKNOWN 0 0 0 0 UNKNOWN ()) 0)
()) ((NULL (UNKNOWN 0 0 0 0 UNKNOWN ()) 0) ()) (() ()) ((NULL (UNKNOWN 0
0 0 0 UNKNOWN ()) 0) ()) ((NULL (UNKNOWN 0 0 0 0 UNKNOWN ()) 0) ()) ((
NULL (UNKNOWN 0 0 0 0 UNKNOWN ()) 0) ()) ((CONSTANT (CHARACTER 1 0 0 0
CHARACTER (())) 0 101
'                                                                                                     ')
()) ((CONSTANT (LOGICAL 4 0 0 0 LOGICAL ()) 0 0) ()) ((CONSTANT (
LOGICAL 4 0 0 0 LOGICAL ()) 0 0) ())) ())) (191 'val' (DERIVED 192 0 0 0
DERIVED ()) (2 0 DEFERRED () () () ()) (UNKNOWN-FL UNKNOWN-INTENT
UNKNOWN-PROC UNKNOWN UNKNOWN 0 0 DIMENSION POINTER) UNKNOWN-ACCESS (
NULL (UNKNOWN 0 0 0 0 UNKNOWN ()) 0)) (193 'contiguous_val' (REAL 8 0 0
0 REAL ()) (1 0 DEFERRED () ()) (UNKNOWN-FL UNKNOWN-INTENT UNKNOWN-PROC
UNKNOWN UNKNOWN 0 0 DIMENSION POINTER) UNKNOWN-ACCESS (NULL (UNKNOWN 0 0
0 0 UNKNOWN ()) 0)) (194 'ival' (DERIVED 161 0 0 0 DERIVED ()) (2 0
DEFERRED () () () ()) (UNKNOWN-FL UNKNOWN-INTENT UNKNOWN-PROC UNKNOWN
UNKNOWN 0 0 DIMENSION POINTER) UNKNOWN-ACCESS (NULL (UNKNOWN 0 0 0 0
UNKNOWN ()) 0)) (195 'blocks' (INTEGER 4 0 0 0 INTEGER ()) (1 0 EXPLICIT
(CONSTANT (INTEGER 4 0 0 0 INTEGER ()) 0 '1') (CONSTANT (INTEGER 4 0 0 0
INTEGER ()) 0 '2')) (UNKNOWN-FL UNKNOWN-INTENT UNKNOWN-PROC UNKNOWN
UNKNOWN 0 0 DIMENSION) UNKNOWN-ACCESS (ARRAY (INTEGER 4 0 0 0 INTEGER ())
1 (((CONSTANT (INTEGER 4 0 0 0 INTEGER ()) 0 '0') ()) ((CONSTANT (
INTEGER 4 0 0 0 INTEGER ()) 0 '0') ())) ('2'))) (196 'clone' (LOGICAL 4
0 0 0 LOGICAL ()) () (UNKNOWN-FL UNKNOWN-INTENT UNKNOWN-PROC UNKNOWN
UNKNOWN 0 0) UNKNOWN-ACCESS (CONSTANT (LOGICAL 4 0 0 0 LOGICAL ()) 0 0))
(197 'external_val' (LOGICAL 4 0 0 0 LOGICAL ()) () (UNKNOWN-FL
UNKNOWN-INTENT UNKNOWN-PROC UNKNOWN UNKNOWN 0 0) UNKNOWN-ACCESS (
CONSTANT (LOGICAL 4 0 0 0 LOGICAL ()) 0 0)) (198 'columns' (INTEGER 4 0
0 0 INTEGER ()) () (UNKNOWN-FL UNKNOWN-INTENT UNKNOWN-PROC UNKNOWN
UNKNOWN 0 0) UNKNOWN-ACCESS ()) (199 'refcount' (DERIVED 100 0 0 0
DERIVED ()) () (UNKNOWN-FL UNKNOWN-INTENT UNKNOWN-PROC UNKNOWN UNKNOWN 0
0 POINTER) UNKNOWN-ACCESS (NULL (UNKNOWN 0 0 0 0 UNKNOWN ()) 0)) (200
'name' (CHARACTER 1 0 0 0 CHARACTER ((CONSTANT (INTEGER 4 0 0 0 INTEGER
()) 0 '101'))) () (UNKNOWN-FL UNKNOWN-INTENT UNKNOWN-PROC UNKNOWN
UNKNOWN 0 0) UNKNOWN-ACCESS (CONSTANT (CHARACTER 1 0 0 0 CHARACTER (()))
0 101
'                                                                                                     '))
(201 'diagonal' (LOGICAL 4 0 0 0 LOGICAL ()) () (UNKNOWN-FL
UNKNOWN-INTENT UNKNOWN-PROC UNKNOWN UNKNOWN 0 0) UNKNOWN-ACCESS (
CONSTANT (LOGICAL 4 0 0 0 LOGICAL ()) 0 0)) (202 'equal_diagonal_blocks'
(LOGICAL 4 0 0 0 LOGICAL ()) () (UNKNOWN-FL UNKNOWN-INTENT UNKNOWN-PROC
UNKNOWN UNKNOWN 0 0) UNKNOWN-ACCESS (CONSTANT (LOGICAL 4 0 0 0 LOGICAL ())
0 0)) (203 'ksp' (INTEGER 8 0 0 0 INTEGER ()) () (UNKNOWN-FL
UNKNOWN-INTENT UNKNOWN-PROC UNKNOWN UNKNOWN 0 0 POINTER) UNKNOWN-ACCESS
(NULL (UNKNOWN 0 0 0 0 UNKNOWN ()) 0))) PUBLIC (() () () ()) () 0 0
61921235)
85 'Petsc_csr_matrix' 'sparse_tools_petsc' '' 1 ((DERIVED UNKNOWN-INTENT
UNKNOWN-PROC UNKNOWN UNKNOWN 0 0 POINTER_COMP) (UNKNOWN 0 0 0 0 UNKNOWN
()) 0 0 () () 0 ((204 'm' (INTEGER 8 0 0 0 INTEGER ()) () (UNKNOWN-FL
UNKNOWN-INTENT UNKNOWN-PROC UNKNOWN UNKNOWN 0 0) UNKNOWN-ACCESS ()) (
205 'row_numbering' (DERIVED 206 0 0 0 DERIVED ()) () (UNKNOWN-FL
UNKNOWN-INTENT UNKNOWN-PROC UNKNOWN UNKNOWN 0 0) UNKNOWN-ACCESS (
STRUCTURE (DERIVED 206 0 0 0 DERIVED ()) 0 (((NULL (UNKNOWN 0 0 0 0
UNKNOWN ()) 0) ()) (() ()) (() ()) (() ()) (() ()) ((NULL (UNKNOWN 0 0 0
0 UNKNOWN ()) 0) ()) ((NULL (UNKNOWN 0 0 0 0 UNKNOWN ()) 0) ()) ((NULL (
UNKNOWN 0 0 0 0 UNKNOWN ()) 0) ()) ((CONSTANT (CHARACTER 1 0 0 0
CHARACTER (())) 0 101
'                                                                                                     ')
())) ())) (207 'column_numbering' (DERIVED 206 0 0 0 DERIVED ()) () (
UNKNOWN-FL UNKNOWN-INTENT UNKNOWN-PROC UNKNOWN UNKNOWN 0 0)
UNKNOWN-ACCESS (STRUCTURE (DERIVED 206 0 0 0 DERIVED ()) 0 (((NULL (
UNKNOWN 0 0 0 0 UNKNOWN ()) 0) ()) (() ()) (() ()) (() ()) (() ()) ((
NULL (UNKNOWN 0 0 0 0 UNKNOWN ()) 0) ()) ((NULL (UNKNOWN 0 0 0 0 UNKNOWN
()) 0) ()) ((NULL (UNKNOWN 0 0 0 0 UNKNOWN ()) 0) ()) ((CONSTANT (
CHARACTER 1 0 0 0 CHARACTER (())) 0 101
'                                                                                                     ')
())) ())) (208 'row_halo' (DERIVED 77 0 0 0 DERIVED ()) () (UNKNOWN-FL
UNKNOWN-INTENT UNKNOWN-PROC UNKNOWN UNKNOWN 0 0 POINTER) UNKNOWN-ACCESS
(NULL (UNKNOWN 0 0 0 0 UNKNOWN ()) 0)) (209 'column_halo' (DERIVED 77 0
0 0 DERIVED ()) () (UNKNOWN-FL UNKNOWN-INTENT UNKNOWN-PROC UNKNOWN
UNKNOWN 0 0 POINTER) UNKNOWN-ACCESS (NULL (UNKNOWN 0 0 0 0 UNKNOWN ()) 0))
(210 'refcount' (DERIVED 100 0 0 0 DERIVED ()) () (UNKNOWN-FL
UNKNOWN-INTENT UNKNOWN-PROC UNKNOWN UNKNOWN 0 0 POINTER) UNKNOWN-ACCESS
(NULL (UNKNOWN 0 0 0 0 UNKNOWN ()) 0)) (211 'name' (CHARACTER 1 0 0 0
CHARACTER ((CONSTANT (INTEGER 4 0 0 0 INTEGER ()) 0 '101'))) () (
UNKNOWN-FL UNKNOWN-INTENT UNKNOWN-PROC UNKNOWN UNKNOWN 0 0)
UNKNOWN-ACCESS (CONSTANT (CHARACTER 1 0 0 0 CHARACTER (())) 0 101
'                                                                                                     '))
(212 'is_assembled' (LOGICAL 4 0 0 0 LOGICAL ()) () (UNKNOWN-FL
UNKNOWN-INTENT UNKNOWN-PROC UNKNOWN UNKNOWN 0 0) UNKNOWN-ACCESS (
CONSTANT (LOGICAL 4 0 0 0 LOGICAL ()) 0 0))) PUBLIC (() () () ()) () 0 0
75554753)
87 'Hash_list' 'scalar_field_dictionary' '' 1 ((DERIVED UNKNOWN-INTENT
UNKNOWN-PROC UNKNOWN UNKNOWN 0 0 POINTER_COMP) (UNKNOWN 0 0 0 0 UNKNOWN
()) 0 0 () () 0 ((213 'list' (DERIVED 214 0 0 0 DERIVED ()) () (
UNKNOWN-FL UNKNOWN-INTENT UNKNOWN-PROC UNKNOWN UNKNOWN 0 0 POINTER)
UNKNOWN-ACCESS ())) PUBLIC (() () () ()) () 0 0 75083678)
92 'Vector_boundary_conditions_ptr' 'fields_data_types' '' 1 ((DERIVED
UNKNOWN-INTENT UNKNOWN-PROC UNKNOWN UNKNOWN 0 0 POINTER_COMP) (UNKNOWN 0
0 0 0 UNKNOWN ()) 0 0 () () 0 ((215 'boundary_condition' (DERIVED 216 0
0 0 DERIVED ()) (1 0 DEFERRED () ()) (UNKNOWN-FL UNKNOWN-INTENT
UNKNOWN-PROC UNKNOWN UNKNOWN 0 0 DIMENSION POINTER) UNKNOWN-ACCESS (
NULL (UNKNOWN 0 0 0 0 UNKNOWN ()) 0))) PUBLIC (() () () ()) () 0 0
84476181)
97 'Element_type' 'elements' '' 1 ((DERIVED UNKNOWN-INTENT UNKNOWN-PROC
UNKNOWN UNKNOWN 0 0 POINTER_COMP) (UNKNOWN 0 0 0 0 UNKNOWN ()) 0 0 () ()
0 ((217 'dim' (INTEGER 4 0 0 0 INTEGER ()) () (UNKNOWN-FL UNKNOWN-INTENT
UNKNOWN-PROC UNKNOWN UNKNOWN 0 0) UNKNOWN-ACCESS ()) (218 'loc' (
INTEGER 4 0 0 0 INTEGER ()) () (UNKNOWN-FL UNKNOWN-INTENT UNKNOWN-PROC
UNKNOWN UNKNOWN 0 0) UNKNOWN-ACCESS ()) (219 'ngi' (INTEGER 4 0 0 0
INTEGER ()) () (UNKNOWN-FL UNKNOWN-INTENT UNKNOWN-PROC UNKNOWN UNKNOWN 0
0) UNKNOWN-ACCESS ()) (220 'degree' (INTEGER 4 0 0 0 INTEGER ()) () (
UNKNOWN-FL UNKNOWN-INTENT UNKNOWN-PROC UNKNOWN UNKNOWN 0 0)
UNKNOWN-ACCESS ()) (221 'n' (REAL 8 0 0 0 REAL ()) (2 0 DEFERRED () () ()
()) (UNKNOWN-FL UNKNOWN-INTENT UNKNOWN-PROC UNKNOWN UNKNOWN 0 0
DIMENSION POINTER) UNKNOWN-ACCESS (NULL (UNKNOWN 0 0 0 0 UNKNOWN ()) 0))
(222 'dn' (REAL 8 0 0 0 REAL ()) (3 0 DEFERRED () () () () () ()) (
UNKNOWN-FL UNKNOWN-INTENT UNKNOWN-PROC UNKNOWN UNKNOWN 0 0 DIMENSION
POINTER) UNKNOWN-ACCESS (NULL (UNKNOWN 0 0 0 0 UNKNOWN ()) 0)) (223 'n_s'
(REAL 8 0 0 0 REAL ()) (3 0 DEFERRED () () () () () ()) (UNKNOWN-FL
UNKNOWN-INTENT UNKNOWN-PROC UNKNOWN UNKNOWN 0 0 DIMENSION POINTER)
UNKNOWN-ACCESS (NULL (UNKNOWN 0 0 0 0 UNKNOWN ()) 0)) (224 'dn_s' (REAL
8 0 0 0 REAL ()) (4 0 DEFERRED () () () () () () () ()) (UNKNOWN-FL
UNKNOWN-INTENT UNKNOWN-PROC UNKNOWN UNKNOWN 0 0 DIMENSION POINTER)
UNKNOWN-ACCESS (NULL (UNKNOWN 0 0 0 0 UNKNOWN ()) 0)) (225 'spoly' (
DERIVED 226 0 0 0 DERIVED ()) (2 0 DEFERRED () () () ()) (UNKNOWN-FL
UNKNOWN-INTENT UNKNOWN-PROC UNKNOWN UNKNOWN 0 0 DIMENSION POINTER)
UNKNOWN-ACCESS (NULL (UNKNOWN 0 0 0 0 UNKNOWN ()) 0)) (227 'dspoly' (
DERIVED 226 0 0 0 DERIVED ()) (2 0 DEFERRED () () () ()) (UNKNOWN-FL
UNKNOWN-INTENT UNKNOWN-PROC UNKNOWN UNKNOWN 0 0 DIMENSION POINTER)
UNKNOWN-ACCESS (NULL (UNKNOWN 0 0 0 0 UNKNOWN ()) 0)) (228 'numbering' (
DERIVED 229 0 0 0 DERIVED ()) () (UNKNOWN-FL UNKNOWN-INTENT UNKNOWN-PROC
UNKNOWN UNKNOWN 0 0 POINTER) UNKNOWN-ACCESS (NULL (UNKNOWN 0 0 0 0
UNKNOWN ()) 0)) (230 'quadrature' (DERIVED 98 0 0 0 DERIVED ()) () (
UNKNOWN-FL UNKNOWN-INTENT UNKNOWN-PROC UNKNOWN UNKNOWN 0 0)
UNKNOWN-ACCESS (STRUCTURE (DERIVED 98 0 0 0 DERIVED ()) 0 ((() ()) (() ())
(() ()) (() ()) ((NULL (UNKNOWN 0 0 0 0 UNKNOWN ()) 0) ()) ((NULL (
UNKNOWN 0 0 0 0 UNKNOWN ()) 0) ()) (() ()) ((NULL (UNKNOWN 0 0 0 0
UNKNOWN ()) 0) ()) (() ())) ())) (231 'surface_quadrature' (DERIVED 98 0
0 0 DERIVED ()) () (UNKNOWN-FL UNKNOWN-INTENT UNKNOWN-PROC UNKNOWN
UNKNOWN 0 0 POINTER) UNKNOWN-ACCESS (NULL (UNKNOWN 0 0 0 0 UNKNOWN ()) 0))
(232 'superconvergence' (DERIVED 233 0 0 0 DERIVED ()) () (UNKNOWN-FL
UNKNOWN-INTENT UNKNOWN-PROC UNKNOWN UNKNOWN 0 0 POINTER) UNKNOWN-ACCESS
(NULL (UNKNOWN 0 0 0 0 UNKNOWN ()) 0)) (234 'constraints' (DERIVED 235 0
0 0 DERIVED ()) () (UNKNOWN-FL UNKNOWN-INTENT UNKNOWN-PROC UNKNOWN
UNKNOWN 0 0 POINTER) UNKNOWN-ACCESS (NULL (UNKNOWN 0 0 0 0 UNKNOWN ()) 0))
(236 'refcount' (DERIVED 100 0 0 0 DERIVED ()) () (UNKNOWN-FL
UNKNOWN-INTENT UNKNOWN-PROC UNKNOWN UNKNOWN 0 0 POINTER) UNKNOWN-ACCESS
(NULL (UNKNOWN 0 0 0 0 UNKNOWN ()) 0)) (237 'name' (CHARACTER 1 0 0 0
CHARACTER ((CONSTANT (INTEGER 4 0 0 0 INTEGER ()) 0 '0'))) () (
UNKNOWN-FL UNKNOWN-INTENT UNKNOWN-PROC UNKNOWN UNKNOWN 0 0)
UNKNOWN-ACCESS ())) PUBLIC (() () () ()) () 0 0 79461029)
98 'Quadrature_type' 'quadrature' '' 1 ((DERIVED UNKNOWN-INTENT
UNKNOWN-PROC UNKNOWN UNKNOWN 0 0 POINTER_COMP) (UNKNOWN 0 0 0 0 UNKNOWN
()) 0 0 () () 0 ((238 'dim' (INTEGER 4 0 0 0 INTEGER ()) () (UNKNOWN-FL
UNKNOWN-INTENT UNKNOWN-PROC UNKNOWN UNKNOWN 0 0) UNKNOWN-ACCESS ()) (
239 'degree' (INTEGER 4 0 0 0 INTEGER ()) () (UNKNOWN-FL UNKNOWN-INTENT
UNKNOWN-PROC UNKNOWN UNKNOWN 0 0) UNKNOWN-ACCESS ()) (240 'vertices' (
INTEGER 4 0 0 0 INTEGER ()) () (UNKNOWN-FL UNKNOWN-INTENT UNKNOWN-PROC
UNKNOWN UNKNOWN 0 0) UNKNOWN-ACCESS ()) (241 'ngi' (INTEGER 4 0 0 0
INTEGER ()) () (UNKNOWN-FL UNKNOWN-INTENT UNKNOWN-PROC UNKNOWN UNKNOWN 0
0) UNKNOWN-ACCESS ()) (242 'weight' (REAL 8 0 0 0 REAL ()) (1 0 DEFERRED
() ()) (UNKNOWN-FL UNKNOWN-INTENT UNKNOWN-PROC UNKNOWN UNKNOWN 0 0
DIMENSION POINTER) UNKNOWN-ACCESS (NULL (UNKNOWN 0 0 0 0 UNKNOWN ()) 0))
(243 'l' (REAL 8 0 0 0 REAL ()) (2 0 DEFERRED () () () ()) (UNKNOWN-FL
UNKNOWN-INTENT UNKNOWN-PROC UNKNOWN UNKNOWN 0 0 DIMENSION POINTER)
UNKNOWN-ACCESS (NULL (UNKNOWN 0 0 0 0 UNKNOWN ()) 0)) (244 'name' (
CHARACTER 1 0 0 0 CHARACTER ((CONSTANT (INTEGER 4 0 0 0 INTEGER ()) 0 '0')))
() (UNKNOWN-FL UNKNOWN-INTENT UNKNOWN-PROC UNKNOWN UNKNOWN 0 0)
UNKNOWN-ACCESS ()) (245 'refcount' (DERIVED 100 0 0 0 DERIVED ()) () (
UNKNOWN-FL UNKNOWN-INTENT UNKNOWN-PROC UNKNOWN UNKNOWN 0 0 POINTER)
UNKNOWN-ACCESS (NULL (UNKNOWN 0 0 0 0 UNKNOWN ()) 0)) (246 'family' (
INTEGER 4 0 0 0 INTEGER ()) () (UNKNOWN-FL UNKNOWN-INTENT UNKNOWN-PROC
UNKNOWN UNKNOWN 0 0) UNKNOWN-ACCESS ())) PUBLIC (() () () ()) () 0 0
59837722)
100 'Refcount_type' 'reference_counting' '' 1 ((DERIVED UNKNOWN-INTENT
UNKNOWN-PROC UNKNOWN UNKNOWN 0 0 POINTER_COMP) (UNKNOWN 0 0 0 0 UNKNOWN
()) 0 0 () () 0 ((247 'prev' (DERIVED 100 0 0 0 DERIVED ()) () (
UNKNOWN-FL UNKNOWN-INTENT UNKNOWN-PROC UNKNOWN UNKNOWN 0 0 POINTER)
UNKNOWN-ACCESS (NULL (UNKNOWN 0 0 0 0 UNKNOWN ()) 0)) (248 'next' (
DERIVED 100 0 0 0 DERIVED ()) () (UNKNOWN-FL UNKNOWN-INTENT UNKNOWN-PROC
UNKNOWN UNKNOWN 0 0 POINTER) UNKNOWN-ACCESS (NULL (UNKNOWN 0 0 0 0
UNKNOWN ()) 0)) (249 'count' (INTEGER 4 0 0 0 INTEGER ()) () (
UNKNOWN-FL UNKNOWN-INTENT UNKNOWN-PROC UNKNOWN UNKNOWN 0 0)
UNKNOWN-ACCESS (CONSTANT (INTEGER 4 0 0 0 INTEGER ()) 0 '0')) (250 'id'
(INTEGER 4 0 0 0 INTEGER ()) () (UNKNOWN-FL UNKNOWN-INTENT UNKNOWN-PROC
UNKNOWN UNKNOWN 0 0) UNKNOWN-ACCESS ()) (251 'name' (CHARACTER 1 0 0 0
CHARACTER ((CONSTANT (INTEGER 4 0 0 0 INTEGER ()) 0 '101'))) () (
UNKNOWN-FL UNKNOWN-INTENT UNKNOWN-PROC UNKNOWN UNKNOWN 0 0)
UNKNOWN-ACCESS ()) (252 'type' (CHARACTER 1 0 0 0 CHARACTER ((CONSTANT (
INTEGER 4 0 0 0 INTEGER ()) 0 '101'))) () (UNKNOWN-FL UNKNOWN-INTENT
UNKNOWN-PROC UNKNOWN UNKNOWN 0 0) UNKNOWN-ACCESS ()) (253 'tagged' (
LOGICAL 4 0 0 0 LOGICAL ()) () (UNKNOWN-FL UNKNOWN-INTENT UNKNOWN-PROC
UNKNOWN UNKNOWN 0 0) UNKNOWN-ACCESS (CONSTANT (LOGICAL 4 0 0 0 LOGICAL ())
0 0))) PUBLIC (() () () ()) () 0 0 25948645)
103 'Picker_ptr' 'picker_data_types' '' 1 ((DERIVED UNKNOWN-INTENT
UNKNOWN-PROC UNKNOWN UNKNOWN 0 0 POINTER_COMP) (UNKNOWN 0 0 0 0 UNKNOWN
()) 0 0 () () 0 ((254 'ptr' (DERIVED 255 0 0 0 DERIVED ()) () (
UNKNOWN-FL UNKNOWN-INTENT UNKNOWN-PROC UNKNOWN UNKNOWN 0 0 POINTER)
UNKNOWN-ACCESS (NULL (UNKNOWN 0 0 0 0 UNKNOWN ()) 0))) PUBLIC (() () ()
()) () 0 0 71120007)
118 'Scalar_boundary_conditions_ptr' 'fields_data_types' '' 1 ((DERIVED
UNKNOWN-INTENT UNKNOWN-PROC UNKNOWN UNKNOWN 0 0 POINTER_COMP) (UNKNOWN 0
0 0 0 UNKNOWN ()) 0 0 () () 0 ((256 'boundary_condition' (DERIVED 257 0
0 0 DERIVED ()) (1 0 DEFERRED () ()) (UNKNOWN-FL UNKNOWN-INTENT
UNKNOWN-PROC UNKNOWN UNKNOWN 0 0 DIMENSION POINTER) UNKNOWN-ACCESS (
NULL (UNKNOWN 0 0 0 0 UNKNOWN ()) 0))) PUBLIC (() () () ()) () 0 0
47502942)
141 'Mesh_faces' 'fields_data_types' '' 1 ((DERIVED UNKNOWN-INTENT
UNKNOWN-PROC UNKNOWN UNKNOWN 0 0 POINTER_COMP) (UNKNOWN 0 0 0 0 UNKNOWN
()) 0 0 () () 0 ((258 'shape' (DERIVED 97 0 0 0 DERIVED ()) () (
UNKNOWN-FL UNKNOWN-INTENT UNKNOWN-PROC UNKNOWN UNKNOWN 0 0 POINTER)
UNKNOWN-ACCESS ()) (259 'face_list' (DERIVED 81 0 0 0 DERIVED ()) () (
UNKNOWN-FL UNKNOWN-INTENT UNKNOWN-PROC UNKNOWN UNKNOWN 0 0)
UNKNOWN-ACCESS (STRUCTURE (DERIVED 81 0 0 0 DERIVED ()) 0 (((STRUCTURE (
DERIVED 79 0 0 0 DERIVED ()) 0 (((NULL (UNKNOWN 0 0 0 0 UNKNOWN ()) 0) ())
((NULL (UNKNOWN 0 0 0 0 UNKNOWN ()) 0) ()) ((NULL (UNKNOWN 0 0 0 0
UNKNOWN ()) 0) ()) (() ()) ((NULL (UNKNOWN 0 0 0 0 UNKNOWN ()) 0) ()) (
(NULL (UNKNOWN 0 0 0 0 UNKNOWN ()) 0) ()) ((NULL (UNKNOWN 0 0 0 0
UNKNOWN ()) 0) ()) ((CONSTANT (CHARACTER 1 0 0 0 CHARACTER (())) 0 101
'                                                                                                     ')
()) ((CONSTANT (LOGICAL 4 0 0 0 LOGICAL ()) 0 0) ()) ((CONSTANT (
LOGICAL 4 0 0 0 LOGICAL ()) 0 0) ())) ()) ()) ((NULL (UNKNOWN 0 0 0 0
UNKNOWN ()) 0) ()) ((NULL (UNKNOWN 0 0 0 0 UNKNOWN ()) 0) ()) ((
CONSTANT (LOGICAL 4 0 0 0 LOGICAL ()) 0 0) ()) ((CONSTANT (LOGICAL 4 0 0
0 LOGICAL ()) 0 0) ()) (() ()) ((NULL (UNKNOWN 0 0 0 0 UNKNOWN ()) 0) ())
((NULL (UNKNOWN 0 0 0 0 UNKNOWN ()) 0) ()) ((CONSTANT (CHARACTER 1 0 0 0
CHARACTER (())) 0 101
'                                                                                                     ')
())) ())) (260 'face_lno' (INTEGER 4 0 0 0 INTEGER ()) (1 0 DEFERRED ()
()) (UNKNOWN-FL UNKNOWN-INTENT UNKNOWN-PROC UNKNOWN UNKNOWN 0 0
DIMENSION POINTER) UNKNOWN-ACCESS ()) (261 'surface_mesh' (DERIVED 75 0
0 0 DERIVED ()) () (UNKNOWN-FL UNKNOWN-INTENT UNKNOWN-PROC UNKNOWN
UNKNOWN 0 0) UNKNOWN-ACCESS (STRUCTURE (DERIVED 75 0 0 0 DERIVED ()) 0 (
(() ()) ((CONSTANT (LOGICAL 4 0 0 0 LOGICAL ()) 0 1) ()) ((STRUCTURE (
DERIVED 97 0 0 0 DERIVED ()) 0 ((() ()) (() ()) (() ()) (() ()) ((NULL (
UNKNOWN 0 0 0 0 UNKNOWN ()) 0) ()) ((NULL (UNKNOWN 0 0 0 0 UNKNOWN ()) 0)
()) ((NULL (UNKNOWN 0 0 0 0 UNKNOWN ()) 0) ()) ((NULL (UNKNOWN 0 0 0 0
UNKNOWN ()) 0) ()) ((NULL (UNKNOWN 0 0 0 0 UNKNOWN ()) 0) ()) ((NULL (
UNKNOWN 0 0 0 0 UNKNOWN ()) 0) ()) ((NULL (UNKNOWN 0 0 0 0 UNKNOWN ()) 0)
()) ((STRUCTURE (DERIVED 98 0 0 0 DERIVED ()) 0 ((() ()) (() ()) (() ())
(() ()) ((NULL (UNKNOWN 0 0 0 0 UNKNOWN ()) 0) ()) ((NULL (UNKNOWN 0 0 0
0 UNKNOWN ()) 0) ()) (() ()) ((NULL (UNKNOWN 0 0 0 0 UNKNOWN ()) 0) ())
(() ())) ()) ()) ((NULL (UNKNOWN 0 0 0 0 UNKNOWN ()) 0) ()) ((NULL (
UNKNOWN 0 0 0 0 UNKNOWN ()) 0) ()) ((NULL (UNKNOWN 0 0 0 0 UNKNOWN ()) 0)
()) ((NULL (UNKNOWN 0 0 0 0 UNKNOWN ()) 0) ()) (() ())) ()) ()) (() ())
(() ()) (() ()) (() ()) ((CONSTANT (INTEGER 4 0 0 0 INTEGER ()) 0 '0') ())
((NULL (UNKNOWN 0 0 0 0 UNKNOWN ()) 0) ()) ((NULL (UNKNOWN 0 0 0 0
UNKNOWN ()) 0) ()) ((NULL (UNKNOWN 0 0 0 0 UNKNOWN ()) 0) ()) ((NULL (
UNKNOWN 0 0 0 0 UNKNOWN ()) 0) ()) ((NULL (UNKNOWN 0 0 0 0 UNKNOWN ()) 0)
()) ((NULL (UNKNOWN 0 0 0 0 UNKNOWN ()) 0) ()) ((NULL (UNKNOWN 0 0 0 0
UNKNOWN ()) 0) ()) ((NULL (UNKNOWN 0 0 0 0 UNKNOWN ()) 0) ()) ((NULL (
UNKNOWN 0 0 0 0 UNKNOWN ()) 0) ()) ((NULL (UNKNOWN 0 0 0 0 UNKNOWN ()) 0)
()) ((CONSTANT (LOGICAL 4 0 0 0 LOGICAL ()) 0 0) ())) ())) (262
'surface_node_list' (INTEGER 4 0 0 0 INTEGER ()) (1 0 DEFERRED () ()) (
UNKNOWN-FL UNKNOWN-INTENT UNKNOWN-PROC UNKNOWN UNKNOWN 0 0 DIMENSION
POINTER) UNKNOWN-ACCESS ()) (263 'face_element_list' (INTEGER 4 0 0 0
INTEGER ()) (1 0 DEFERRED () ()) (UNKNOWN-FL UNKNOWN-INTENT UNKNOWN-PROC
UNKNOWN UNKNOWN 0 0 DIMENSION POINTER) UNKNOWN-ACCESS ()) (264
'boundary_ids' (INTEGER 4 0 0 0 INTEGER ()) (1 0 DEFERRED () ()) (
UNKNOWN-FL UNKNOWN-INTENT UNKNOWN-PROC UNKNOWN UNKNOWN 0 0 DIMENSION
POINTER) UNKNOWN-ACCESS ()) (265 'coplanar_ids' (INTEGER 4 0 0 0 INTEGER
()) (1 0 DEFERRED () ()) (UNKNOWN-FL UNKNOWN-INTENT UNKNOWN-PROC UNKNOWN
UNKNOWN 0 0 DIMENSION POINTER) UNKNOWN-ACCESS (NULL (UNKNOWN 0 0 0 0
UNKNOWN ()) 0)) (266 'dg_surface_mesh' (DERIVED 75 0 0 0 DERIVED ()) ()
(UNKNOWN-FL UNKNOWN-INTENT UNKNOWN-PROC UNKNOWN UNKNOWN 0 0 POINTER)
UNKNOWN-ACCESS (NULL (UNKNOWN 0 0 0 0 UNKNOWN ()) 0)) (267
'has_discontinuous_internal_boundaries' (LOGICAL 4 0 0 0 LOGICAL ()) ()
(UNKNOWN-FL UNKNOWN-INTENT UNKNOWN-PROC UNKNOWN UNKNOWN 0 0)
UNKNOWN-ACCESS (CONSTANT (LOGICAL 4 0 0 0 LOGICAL ()) 0 0)) (268
'unique_surface_element_count' (INTEGER 4 0 0 0 INTEGER ()) () (
UNKNOWN-FL UNKNOWN-INTENT UNKNOWN-PROC UNKNOWN UNKNOWN 0 0)
UNKNOWN-ACCESS ())) PUBLIC (() () () ()) () 0 0 11936185)
143 'Mesh_subdomain_mesh' 'fields_data_types' '' 1 ((DERIVED
UNKNOWN-INTENT UNKNOWN-PROC UNKNOWN UNKNOWN 0 0 POINTER_COMP) (UNKNOWN 0
0 0 0 UNKNOWN ()) 0 0 () () 0 ((269 'element_list' (INTEGER 4 0 0 0
INTEGER ()) (1 0 DEFERRED () ()) (UNKNOWN-FL UNKNOWN-INTENT UNKNOWN-PROC
UNKNOWN UNKNOWN 0 0 DIMENSION POINTER) UNKNOWN-ACCESS ()) (270 'node_list'
(INTEGER 4 0 0 0 INTEGER ()) (1 0 DEFERRED () ()) (UNKNOWN-FL
UNKNOWN-INTENT UNKNOWN-PROC UNKNOWN UNKNOWN 0 0 DIMENSION POINTER)
UNKNOWN-ACCESS ())) PUBLIC (() () () ()) () 0 0 85302181)
145 'Adjacency_cache' 'fields_data_types' '' 1 ((DERIVED UNKNOWN-INTENT
UNKNOWN-PROC UNKNOWN UNKNOWN 0 0 POINTER_COMP) (UNKNOWN 0 0 0 0 UNKNOWN
()) 0 0 () () 0 ((271 'nnlist' (DERIVED 79 0 0 0 DERIVED ()) () (
UNKNOWN-FL UNKNOWN-INTENT UNKNOWN-PROC UNKNOWN UNKNOWN 0 0 POINTER)
UNKNOWN-ACCESS (NULL (UNKNOWN 0 0 0 0 UNKNOWN ()) 0)) (272 'nelist' (
DERIVED 79 0 0 0 DERIVED ()) () (UNKNOWN-FL UNKNOWN-INTENT UNKNOWN-PROC
UNKNOWN UNKNOWN 0 0 POINTER) UNKNOWN-ACCESS (NULL (UNKNOWN 0 0 0 0
UNKNOWN ()) 0)) (273 'eelist' (DERIVED 79 0 0 0 DERIVED ()) () (
UNKNOWN-FL UNKNOWN-INTENT UNKNOWN-PROC UNKNOWN UNKNOWN 0 0 POINTER)
UNKNOWN-ACCESS (NULL (UNKNOWN 0 0 0 0 UNKNOWN ()) 0))) PUBLIC (() () ()
()) () 0 0 37419158)
152 'Integer_set_vector' 'integer_set_module' '' 1 ((DERIVED
UNKNOWN-INTENT UNKNOWN-PROC UNKNOWN UNKNOWN 0 0 POINTER_COMP) (UNKNOWN 0
0 0 0 UNKNOWN ()) 0 0 () () 0 ((274 'sets' (DERIVED 275 0 0 0 DERIVED ())
(1 0 DEFERRED () ()) (UNKNOWN-FL UNKNOWN-INTENT UNKNOWN-PROC UNKNOWN
UNKNOWN 0 0 DIMENSION POINTER) UNKNOWN-ACCESS ())) PUBLIC (() () () ())
() 0 0 40688950)
161 'Integer_vector' 'futils' '' 1 ((DERIVED UNKNOWN-INTENT UNKNOWN-PROC
UNKNOWN UNKNOWN 0 0 POINTER_COMP) (UNKNOWN 0 0 0 0 UNKNOWN ()) 0 0 () ()
0 ((276 'ptr' (INTEGER 4 0 0 0 INTEGER ()) (1 0 DEFERRED () ()) (
UNKNOWN-FL UNKNOWN-INTENT UNKNOWN-PROC UNKNOWN UNKNOWN 0 0 DIMENSION
POINTER) UNKNOWN-ACCESS ())) PUBLIC (() () () ()) () 0 0 9661976)
186 'Logical_array_ptr' 'sparse_tools' '' 1 ((DERIVED UNKNOWN-INTENT
UNKNOWN-PROC UNKNOWN UNKNOWN 0 0 POINTER_COMP) (UNKNOWN 0 0 0 0 UNKNOWN
()) 0 0 () () 0 ((277 'ptr' (LOGICAL 4 0 0 0 LOGICAL ()) (1 0 DEFERRED ()
()) (UNKNOWN-FL UNKNOWN-INTENT UNKNOWN-PROC UNKNOWN UNKNOWN 0 0
DIMENSION POINTER) UNKNOWN-ACCESS (NULL (UNKNOWN 0 0 0 0 UNKNOWN ()) 0)))
PUBLIC (() () () ()) () 0 0 30974511)
192 'Real_vector' 'futils' '' 1 ((DERIVED UNKNOWN-INTENT UNKNOWN-PROC
UNKNOWN UNKNOWN 0 0 POINTER_COMP) (UNKNOWN 0 0 0 0 UNKNOWN ()) 0 0 () ()
0 ((278 'ptr' (REAL 8 0 0 0 REAL ()) (1 0 DEFERRED () ()) (UNKNOWN-FL
UNKNOWN-INTENT UNKNOWN-PROC UNKNOWN UNKNOWN 0 0 DIMENSION POINTER)
UNKNOWN-ACCESS ())) PUBLIC (() () () ()) () 0 0 72870256)
206 'Petsc_numbering_type' 'petsc_tools' '' 1 ((DERIVED UNKNOWN-INTENT
UNKNOWN-PROC UNKNOWN UNKNOWN 0 0 POINTER_COMP) (UNKNOWN 0 0 0 0 UNKNOWN
()) 0 0 () () 0 ((279 'halo' (DERIVED 77 0 0 0 DERIVED ()) () (
UNKNOWN-FL UNKNOWN-INTENT UNKNOWN-PROC UNKNOWN UNKNOWN 0 0 POINTER)
UNKNOWN-ACCESS (NULL (UNKNOWN 0 0 0 0 UNKNOWN ()) 0)) (280 'nprivatenodes'
(INTEGER 4 0 0 0 INTEGER ()) () (UNKNOWN-FL UNKNOWN-INTENT UNKNOWN-PROC
UNKNOWN UNKNOWN 0 0) UNKNOWN-ACCESS ()) (281 'universal_length' (
INTEGER 4 0 0 0 INTEGER ()) () (UNKNOWN-FL UNKNOWN-INTENT UNKNOWN-PROC
UNKNOWN UNKNOWN 0 0) UNKNOWN-ACCESS ()) (282 'offset' (INTEGER 4 0 0 0
INTEGER ()) () (UNKNOWN-FL UNKNOWN-INTENT UNKNOWN-PROC UNKNOWN UNKNOWN 0
0) UNKNOWN-ACCESS ()) (283 'gnn2unn' (INTEGER 4 0 0 0 INTEGER ()) (2 0
DEFERRED () () () ()) (UNKNOWN-FL UNKNOWN-INTENT UNKNOWN-PROC UNKNOWN
UNKNOWN 0 0 DIMENSION POINTER) UNKNOWN-ACCESS ()) (284 'ghost_nodes' (
INTEGER 4 0 0 0 INTEGER ()) (1 0 DEFERRED () ()) (UNKNOWN-FL
UNKNOWN-INTENT UNKNOWN-PROC UNKNOWN UNKNOWN 0 0 DIMENSION POINTER)
UNKNOWN-ACCESS (NULL (UNKNOWN 0 0 0 0 UNKNOWN ()) 0)) (285 'ghost2unn' (
INTEGER 4 0 0 0 INTEGER ()) (2 0 DEFERRED () () () ()) (UNKNOWN-FL
UNKNOWN-INTENT UNKNOWN-PROC UNKNOWN UNKNOWN 0 0 DIMENSION POINTER)
UNKNOWN-ACCESS (NULL (UNKNOWN 0 0 0 0 UNKNOWN ()) 0)) (286 'refcount' (
DERIVED 100 0 0 0 DERIVED ()) () (UNKNOWN-FL UNKNOWN-INTENT UNKNOWN-PROC
UNKNOWN UNKNOWN 0 0 POINTER) UNKNOWN-ACCESS (NULL (UNKNOWN 0 0 0 0
UNKNOWN ()) 0)) (287 'name' (CHARACTER 1 0 0 0 CHARACTER ((CONSTANT (
INTEGER 4 0 0 0 INTEGER ()) 0 '101'))) () (UNKNOWN-FL UNKNOWN-INTENT
UNKNOWN-PROC UNKNOWN UNKNOWN 0 0) UNKNOWN-ACCESS (CONSTANT (CHARACTER 1
0 0 0 CHARACTER (())) 0 101
'                                                                                                     ')))
PUBLIC (() () () ()) () 0 0 16529124)
214 'Linked_list' 'scalar_field_dictionary' '' 1 ((DERIVED
UNKNOWN-INTENT UNKNOWN-PROC UNKNOWN UNKNOWN 0 0 POINTER_COMP) (UNKNOWN 0
0 0 0 UNKNOWN ()) 0 0 () () 0 ((288 'next' (DERIVED 214 0 0 0 DERIVED ())
() (UNKNOWN-FL UNKNOWN-INTENT UNKNOWN-PROC UNKNOWN UNKNOWN 0 0 POINTER)
UNKNOWN-ACCESS ()) (289 'data' (DERIVED 290 0 0 0 DERIVED ()) () (
UNKNOWN-FL UNKNOWN-INTENT UNKNOWN-PROC UNKNOWN UNKNOWN 0 0)
UNKNOWN-ACCESS (STRUCTURE (DERIVED 290 0 0 0 DERIVED ()) 0 ((() ()) ((
STRUCTURE (DERIVED 53 0 0 0 DERIVED ()) 0 (((NULL (UNKNOWN 0 0 0 0
UNKNOWN ()) 0) ())) ()) ())) ()))) PUBLIC (() () () ()) () 0 0 27933139)
216 'Vector_boundary_condition' 'fields_data_types' '' 1 ((DERIVED
UNKNOWN-INTENT UNKNOWN-PROC UNKNOWN UNKNOWN 0 0 POINTER_COMP) (UNKNOWN 0
0 0 0 UNKNOWN ()) 0 0 () () 0 ((291 'name' (CHARACTER 1 0 0 0 CHARACTER
((CONSTANT (INTEGER 4 0 0 0 INTEGER ()) 0 '101'))) () (UNKNOWN-FL
UNKNOWN-INTENT UNKNOWN-PROC UNKNOWN UNKNOWN 0 0) UNKNOWN-ACCESS ()) (
292 'type' (CHARACTER 1 0 0 0 CHARACTER ((CONSTANT (INTEGER 4 0 0 0
INTEGER ()) 0 '101'))) () (UNKNOWN-FL UNKNOWN-INTENT UNKNOWN-PROC
UNKNOWN UNKNOWN 0 0) UNKNOWN-ACCESS (CONSTANT (CHARACTER 1 0 0 0
CHARACTER (())) 0 101
'                                                                                                     '))
(293 'applies' (LOGICAL 4 0 0 0 LOGICAL ()) (1 0 EXPLICIT (CONSTANT (
INTEGER 4 0 0 0 INTEGER ()) 0 '1') (CONSTANT (INTEGER 4 0 0 0 INTEGER ())
0 '3')) (UNKNOWN-FL UNKNOWN-INTENT UNKNOWN-PROC UNKNOWN UNKNOWN 0 0
DIMENSION) UNKNOWN-ACCESS ()) (294 'surface_element_list' (INTEGER 4 0 0
0 INTEGER ()) (1 0 DEFERRED () ()) (UNKNOWN-FL UNKNOWN-INTENT
UNKNOWN-PROC UNKNOWN UNKNOWN 0 0 DIMENSION POINTER) UNKNOWN-ACCESS (
NULL (UNKNOWN 0 0 0 0 UNKNOWN ()) 0)) (295 'surface_node_list' (INTEGER
4 0 0 0 INTEGER ()) (1 0 DEFERRED () ()) (UNKNOWN-FL UNKNOWN-INTENT
UNKNOWN-PROC UNKNOWN UNKNOWN 0 0 DIMENSION POINTER) UNKNOWN-ACCESS (
NULL (UNKNOWN 0 0 0 0 UNKNOWN ()) 0)) (296 'surface_mesh' (DERIVED 75 0
0 0 DERIVED ()) () (UNKNOWN-FL UNKNOWN-INTENT UNKNOWN-PROC UNKNOWN
UNKNOWN 0 0 POINTER) UNKNOWN-ACCESS ()) (297 'surface_fields' (DERIVED
69 0 0 0 DERIVED ()) (1 0 DEFERRED () ()) (UNKNOWN-FL UNKNOWN-INTENT
UNKNOWN-PROC UNKNOWN UNKNOWN 0 0 DIMENSION POINTER) UNKNOWN-ACCESS (
NULL (UNKNOWN 0 0 0 0 UNKNOWN ()) 0)) (298 'scalar_surface_fields' (
DERIVED 73 0 0 0 DERIVED ()) (1 0 DEFERRED () ()) (UNKNOWN-FL
UNKNOWN-INTENT UNKNOWN-PROC UNKNOWN UNKNOWN 0 0 DIMENSION POINTER)
UNKNOWN-ACCESS (NULL (UNKNOWN 0 0 0 0 UNKNOWN ()) 0)) (299 'option_path'
(CHARACTER 1 0 0 0 CHARACTER ((CONSTANT (INTEGER 4 0 0 0 INTEGER ()) 0
'8192'))) () (UNKNOWN-FL UNKNOWN-INTENT UNKNOWN-PROC UNKNOWN UNKNOWN 0 0)
UNKNOWN-ACCESS ())) PUBLIC (() () () ()) () 0 0 42205165)
226 'Polynomial' 'polynomials' '' 1 ((DERIVED UNKNOWN-INTENT
UNKNOWN-PROC UNKNOWN UNKNOWN 0 0 POINTER_COMP) (UNKNOWN 0 0 0 0 UNKNOWN
()) 0 0 () () 0 ((300 'coefs' (REAL 8 0 0 0 REAL ()) (1 0 DEFERRED () ())
(UNKNOWN-FL UNKNOWN-INTENT UNKNOWN-PROC UNKNOWN UNKNOWN 0 0 DIMENSION
POINTER) UNKNOWN-ACCESS (NULL (UNKNOWN 0 0 0 0 UNKNOWN ()) 0)) (301
'degree' (INTEGER 4 0 0 0 INTEGER ()) () (UNKNOWN-FL UNKNOWN-INTENT
UNKNOWN-PROC UNKNOWN UNKNOWN 0 0) UNKNOWN-ACCESS (CONSTANT (INTEGER 4 0
0 0 INTEGER ()) 0 '-1'))) PUBLIC (() () () ()) () 0 0 87989236)
229 'Ele_numbering_type' 'element_numbering' '' 1 ((DERIVED
UNKNOWN-INTENT UNKNOWN-PROC UNKNOWN UNKNOWN 0 0 POINTER_COMP) (UNKNOWN 0
0 0 0 UNKNOWN ()) 0 0 () () 0 ((302 'faces' (INTEGER 4 0 0 0 INTEGER ())
() (UNKNOWN-FL UNKNOWN-INTENT UNKNOWN-PROC UNKNOWN UNKNOWN 0 0)
UNKNOWN-ACCESS ()) (303 'vertices' (INTEGER 4 0 0 0 INTEGER ()) () (
UNKNOWN-FL UNKNOWN-INTENT UNKNOWN-PROC UNKNOWN UNKNOWN 0 0)
UNKNOWN-ACCESS ()) (304 'edges' (INTEGER 4 0 0 0 INTEGER ()) () (
UNKNOWN-FL UNKNOWN-INTENT UNKNOWN-PROC UNKNOWN UNKNOWN 0 0)
UNKNOWN-ACCESS ()) (305 'boundaries' (INTEGER 4 0 0 0 INTEGER ()) () (
UNKNOWN-FL UNKNOWN-INTENT UNKNOWN-PROC UNKNOWN UNKNOWN 0 0)
UNKNOWN-ACCESS ()) (306 'degree' (INTEGER 4 0 0 0 INTEGER ()) () (
UNKNOWN-FL UNKNOWN-INTENT UNKNOWN-PROC UNKNOWN UNKNOWN 0 0)
UNKNOWN-ACCESS ()) (307 'dimension' (INTEGER 4 0 0 0 INTEGER ()) () (
UNKNOWN-FL UNKNOWN-INTENT UNKNOWN-PROC UNKNOWN UNKNOWN 0 0)
UNKNOWN-ACCESS ()) (308 'nodes' (INTEGER 4 0 0 0 INTEGER ()) () (
UNKNOWN-FL UNKNOWN-INTENT UNKNOWN-PROC UNKNOWN UNKNOWN 0 0)
UNKNOWN-ACCESS ()) (309 'type' (INTEGER 4 0 0 0 INTEGER ()) () (
UNKNOWN-FL UNKNOWN-INTENT UNKNOWN-PROC UNKNOWN UNKNOWN 0 0)
UNKNOWN-ACCESS (CONSTANT (INTEGER 4 0 0 0 INTEGER ()) 0 '1')) (310
'family' (INTEGER 4 0 0 0 INTEGER ()) () (UNKNOWN-FL UNKNOWN-INTENT
UNKNOWN-PROC UNKNOWN UNKNOWN 0 0) UNKNOWN-ACCESS ()) (311 'count2number'
(INTEGER 4 0 0 0 INTEGER ()) (3 0 DEFERRED () () () () () ()) (
UNKNOWN-FL UNKNOWN-INTENT UNKNOWN-PROC UNKNOWN UNKNOWN 0 0 DIMENSION
POINTER) UNKNOWN-ACCESS ()) (312 'number2count' (INTEGER 4 0 0 0 INTEGER
()) (2 0 DEFERRED () () () ()) (UNKNOWN-FL UNKNOWN-INTENT UNKNOWN-PROC
UNKNOWN UNKNOWN 0 0 DIMENSION POINTER) UNKNOWN-ACCESS ()) (313
'boundary_coord' (INTEGER 4 0 0 0 INTEGER ()) (1 0 DEFERRED () ()) (
UNKNOWN-FL UNKNOWN-INTENT UNKNOWN-PROC UNKNOWN UNKNOWN 0 0 DIMENSION
POINTER) UNKNOWN-ACCESS ()) (314 'boundary_val' (INTEGER 4 0 0 0 INTEGER
()) (1 0 DEFERRED () ()) (UNKNOWN-FL UNKNOWN-INTENT UNKNOWN-PROC UNKNOWN
UNKNOWN 0 0 DIMENSION POINTER) UNKNOWN-ACCESS ())) PUBLIC (() () () ())
() 0 0 96431082)
233 'Superconvergence_type' 'elements' '' 1 ((DERIVED UNKNOWN-INTENT
UNKNOWN-PROC UNKNOWN UNKNOWN 0 0 POINTER_COMP) (UNKNOWN 0 0 0 0 UNKNOWN
()) 0 0 () () 0 ((315 'nsp' (INTEGER 4 0 0 0 INTEGER ()) () (UNKNOWN-FL
UNKNOWN-INTENT UNKNOWN-PROC UNKNOWN UNKNOWN 0 0) UNKNOWN-ACCESS ()) (
316 'l' (REAL 8 0 0 0 REAL ()) (2 0 DEFERRED () () () ()) (UNKNOWN-FL
UNKNOWN-INTENT UNKNOWN-PROC UNKNOWN UNKNOWN 0 0 DIMENSION POINTER)
UNKNOWN-ACCESS ()) (317 'n' (REAL 8 0 0 0 REAL ()) (2 0 DEFERRED () () ()
()) (UNKNOWN-FL UNKNOWN-INTENT UNKNOWN-PROC UNKNOWN UNKNOWN 0 0
DIMENSION POINTER) UNKNOWN-ACCESS ()) (318 'dn' (REAL 8 0 0 0 REAL ()) (
3 0 DEFERRED () () () () () ()) (UNKNOWN-FL UNKNOWN-INTENT UNKNOWN-PROC
UNKNOWN UNKNOWN 0 0 DIMENSION POINTER) UNKNOWN-ACCESS ())) PUBLIC (() ()
() ()) () 0 0 18282395)
235 'Constraints_type' 'elements' '' 1 ((DERIVED UNKNOWN-INTENT
UNKNOWN-PROC UNKNOWN UNKNOWN 0 0 POINTER_COMP) (UNKNOWN 0 0 0 0 UNKNOWN
()) 0 0 () () 0 ((319 'type' (INTEGER 4 0 0 0 INTEGER ()) () (
UNKNOWN-FL UNKNOWN-INTENT UNKNOWN-PROC UNKNOWN UNKNOWN 0 0)
UNKNOWN-ACCESS ()) (320 'dim' (INTEGER 4 0 0 0 INTEGER ()) () (
UNKNOWN-FL UNKNOWN-INTENT UNKNOWN-PROC UNKNOWN UNKNOWN 0 0)
UNKNOWN-ACCESS ()) (321 'degree' (INTEGER 4 0 0 0 INTEGER ()) () (
UNKNOWN-FL UNKNOWN-INTENT UNKNOWN-PROC UNKNOWN UNKNOWN 0 0)
UNKNOWN-ACCESS ()) (322 'loc' (INTEGER 4 0 0 0 INTEGER ()) () (
UNKNOWN-FL UNKNOWN-INTENT UNKNOWN-PROC UNKNOWN UNKNOWN 0 0)
UNKNOWN-ACCESS ()) (323 'n_constraints' (INTEGER 4 0 0 0 INTEGER ()) ()
(UNKNOWN-FL UNKNOWN-INTENT UNKNOWN-PROC UNKNOWN UNKNOWN 0 0)
UNKNOWN-ACCESS ()) (324 'orthogonal' (REAL 8 0 0 0 REAL ()) (3 0
DEFERRED () () () () () ()) (UNKNOWN-FL UNKNOWN-INTENT UNKNOWN-PROC
UNKNOWN UNKNOWN 0 0 DIMENSION POINTER) UNKNOWN-ACCESS (NULL (UNKNOWN 0 0
0 0 UNKNOWN ()) 0))) PUBLIC (() () () ()) () 0 0 57548971)
255 'Picker_type' 'picker_data_types' '' 1 ((DERIVED UNKNOWN-INTENT
UNKNOWN-PROC UNKNOWN UNKNOWN 0 0 POINTER_COMP) (UNKNOWN 0 0 0 0 UNKNOWN
()) 0 0 () () 0 ((325 'name' (CHARACTER 1 0 0 0 CHARACTER ((CONSTANT (
INTEGER 4 0 0 0 INTEGER ()) 0 '101'))) () (UNKNOWN-FL UNKNOWN-INTENT
UNKNOWN-PROC UNKNOWN UNKNOWN 0 0) UNKNOWN-ACCESS ()) (326 'refcount' (
DERIVED 100 0 0 0 DERIVED ()) () (UNKNOWN-FL UNKNOWN-INTENT UNKNOWN-PROC
UNKNOWN UNKNOWN 0 0 POINTER) UNKNOWN-ACCESS (NULL (UNKNOWN 0 0 0 0
UNKNOWN ()) 0)) (327 'picker_id' (INTEGER 4 0 0 0 INTEGER ()) () (
UNKNOWN-FL UNKNOWN-INTENT UNKNOWN-PROC UNKNOWN UNKNOWN 0 0)
UNKNOWN-ACCESS (CONSTANT (INTEGER 4 0 0 0 INTEGER ()) 0 '0')) (328
'last_mesh_movement' (INTEGER 4 0 0 0 INTEGER ()) () (UNKNOWN-FL
UNKNOWN-INTENT UNKNOWN-PROC UNKNOWN UNKNOWN 0 0) UNKNOWN-ACCESS (
CONSTANT (INTEGER 4 0 0 0 INTEGER ()) 0 '0'))) PUBLIC (() () () ()) () 0
0 8821665)
257 'Scalar_boundary_condition' 'fields_data_types' '' 1 ((DERIVED
UNKNOWN-INTENT UNKNOWN-PROC UNKNOWN UNKNOWN 0 0 POINTER_COMP) (UNKNOWN 0
0 0 0 UNKNOWN ()) 0 0 () () 0 ((329 'name' (CHARACTER 1 0 0 0 CHARACTER
((CONSTANT (INTEGER 4 0 0 0 INTEGER ()) 0 '101'))) () (UNKNOWN-FL
UNKNOWN-INTENT UNKNOWN-PROC UNKNOWN UNKNOWN 0 0) UNKNOWN-ACCESS ()) (
330 'type' (CHARACTER 1 0 0 0 CHARACTER ((CONSTANT (INTEGER 4 0 0 0
INTEGER ()) 0 '101'))) () (UNKNOWN-FL UNKNOWN-INTENT UNKNOWN-PROC
UNKNOWN UNKNOWN 0 0) UNKNOWN-ACCESS (CONSTANT (CHARACTER 1 0 0 0
CHARACTER (())) 0 101
'                                                                                                     '))
(331 'surface_element_list' (INTEGER 4 0 0 0 INTEGER ()) (1 0 DEFERRED ()
()) (UNKNOWN-FL UNKNOWN-INTENT UNKNOWN-PROC UNKNOWN UNKNOWN 0 0
DIMENSION POINTER) UNKNOWN-ACCESS (NULL (UNKNOWN 0 0 0 0 UNKNOWN ()) 0))
(332 'surface_node_list' (INTEGER 4 0 0 0 INTEGER ()) (1 0 DEFERRED () ())
(UNKNOWN-FL UNKNOWN-INTENT UNKNOWN-PROC UNKNOWN UNKNOWN 0 0 DIMENSION
POINTER) UNKNOWN-ACCESS (NULL (UNKNOWN 0 0 0 0 UNKNOWN ()) 0)) (333
'surface_mesh' (DERIVED 75 0 0 0 DERIVED ()) () (UNKNOWN-FL
UNKNOWN-INTENT UNKNOWN-PROC UNKNOWN UNKNOWN 0 0 POINTER) UNKNOWN-ACCESS
()) (334 'surface_fields' (DERIVED 73 0 0 0 DERIVED ()) (1 0 DEFERRED ()
()) (UNKNOWN-FL UNKNOWN-INTENT UNKNOWN-PROC UNKNOWN UNKNOWN 0 0
DIMENSION POINTER) UNKNOWN-ACCESS (NULL (UNKNOWN 0 0 0 0 UNKNOWN ()) 0))
(335 'option_path' (CHARACTER 1 0 0 0 CHARACTER ((CONSTANT (INTEGER 4 0
0 0 INTEGER ()) 0 '8192'))) () (UNKNOWN-FL UNKNOWN-INTENT UNKNOWN-PROC
UNKNOWN UNKNOWN 0 0) UNKNOWN-ACCESS ())) PUBLIC (() () () ()) () 0 0
50740068)
275 'Integer_set' 'integer_set_module' '' 1 ((DERIVED UNKNOWN-INTENT
UNKNOWN-PROC UNKNOWN UNKNOWN 0 0) (UNKNOWN 0 0 0 0 UNKNOWN ()) 0 0 () ()
0 ((336 'address' (DERIVED 337 0 0 0 DERIVED ()) () (UNKNOWN-FL
UNKNOWN-INTENT UNKNOWN-PROC UNKNOWN UNKNOWN 0 0) UNKNOWN-ACCESS ()))
PUBLIC (() () () ()) () 0 0 67217964)
290 'List_data' 'scalar_field_dictionary' '' 1 ((DERIVED UNKNOWN-INTENT
UNKNOWN-PROC UNKNOWN UNKNOWN 0 0 POINTER_COMP) (UNKNOWN 0 0 0 0 UNKNOWN
()) 0 0 () () 0 ((338 'key' (CHARACTER 1 0 0 0 CHARACTER ((CONSTANT (
INTEGER 4 0 0 0 INTEGER ()) 0 '101'))) () (UNKNOWN-FL UNKNOWN-INTENT
UNKNOWN-PROC UNKNOWN UNKNOWN 0 0) UNKNOWN-ACCESS ()) (339 'value' (
DERIVED 53 0 0 0 DERIVED ()) () (UNKNOWN-FL UNKNOWN-INTENT UNKNOWN-PROC
UNKNOWN UNKNOWN 0 0) UNKNOWN-ACCESS (STRUCTURE (DERIVED 53 0 0 0 DERIVED
()) 0 (((NULL (UNKNOWN 0 0 0 0 UNKNOWN ()) 0) ())) ()))) PUBLIC (() () ()
()) () 0 0 22193082)
337 'C_ptr' '__iso_c_binding' '' 1 ((DERIVED UNKNOWN-INTENT UNKNOWN-PROC
UNKNOWN UNKNOWN 0 0 IS_BIND_C IS_C_INTEROP IS_ISO_C) (DERIVED 337 0 1 1
UNKNOWN ()) 0 0 () () 0 ((340 '__c_ptr_c_address' (INTEGER 8 0 1 0
INTEGER ()) () (UNKNOWN-FL UNKNOWN-INTENT UNKNOWN-PROC UNKNOWN UNKNOWN 0
0) UNKNOWN-ACCESS ())) UNKNOWN-ACCESS () () 2 42 0)
)

('do_write_state' 0 18 'initialise_write_state' 0 23
'vtk_write_state_new_options' 0 24 'write_state' 0 30
'write_state_module_check_options' 0 35)
